{
    "settings": [
        {
            "title": "Stammedata",
            "subTitle": "Del posisjon av hogstaggregat når treet felles",
            "id": "StemType:StemCoordinates",
            "defaultValue": {
                "boolValue": false
            }
        },
        {
            "title": "Tvangskapp",
            "subTitle": "Del tvangskapp og årsak til dette",
            "id": "CuttingCategoryType:CuttingReason",
            "defaultValue": {
                "boolValue": false
            }
        }
    ],
    "customConfigObjects": {
        "usersNotRequiredToSignWorkOrder": [
            "kristoffer@feltgis.no",
            "alte@feltgis.no",
            "info@feltgis.no"
        ]
    },
    "enabledfeatures": [
        "prodForw",
        "attachments",
        "keyFigures",
        "removeFromList",
        "map",
        "prepareOffline",
        "deviations",
        "measuringtickets"
    ],
    "map": {
        "addFeatures": [
            {
                "collection": "FTContractorPoint",
                "displayname": "Private entreprenørdata"
            },
            {
                "collection": "FTRegistreringerPunkt",
                "displayname": "Registreringer punkt"
            },
            {
                "collection": "FTRegistreringerLinjer",
                "displayname": "Registreringer linjer"
            },
            {
                "collection": "FTRegistreringerFlater",
                "displayname": "Registreringer flater"
            }
        ],
        "background": [
            {
                "name": "Foto",
                "type": "raster",
                "url": "http://services.geodataonline.no/arcgis/rest/services/Geocache_UTM33_EUREF89/GeocacheBilder/MapServer"
            },
            {
                "hidden": true,
                "name": "Kart",
                "type": "raster",
                "url": "http://services.geodataonline.no/arcgis/rest/services/Geocache_UTM33_EUREF89/GeocacheBasis/MapServer"
            }
        ],
        "editFeatures": [
            {
                "collection": "FTContractorPoint",
                "deleteMode": "authoredOnly",
                "editMode": "everybody",
                "geometryEditing": "authoredOnly"
            },
            {
                "collection": "FTRegistreringerPunkt",
                "deleteMode": "authoredOnly",
                "editMode": "authoredOnly",
                "geometryEditing": "authoredOnly"
            },
            {
                "collection": "FTRegistreringerLinjer",
                "deleteMode": "authoredOnly",
                "editMode": "authoredOnly",
                "geometryEditing": "authoredOnly"
            },
            {
                "collection": "FTRegistreringerFlater",
                "deleteMode": "authoredOnly",
                "editMode": "authoredOnly",
                "geometryEditing": "authoredOnly"
            },
            {
                "collection": "FTEgenkontroll",
                "deleteMode": "authoredOnly",
                "editMode": "everybody",
                "geometryEditing": "disabled"
            },
            {
                "collection": "FTIncident",
                "deleteMode": "disabled",
                "editMode": "authoredOnly",
                "geometryEditing": "authoredOnly"
            },
            {
                "collection": "FTSporlogg",
                "deleteMode": "disabled",
                "editMode": "disabled",
                "geometryEditing": "disabled"
            }
        ],
        "layers": [
            {
                "alias": "Fugl hensyn",
                "bodyreplacements": [
                    {
                        "collection": "mapcache",
                        "contenttype": "application/json",
                        "replace": "http://localhost:[CACHEPORT]/mapcache/vector.services.geodataonline.no",
                        "search": "https://vector.services.geodataonline.no",
                        "urlcontains": "-ingress-fppskc73cq-lz.a.run.app/vtfront",
                        "urlnotcontains": "tilemap"
                    }
                ],
                "hidefromlayerlist": true,
                "name": "FGFugl",
                "type": "vector",
                "url": "https://feltgis-prod-ingress-fppskc73cq-lz.a.run.app/vtfront/0aa39fba-cf92-748a-018c-d7d150996777"
            },
            {
                "defaultopacity": 0,
                "identifyDisabled": true,
                "name": "Skyggerelieff",
                "type": "raster",
                "preview": "https://map-thumbs.feltgis.no/skyggerelieff.png",
                "url": "http://35.228.152.51/Skyggerelieff/MapServer"
            },
            {
                "defaultopacity": 0,
                "identifyDisabled": true,
                "name": "BrattTerreng",
                "type": "raster",
                "preview": "https://map-thumbs.feltgis.no/bratterreng.png",
                "url": "http://35.228.152.51/BrattTerreng/MapServer"
            },
            {
                "alias": "SR16",
                "bodyreplacements": [
                    {
                        "collection": "mapcache",
                        "contenttype": "application/json",
                        "replace": "http://localhost:[CACHEPORT]/mapcache/vector.services.geodataonline.no",
                        "search": "https://vector.services.geodataonline.no",
                        "urlcontains": "-ingress-fppskc73cq-lz.a.run.app/vtfront",
                        "urlnotcontains": "tilemap"
                    }
                ],
                "defaultopacity": 0,
                "name": "SR16FG",
                "type": "vector",
                "preview": "https://map-thumbs.feltgis.no/sr16.png",
                "url": "https://feltgis-prod-ingress-fppskc73cq-lz.a.run.app/vtfront/a63f9073-16a8-253d-46f6-f777d56d14b0",
                "statusUrl": "https://feltgis-prod-ingress-fppskc73cq-lz.a.run.app/vtfront/a63f9073-16a8-253d-46f6-f777d56d14b0/status"
            },
            {
                "defaultopacity": 0,
                "name": "Aldersklasseriskog",
                "type": "raster",
                "preview": "https://map-thumbs.feltgis.no/Aldersklasseriskog.png",
                "url": "http://35.228.152.51/Aldersklasseriskog/MapServer"
            },
            {
                "defaultopacity": 0.35,
                "identifyDisabled": true,
                "name": "Markfuktighetskart",
                "type": "raster",
                "preview": "https://map-thumbs.feltgis.no/markfuktighetskart.png",
                "url": "http://35.228.152.51/Markfuktighetskart/MapServer"
            },
            {
                "alias": "Naturtyper HB13",
                "bodyreplacements": [
                    {
                        "collection": "mapcache",
                        "contenttype": "application/json",
                        "replace": "http://localhost:[CACHEPORT]/mapcache/vector.services.geodataonline.no",
                        "search": "https://vector.services.geodataonline.no",
                        "urlcontains": "-ingress-fppskc73cq-lz.a.run.app/vtfront",
                        "urlnotcontains": "tilemap"
                    }
                ],
                "defaultopacity": 1,
                "hidefromlayerlist": true,
                "minopacity": 0.75,
                "name": "naturtyper_hb13_naturtyper_hb13_alle",
                "type": "vector",
                "preview": "https://map-thumbs.feltgis.no/naturtyperhb13.png",
                "url": "https://feltgis-prod-ingress-fppskc73cq-lz.a.run.app/vtfront/6bad240f-1b59-9d77-f2c3-a4afc4a44514"
            },
            {
                "alias": "Narin",
                "bodyreplacements": [
                    {
                        "collection": "mapcache",
                        "contenttype": "application/json",
                        "replace": "http://localhost:[CACHEPORT]/mapcache/vector.services.geodataonline.no",
                        "search": "https://vector.services.geodataonline.no",
                        "urlcontains": "-ingress-fppskc73cq-lz.a.run.app/vtfront",
                        "urlnotcontains": "tilemap"
                    }
                ],
                "name": "narin",
                "type": "vector",
                "url": "https://feltgis-prod-ingress-fppskc73cq-lz.a.run.app/vtfront/compound/dbnarin"
            },
            {
                "alias": "NiN",
                "bodyreplacements": [
                    {
                        "collection": "mapcache",
                        "contenttype": "application/json",
                        "replace": "http://localhost:[CACHEPORT]/mapcache/vector.services.geodataonline.no",
                        "search": "https://vector.services.geodataonline.no",
                        "urlcontains": "-ingress-fppskc73cq-lz.a.run.app/vtfront",
                        "urlnotcontains": "tilemap"
                    }
                ],
                "name": "naturtyper_unfiltered",
                "type": "vector",
                "url": "https://feltgis-prod-ingress-fppskc73cq-lz.a.run.app/vtfront/a1e5b8df-6b52-151a-a7b4-69681300068f",
                "statusUrl": "https://feltgis-prod-ingress-fppskc73cq-lz.a.run.app/vtfront/a1e5b8df-6b52-151a-a7b4-69681300068f/status"
            },
            {
                "alias": "Friluftsliv",
                "bodyreplacements": [
                    {
                        "collection": "mapcache",
                        "contenttype": "application/json",
                        "replace": "http://localhost:[CACHEPORT]/mapcache/vector.services.geodataonline.no",
                        "search": "https://vector.services.geodataonline.no",
                        "urlcontains": "-ingress-fppskc73cq-lz.a.run.app/vtfront",
                        "urlnotcontains": "tilemap"
                    }
                ],
                "name": "friluftsliv_statlig_sikra_friluftsliv_statlig_sikra",
                "type": "vector",
                "url": "https://feltgis-prod-ingress-fppskc73cq-lz.a.run.app/vtfront/894a1dce-5731-ff71-4af8-40c4aa7a4058",
                "statusUrl": "https://feltgis-prod-ingress-fppskc73cq-lz.a.run.app/vtfront/894a1dce-5731-ff71-4af8-40c4aa7a4058/status"
            },
            {
                "alias": "Vern",
                "bodyreplacements": [
                    {
                        "collection": "mapcache",
                        "contenttype": "application/json",
                        "replace": "http://localhost:[CACHEPORT]/mapcache/vector.services.geodataonline.no",
                        "search": "https://vector.services.geodataonline.no",
                        "urlcontains": "-ingress-fppskc73cq-lz.a.run.app/vtfront",
                        "urlnotcontains": "tilemap"
                    }
                ],
                "name": "vern_naturvern_omrade",
                "type": "vector",
                "preview": "https://map-thumbs.feltgis.no/vern.png",
                "url": "https://feltgis-prod-ingress-fppskc73cq-lz.a.run.app/vtfront/1f1aace9-82dc-b429-ffd9-b578fce18e63",
                "statusUrl": "https://feltgis-prod-ingress-fppskc73cq-lz.a.run.app/vtfront/1f1aace9-82dc-b429-ffd9-b578fce18e63/status"
            },
            {
                "alias": "Vernskog",
                "bodyreplacements": [
                    {
                        "collection": "mapcache",
                        "contenttype": "application/json",
                        "replace": "http://localhost:[CACHEPORT]/mapcache/vector.services.geodataonline.no",
                        "search": "https://vector.services.geodataonline.no",
                        "urlcontains": "-ingress-fppskc73cq-lz.a.run.app/vtfront",
                        "urlnotcontains": "tilemap"
                    }
                ],
                "name": "vernskog",
                "type": "vector",
                "preview": "https://map-thumbs.feltgis.no/vernskog.png",
                "url": "https://feltgis-prod-ingress-fppskc73cq-lz.a.run.app/vtfront/763000db-5503-0166-a585-9b5ccce9a8ac",
                "statusUrl": "https://feltgis-prod-ingress-fppskc73cq-lz.a.run.app/vtfront/763000db-5503-0166-a585-9b5ccce9a8ac/status"
            },
            {
                "alias": "Artsdata NIBIO",
                "defaultopacity": 0,
                "name": "artsdata",
                "type": "raster",
                "url": "http://35.228.152.51/artsdata/MapServer"
            },
            {
                "alias": "Arter",
                "bodyreplacements": [
                    {
                        "collection": "mapcache",
                        "contenttype": "application/json",
                        "replace": "http://localhost:[CACHEPORT]/mapcache/vector.services.geodataonline.no",
                        "search": "https://vector.services.geodataonline.no",
                        "urlcontains": "-ingress-fppskc73cq-lz.a.run.app/vtfront",
                        "urlnotcontains": "tilemap"
                    }
                ],
                "name": "arter",
                "type": "vector",
                "url": "https://feltgis-prod-ingress-fppskc73cq-lz.a.run.app/vtfront/compound/dbarter"
            },
            {
                "alias": "Reguleringsplaner",
                "defaultopacity": 0,
                "name": "Reguleringsplaner",
                "type": "raster",
                "preview": "https://map-thumbs.feltgis.no/reguleringsplaner.png",
                "url": "http://35.228.152.51/Reguleringsplaner/MapServer"
            },
            {
                "alias": "Eiendom",
                "bodyreplacements": [
                    {
                        "collection": "mapcache",
                        "contenttype": "application/json",
                        "replace": "http://localhost:[CACHEPORT]/mapcache/vector.services.geodataonline.no",
                        "search": "https://vector.services.geodataonline.no",
                        "urlcontains": "-ingress-fppskc73cq-lz.a.run.app/vtfront",
                        "urlnotcontains": "tilemap"
                    }
                ],
                "identifyDisabled": true,
                "name": "teig",
                "type": "vector",
                "preview": "https://map-thumbs.feltgis.no/teig.png",
                "url": "https://feltgis-prod-ingress-fppskc73cq-lz.a.run.app/vtfront/acc14f4e-4aac-7bf0-558a-1700a0fafaf4",
                "statusUrl": "https://feltgis-prod-ingress-fppskc73cq-lz.a.run.app/vtfront/acc14f4e-4aac-7bf0-558a-1700a0fafaf4/status"
            },
            {
                "alias": "Grensepunkter",
                "bodyreplacements": [
                    {
                        "collection": "mapcache",
                        "contenttype": "application/json",
                        "replace": "http://localhost:[CACHEPORT]/mapcache/vector.services.geodataonline.no",
                        "search": "https://vector.services.geodataonline.no",
                        "urlcontains": "-ingress-fppskc73cq-lz.a.run.app/vtfront",
                        "urlnotcontains": "tilemap"
                    }
                ],
                "identifyDisabled": true,
                "name": "grensepunkter",
                "type": "vector",
                "preview": "https://map-thumbs.feltgis.no/grensepunkter.png",
                "url": "https://feltgis-prod-ingress-fppskc73cq-lz.a.run.app/vtfront/2cda7982-5089-763e-f37a-bc53f566e37f"
            },
            {
                "alias": "Andre hensyn",
                "name": "Andre",
                "type": "raster",
                "preview": "https://map-thumbs.feltgis.no/andre.png",
                "url": "http://35.228.152.51/Andre/MapServer"
            },
            {
                "alias": "MiS",
                "name": "mis",
                "type": "raster",
                "preview": "https://map-thumbs.feltgis.no/mis.png",
                "url": "http://35.228.152.51/mis/MapServer"
            },
            {
                "bodyreplacements": [
                    {
                        "collection": "mapcache",
                        "contenttype": "application/json",
                        "replace": "http://localhost:[CACHEPORT]/mapcache/vector.services.geodataonline.no",
                        "search": "https://vector.services.geodataonline.no",
                        "urlcontains": "-ingress-fppskc73cq-lz.a.run.app/vtfront",
                        "urlnotcontains": "tilemap"
                    }
                ],
                "name": "FTmis",
                "type": "vector",
                "preview": "https://map-thumbs.feltgis.no/ftmis.png",
                "url": "https://feltgis-prod-ingress-fppskc73cq-lz.a.run.app/vtfront/910565d9-edbe-3e8c-56e1-355202674a79"
            },
            {
                "alias": "Kulturminner",
                "bodyreplacements": [
                    {
                        "collection": "mapcache",
                        "contenttype": "application/json",
                        "replace": "http://localhost:[CACHEPORT]/mapcache/vector.services.geodataonline.no",
                        "search": "https://vector.services.geodataonline.no",
                        "urlcontains": "-ingress-fppskc73cq-lz.a.run.app/vtfront",
                        "urlnotcontains": "tilemap"
                    }
                ],
                "hidefromlayerlist": true,
                "minopacity": 0.5,
                "name": "kulturminner",
                "type": "vector",
                "preview": "https://map-thumbs.feltgis.no/ra.png",
                "url": "https://feltgis-prod-ingress-fppskc73cq-lz.a.run.app/vtfront/compound/dbkulturminner"
            },
            {
                "alias": "Høydekurver",
                "bodyreplacements": [
                    {
                        "collection": "mapcache",
                        "contenttype": "application/json",
                        "replace": "http://localhost:[CACHEPORT]/mapcache/vector.services.geodataonline.no",
                        "search": "https://vector.services.geodataonline.no",
                        "urlcontains": "VectorTileServer",
                        "urlnotcontains": "tilemap"
                    },
                    {
                        "collection": "mapcache",
                        "contenttype": "application/json",
                        "replace": "http://localhost:[CACHEPORT]/mapcache/services.geodataonline.no",
                        "search": "https://services.geodataonline.no",
                        "urlcontains": "VectorTileServer",
                        "urlnotcontains": "tilemap"
                    },
                    {
                        "collection": "mapcache",
                        "contenttype": "application/json",
                        "replace": "http://localhost:[CACHEPORT]/mapcache/vector.services.geodataonline.no",
                        "search": "https://vector.services.geodataonline.no",
                        "urlcontains": "mapprod.feltgis.no",
                        "urlnotcontains": "tilemap"
                    },
                    {
                        "collection": "mapcache",
                        "contenttype": "application/json",
                        "replace": "http://localhost:[CACHEPORT]/mapcache/services.geodataonline.no",
                        "search": "https://services.geodataonline.no",
                        "urlcontains": "mapprod.feltgis.no",
                        "urlnotcontains": "tilemap"
                    },
                    {
                        "collection": "mapcache",
                        "contenttype": "application/json",
                        "replace": "TilesOnly",
                        "search": "TilesOnly,Tilemap",
                        "urlcontains": "?f=json",
                        "urlnotcontains": "tilemap"
                    },
                    {
                        "collection": "mapcache",
                        "contenttype": "application/json",
                        "replace": "\"_tileMap\"",
                        "search": "\"tileMap\"",
                        "urlcontains": "?f=json",
                        "urlnotcontains": "tilemap"
                    }
                ],
                "cachewarmupurls": [
                    {
                        "collection": "mapcache",
                        "urls": [
                            "https://services.geodataonline.no/arcgis/rest/services/GeocacheVector/GeocacheHoydekurver/VectorTileServer?f=json",
                            "https://services.geodataonline.no/arcgis/rest/services/GeocacheVector/GeocacheHoydekurver/VectorTileServer/resources/styles?f=json",
                            "https://vector.services.geodataonline.no/arcgis/rest/services/GeocacheVector/GeocacheHoydekurver/VectorTileServer?f=json",
                            "https://vector.services.geodataonline.no/arcgis/rest/services/GeocacheVector/GeocacheHoydekurver/VectorTileServer/resources/sprites/sprite@2x.json?f=json",
                            "https://vector.services.geodataonline.no/arcgis/rest/services/GeocacheVector/GeocacheHoydekurver/VectorTileServer/resources/sprites/sprite@2x.png",
                            "https://vector.services.geodataonline.no/arcgis/rest/services/GeocacheVector/GeocacheHoydekurver/VectorTileServer/?f=json"
                        ]
                    }
                ],
                "defaultopacity": 0.6,
                "identifyDisabled": true,
                "name": "Hoydekurver",
                "type": "vector",
                "preview": "https://map-thumbs.feltgis.no/hoydekurver.png",
                "url": "https://services.geodataonline.no/arcgis/rest/services/GeocacheVector/GeocacheHoydekurver/VectorTileServer"
            },
            {
                "alias": "Driftsområde",
                "minopacity": 0.3,
                "name": "FTPTommerdrift",
                "rendering": {
                    "definitionExpression": "_serviceOrderId='{{_serviceOrderId}}'",
                    "includeFields": [
                        "_serviceOrderId"
                    ]
                },
                "type": "polygon"
            },
            {
                "hidefromlayerlist": true,
                "keepInBackgroundMap": true,
                "minopacity": 0.75,
                "name": "FTMiljoFlater",
                "type": "polygon"
            },
            {
                "alias": "Registreringer flater",
                "hidefromlayerlist": true,
                "minopacity": 0.5,
                "name": "FTRegistreringerFlater",
                "rendering": {
                    "includeFields": [
                        "comment"
                    ]
                },
                "type": "polygon",
                "preview": "https://map-thumbs.feltgis.no/registreringerflater.png"
            },
            {
                "alias": "Sporlogg",
                "hidefromlayerlist": true,
                "minopacity": 0.75,
                "identifyDisabled": true,
                "name": "FTSporlogg",
                "rendering": {
                    "definitionExpression": "_serviceOrderId='{{_serviceOrderId}}'",
                    "includeFields": [
                        "_serviceOrderId"
                    ]
                },
                "type": "line",
                "preview": "https://map-thumbs.feltgis.no/gmsporlogg.png"
            },
            {
                "hidefromlayerlist": true,
                "keepInBackgroundMap": true,
                "minopacity": 0.75,
                "name": "FTMiljoLinjer",
                "type": "line"
            },
            {
                "alias": "Registreringer linjer",
                "hidefromlayerlist": true,
                "minopacity": 0.75,
                "name": "FTRegistreringerLinjer",
                "rendering": {
                    "includeFields": [
                        "comment"
                    ]
                },
                "type": "line",
                "preview": "https://map-thumbs.feltgis.no/registreringerlinjer.png"
            },
            {
                "hidefromlayerlist": true,
                "keepInBackgroundMap": true,
                "minopacity": 0.75,
                "name": "FTMiljoPunkt",
                "type": "point"
            },
            {
                "alias": "Registreringer punkt",
                "hidefromlayerlist": true,
                "minopacity": 0.75,
                "name": "FTRegistreringerPunkt",
                "rendering": {
                    "includeFields": [
                        "comment"
                    ]
                },
                "type": "point",
                "preview": "https://map-thumbs.feltgis.no/registreringerpunkt.png"
            },
            {
                "alias": "Stammepunkt",
                "defaultopacity": 0.3,
                "identifyDisabled": true,
                "name": "FTStem",
                "rendering": {
                    "definitionExpression": "_serviceOrderId='{{_serviceOrderId}}'",
                    "includeFields": [
                        "_serviceOrderId"
                    ]
                },
                "type": "point",
                "preview": "https://map-thumbs.feltgis.no/stammepunkt.png"
            },
            {
                "hidefromlayerlist": true,
                "minopacity": 0.75,
                "name": "NTSkogdata",
                "type": "point",
                "preview": "https://map-thumbs.feltgis.no/ntskogdata.png"
            },
            {
                "alias": "Stedsnavn",
                "defaultopacity": 0.8,
                "identifyDisabled": true,
                "name": "geocachenames",
                "type": "vector",
                "preview": "https://map-thumbs.feltgis.no/stedsnavn.png",
                "url": "https://feltgis-prod-ingress-fppskc73cq-lz.a.run.app/vtfront/geocachenames"
            }
        ],
        "sections": [
            {
                "id": 1,
                "title": "Stammedata fra produksjonsfil"
            }
        ]
    },
    "name": "Fjordtømmer prod",
    "orgNum": "922689016",
    "genericReports": {
        "template": "https://bitbucket.org/feltgis/feltgis-config/raw/master/rapporter/fjordtommer/generic.html"
    },
    "reports": [
        {
            "collection": "FTEgenkontroll",
            "template": "https://bitbucket.org/feltgis/feltgis-config/raw/master/rapporter/fjordtommer/egenkontroll.html"
        },
        {
            "collection": "FTEgenkontrollLass",
            "template": "https://bitbucket.org/feltgis/feltgis-config/raw/master/rapporter/fjordtommer/egenkontroll-lass.html"
        },
        {
            "collection": "FTEgenkontrollHogst",
            "template": "https://bitbucket.org/feltgis/feltgis-config/raw/master/rapporter/fjordtommer/egenkontroll-hogst.html"
        }
    ],
    "serverQueries": [
        {
            "name": "matrikkel",
            "returnFields": [
                "eiernavn",
                "bruksnavn",
                "matrikkeltype",
                "fylkesnavn",
                "kommunenavn",
                "kommunenr",
                "gardsnr",
                "bruksnr",
                "lagretareal",
                "eierdatofra"
            ]
        }
    ],
    "sync": {
        "collections": [
            {
                "alias": "Sesjonsdata",
                "appFeature": "Session",
                "attachmentsBucket": "ftsession",
                "batchSize": 100,
                "disablePull": true,
                "name": "FTSession"
            },
            {
                "alias": "Stammedata fra produksjonsfil",
                "appFeature": "Stems",
                "batchSize": 2000,
                "indexFields": [
                    "_orderId",
                    "_serviceOrderId"
                ],
                "name": "FTStem",
                "syncFilter": {
                    "useServiceOrderId": true
                }
            },
            {
                "alias": "Hendelser",
                "appFeature": "Incidents",
                "attachmentFilenamesField": "_filenames",
                "attachmentsBucket": "ftincident",
                "batchSize": 100,
                "indexFields": [
                    "_orderId",
                    "_serviceOrderId"
                ],
                "name": "FTIncident",
                "syncFilter": {
                    "useServiceOrderId": true
                }
            },
            {
                "name": "FTMiljoPunkt",
                "syncFilter": {
                    "syncEverything": true
                }
            },
            {
                "name": "FTMiljoLinjer",
                "syncFilter": {
                    "syncEverything": true
                }
            },
            {
                "name": "FTMiljoFlater",
                "syncFilter": {
                    "syncEverything": true
                }
            },
            {
                "batchSize": 1000,
                "indexFields": [
                    "_orderId",
                    "_serviceOrderId"
                ],
                "name": "FTRegistreringerPunkt",
                "rpi": true,
                "syncFilter": {
                    "useServiceOrderId": true
                }
            },
            {
                "batchSize": 1000,
                "indexFields": [
                    "_orderId",
                    "_serviceOrderId"
                ],
                "name": "FTRegistreringerLinjer",
                "rpi": true,
                "syncFilter": {
                    "useServiceOrderId": true
                }
            },
            {
                "batchSize": 1000,
                "indexFields": [
                    "_orderId",
                    "_serviceOrderId"
                ],
                "name": "FTRegistreringerFlater",
                "rpi": true,
                "syncFilter": {
                    "useServiceOrderId": true
                }
            },
            {
                "alias": "Sporlogg",
                "appFeature": "Sporlogg",
                "batchSize": 1000,
                "indexFields": [
                    "_orderId",
                    "_serviceOrderId"
                ],
                "name": "FTSporlogg",
                "skipWaitOnAdd": true,
                "syncFilter": {
                    "useServiceOrderId": true
                }
            },
            {
                "appFeature": "Egenkontroll",
                "attachmentsBucket": "ftegenkontroll",
                "batchSize": 10,
                "indexFields": [
                    "_orderId",
                    "_serviceOrderId"
                ],
                "name": "FTEgenkontroll"
            },
            {
                "appFeature": "SupplyPoints",
                "disablePull": true,
                "disablePush": true,
                "indexFields": [
                    "_orderId"
                ],
                "name": "NTSkogdata",
                "rpi": true
            },
            {
                "appFeature": "Tømmerdrift",
                "batchSize": 10,
                "disablePush": true,
                "indexFields": [
                    "_orderId",
                    "_serviceOrderId"
                ],
                "name": "FTPTommerdrift",
                "rpi": true,
                "syncFilter": {
                    "useServiceOrderId": true
                }
            },
            {
                "appFeature": "work order acceptance",
                "disablePull": true,
                "indexFields": [
                    "_orderId"
                ],
                "name": "FTWorkOrderAcceptance"
            },
            {
                "alias": "Entreprenørdata",
                "appFeature": "ContractorPoints",
                "batchSize": 1000,
                "indexFields": [
                    "_orderId",
                    "_serviceOrderId",
                    "_visibilityMode"
                ],
                "name": "FTContractorPoint",
                "syncFilter": {
                    "useServiceOrderId": true
                }
            }
        ],
        "intervalMinutes": 2
    },
    "vsysFeatures": [
        {
            "feature": "prodForw",
            "users": [
                "*"
            ]
        },
        {
            "feature": "autoCopyFilesFromBox",
            "users": [
                "*"
            ]
        },
        {
            "feature": "everythingProdForw",
            "users": [
                "*"
            ]
        },
        {
            "feature": "productLines",
            "users": [
                "*"
            ]
        },
        {
            "feature": "attachments",
            "users": [
                "*"
            ]
        },
        {
            "feature": "keyFigures",
            "users": [
                "*"
            ]
        },
        {
            "feature": "removeFromList",
            "users": [
                "*"
            ]
        },
        {
            "feature": "measuringtickets",
            "users": [
                "*"
            ]
        },
        {
            "feature": "wreckanddowngrade",
            "users": [
                "*"
            ]
        },
        {
            "feature": "map",
            "users": [
                "*"
            ]
        },
        {
            "feature": "prepareOffline",
            "users": [
                "*"
            ]
        },
        {
            "feature": "incidents",
            "users": [
                "*"
            ]
        },
        {
            "feature": "Stems",
            "users": [
                "*"
            ]
        },
        {
            "feature": "AssortmentStems",
            "users": [
                "*"
            ]
        },
        {
            "feature": "workOrder",
            "users": [
                "*"
            ]
        },
        {
            "feature": "deviations",
            "users": [
                "*"
            ]
        }
    ],
    "proximityAlarms": [
        {
            "name": "Driftsområde",
            "source": {
                "type": "collection",
                "id": "FTPTommerdrift"
            },
            "setup": {
                "gradientCutoffDistanceMeters": 10,
                "alarmOutside": true,
                "usedToDetermineExtent": true
            }
        }
    ]
}

