{
    "settings": [
        {
            "title": "Stammedata",
            "subTitle": "Del posisjon av hogstaggregat når treet felles",
            "id": "StemType:StemCoordinates",
            "defaultValue": {
                "boolValue": false
            }
        },
        {
            "title": "Tvangskapp",
            "subTitle": "Del tvangskapp og årsak til dette",
            "id": "CuttingCategoryType:CuttingReason",
            "defaultValue": {
                "boolValue": false
            }
        }
    ],
    "enabledfeatures": [
        "prodForw",
        "attachments",
        "keyFigures",
        "removeFromList",
        "map",
        "prepareOffline",
        "deviations",
        "measuringtickets"
    ],
    "map": {
        "addFeatures": [
            {
                "collection": "CAContractorPoint",
                "displayname": "Private entreprenørdata"
            },
            {
                "collection": "CARegistreringerPunkt",
                "displayname": "Registreringer punkt"
            },
            {
                "collection": "CARegistreringerLinjer",
                "displayname": "Registreringer linjer"
            },
            {
                "collection": "CARegistreringerFlater",
                "displayname": "Registreringer flater"
            }
        ],
        "background": [
            {
                "name": "Kart",
                "type": "raster",
                "url": "http://services.geodataonline.no/arcgis/rest/services/Geocache_UTM33_EUREF89/GeocacheBasis/MapServer"
            },
            {
                "hidden": true,
                "name": "Foto",
                "type": "raster",
                "url": "http://services.geodataonline.no/arcgis/rest/services/Geocache_UTM33_EUREF89/GeocacheBilder/MapServer"
            }
        ],
        "editFeatures": [
            {
                "collection": "CAContractorPoint",
                "deleteMode": "authoredOnly",
                "editMode": "everybody",
                "geometryEditing": "authoredOnly"
            },
            {
                "collection": "CARegistreringerPunkt",
                "deleteMode": "authoredOnly",
                "editMode": "authoredOnly",
                "geometryEditing": "authoredOnly"
            },
            {
                "collection": "CARegistreringerLinjer",
                "deleteMode": "authoredOnly",
                "editMode": "authoredOnly",
                "geometryEditing": "authoredOnly"
            },
            {
                "collection": "CARegistreringerFlater",
                "deleteMode": "authoredOnly",
                "editMode": "authoredOnly",
                "geometryEditing": "authoredOnly"
            },
            {
                "collection": "CAEgenkontroll",
                "deleteMode": "authoredOnly",
                "editMode": "authoredOnly",
                "geometryEditing": "disabled"
            },
            {
                "collection": "CAEgenkontrollHogst",
                "deleteMode": "authoredOnly",
                "editMode": "authoredOnly",
                "geometryEditing": "disabled"
            },
            {
                "collection": "CAEgenkontrollLass",
                "deleteMode": "authoredOnly",
                "editMode": "authoredOnly",
                "geometryEditing": "disabled"
            },
            {
                "collection": "CAIncident",
                "deleteMode": "disabled",
                "editMode": "authoredOnly",
                "geometryEditing": "authoredOnly"
            },
            {
                "collection": "CASporlogg",
                "deleteMode": "disabled",
                "editMode": "disabled",
                "geometryEditing": "disabled"
            }
        ],
        "layers": [
            {
                "alias": "Fugl hensyn",
                "bodyreplacements": [
                    {
                        "collection": "mapcache",
                        "contenttype": "application/json",
                        "replace": "http://localhost:[CACHEPORT]/mapcache/vector.services.geodataonline.no",
                        "search": "https://vector.services.geodataonline.no",
                        "urlcontains": "-ingress-fppskc73cq-lz.a.run.app/vtfront",
                        "urlnotcontains": "tilemap"
                    }
                ],
                "hidefromlayerlist": true,
                "name": "FGFugl",
                "type": "vector",
                "url": "https://feltgis-prod-ingress-fppskc73cq-lz.a.run.app/vtfront/0aa39fba-cf92-748a-018c-d7d150996777"
            },
            {
                "alias": "MiS (tidlig)",
                "bodyreplacements": [
                    {
                        "collection": "mapcache",
                        "contenttype": "application/json",
                        "replace": "http://localhost:[CACHEPORT]/mapcache/vector.services.geodataonline.no",
                        "search": "https://vector.services.geodataonline.no",
                        "urlcontains": "-ingress-fppskc73cq-lz.a.run.app/vtfront",
                        "urlnotcontains": "tilemap"
                    }
                ],
                "defaultopacity": 0.8,
                "hidefromlayerlist": true,
                "minscale": 20000,
                "minopacity": 0.75,
                "name": "misc",
                "type": "vector",
                "url": "https://feltgis-prod-ingress-fppskc73cq-lz.a.run.app/vtfront/5a9307ec-28f8-9d3b-8901-6a85cd645501"
            },
            {
                "defaultopacity": 0.35,
                "identifyDisabled": true,
                "name": "Markfuktighetskart",
                "type": "raster",
                "preview": "https://map-thumbs.feltgis.no/markfuktighetskart.png",
                "url": "http://35.228.152.51/Markfuktighetskart/MapServer"
            },
            {
                "alias": "Naturtyper HB13",
                "bodyreplacements": [
                    {
                        "collection": "mapcache",
                        "contenttype": "application/json",
                        "replace": "http://localhost:[CACHEPORT]/mapcache/vector.services.geodataonline.no",
                        "search": "https://vector.services.geodataonline.no",
                        "urlcontains": "-ingress-fppskc73cq-lz.a.run.app/vtfront",
                        "urlnotcontains": "tilemap"
                    }
                ],
                "defaultopacity": 1,
                "hidefromlayerlist": true,
                "minopacity": 0.75,
                "name": "naturtyper_hb13_alle_a_b",
                "type": "vector",
                "preview": "https://map-thumbs.feltgis.no/naturtyperhb13.png",
                "url": "https://feltgis-prod-ingress-fppskc73cq-lz.a.run.app/vtfront/c61708f5-112f-2eac-1ed2-66b2a36392c9",
                "statusUrl": "https://feltgis-prod-ingress-fppskc73cq-lz.a.run.app/vtfront/c61708f5-112f-2eac-1ed2-66b2a36392c9/status"
            },
            {
                "alias": "Narin",
                "bodyreplacements": [
                    {
                        "collection": "mapcache",
                        "contenttype": "application/json",
                        "replace": "http://localhost:[CACHEPORT]/mapcache/vector.services.geodataonline.no",
                        "search": "https://vector.services.geodataonline.no",
                        "urlcontains": "-ingress-fppskc73cq-lz.a.run.app/vtfront",
                        "urlnotcontains": "tilemap"
                    }
                ],
                "hidefromlayerlist": true,
                "minopacity": 0.75,
                "name": "narin",
                "type": "vector",
                "url": "https://feltgis-prod-ingress-fppskc73cq-lz.a.run.app/vtfront/compound/dbnarin"
            },
            {
                "alias": "NiN",
                "bodyreplacements": [
                    {
                        "collection": "mapcache",
                        "contenttype": "application/json",
                        "replace": "http://localhost:[CACHEPORT]/mapcache/vector.services.geodataonline.no",
                        "search": "https://vector.services.geodataonline.no",
                        "urlcontains": "-ingress-fppskc73cq-lz.a.run.app/vtfront",
                        "urlnotcontains": "tilemap"
                    }
                ],
                "hidefromlayerlist": true,
                "minopacity": 0.75,
                "name": "naturtyper_unfiltered",
                "type": "vector",
                "url": "https://feltgis-prod-ingress-fppskc73cq-lz.a.run.app/vtfront/a1e5b8df-6b52-151a-a7b4-69681300068f",
                "statusUrl": "https://feltgis-prod-ingress-fppskc73cq-lz.a.run.app/vtfront/a1e5b8df-6b52-151a-a7b4-69681300068f/status"
            },
            {
                "alias": "Friluftsliv",
                "bodyreplacements": [
                    {
                        "collection": "mapcache",
                        "contenttype": "application/json",
                        "replace": "http://localhost:[CACHEPORT]/mapcache/vector.services.geodataonline.no",
                        "search": "https://vector.services.geodataonline.no",
                        "urlcontains": "-ingress-fppskc73cq-lz.a.run.app/vtfront",
                        "urlnotcontains": "tilemap"
                    }
                ],
                "hidefromlayerlist": true,
                "minopacity": 0.75,
                "name": "friluftsliv_statlig_sikra_friluftsliv_statlig_sikra",
                "type": "vector",
                "url": "https://feltgis-prod-ingress-fppskc73cq-lz.a.run.app/vtfront/894a1dce-5731-ff71-4af8-40c4aa7a4058",
                "statusUrl": "https://feltgis-prod-ingress-fppskc73cq-lz.a.run.app/vtfront/894a1dce-5731-ff71-4af8-40c4aa7a4058/status"
            },
            {
                "alias": "Vern",
                "bodyreplacements": [
                    {
                        "collection": "mapcache",
                        "contenttype": "application/json",
                        "replace": "http://localhost:[CACHEPORT]/mapcache/vector.services.geodataonline.no",
                        "search": "https://vector.services.geodataonline.no",
                        "urlcontains": "-ingress-fppskc73cq-lz.a.run.app/vtfront",
                        "urlnotcontains": "tilemap"
                    }
                ],
                "hidefromlayerlist": true,
                "minopacity": 0.75,
                "name": "vern_naturvern_omrade",
                "type": "vector",
                "preview": "https://map-thumbs.feltgis.no/vern.png",
                "url": "https://feltgis-prod-ingress-fppskc73cq-lz.a.run.app/vtfront/1f1aace9-82dc-b429-ffd9-b578fce18e63",
                "statusUrl": "https://feltgis-prod-ingress-fppskc73cq-lz.a.run.app/vtfront/1f1aace9-82dc-b429-ffd9-b578fce18e63/status"
            },
            {
                "alias": "Vernskog",
                "bodyreplacements": [
                    {
                        "collection": "mapcache",
                        "contenttype": "application/json",
                        "replace": "http://localhost:[CACHEPORT]/mapcache/vector.services.geodataonline.no",
                        "search": "https://vector.services.geodataonline.no",
                        "urlcontains": "-ingress-fppskc73cq-lz.a.run.app/vtfront",
                        "urlnotcontains": "tilemap"
                    }
                ],
                "hidefromlayerlist": true,
                "minopacity": 0.75,
                "name": "vernskog",
                "type": "vector",
                "preview": "https://map-thumbs.feltgis.no/vernskog.png",
                "url": "https://feltgis-prod-ingress-fppskc73cq-lz.a.run.app/vtfront/763000db-5503-0166-a585-9b5ccce9a8ac",
                "statusUrl": "https://feltgis-prod-ingress-fppskc73cq-lz.a.run.app/vtfront/763000db-5503-0166-a585-9b5ccce9a8ac/status"
            },
            {
                "alias": "Artsdata NIBIO",
                "defaultopacity": 1,
                "hidefromlayerlist": true,
                "minopacity": 1,
                "name": "artsdata",
                "type": "raster",
                "url": "http://35.228.152.51/artsdata/MapServer"
            },
            {
                "alias": "Arter",
                "bodyreplacements": [
                    {
                        "collection": "mapcache",
                        "contenttype": "application/json",
                        "replace": "http://localhost:[CACHEPORT]/mapcache/vector.services.geodataonline.no",
                        "search": "https://vector.services.geodataonline.no",
                        "urlcontains": "-ingress-fppskc73cq-lz.a.run.app/vtfront",
                        "urlnotcontains": "tilemap"
                    }
                ],
                "hidefromlayerlist": true,
                "minopacity": 0.75,
                "name": "arter",
                "type": "vector",
                "url": "https://feltgis-prod-ingress-fppskc73cq-lz.a.run.app/vtfront/compound/dbarter"
            },
            {
                "alias": "Kvikkleirefaregrad",
                "bodyreplacements": [
                    {
                        "collection": "mapcache",
                        "contenttype": "application/json",
                        "replace": "http://localhost:[CACHEPORT]/mapcache/vector.services.geodataonline.no",
                        "search": "https://vector.services.geodataonline.no",
                        "urlcontains": "-ingress-fppskc73cq-lz.a.run.app/vtfront",
                        "urlnotcontains": "tilemap"
                    }
                ],
                "name": "skredkvikkleire2_kvikkleirefaregrad",
                "type": "vector",
                "preview": "https://map-thumbs.feltgis.no/kvikkleirefaregrad.png",
                "url": "https://feltgis-prod-ingress-fppskc73cq-lz.a.run.app/vtfront/bfbb39c2-45b2-ee9c-2457-c986f83099fa"
            },
            {
                "alias": "Jord og flomskred",
                "bodyreplacements": [
                    {
                        "collection": "mapcache",
                        "contenttype": "application/json",
                        "replace": "http://localhost:[CACHEPORT]/mapcache/vector.services.geodataonline.no",
                        "search": "https://vector.services.geodataonline.no",
                        "urlcontains": "-ingress-fppskc73cq-lz.a.run.app/vtfront",
                        "urlnotcontains": "tilemap"
                    }
                ],
                "name": "jord_og_flomskred",
                "type": "vector",
                "preview": "https://map-thumbs.feltgis.no/jordogflom.png",
                "url": "https://feltgis-prod-ingress-fppskc73cq-lz.a.run.app/vtfront/2e540c0d-b7d3-e932-eb0c-d0763337c778",
                "statusUrl": "https://feltgis-prod-ingress-fppskc73cq-lz.a.run.app/vtfront/2e540c0d-b7d3-e932-eb0c-d0763337c778/status"
            },
            {
                "alias": "Orto",
                "bodyreplacements": [
                    {
                        "collection": "mapcache",
                        "contenttype": "",
                        "replace": "feltgis-prod-ingress-fppskc73cq-lz.a.run.app",
                        "search": "feltgis-testing-ingress-fppskc73cq-lz.a.run.app",
                        "urlcontains": "WMTSCapabilities.xml",
                        "urlnotcontains": ""
                    },
                    {
                        "collection": "mapcache",
                        "contenttype": "",
                        "replace": "http://localhost:[CACHEPORT]/mapcache/feltgis-prod-ingress-fppskc73cq-lz.a.run.app/wmts/wmts/1.0.0/979200048_raster_CIR_orto_cache/default/{TileMatrixSet}/{TileMatrix}/{TileRow}/{TileCol}.xxx",
                        "search": "https://feltgis-prod-ingress-fppskc73cq-lz.a.run.app/wmts/wmts/1.0.0/979200048_raster_CIR_orto_cache/default/{TileMatrixSet}/{TileMatrix}/{TileRow}/{TileCol}.xxx",
                        "urlcontains": "WMTSCapabilities.xml",
                        "urlnotcontains": ""
                    },
                    {
                        "collection": "mapcache",
                        "contenttype": "",
                        "replace": "image/png",
                        "search": "image/unknown",
                        "urlcontains": "WMTSCapabilities.xml",
                        "urlnotcontains": ""
                    }
                ],
                "defaultopacity": 0,
                "identifyDisabled": true,
                "layerid": "979200048_raster_CIR_orto_cache",
                "name": "Orto",
                "type": "wmts",
                "url": "https://feltgis-prod-ingress-fppskc73cq-lz.a.run.app/wmts/wmts/1.0.0/WMTSCapabilities.xml?layerid=979200048_raster_CIR_orto_cache"
            },
            {
                "alias": "GYL",
                "bodyreplacements": [
                    {
                        "collection": "mapcache",
                        "contenttype": "",
                        "replace": "feltgis-prod-ingress-fppskc73cq-lz.a.run.app",
                        "search": "feltgis-testing-ingress-fppskc73cq-lz.a.run.app",
                        "urlcontains": "WMTSCapabilities.xml",
                        "urlnotcontains": ""
                    },
                    {
                        "collection": "mapcache",
                        "contenttype": "",
                        "replace": "http://localhost:[CACHEPORT]/mapcache/feltgis-prod-ingress-fppskc73cq-lz.a.run.app/wmts/wmts/1.0.0/979200048_raster_GYL_cache/default/{TileMatrixSet}/{TileMatrix}/{TileRow}/{TileCol}.xxx",
                        "search": "https://feltgis-prod-ingress-fppskc73cq-lz.a.run.app/wmts/wmts/1.0.0/979200048_raster_GYL_cache/default/{TileMatrixSet}/{TileMatrix}/{TileRow}/{TileCol}.xxx",
                        "urlcontains": "WMTSCapabilities.xml",
                        "urlnotcontains": ""
                    },
                    {
                        "collection": "mapcache",
                        "contenttype": "",
                        "replace": "image/png",
                        "search": "image/unknown",
                        "urlcontains": "WMTSCapabilities.xml",
                        "urlnotcontains": ""
                    }
                ],
                "defaultopacity": 0,
                "identifyDisabled": true,
                "layerid": "979200048_raster_GYL_cache",
                "name": "GYL",
                "type": "wmts",
                "url": "https://feltgis-prod-ingress-fppskc73cq-lz.a.run.app/wmts/wmts/1.0.0/WMTSCapabilities.xml?layerid=979200048_raster_GYL_cache"
            },
            {
                "alias": "Markfuktighet",
                "bodyreplacements": [
                    {
                        "collection": "mapcache",
                        "contenttype": "",
                        "replace": "feltgis-prod-ingress-fppskc73cq-lz.a.run.app",
                        "search": "feltgis-testing-ingress-fppskc73cq-lz.a.run.app",
                        "urlcontains": "WMTSCapabilities.xml",
                        "urlnotcontains": ""
                    },
                    {
                        "collection": "mapcache",
                        "contenttype": "",
                        "replace": "http://localhost:[CACHEPORT]/mapcache/feltgis-prod-ingress-fppskc73cq-lz.a.run.app/wmts/wmts/1.0.0/979200048_raster_Markfuktighet_cache/default/{TileMatrixSet}/{TileMatrix}/{TileRow}/{TileCol}.xxx",
                        "search": "https://feltgis-prod-ingress-fppskc73cq-lz.a.run.app/wmts/wmts/1.0.0/979200048_raster_Markfuktighet_cache/default/{TileMatrixSet}/{TileMatrix}/{TileRow}/{TileCol}.xxx",
                        "urlcontains": "WMTSCapabilities.xml",
                        "urlnotcontains": ""
                    },
                    {
                        "collection": "mapcache",
                        "contenttype": "",
                        "replace": "image/png",
                        "search": "image/unknown",
                        "urlcontains": "WMTSCapabilities.xml",
                        "urlnotcontains": ""
                    }
                ],
                "defaultopacity": 0,
                "identifyDisabled": true,
                "layerid": "979200048_raster_Markfuktighet_cache",
                "name": "Markfuktighet",
                "type": "wmts",
                "url": "https://feltgis-prod-ingress-fppskc73cq-lz.a.run.app/wmts/wmts/1.0.0/WMTSCapabilities.xml?layerid=979200048_raster_Markfuktighet_cache"
            },
            {
                "alias": "Markstruktur",
                "bodyreplacements": [
                    {
                        "collection": "mapcache",
                        "contenttype": "",
                        "replace": "feltgis-prod-ingress-fppskc73cq-lz.a.run.app",
                        "search": "feltgis-testing-ingress-fppskc73cq-lz.a.run.app",
                        "urlcontains": "WMTSCapabilities.xml",
                        "urlnotcontains": ""
                    },
                    {
                        "collection": "mapcache",
                        "contenttype": "",
                        "replace": "http://localhost:[CACHEPORT]/mapcache/feltgis-prod-ingress-fppskc73cq-lz.a.run.app/wmts/wmts/1.0.0/979200048_raster_Markstruktur_cache/default/{TileMatrixSet}/{TileMatrix}/{TileRow}/{TileCol}.xxx",
                        "search": "https://feltgis-prod-ingress-fppskc73cq-lz.a.run.app/wmts/wmts/1.0.0/979200048_raster_Markstruktur_cache/default/{TileMatrixSet}/{TileMatrix}/{TileRow}/{TileCol}.xxx",
                        "urlcontains": "WMTSCapabilities.xml",
                        "urlnotcontains": ""
                    },
                    {
                        "collection": "mapcache",
                        "contenttype": "",
                        "replace": "image/png",
                        "search": "image/unknown",
                        "urlcontains": "WMTSCapabilities.xml",
                        "urlnotcontains": ""
                    }
                ],
                "defaultopacity": 0,
                "identifyDisabled": true,
                "layerid": "979200048_raster_Markstruktur_cache",
                "name": "Markstruktur",
                "type": "wmts",
                "url": "https://feltgis-prod-ingress-fppskc73cq-lz.a.run.app/wmts/wmts/1.0.0/WMTSCapabilities.xml?layerid=979200048_raster_Markstruktur_cache"
            },
            {
                "alias": "RGB_orto",
                "bodyreplacements": [
                    {
                        "collection": "mapcache",
                        "contenttype": "",
                        "replace": "feltgis-prod-ingress-fppskc73cq-lz.a.run.app",
                        "search": "feltgis-testing-ingress-fppskc73cq-lz.a.run.app",
                        "urlcontains": "WMTSCapabilities.xml",
                        "urlnotcontains": ""
                    },
                    {
                        "collection": "mapcache",
                        "contenttype": "",
                        "replace": "http://localhost:[CACHEPORT]/mapcache/feltgis-prod-ingress-fppskc73cq-lz.a.run.app/wmts/wmts/1.0.0/979200048_raster_RGB_orto_cache/default/{TileMatrixSet}/{TileMatrix}/{TileRow}/{TileCol}.xxx",
                        "search": "https://feltgis-prod-ingress-fppskc73cq-lz.a.run.app/wmts/wmts/1.0.0/979200048_raster_RGB_orto_cache/default/{TileMatrixSet}/{TileMatrix}/{TileRow}/{TileCol}.xxx",
                        "urlcontains": "WMTSCapabilities.xml",
                        "urlnotcontains": ""
                    },
                    {
                        "collection": "mapcache",
                        "contenttype": "",
                        "replace": "image/png",
                        "search": "image/unknown",
                        "urlcontains": "WMTSCapabilities.xml",
                        "urlnotcontains": ""
                    }
                ],
                "defaultopacity": 0,
                "identifyDisabled": true,
                "layerid": "979200048_raster_RGB_orto_cache",
                "name": "RGB_orto",
                "type": "wmts",
                "url": "https://feltgis-prod-ingress-fppskc73cq-lz.a.run.app/wmts/wmts/1.0.0/WMTSCapabilities.xml?layerid=979200048_raster_RGB_orto_cache"
            },
            {
                "alias": "Trehøyde",
                "bodyreplacements": [
                    {
                        "collection": "mapcache",
                        "contenttype": "",
                        "replace": "feltgis-prod-ingress-fppskc73cq-lz.a.run.app",
                        "search": "feltgis-testing-ingress-fppskc73cq-lz.a.run.app",
                        "urlcontains": "WMTSCapabilities.xml",
                        "urlnotcontains": ""
                    },
                    {
                        "collection": "mapcache",
                        "contenttype": "",
                        "replace": "http://localhost:[CACHEPORT]/mapcache/feltgis-prod-ingress-fppskc73cq-lz.a.run.app/wmts/wmts/1.0.0/979200048_raster_Skogshojd_cache/default/{TileMatrixSet}/{TileMatrix}/{TileRow}/{TileCol}.xxx",
                        "search": "https://feltgis-prod-ingress-fppskc73cq-lz.a.run.app/wmts/wmts/1.0.0/979200048_raster_Skogshojd_cache/default/{TileMatrixSet}/{TileMatrix}/{TileRow}/{TileCol}.xxx",
                        "urlcontains": "WMTSCapabilities.xml",
                        "urlnotcontains": ""
                    },
                    {
                        "collection": "mapcache",
                        "contenttype": "",
                        "replace": "image/png",
                        "search": "image/unknown",
                        "urlcontains": "WMTSCapabilities.xml",
                        "urlnotcontains": ""
                    }
                ],
                "defaultopacity": 0,
                "identifyDisabled": true,
                "layerid": "979200048_raster_Skogshojd_cache",
                "name": "Trehøyde",
                "type": "wmts",
                "url": "https://feltgis-prod-ingress-fppskc73cq-lz.a.run.app/wmts/wmts/1.0.0/WMTSCapabilities.xml?layerid=979200048_raster_Skogshojd_cache"
            },
            {
                "alias": "Reguleringsplaner",
                "defaultopacity": 0,
                "name": "Reguleringsplaner",
                "type": "raster",
                "preview": "https://map-thumbs.feltgis.no/reguleringsplaner.png",
                "url": "http://35.228.152.51/Reguleringsplaner/MapServer"
            },
            {
                "alias": "Eiendom",
                "bodyreplacements": [
                    {
                        "collection": "mapcache",
                        "contenttype": "application/json",
                        "replace": "http://localhost:[CACHEPORT]/mapcache/vector.services.geodataonline.no",
                        "search": "https://vector.services.geodataonline.no",
                        "urlcontains": "-ingress-fppskc73cq-lz.a.run.app/vtfront",
                        "urlnotcontains": "tilemap"
                    }
                ],
                "hidefromlayerlist": true,
                "minopacity": 0.75,
                "identifyDisabled": true,
                "name": "teig",
                "type": "vector",
                "preview": "https://map-thumbs.feltgis.no/teig.png",
                "url": "https://feltgis-prod-ingress-fppskc73cq-lz.a.run.app/vtfront/acc14f4e-4aac-7bf0-558a-1700a0fafaf4",
                "statusUrl": "https://feltgis-prod-ingress-fppskc73cq-lz.a.run.app/vtfront/acc14f4e-4aac-7bf0-558a-1700a0fafaf4/status"
            },
            {
                "alias": "Grensepunkter",
                "bodyreplacements": [
                    {
                        "collection": "mapcache",
                        "contenttype": "application/json",
                        "replace": "http://localhost:[CACHEPORT]/mapcache/vector.services.geodataonline.no",
                        "search": "https://vector.services.geodataonline.no",
                        "urlcontains": "-ingress-fppskc73cq-lz.a.run.app/vtfront",
                        "urlnotcontains": "tilemap"
                    }
                ],
                "identifyDisabled": true,
                "name": "grensepunkter",
                "type": "vector",
                "preview": "https://map-thumbs.feltgis.no/grensepunkter.png",
                "url": "https://feltgis-prod-ingress-fppskc73cq-lz.a.run.app/vtfront/2cda7982-5089-763e-f37a-bc53f566e37f"
            },
            {
                "alias": "Andre hensyn",
                "hidefromlayerlist": true,
                "minopacity": 0.75,
                "name": "Andre",
                "type": "raster",
                "preview": "https://map-thumbs.feltgis.no/andre.png",
                "url": "http://35.228.152.51/Andre/MapServer"
            },
            {
                "alias": "NTmis",
                "bodyreplacements": [
                    {
                        "collection": "mapcache",
                        "contenttype": "application/json",
                        "replace": "http://localhost:[CACHEPORT]/mapcache/vector.services.geodataonline.no",
                        "search": "https://vector.services.geodataonline.no",
                        "urlcontains": "-ingress-fppskc73cq-lz.a.run.app/vtfront",
                        "urlnotcontains": "tilemap"
                    }
                ],
                "hidefromlayerlist": true,
                "minopacity": 0.75,
                "name": "NTmis",
                "type": "vector",
                "preview": "https://map-thumbs.feltgis.no/ntmis.png",
                "url": "https://feltgis-prod-ingress-fppskc73cq-lz.a.run.app/vtfront/0ce16765-06dd-1619-63ee-544ff17a5e79"
            },
            {
                "alias": "MiS",
                "hidefromlayerlist": true,
                "minopacity": 0.75,
                "name": "mis",
                "type": "raster",
                "preview": "https://map-thumbs.feltgis.no/mis.png",
                "url": "http://35.228.152.51/mis/MapServer"
            },
            {
                "alias": "Kulturminner",
                "bodyreplacements": [
                    {
                        "collection": "mapcache",
                        "contenttype": "application/json",
                        "replace": "http://localhost:[CACHEPORT]/mapcache/vector.services.geodataonline.no",
                        "search": "https://vector.services.geodataonline.no",
                        "urlcontains": "-ingress-fppskc73cq-lz.a.run.app/vtfront",
                        "urlnotcontains": "tilemap"
                    }
                ],
                "minopacity": 0.5,
                "name": "kulturminner",
                "type": "vector",
                "preview": "https://map-thumbs.feltgis.no/ra.png",
                "url": "https://feltgis-prod-ingress-fppskc73cq-lz.a.run.app/vtfront/compound/dbkulturminner"
            },
            {
                "alias": "Høydekurver",
                "bodyreplacements": [
                    {
                        "collection": "mapcache",
                        "contenttype": "application/json",
                        "replace": "http://localhost:[CACHEPORT]/mapcache/vector.services.geodataonline.no",
                        "search": "https://vector.services.geodataonline.no",
                        "urlcontains": "VectorTileServer",
                        "urlnotcontains": "tilemap"
                    },
                    {
                        "collection": "mapcache",
                        "contenttype": "application/json",
                        "replace": "http://localhost:[CACHEPORT]/mapcache/services.geodataonline.no",
                        "search": "https://services.geodataonline.no",
                        "urlcontains": "VectorTileServer",
                        "urlnotcontains": "tilemap"
                    },
                    {
                        "collection": "mapcache",
                        "contenttype": "application/json",
                        "replace": "http://localhost:[CACHEPORT]/mapcache/vector.services.geodataonline.no",
                        "search": "https://vector.services.geodataonline.no",
                        "urlcontains": "mapprod.feltgis.no",
                        "urlnotcontains": "tilemap"
                    },
                    {
                        "collection": "mapcache",
                        "contenttype": "application/json",
                        "replace": "http://localhost:[CACHEPORT]/mapcache/services.geodataonline.no",
                        "search": "https://services.geodataonline.no",
                        "urlcontains": "mapprod.feltgis.no",
                        "urlnotcontains": "tilemap"
                    },
                    {
                        "collection": "mapcache",
                        "contenttype": "application/json",
                        "replace": "TilesOnly",
                        "search": "TilesOnly,Tilemap",
                        "urlcontains": "?f=json",
                        "urlnotcontains": "tilemap"
                    },
                    {
                        "collection": "mapcache",
                        "contenttype": "application/json",
                        "replace": "\"_tileMap\"",
                        "search": "\"tileMap\"",
                        "urlcontains": "?f=json",
                        "urlnotcontains": "tilemap"
                    }
                ],
                "cachewarmupurls": [
                    {
                        "collection": "mapcache",
                        "urls": [
                            "https://services.geodataonline.no/arcgis/rest/services/GeocacheVector/GeocacheHoydekurver/VectorTileServer?f=json",
                            "https://services.geodataonline.no/arcgis/rest/services/GeocacheVector/GeocacheHoydekurver/VectorTileServer/resources/styles?f=json",
                            "https://vector.services.geodataonline.no/arcgis/rest/services/GeocacheVector/GeocacheHoydekurver/VectorTileServer?f=json",
                            "https://vector.services.geodataonline.no/arcgis/rest/services/GeocacheVector/GeocacheHoydekurver/VectorTileServer/resources/sprites/sprite@2x.json?f=json",
                            "https://vector.services.geodataonline.no/arcgis/rest/services/GeocacheVector/GeocacheHoydekurver/VectorTileServer/resources/sprites/sprite@2x.png",
                            "https://vector.services.geodataonline.no/arcgis/rest/services/GeocacheVector/GeocacheHoydekurver/VectorTileServer/?f=json"
                        ]
                    }
                ],
                "defaultopacity": 0.6,
                "identifyDisabled": true,
                "name": "Hoydekurver",
                "type": "vector",
                "preview": "https://map-thumbs.feltgis.no/hoydekurver.png",
                "url": "https://services.geodataonline.no/arcgis/rest/services/GeocacheVector/GeocacheHoydekurver/VectorTileServer"
            },
            {
                "alias": "Driftsområde",
                "minopacity": 0.3,
                "name": "CAPTommerdrift",
                "rendering": {
                    "definitionExpression": "_serviceOrderId='{{_serviceOrderId}}'",
                    "includeFields": [
                        "_serviceOrderId"
                    ]
                },
                "type": "polygon"
            },
            {
                "hidefromlayerlist": true,
                "keepInBackgroundMap": true,
                "minopacity": 0.75,
                "name": "CAMiljoFlater",
                "type": "polygon"
            },
            {
                "alias": "Registreringer flater",
                "hidefromlayerlist": true,
                "minopacity": 0.5,
                "name": "CARegistreringerFlater",
                "rendering": {
                    "includeFields": [
                        "comment"
                    ]
                },
                "type": "polygon",
                "preview": "https://map-thumbs.feltgis.no/registreringerflater.png"
            },
            {
                "alias": "Sporlogg",
                "identifyDisabled": true,
                "name": "CASporlogg",
                "rendering": {
                    "definitionExpression": "_serviceOrderId='{{_serviceOrderId}}'",
                    "includeFields": [
                        "_serviceOrderId"
                    ]
                },
                "type": "line",
                "preview": "https://map-thumbs.feltgis.no/gmsporlogg.png"
            },
            {
                "hidefromlayerlist": true,
                "keepInBackgroundMap": true,
                "minopacity": 0.75,
                "name": "CAMiljoLinjer",
                "type": "line"
            },
            {
                "alias": "Registreringer linjer",
                "hidefromlayerlist": true,
                "minopacity": 0.75,
                "name": "CARegistreringerLinjer",
                "rendering": {
                    "includeFields": [
                        "comment"
                    ]
                },
                "type": "line",
                "preview": "https://map-thumbs.feltgis.no/registreringerlinjer.png"
            },
            {
                "hidefromlayerlist": true,
                "keepInBackgroundMap": true,
                "minopacity": 0.75,
                "name": "CAMiljoPunkt",
                "type": "point"
            },
            {
                "alias": "Registreringer punkt",
                "hidefromlayerlist": true,
                "minopacity": 0.75,
                "name": "CARegistreringerPunkt",
                "rendering": {
                    "includeFields": [
                        "comment"
                    ]
                },
                "type": "point",
                "preview": "https://map-thumbs.feltgis.no/registreringerpunkt.png"
            },
            {
                "alias": "Bestandsflater",
                "bodyreplacements": [
                    {
                        "collection": "mapcache",
                        "contenttype": "application/json",
                        "replace": "http://localhost:[CACHEPORT]/mapcache/vector.services.geodataonline.no",
                        "search": "https://vector.services.geodataonline.no",
                        "urlcontains": "-ingress-fppskc73cq-lz.a.run.app/vtfront",
                        "urlnotcontains": "tilemap"
                    }
                ],
                "defaultopacity": 0.5,
                "name": "Bestandsflater",
                "type": "vector",
                "preview": "https://map-thumbs.feltgis.no/cabestand.png",
                "url": "https://feltgis-prod-ingress-fppskc73cq-lz.a.run.app/vtfront/00bb7c15-498e-de22-749f-f006e5fe0aa9",
                "statusUrl": "https://feltgis-prod-ingress-fppskc73cq-lz.a.run.app/vtfront/00bb7c15-498e-de22-749f-f006e5fe0aa9/status"
            },
            {
                "alias": "Stammepunkt",
                "defaultopacity": 0.3,
                "identifyDisabled": true,
                "name": "CAStem",
                "rendering": {
                    "definitionExpression": "_serviceOrderId='{{_serviceOrderId}}'",
                    "includeFields": [
                        "_serviceOrderId"
                    ]
                },
                "type": "point",
                "preview": "https://map-thumbs.feltgis.no/stammepunkt.png"
            },
            {
                "hidefromlayerlist": true,
                "minopacity": 0.75,
                "name": "NTSkogdata",
                "type": "point",
                "preview": "https://map-thumbs.feltgis.no/ntskogdata.png"
            },
            {
                "alias": "Stedsnavn",
                "defaultopacity": 0.8,
                "identifyDisabled": true,
                "name": "geocachenames",
                "type": "vector",
                "preview": "https://map-thumbs.feltgis.no/stedsnavn.png",
                "url": "https://feltgis-prod-ingress-fppskc73cq-lz.a.run.app/vtfront/geocachenames"
            }
        ],
        "sections": [
            {
                "id": 1,
                "title": "Stammedata fra produksjonsfil"
            }
        ]
    },
    "name": "Cappelen prod",
    "orgNum": "979200048",
    "genericReports": {
        "template": "https://bitbucket.org/feltgis/feltgis-config/raw/master/rapporter/cappelen/generic.html"
    },
    "reports": [
        {
            "collection": "CAEgenkontroll",
            "template": "https://bitbucket.org/feltgis/feltgis-config/raw/master/rapporter/cappelen/egenkontroll.html"
        },
        {
            "collection": "CAEgenkontrollLass",
            "template": "https://bitbucket.org/feltgis/feltgis-config/raw/master/rapporter/cappelen/egenkontroll-lass.html"
        },
        {
            "collection": "CAEgenkontrollHogst",
            "template": "https://bitbucket.org/feltgis/feltgis-config/raw/master/rapporter/cappelen/egenkontroll-hogst.html"
        }
    ],
    "serverQueries": [
        {
            "name": "matrikkel",
            "returnFields": [
                "eiernavn",
                "bruksnavn",
                "matrikkeltype",
                "fylkesnavn",
                "kommunenavn",
                "kommunenr",
                "gardsnr",
                "bruksnr",
                "lagretareal",
                "eierdatofra"
            ]
        }
    ],
    "sync": {
        "collections": [
            {
                "alias": "Sesjonsdata",
                "appFeature": "Session",
                "attachmentsBucket": "casession",
                "batchSize": 100,
                "disablePull": true,
                "name": "CASession"
            },
            {
                "alias": "Stammedata fra produksjonsfil",
                "appFeature": "Stems",
                "batchSize": 2000,
                "indexFields": [
                    "_orderId",
                    "_serviceOrderId"
                ],
                "name": "CAStem",
                "syncFilter": {
                    "useServiceOrderId": true
                }
            },
            {
                "alias": "Hendelser",
                "appFeature": "Incidents",
                "attachmentFilenamesField": "_filenames",
                "attachmentsBucket": "caincident",
                "batchSize": 100,
                "indexFields": [
                    "_orderId",
                    "_serviceOrderId"
                ],
                "name": "CAIncident",
                "syncFilter": {
                    "useServiceOrderId": true
                }
            },
            {
                "name": "CAMiljoPunkt",
                "syncFilter": {
                    "syncEverything": true
                }
            },
            {
                "name": "CAMiljoLinjer",
                "syncFilter": {
                    "syncEverything": true
                }
            },
            {
                "name": "CAMiljoFlater",
                "syncFilter": {
                    "syncEverything": true
                }
            },
            {
                "batchSize": 1000,
                "indexFields": [
                    "_orderId",
                    "_serviceOrderId"
                ],
                "name": "CARegistreringerPunkt",
                "rpi": true,
                "syncFilter": {
                    "useServiceOrderId": true
                }
            },
            {
                "batchSize": 1000,
                "indexFields": [
                    "_orderId",
                    "_serviceOrderId"
                ],
                "name": "CARegistreringerLinjer",
                "rpi": true,
                "syncFilter": {
                    "useServiceOrderId": true
                }
            },
            {
                "batchSize": 1000,
                "indexFields": [
                    "_orderId",
                    "_serviceOrderId"
                ],
                "name": "CARegistreringerFlater",
                "rpi": true,
                "syncFilter": {
                    "useServiceOrderId": true
                }
            },
            {
                "alias": "Sporlogg",
                "appFeature": "Sporlogg",
                "batchSize": 1000,
                "indexFields": [
                    "_orderId",
                    "_serviceOrderId"
                ],
                "name": "CASporlogg",
                "skipWaitOnAdd": true,
                "syncFilter": {
                    "useServiceOrderId": true
                }
            },
            {
                "appFeature": "Egenkontroll",
                "attachmentsBucket": "caegenkontroll",
                "batchSize": 10,
                "indexFields": [
                    "_orderId",
                    "_serviceOrderId"
                ],
                "name": "CAEgenkontroll"
            },
            {
                "appFeature": "EgenkontrollLass",
                "attachmentsBucket": "caegenkontroll-lass",
                "batchSize": 10,
                "indexFields": [
                    "_orderId",
                    "_serviceOrderId"
                ],
                "name": "CAEgenkontrollLass"
            },
            {
                "appFeature": "EgenkontrollHogst",
                "attachmentsBucket": "caegenkontroll-hogst",
                "batchSize": 10,
                "indexFields": [
                    "_orderId",
                    "_serviceOrderId"
                ],
                "name": "CAEgenkontrollHogst"
            },
            {
                "appFeature": "SupplyPoints",
                "disablePull": true,
                "disablePush": true,
                "indexFields": [
                    "_orderId"
                ],
                "name": "NTSkogdata",
                "rpi": true
            },
            {
                "appFeature": "Tømmerdrift",
                "batchSize": 10,
                "disablePush": true,
                "indexFields": [
                    "_orderId",
                    "_serviceOrderId"
                ],
                "name": "CAPTommerdrift",
                "rpi": true,
                "syncFilter": {
                    "useServiceOrderId": true
                }
            },
            {
                "appFeature": "work order acceptance",
                "disablePull": true,
                "indexFields": [
                    "_orderId"
                ],
                "name": "CAWorkOrderAcceptance"
            },
            {
                "alias": "Entreprenørdata",
                "appFeature": "ContractorPoints",
                "batchSize": 1000,
                "indexFields": [
                    "_orderId",
                    "_serviceOrderId",
                    "_visibilityMode"
                ],
                "name": "CAContractorPoint",
                "syncFilter": {
                    "useServiceOrderId": true
                }
            }
        ],
        "intervalMinutes": 2
    },
    "vsysFeatures": [
        {
            "feature": "prodForw",
            "users": [
                "*"
            ]
        },
        {
            "feature": "autoCopyFilesFromBox",
            "users": [
                "*"
            ]
        },
        {
            "feature": "everythingProdForw",
            "users": [
                "*"
            ]
        },
        {
            "feature": "productLines",
            "users": [
                "*"
            ]
        },
        {
            "feature": "attachments",
            "users": [
                "*"
            ]
        },
        {
            "feature": "keyFigures",
            "users": [
                "*"
            ]
        },
        {
            "feature": "removeFromList",
            "users": [
                "*"
            ]
        },
        {
            "feature": "measuringtickets",
            "users": [
                "*"
            ]
        },
        {
            "feature": "wreckanddowngrade",
            "users": [
                "*"
            ]
        },
        {
            "feature": "map",
            "users": [
                "*"
            ]
        },
        {
            "feature": "prepareOffline",
            "users": [
                "*"
            ]
        },
        {
            "feature": "incidents",
            "users": [
                "*"
            ]
        },
        {
            "feature": "Stems",
            "users": [
                "*"
            ]
        },
        {
            "feature": "AssortmentStems",
            "users": [
                "*"
            ]
        },
        {
            "feature": "workOrder",
            "users": [
                "*"
            ]
        },
        {
            "feature": "deviations",
            "users": [
                "*"
            ]
        }
    ],
    "proximityAlarms": [
        {
            "name": "Driftsområde",
            "source": {
                "type": "collection",
                "id": "CAPTommerdrift"
            },
            "setup": {
                "gradientCutoffDistanceMeters": 10,
                "alarmOutside": true,
                "usedToDetermineExtent": true
            }
        }
    ]
}

