{
    "map": {
        "addFeatures": [
            {
                "collection": "MEContractorPoint",
                "displayname": "Private entreprenørdata"
            },
            {
                "collection": "MERegistreringerPunkt",
                "displayname": "Registreringer punkt"
            },
            {
                "collection": "MERegistreringerLinjer",
                "displayname": "Registreringer linjer"
            },
            {
                "collection": "MERegistreringerFlater",
                "displayname": "Registreringer flater"
            }
        ],
        "background": [
            {
                "name": "Kart",
                "type": "raster",
                "url": "http://services.geodataonline.no/arcgis/rest/services/Geocache_UTM33_EUREF89/GeocacheBasis/MapServer"
            },
            {
                "hidden": true,
                "name": "Foto",
                "type": "raster",
                "url": "http://services.geodataonline.no/arcgis/rest/services/Geocache_UTM33_EUREF89/GeocacheBilder/MapServer"
            }
        ],
        "editFeatures": [
            {
                "collection": "MEContractorPoint",
                "deleteMode": "authoredOnly",
                "editMode": "everybody",
                "geometryEditing": "authoredOnly"
            },
            {
                "collection": "MERegistreringerPunkt",
                "deleteMode": "authoredOnly",
                "editMode": "authoredOnly",
                "geometryEditing": "authoredOnly"
            },
            {
                "collection": "MERegistreringerLinjer",
                "deleteMode": "authoredOnly",
                "editMode": "authoredOnly",
                "geometryEditing": "authoredOnly"
            },
            {
                "collection": "MERegistreringerFlater",
                "deleteMode": "authoredOnly",
                "editMode": "authoredOnly",
                "geometryEditing": "authoredOnly"
            },
            {
                "collection": "MEMarkberedningTelling",
                "deleteMode": "authoredOnly",
                "editMode": "everybody",
                "geometryEditing": "disabled"
            },
            {
                "collection": "MEPlantingTelling",
                "deleteMode": "authoredOnly",
                "editMode": "everybody",
                "geometryEditing": "disabled"
            },
            {
                "collection": "MEUngskogpleieTelling",
                "deleteMode": "authoredOnly",
                "editMode": "everybody",
                "geometryEditing": "disabled"
            }
        ],
        "layers": [
            {
                "alias": "Fugl hensyn",
                "bodyreplacements": [
                    {
                        "collection": "mapcache",
                        "contenttype": "application/json",
                        "replace": "http://localhost:[CACHEPORT]/mapcache/vector.services.geodataonline.no",
                        "search": "https://vector.services.geodataonline.no",
                        "urlcontains": "-ingress-fppskc73cq-lz.a.run.app/vtfront",
                        "urlnotcontains": "tilemap"
                    }
                ],
                "hidefromlayerlist": true,
                "name": "FGFugl",
                "type": "vector",
                "url": "https://feltgis-prod-ingress-fppskc73cq-lz.a.run.app/vtfront/0aa39fba-cf92-748a-018c-d7d150996777"
            },
            {
                "alias": "MiS (tidlig)",
                "bodyreplacements": [
                    {
                        "collection": "mapcache",
                        "contenttype": "application/json",
                        "replace": "http://localhost:[CACHEPORT]/mapcache/vector.services.geodataonline.no",
                        "search": "https://vector.services.geodataonline.no",
                        "urlcontains": "-ingress-fppskc73cq-lz.a.run.app/vtfront",
                        "urlnotcontains": "tilemap"
                    }
                ],
                "defaultopacity": 0.8,
                "hidefromlayerlist": true,
                "minscale": 20000,
                "minopacity": 0.75,
                "name": "misc",
                "type": "vector",
                "url": "https://feltgis-prod-ingress-fppskc73cq-lz.a.run.app/vtfront/5a9307ec-28f8-9d3b-8901-6a85cd645501"
            },
            {
                "defaultopacity": 0.35,
                "identifyDisabled": true,
                "name": "Markfuktighetskart",
                "type": "raster",
                "preview": "https://map-thumbs.feltgis.no/markfuktighetskart.png",
                "url": "http://35.228.152.51/Markfuktighetskart/MapServer"
            },
            {
                "alias": "Naturtyper HB13",
                "bodyreplacements": [
                    {
                        "collection": "mapcache",
                        "contenttype": "application/json",
                        "replace": "http://localhost:[CACHEPORT]/mapcache/vector.services.geodataonline.no",
                        "search": "https://vector.services.geodataonline.no",
                        "urlcontains": "-ingress-fppskc73cq-lz.a.run.app/vtfront",
                        "urlnotcontains": "tilemap"
                    }
                ],
                "defaultopacity": 1,
                "hidefromlayerlist": true,
                "minopacity": 0.75,
                "name": "naturtyper_hb13_alle_a_b",
                "type": "vector",
                "preview": "https://map-thumbs.feltgis.no/naturtyperhb13.png",
                "url": "https://feltgis-prod-ingress-fppskc73cq-lz.a.run.app/vtfront/c61708f5-112f-2eac-1ed2-66b2a36392c9",
                "statusUrl": "https://feltgis-prod-ingress-fppskc73cq-lz.a.run.app/vtfront/c61708f5-112f-2eac-1ed2-66b2a36392c9/status"
            },
            {
                "alias": "Narin",
                "bodyreplacements": [
                    {
                        "collection": "mapcache",
                        "contenttype": "application/json",
                        "replace": "http://localhost:[CACHEPORT]/mapcache/vector.services.geodataonline.no",
                        "search": "https://vector.services.geodataonline.no",
                        "urlcontains": "-ingress-fppskc73cq-lz.a.run.app/vtfront",
                        "urlnotcontains": "tilemap"
                    }
                ],
                "hidefromlayerlist": true,
                "minopacity": 0.75,
                "name": "narin",
                "type": "vector",
                "url": "https://feltgis-prod-ingress-fppskc73cq-lz.a.run.app/vtfront/compound/dbnarin"
            },
            {
                "alias": "NiN",
                "bodyreplacements": [
                    {
                        "collection": "mapcache",
                        "contenttype": "application/json",
                        "replace": "http://localhost:[CACHEPORT]/mapcache/vector.services.geodataonline.no",
                        "search": "https://vector.services.geodataonline.no",
                        "urlcontains": "-ingress-fppskc73cq-lz.a.run.app/vtfront",
                        "urlnotcontains": "tilemap"
                    }
                ],
                "hidefromlayerlist": true,
                "minopacity": 0.75,
                "name": "naturtyper_unfiltered",
                "type": "vector",
                "url": "https://feltgis-prod-ingress-fppskc73cq-lz.a.run.app/vtfront/a1e5b8df-6b52-151a-a7b4-69681300068f",
                "statusUrl": "https://feltgis-prod-ingress-fppskc73cq-lz.a.run.app/vtfront/a1e5b8df-6b52-151a-a7b4-69681300068f/status"
            },
            {
                "alias": "Friluftsliv",
                "bodyreplacements": [
                    {
                        "collection": "mapcache",
                        "contenttype": "application/json",
                        "replace": "http://localhost:[CACHEPORT]/mapcache/vector.services.geodataonline.no",
                        "search": "https://vector.services.geodataonline.no",
                        "urlcontains": "-ingress-fppskc73cq-lz.a.run.app/vtfront",
                        "urlnotcontains": "tilemap"
                    }
                ],
                "hidefromlayerlist": true,
                "minopacity": 0.75,
                "name": "friluftsliv_statlig_sikra_friluftsliv_statlig_sikra",
                "type": "vector",
                "url": "https://feltgis-prod-ingress-fppskc73cq-lz.a.run.app/vtfront/894a1dce-5731-ff71-4af8-40c4aa7a4058",
                "statusUrl": "https://feltgis-prod-ingress-fppskc73cq-lz.a.run.app/vtfront/894a1dce-5731-ff71-4af8-40c4aa7a4058/status"
            },
            {
                "alias": "Vern",
                "bodyreplacements": [
                    {
                        "collection": "mapcache",
                        "contenttype": "application/json",
                        "replace": "http://localhost:[CACHEPORT]/mapcache/vector.services.geodataonline.no",
                        "search": "https://vector.services.geodataonline.no",
                        "urlcontains": "-ingress-fppskc73cq-lz.a.run.app/vtfront",
                        "urlnotcontains": "tilemap"
                    }
                ],
                "hidefromlayerlist": true,
                "minopacity": 0.75,
                "name": "vern_naturvern_omrade",
                "type": "vector",
                "preview": "https://map-thumbs.feltgis.no/vern.png",
                "url": "https://feltgis-prod-ingress-fppskc73cq-lz.a.run.app/vtfront/1f1aace9-82dc-b429-ffd9-b578fce18e63",
                "statusUrl": "https://feltgis-prod-ingress-fppskc73cq-lz.a.run.app/vtfront/1f1aace9-82dc-b429-ffd9-b578fce18e63/status"
            },
            {
                "alias": "Vernskog",
                "bodyreplacements": [
                    {
                        "collection": "mapcache",
                        "contenttype": "application/json",
                        "replace": "http://localhost:[CACHEPORT]/mapcache/vector.services.geodataonline.no",
                        "search": "https://vector.services.geodataonline.no",
                        "urlcontains": "-ingress-fppskc73cq-lz.a.run.app/vtfront",
                        "urlnotcontains": "tilemap"
                    }
                ],
                "hidefromlayerlist": true,
                "minopacity": 0.75,
                "name": "vernskog",
                "type": "vector",
                "preview": "https://map-thumbs.feltgis.no/vernskog.png",
                "url": "https://feltgis-prod-ingress-fppskc73cq-lz.a.run.app/vtfront/763000db-5503-0166-a585-9b5ccce9a8ac",
                "statusUrl": "https://feltgis-prod-ingress-fppskc73cq-lz.a.run.app/vtfront/763000db-5503-0166-a585-9b5ccce9a8ac/status"
            },
            {
                "alias": "Artsdata NIBIO",
                "defaultopacity": 1,
                "hidefromlayerlist": true,
                "minopacity": 1,
                "name": "artsdata",
                "type": "raster",
                "url": "http://35.228.152.51/artsdata/MapServer"
            },
            {
                "alias": "Arter",
                "bodyreplacements": [
                    {
                        "collection": "mapcache",
                        "contenttype": "application/json",
                        "replace": "http://localhost:[CACHEPORT]/mapcache/vector.services.geodataonline.no",
                        "search": "https://vector.services.geodataonline.no",
                        "urlcontains": "-ingress-fppskc73cq-lz.a.run.app/vtfront",
                        "urlnotcontains": "tilemap"
                    }
                ],
                "hidefromlayerlist": true,
                "minopacity": 0.75,
                "name": "arter",
                "type": "vector",
                "url": "https://feltgis-prod-ingress-fppskc73cq-lz.a.run.app/vtfront/compound/dbarter"
            },
            {
                "alias": "Kvikkleirefaregrad",
                "bodyreplacements": [
                    {
                        "collection": "mapcache",
                        "contenttype": "application/json",
                        "replace": "http://localhost:[CACHEPORT]/mapcache/vector.services.geodataonline.no",
                        "search": "https://vector.services.geodataonline.no",
                        "urlcontains": "-ingress-fppskc73cq-lz.a.run.app/vtfront",
                        "urlnotcontains": "tilemap"
                    }
                ],
                "name": "skredkvikkleire2_kvikkleirefaregrad",
                "type": "vector",
                "preview": "https://map-thumbs.feltgis.no/kvikkleirefaregrad.png",
                "url": "https://feltgis-prod-ingress-fppskc73cq-lz.a.run.app/vtfront/bfbb39c2-45b2-ee9c-2457-c986f83099fa"
            },
            {
                "alias": "Jord og flomskred",
                "bodyreplacements": [
                    {
                        "collection": "mapcache",
                        "contenttype": "application/json",
                        "replace": "http://localhost:[CACHEPORT]/mapcache/vector.services.geodataonline.no",
                        "search": "https://vector.services.geodataonline.no",
                        "urlcontains": "-ingress-fppskc73cq-lz.a.run.app/vtfront",
                        "urlnotcontains": "tilemap"
                    }
                ],
                "name": "jord_og_flomskred",
                "type": "vector",
                "preview": "https://map-thumbs.feltgis.no/jordogflom.png",
                "url": "https://feltgis-prod-ingress-fppskc73cq-lz.a.run.app/vtfront/2e540c0d-b7d3-e932-eb0c-d0763337c778",
                "statusUrl": "https://feltgis-prod-ingress-fppskc73cq-lz.a.run.app/vtfront/2e540c0d-b7d3-e932-eb0c-d0763337c778/status"
            },
            {
                "alias": "Reguleringsplaner",
                "defaultopacity": 0,
                "name": "Reguleringsplaner",
                "type": "raster",
                "preview": "https://map-thumbs.feltgis.no/reguleringsplaner.png",
                "url": "http://35.228.152.51/Reguleringsplaner/MapServer"
            },
            {
                "alias": "Eiendom",
                "bodyreplacements": [
                    {
                        "collection": "mapcache",
                        "contenttype": "application/json",
                        "replace": "http://localhost:[CACHEPORT]/mapcache/vector.services.geodataonline.no",
                        "search": "https://vector.services.geodataonline.no",
                        "urlcontains": "-ingress-fppskc73cq-lz.a.run.app/vtfront",
                        "urlnotcontains": "tilemap"
                    }
                ],
                "hidefromlayerlist": true,
                "minopacity": 0.75,
                "identifyDisabled": true,
                "name": "teig",
                "type": "vector",
                "preview": "https://map-thumbs.feltgis.no/teig.png",
                "url": "https://feltgis-prod-ingress-fppskc73cq-lz.a.run.app/vtfront/acc14f4e-4aac-7bf0-558a-1700a0fafaf4",
                "statusUrl": "https://feltgis-prod-ingress-fppskc73cq-lz.a.run.app/vtfront/acc14f4e-4aac-7bf0-558a-1700a0fafaf4/status"
            },
            {
                "alias": "Grensepunkter",
                "bodyreplacements": [
                    {
                        "collection": "mapcache",
                        "contenttype": "application/json",
                        "replace": "http://localhost:[CACHEPORT]/mapcache/vector.services.geodataonline.no",
                        "search": "https://vector.services.geodataonline.no",
                        "urlcontains": "-ingress-fppskc73cq-lz.a.run.app/vtfront",
                        "urlnotcontains": "tilemap"
                    }
                ],
                "identifyDisabled": true,
                "name": "grensepunkter",
                "type": "vector",
                "preview": "https://map-thumbs.feltgis.no/grensepunkter.png",
                "url": "https://feltgis-prod-ingress-fppskc73cq-lz.a.run.app/vtfront/2cda7982-5089-763e-f37a-bc53f566e37f"
            },
            {
                "alias": "Andre hensyn",
                "hidefromlayerlist": true,
                "minopacity": 0.75,
                "name": "Andre",
                "type": "raster",
                "preview": "https://map-thumbs.feltgis.no/andre.png",
                "url": "http://35.228.152.51/Andre/MapServer"
            },
            {
                "alias": "NTmis",
                "bodyreplacements": [
                    {
                        "collection": "mapcache",
                        "contenttype": "application/json",
                        "replace": "http://localhost:[CACHEPORT]/mapcache/vector.services.geodataonline.no",
                        "search": "https://vector.services.geodataonline.no",
                        "urlcontains": "-ingress-fppskc73cq-lz.a.run.app/vtfront",
                        "urlnotcontains": "tilemap"
                    }
                ],
                "hidefromlayerlist": true,
                "minopacity": 0.75,
                "name": "NTmis",
                "type": "vector",
                "preview": "https://map-thumbs.feltgis.no/ntmis.png",
                "url": "https://feltgis-prod-ingress-fppskc73cq-lz.a.run.app/vtfront/0ce16765-06dd-1619-63ee-544ff17a5e79"
            },
            {
                "alias": "MiS",
                "hidefromlayerlist": true,
                "minopacity": 0.75,
                "name": "mis",
                "type": "raster",
                "preview": "https://map-thumbs.feltgis.no/mis.png",
                "url": "http://35.228.152.51/mis/MapServer"
            },
            {
                "alias": "Kulturminner",
                "bodyreplacements": [
                    {
                        "collection": "mapcache",
                        "contenttype": "application/json",
                        "replace": "http://localhost:[CACHEPORT]/mapcache/vector.services.geodataonline.no",
                        "search": "https://vector.services.geodataonline.no",
                        "urlcontains": "-ingress-fppskc73cq-lz.a.run.app/vtfront",
                        "urlnotcontains": "tilemap"
                    }
                ],
                "minopacity": 0.5,
                "name": "kulturminner",
                "type": "vector",
                "preview": "https://map-thumbs.feltgis.no/ra.png",
                "url": "https://feltgis-prod-ingress-fppskc73cq-lz.a.run.app/vtfront/compound/dbkulturminner"
            },
            {
                "alias": "Høydekurver",
                "bodyreplacements": [
                    {
                        "collection": "mapcache",
                        "contenttype": "application/json",
                        "replace": "http://localhost:[CACHEPORT]/mapcache/vector.services.geodataonline.no",
                        "search": "https://vector.services.geodataonline.no",
                        "urlcontains": "VectorTileServer",
                        "urlnotcontains": "tilemap"
                    },
                    {
                        "collection": "mapcache",
                        "contenttype": "application/json",
                        "replace": "http://localhost:[CACHEPORT]/mapcache/services.geodataonline.no",
                        "search": "https://services.geodataonline.no",
                        "urlcontains": "VectorTileServer",
                        "urlnotcontains": "tilemap"
                    },
                    {
                        "collection": "mapcache",
                        "contenttype": "application/json",
                        "replace": "http://localhost:[CACHEPORT]/mapcache/vector.services.geodataonline.no",
                        "search": "https://vector.services.geodataonline.no",
                        "urlcontains": "mapprod.feltgis.no",
                        "urlnotcontains": "tilemap"
                    },
                    {
                        "collection": "mapcache",
                        "contenttype": "application/json",
                        "replace": "http://localhost:[CACHEPORT]/mapcache/services.geodataonline.no",
                        "search": "https://services.geodataonline.no",
                        "urlcontains": "mapprod.feltgis.no",
                        "urlnotcontains": "tilemap"
                    },
                    {
                        "collection": "mapcache",
                        "contenttype": "application/json",
                        "replace": "TilesOnly",
                        "search": "TilesOnly,Tilemap",
                        "urlcontains": "?f=json",
                        "urlnotcontains": "tilemap"
                    },
                    {
                        "collection": "mapcache",
                        "contenttype": "application/json",
                        "replace": "\"_tileMap\"",
                        "search": "\"tileMap\"",
                        "urlcontains": "?f=json",
                        "urlnotcontains": "tilemap"
                    }
                ],
                "cachewarmupurls": [
                    {
                        "collection": "mapcache",
                        "urls": [
                            "https://services.geodataonline.no/arcgis/rest/services/GeocacheVector/GeocacheHoydekurver/VectorTileServer?f=json",
                            "https://services.geodataonline.no/arcgis/rest/services/GeocacheVector/GeocacheHoydekurver/VectorTileServer/resources/styles?f=json",
                            "https://vector.services.geodataonline.no/arcgis/rest/services/GeocacheVector/GeocacheHoydekurver/VectorTileServer?f=json",
                            "https://vector.services.geodataonline.no/arcgis/rest/services/GeocacheVector/GeocacheHoydekurver/VectorTileServer/resources/sprites/sprite@2x.json?f=json",
                            "https://vector.services.geodataonline.no/arcgis/rest/services/GeocacheVector/GeocacheHoydekurver/VectorTileServer/resources/sprites/sprite@2x.png",
                            "https://vector.services.geodataonline.no/arcgis/rest/services/GeocacheVector/GeocacheHoydekurver/VectorTileServer/?f=json"
                        ]
                    }
                ],
                "defaultopacity": 0.6,
                "identifyDisabled": true,
                "name": "Hoydekurver",
                "type": "vector",
                "preview": "https://map-thumbs.feltgis.no/hoydekurver.png",
                "url": "https://services.geodataonline.no/arcgis/rest/services/GeocacheVector/GeocacheHoydekurver/VectorTileServer"
            },
            {
                "alias": "Bestandsflater",
                "bodyreplacements": [
                    {
                        "collection": "mapcache",
                        "contenttype": "application/json",
                        "replace": "http://localhost:[CACHEPORT]/mapcache/vector.services.geodataonline.no",
                        "search": "https://vector.services.geodataonline.no",
                        "urlcontains": "-ingress-fppskc73cq-lz.a.run.app/vtfront",
                        "urlnotcontains": "tilemap"
                    }
                ],
                "defaultopacity": 0.5,
                "name": "Bestandsflater",
                "type": "vector",
                "preview": "https://map-thumbs.feltgis.no/cabestand.png",
                "url": "https://feltgis-prod-ingress-fppskc73cq-lz.a.run.app/vtfront/d0be7f97-62cd-ba87-b7f7-f72ddd4af7ec",
                "statusUrl": "https://feltgis-prod-ingress-fppskc73cq-lz.a.run.app/vtfront/d0be7f97-62cd-ba87-b7f7-f72ddd4af7ec/status"
            },
            {
                "alias": "Stedsnavn",
                "defaultopacity": 0.8,
                "identifyDisabled": true,
                "name": "geocachenames",
                "type": "vector",
                "preview": "https://map-thumbs.feltgis.no/stedsnavn.png",
                "url": "https://feltgis-prod-ingress-fppskc73cq-lz.a.run.app/vtfront/geocachenames"
            }
        ]
    },
    "name": "Mathiesen Eidsvold Værk prod",
    "orgNum": "931073737",
    "sync": {
        "collections": null
    },
    "proximityAlarms": [
        {
            "name": "Driftsområde",
            "source": {
                "type": "collection",
                "id": "MEPTommerdrift"
            },
            "setup": {
                "gradientCutoffDistanceMeters": 10,
                "alarmOutside": true,
                "usedToDetermineExtent": true
            }
        }
    ]
}

