{
    "settings": [
        {
            "title": "Stammedata",
            "subTitle": "Del posisjon av hogstaggregat når treet felles",
            "id": "StemType:StemCoordinates",
            "defaultValue": {
                "boolValue": false
            }
        },
        {
            "title": "Tvangskapp",
            "subTitle": "Del tvangskapp og årsak til dette",
            "id": "CuttingCategoryType:CuttingReason",
            "defaultValue": {
                "boolValue": false
            }
        }
    ],
    "customConfigObjects": {
        "countOperations": [
            {
                "countField": "Count",
                "countType": "count",
                "searchCollection": "GMHenPoint",
                "searchFieldName": "Type",
                "searchFieldValue": "Livsløpstrær",
                "targetCollection": "GMWorkReport",
                "writeToField": "RetentionTreesAccountedForAmount"
            },
            {
                "countType": "length",
                "searchCollection": "GMHenLine",
                "searchFieldName": "Type",
                "searchFieldValue": "Sporskader",
                "targetCollection": "GMWorkReport",
                "writeToField": "TrackDamageAccountedForMeters"
            }
        ],
        "updateReactions": [
            {
                "reactionCollection": "GMWorkReport",
                "searchCollection": "GMHenPoint",
                "searchKey": "Type",
                "searchValue": "Livsløpstrær"
            },
            {
                "reactionCollection": "GMWorkReport",
                "searchCollection": "GMHenLine",
                "searchKey": "Type",
                "searchValue": "Sporskader"
            }
        ],
        "usersNotRequiredToSignWorkOrder": [
            "kristoffer@feltgis.no",
            "alte@feltgis.no",
            "andreas@feltgis.no",
            "eh@glommen-mjosen.no",
            "eh@mjosen.no",
            "ops@glommen-mjosen.no",
            "oab@glommen-mjosen.no",
            "lars@holth-skogsdrift.no",
            "jorgen@holth-skogsdrift.no",
            "ahwintervold@gmail.com"
        ]
    },
    "enabledfeatures": [
        "prodForw",
        "attachments",
        "keyFigures",
        "removeFromList",
        "map",
        "prepareOffline",
        "deviations",
        "measuringtickets"
    ],
    "map": {
        "addFeatures": [
            {
                "collection": "GMContractorPoint",
                "displayname": "Private entreprenørdata"
            },
            {
                "collection": "GMHenPoint",
                "displayname": "Registreringer punkt"
            },
            {
                "collection": "GMHenLine",
                "displayname": "Registreringer linjer"
            },
            {
                "collection": "GMHenPolygon",
                "displayname": "Registreringer flater"
            }
        ],
        "background": [
            {
                "name": "Foto",
                "type": "raster",
                "url": "http://services.geodataonline.no/arcgis/rest/services/Geocache_UTM33_EUREF89/GeocacheBilder/MapServer"
            },
            {
                "hidden": true,
                "name": "Kart",
                "type": "raster",
                "url": "http://services.geodataonline.no/arcgis/rest/services/Geocache_UTM33_EUREF89/GeocacheBasis/MapServer"
            }
        ],
        "editFeatures": [
            {
                "collection": "GMContractorPoint",
                "deleteMode": "authoredOnly",
                "editMode": "everybody",
                "geometryEditing": "authoredOnly"
            },
            {
                "collection": "GMHenPoint",
                "deleteMode": "authoredOnly",
                "editMode": "authoredOnly",
                "geometryEditing": "authoredOnly"
            },
            {
                "collection": "GMHenLine",
                "deleteMode": "authoredOnly",
                "editMode": "authoredOnly",
                "geometryEditing": "authoredOnly"
            },
            {
                "collection": "GMHenPolygon",
                "deleteMode": "authoredOnly",
                "editMode": "authoredOnly",
                "geometryEditing": "authoredOnly"
            },
            {
                "collection": "GMWorkReport",
                "deleteMode": "disabled",
                "editMode": "everybody",
                "geometryEditing": "disabled"
            },
            {
                "collection": "GMIncident",
                "deleteMode": "disabled",
                "editMode": "authoredOnly",
                "geometryEditing": "authoredOnly"
            },
            {
                "collection": "GMSporlogg",
                "deleteMode": "disabled",
                "editMode": "disabled",
                "geometryEditing": "disabled"
            }
        ],
        "layers": [
            {
                "alias": "Fugl hensyn",
                "bodyreplacements": [
                    {
                        "collection": "mapcache",
                        "contenttype": "application/json",
                        "replace": "http://localhost:[CACHEPORT]/mapcache/vector.services.geodataonline.no",
                        "search": "https://vector.services.geodataonline.no",
                        "urlcontains": "-ingress-fppskc73cq-lz.a.run.app/vtfront",
                        "urlnotcontains": "tilemap"
                    }
                ],
                "hidefromlayerlist": true,
                "name": "FGFugl",
                "type": "vector",
                "url": "https://feltgis-prod-ingress-fppskc73cq-lz.a.run.app/vtfront/0aa39fba-cf92-748a-018c-d7d150996777"
            },
            {
                "defaultopacity": 0,
                "name": "Aldersklasseriskog",
                "type": "raster",
                "preview": "https://map-thumbs.feltgis.no/Aldersklasseriskog.png",
                "url": "http://35.228.152.51/Aldersklasseriskog/MapServer"
            },
            {
                "alias": "Allma bestand",
                "defaultopacity": 0.3,
                "name": "GMStand",
                "rendering": {
                    "definitionExpression": "_serviceOrderId='{{_serviceOrderId}}'",
                    "includeFields": [
                        "_label",
                        "_serviceOrderId"
                    ]
                },
                "type": "polygon",
                "preview": "https://map-thumbs.feltgis.no/AllmaBestand.png"
            },
            {
                "alias": "Livsløpstrær Norge",
                "bodyreplacements": [
                    {
                        "collection": "mapcache",
                        "contenttype": "application/json",
                        "replace": "http://localhost:[CACHEPORT]/mapcache/vector.services.geodataonline.no",
                        "search": "https://vector.services.geodataonline.no",
                        "urlcontains": "-ingress-fppskc73cq-lz.a.run.app/vtfront",
                        "urlnotcontains": "tilemap"
                    }
                ],
                "defaultopacity": 0.5,
                "name": "livslopstrar_norge_gm",
                "type": "vector",
                "preview": "https://map-thumbs.feltgis.no/LLTNorgeGM.png",
                "url": "https://feltgis-prod-ingress-fppskc73cq-lz.a.run.app/vtfront/b7a24237-32d2-220d-7714-60c6ec52df93",
                "statusUrl": "https://feltgis-prod-ingress-fppskc73cq-lz.a.run.app/vtfront/b7a24237-32d2-220d-7714-60c6ec52df93/status"
            },
            {
                "alias": "MiS",
                "minopacity": 0.5,
                "name": "mis",
                "type": "raster",
                "preview": "https://map-thumbs.feltgis.no/mis.png",
                "url": "http://35.228.152.51/mis/MapServer"
            },
            {
                "alias": "MiS Polygon",
                "minopacity": 0.5,
                "name": "GMMisPolygon",
                "type": "polygon",
                "preview": "https://map-thumbs.feltgis.no/mis.png"
            },
            {
                "defaultopacity": 0.35,
                "identifyDisabled": true,
                "name": "Markfuktighetskart",
                "type": "raster",
                "preview": "https://map-thumbs.feltgis.no/markfuktighetskart.png",
                "url": "http://35.228.152.51/MarkfuktighetskartHeleLandet/MapServer"
            },
            {
                "alias": "Naturtyper HB13",
                "bodyreplacements": [
                    {
                        "collection": "mapcache",
                        "contenttype": "application/json",
                        "replace": "http://localhost:[CACHEPORT]/mapcache/vector.services.geodataonline.no",
                        "search": "https://vector.services.geodataonline.no",
                        "urlcontains": "-ingress-fppskc73cq-lz.a.run.app/vtfront",
                        "urlnotcontains": "tilemap"
                    }
                ],
                "defaultopacity": 1,
                "hidefromlayerlist": true,
                "minopacity": 0.75,
                "name": "naturtyper_hb13_naturtyper_hb13_alle",
                "type": "vector",
                "preview": "https://map-thumbs.feltgis.no/naturtyperhb13.png",
                "url": "https://feltgis-prod-ingress-fppskc73cq-lz.a.run.app/vtfront/6bad240f-1b59-9d77-f2c3-a4afc4a44514"
            },
            {
                "alias": "Vern",
                "bodyreplacements": [
                    {
                        "collection": "mapcache",
                        "contenttype": "application/json",
                        "replace": "http://localhost:[CACHEPORT]/mapcache/vector.services.geodataonline.no",
                        "search": "https://vector.services.geodataonline.no",
                        "urlcontains": "-ingress-fppskc73cq-lz.a.run.app/vtfront",
                        "urlnotcontains": "tilemap"
                    }
                ],
                "hidefromlayerlist": true,
                "minopacity": 0.75,
                "name": "vern_naturvern_omrade",
                "type": "vector",
                "preview": "https://map-thumbs.feltgis.no/vern.png",
                "url": "https://feltgis-prod-ingress-fppskc73cq-lz.a.run.app/vtfront/1f1aace9-82dc-b429-ffd9-b578fce18e63",
                "statusUrl": "https://feltgis-prod-ingress-fppskc73cq-lz.a.run.app/vtfront/1f1aace9-82dc-b429-ffd9-b578fce18e63/status"
            },
            {
                "alias": "Vernskog",
                "bodyreplacements": [
                    {
                        "collection": "mapcache",
                        "contenttype": "application/json",
                        "replace": "http://localhost:[CACHEPORT]/mapcache/vector.services.geodataonline.no",
                        "search": "https://vector.services.geodataonline.no",
                        "urlcontains": "-ingress-fppskc73cq-lz.a.run.app/vtfront",
                        "urlnotcontains": "tilemap"
                    }
                ],
                "hidefromlayerlist": true,
                "minopacity": 0.75,
                "name": "vernskog",
                "type": "vector",
                "preview": "https://map-thumbs.feltgis.no/vernskog.png",
                "url": "https://feltgis-prod-ingress-fppskc73cq-lz.a.run.app/vtfront/763000db-5503-0166-a585-9b5ccce9a8ac",
                "statusUrl": "https://feltgis-prod-ingress-fppskc73cq-lz.a.run.app/vtfront/763000db-5503-0166-a585-9b5ccce9a8ac/status"
            },
            {
                "alias": "Naturtype NiN",
                "minopacity": 0.5,
                "name": "GM_Naturtyper_NiN",
                "type": "raster",
                "preview": "https://map-thumbs.feltgis.no/gmnaturtypernin.png",
                "url": "http://35.228.152.51/GM_Naturtyper_NiN/MapServer"
            },
            {
                "alias": "Nøkkelbiotop",
                "minopacity": 0.5,
                "name": "GM_Nokkelbiotoper",
                "type": "raster",
                "preview": "https://map-thumbs.feltgis.no/gmnokkelbiotop.png",
                "url": "http://35.228.152.51/GM_Nokkelbiotoper/MapServer"
            },
            {
                "alias": "Kulturminner",
                "bodyreplacements": [
                    {
                        "collection": "mapcache",
                        "contenttype": "application/json",
                        "replace": "http://localhost:[CACHEPORT]/mapcache/vector.services.geodataonline.no",
                        "search": "https://vector.services.geodataonline.no",
                        "urlcontains": "-ingress-fppskc73cq-lz.a.run.app/vtfront",
                        "urlnotcontains": "tilemap"
                    }
                ],
                "hidefromlayerlist": true,
                "minopacity": 0.5,
                "name": "kulturminner",
                "type": "vector",
                "preview": "https://map-thumbs.feltgis.no/ra.png",
                "url": "https://feltgis-prod-ingress-fppskc73cq-lz.a.run.app/vtfront/compound/dbkulturminner"
            },
            {
                "alias": "Høydekurver",
                "bodyreplacements": [
                    {
                        "collection": "mapcache",
                        "contenttype": "application/json",
                        "replace": "http://localhost:[CACHEPORT]/mapcache/vector.services.geodataonline.no",
                        "search": "https://vector.services.geodataonline.no",
                        "urlcontains": "VectorTileServer",
                        "urlnotcontains": "tilemap"
                    },
                    {
                        "collection": "mapcache",
                        "contenttype": "application/json",
                        "replace": "http://localhost:[CACHEPORT]/mapcache/services.geodataonline.no",
                        "search": "https://services.geodataonline.no",
                        "urlcontains": "VectorTileServer",
                        "urlnotcontains": "tilemap"
                    },
                    {
                        "collection": "mapcache",
                        "contenttype": "application/json",
                        "replace": "http://localhost:[CACHEPORT]/mapcache/vector.services.geodataonline.no",
                        "search": "https://vector.services.geodataonline.no",
                        "urlcontains": "mapprod.feltgis.no",
                        "urlnotcontains": "tilemap"
                    },
                    {
                        "collection": "mapcache",
                        "contenttype": "application/json",
                        "replace": "http://localhost:[CACHEPORT]/mapcache/services.geodataonline.no",
                        "search": "https://services.geodataonline.no",
                        "urlcontains": "mapprod.feltgis.no",
                        "urlnotcontains": "tilemap"
                    },
                    {
                        "collection": "mapcache",
                        "contenttype": "application/json",
                        "replace": "TilesOnly",
                        "search": "TilesOnly,Tilemap",
                        "urlcontains": "?f=json",
                        "urlnotcontains": "tilemap"
                    },
                    {
                        "collection": "mapcache",
                        "contenttype": "application/json",
                        "replace": "\"_tileMap\"",
                        "search": "\"tileMap\"",
                        "urlcontains": "?f=json",
                        "urlnotcontains": "tilemap"
                    }
                ],
                "cachewarmupurls": [
                    {
                        "collection": "mapcache",
                        "urls": [
                            "https://services.geodataonline.no/arcgis/rest/services/GeocacheVector/GeocacheHoydekurver/VectorTileServer?f=json",
                            "https://services.geodataonline.no/arcgis/rest/services/GeocacheVector/GeocacheHoydekurver/VectorTileServer/resources/styles?f=json",
                            "https://vector.services.geodataonline.no/arcgis/rest/services/GeocacheVector/GeocacheHoydekurver/VectorTileServer?f=json",
                            "https://vector.services.geodataonline.no/arcgis/rest/services/GeocacheVector/GeocacheHoydekurver/VectorTileServer/resources/sprites/sprite@2x.json?f=json",
                            "https://vector.services.geodataonline.no/arcgis/rest/services/GeocacheVector/GeocacheHoydekurver/VectorTileServer/resources/sprites/sprite@2x.png",
                            "https://vector.services.geodataonline.no/arcgis/rest/services/GeocacheVector/GeocacheHoydekurver/VectorTileServer/?f=json"
                        ]
                    }
                ],
                "defaultopacity": 0.6,
                "identifyDisabled": true,
                "name": "Hoydekurver",
                "type": "vector",
                "preview": "https://map-thumbs.feltgis.no/hoydekurver.png",
                "url": "https://services.geodataonline.no/arcgis/rest/services/GeocacheVector/GeocacheHoydekurver/VectorTileServer"
            },
            {
                "alias": "Tiltakspolygon",
                "name": "GMAction",
                "rendering": {
                    "definitionExpression": "_serviceOrderId='{{_serviceOrderId}}'",
                    "includeFields": [
                        "_serviceOrderId"
                    ]
                },
                "type": "polygon",
                "preview": "https://map-thumbs.feltgis.no/gmaction.png"
            },
            {
                "alias": "Hensynsflate",
                "minopacity": 0.5,
                "name": "GMHenPolygon",
                "rendering": {
                    "definitionExpression": "_serviceOrderId='{{_serviceOrderId}}'",
                    "includeFields": [
                        "Description",
                        "_serviceOrderId"
                    ]
                },
                "type": "polygon",
                "preview": "https://map-thumbs.feltgis.no/gmhenpolygon.png"
            },
            {
                "alias": "Sporlogg",
                "identifyDisabled": true,
                "name": "GMSporlogg",
                "rendering": {
                    "definitionExpression": "_serviceOrderId='{{_serviceOrderId}}'",
                    "includeFields": [
                        "_serviceOrderId"
                    ]
                },
                "type": "line",
                "preview": "https://map-thumbs.feltgis.no/gmsporlogg.png"
            },
            {
                "alias": "Hensynslinje",
                "name": "GMHenLine",
                "type": "line",
                "preview": "https://map-thumbs.feltgis.no/gmhenline.png"
            },
            {
                "bodyreplacements": [
                    {
                        "collection": "mapcache",
                        "contenttype": "application/json",
                        "replace": "http://localhost:[CACHEPORT]/mapcache/vector.services.geodataonline.no",
                        "search": "https://vector.services.geodataonline.no",
                        "urlcontains": "-ingress-fppskc73cq-lz.a.run.app/vtfront",
                        "urlnotcontains": "tilemap"
                    }
                ],
                "name": "teig",
                "type": "vector",
                "preview": "https://map-thumbs.feltgis.no/matrikkel.png",
                "url": "https://feltgis-prod-ingress-fppskc73cq-lz.a.run.app/vtfront/acc14f4e-4aac-7bf0-558a-1700a0fafaf4",
                "statusUrl": "https://feltgis-prod-ingress-fppskc73cq-lz.a.run.app/vtfront/acc14f4e-4aac-7bf0-558a-1700a0fafaf4/status"
            },
            {
                "alias": "Hensynspunkt",
                "name": "GMHenPoint",
                "rendering": {
                    "definitionExpression": "_serviceOrderId='{{_serviceOrderId}}'",
                    "includeFields": [
                        "Description",
                        "_serviceOrderId"
                    ]
                },
                "type": "point",
                "preview": "https://map-thumbs.feltgis.no/gmhenpoint.png"
            },
            {
                "alias": "MiS Punkt",
                "hidefromlayerlist": true,
                "minopacity": 0.75,
                "name": "GMMisPoint",
                "type": "point"
            },
            {
                "alias": "Stammepunkt",
                "defaultopacity": 0.3,
                "identifyDisabled": true,
                "name": "GMStem",
                "rendering": {
                    "definitionExpression": "_serviceOrderId='{{_serviceOrderId}}'",
                    "includeFields": [
                        "_serviceOrderId"
                    ]
                },
                "type": "point",
                "preview": "https://map-thumbs.feltgis.no/stammepunkt.png"
            },
            {
                "hidefromlayerlist": true,
                "minopacity": 0.75,
                "name": "NTSkogdata",
                "type": "point",
                "preview": "https://map-thumbs.feltgis.no/ntskogdata.png"
            },
            {
                "alias": "Stedsnavn",
                "defaultopacity": 0.8,
                "identifyDisabled": true,
                "name": "geocachenames",
                "type": "vector",
                "preview": "https://map-thumbs.feltgis.no/stedsnavn.png",
                "url": "https://feltgis-prod-ingress-fppskc73cq-lz.a.run.app/vtfront/geocachenames"
            }
        ],
        "prioritizedExtentLayer": "GMAction",
        "sections": [
            {
                "id": 1,
                "title": "Stammedata fra produksjonsfil"
            }
        ]
    },
    "name": "Glommenmjosen prod",
    "orgNum": "988983659",
    "producedMessagesMustHaveCreatedBy": "vhhangfire@skogdata.no",
    "genericReports": {
        "template": "https://bitbucket.org/feltgis/feltgis-config/raw/master/rapporter/glommenmjosen/generic.html"
    },
    "serverQueries": [
        {
            "name": "matrikkel",
            "returnFields": [
                "eiernavn",
                "bruksnavn",
                "matrikkeltype",
                "fylkesnavn",
                "kommunenavn",
                "kommunenr",
                "gardsnr",
                "bruksnr",
                "lagretareal",
                "eierdatofra"
            ]
        }
    ],
    "sync": {
        "collections": [
            {
                "alias": "Sesjonsdata",
                "appFeature": "Session",
                "attachmentsBucket": "gmsession",
                "batchSize": 100,
                "disablePull": true,
                "name": "GMSession"
            },
            {
                "alias": "Stammedata fra produksjonsfil",
                "appFeature": "Stems",
                "batchSize": 2000,
                "indexFields": [
                    "_orderId",
                    "_serviceOrderId"
                ],
                "name": "GMStem",
                "syncFilter": {
                    "useServiceOrderId": true
                }
            },
            {
                "alias": "Hendelser",
                "appFeature": "Incidents",
                "attachmentFilenamesField": "_filenames",
                "attachmentsBucket": "gmincident",
                "batchSize": 100,
                "indexFields": [
                    "_orderId",
                    "_serviceOrderId"
                ],
                "name": "GMIncident",
                "syncFilter": {
                    "useServiceOrderId": true
                }
            },
            {
                "alias": "Tiltakspolygon",
                "appFeature": "Tømmerdrift",
                "batchSize": 100,
                "disablePush": true,
                "indexFields": [
                    "_orderId",
                    "_serviceOrderId"
                ],
                "name": "GMAction",
                "syncFilter": {
                    "useServiceOrderId": true
                }
            },
            {
                "alias": "Allma bestand",
                "batchSize": 100,
                "disablePush": true,
                "indexFields": [
                    "_orderId",
                    "_serviceOrderId"
                ],
                "name": "GMStand",
                "syncFilter": {
                    "useServiceOrderId": true
                }
            },
            {
                "alias": "Hensynspunkt",
                "batchSize": 100,
                "indexFields": [
                    "_orderId",
                    "_serviceOrderId"
                ],
                "name": "GMHenPoint",
                "syncFilter": {
                    "useServiceOrderId": true
                }
            },
            {
                "alias": "Hensynslinje",
                "batchSize": 100,
                "indexFields": [
                    "_orderId",
                    "_serviceOrderId"
                ],
                "name": "GMHenLine",
                "syncFilter": {
                    "useServiceOrderId": true
                }
            },
            {
                "alias": "Hensynsflate",
                "batchSize": 100,
                "indexFields": [
                    "_orderId",
                    "_serviceOrderId"
                ],
                "name": "GMHenPolygon",
                "syncFilter": {
                    "useServiceOrderId": true
                }
            },
            {
                "alias": "MiS Punkt",
                "batchSize": 100,
                "disablePush": true,
                "indexFields": [
                    "_orderId"
                ],
                "name": "GMMisPoint"
            },
            {
                "alias": "MiS Polygon",
                "batchSize": 100,
                "disablePush": true,
                "indexFields": [
                    "_orderId"
                ],
                "name": "GMMisPolygon"
            },
            {
                "alias": "Sporlogg",
                "appFeature": "Sporlogg",
                "batchSize": 1000,
                "indexFields": [
                    "_orderId",
                    "_serviceOrderId"
                ],
                "name": "GMSporlogg",
                "syncFilter": {
                    "useServiceOrderId": true
                }
            },
            {
                "appFeature": "SupplyPoints",
                "disablePull": true,
                "disablePush": true,
                "indexFields": [
                    "_orderId"
                ],
                "name": "NTSkogdata",
                "rpi": true
            },
            {
                "appFeature": "work order acceptance",
                "disablePull": true,
                "indexFields": [
                    "_orderId"
                ],
                "name": "GMWorkOrderAcceptance"
            },
            {
                "alias": "Arbeidsrapport",
                "appFeature": "Egenkontroll",
                "attachmentsBucket": "gmegenkontroll",
                "batchSize": 10,
                "indexFields": [
                    "_orderId"
                ],
                "name": "GMWorkReport"
            },
            {
                "alias": "Entreprenørdata",
                "appFeature": "ContractorPoints",
                "batchSize": 1000,
                "indexFields": [
                    "_orderId",
                    "_serviceOrderId",
                    "_visibilityMode"
                ],
                "name": "GMContractorPoint",
                "syncFilter": {
                    "useServiceOrderId": true
                }
            }
        ],
        "intervalMinutes": 2
    },
    "vsysFeatures": [
        {
            "feature": "prodForw",
            "users": [
                "*"
            ]
        },
        {
            "feature": "autoCopyFilesFromBox",
            "users": [
                "*"
            ]
        },
        {
            "feature": "everythingProdForw",
            "users": [
                "*"
            ]
        },
        {
            "feature": "productLines",
            "users": [
                "*"
            ]
        },
        {
            "feature": "attachments",
            "users": [
                "*"
            ]
        },
        {
            "feature": "keyFigures",
            "users": [
                "*"
            ]
        },
        {
            "feature": "removeFromList",
            "users": [
                "*"
            ]
        },
        {
            "feature": "measuringtickets",
            "users": [
                "*"
            ]
        },
        {
            "feature": "wreckanddowngrade",
            "users": [
                "*"
            ]
        },
        {
            "feature": "map",
            "users": [
                "*"
            ]
        },
        {
            "feature": "prepareOffline",
            "users": [
                "*"
            ]
        },
        {
            "feature": "incidents",
            "users": [
                "*"
            ]
        },
        {
            "feature": "Stems",
            "users": [
                "*"
            ]
        },
        {
            "feature": "AssortmentStems",
            "users": [
                "*"
            ]
        },
        {
            "feature": "workOrder",
            "users": [
                "*"
            ]
        },
        {
            "feature": "deviations",
            "users": [
                "*"
            ]
        },
        {
            "feature": "dataProcessorAgreementEnabled",
            "users": [
                "*"
            ]
        }
    ],
    "proximityAlarms": [
        {
            "name": "Driftsområde",
            "source": {
                "type": "collection",
                "id": "GMAction"
            },
            "setup": {
                "gradientCutoffDistanceMeters": 10,
                "alarmOutside": true,
                "usedToDetermineExtent": true
            }
        },
        {
            "name": "Hensynsflate",
            "source": {
                "type": "collection",
                "id": "GMHenPolygon"
            },
            "setup": {
                "gradientCutoffDistanceMeters": 10
            }
        },
        {
            "name": "HensynsPunkt",
            "source": {
                "type": "collection",
                "id": "GMHenPoint",
                "whereFilterAnyOf": [
                    {
                        "fieldName": "Type",
                        "stringValue": "Livsløpstrær"
                    },
                    {
                        "fieldName": "Type",
                        "stringValue": "Artsreg (Rødliste,Henyn mm)"
                    },
                    {
                        "fieldName": "Type",
                        "stringValue": "Kulturminne"
                    },
                    {
                        "fieldName": "Type",
                        "stringValue": "Brønn"
                    },
                    {
                        "fieldName": "Type",
                        "stringValue": "Reir - Ørn"
                    },
                    {
                        "fieldName": "Type",
                        "stringValue": "Reir - Hønsehauk"
                    }
                ]
            },
            "setup": {
                "gradientCutoffDistanceMeters": 10
            }
        },
        {
            "name": "Naturtyper NiN",
            "source": {
                "type": "arcgis",
                "id": "http://35.228.152.51:8000/GM_Nokkelbiotoper/MapServer/identify?geometryType=esriGeometryEnvelope&sr=25833&layers=*&tolerance=0&returnGeometry=true"
            },
            "setup": {
                "gradientCutoffDistanceMeters": 10
            }
        }
    ]
}

