{
    "customConfigObjects": {
        "usersNotRequiredToSignWorkOrder": [
            "kristoffer@feltgis.no",
            "thomas@feltgis.no",
            "ms@nortommer.no"
        ]
    },
    "domainmap": {},
    "enabledfeatures": [
        "prodForw",
        "attachments",
        "keyFigures",
        "removeFromList",
        "deviations",
        "measuringtickets"
    ],
    "map": {
        "_til info": "sjekk minlevel in server.json. minscale/minlevel: 625/17 1250/16 2500/15 5000/14 10000/13 20000/12 40000/11 80000/10, etc",
        "addFeatures": [
            {
                "collection": "NTContractorPoint",
                "displayname": "Private entreprenørdata"
            },
            {
                "collection": "NTRegistreringerPunkt",
                "displayname": "Registreringer punkt"
            },
            {
                "collection": "NTRegistreringerLinjer",
                "displayname": "Registreringer linjer"
            },
            {
                "collection": "NTRegistreringerFlater",
                "displayname": "Registreringer flater"
            }
        ],
        "background": [
            {
                "name": "Foto",
                "type": "raster",
                "url": "http://services.geodataonline.no/arcgis/rest/services/Geocache_UTM33_EUREF89/GeocacheBilder/MapServer"
            },
            {
                "hidden": true,
                "name": "Kart",
                "type": "raster",
                "url": "http://services.geodataonline.no/arcgis/rest/services/Geocache_UTM33_EUREF89/GeocacheBasis/MapServer"
            }
        ],
        "editFeatures": [
            {
                "collection": "NTRegistreringerPunkt",
                "deleteMode": "authoredOnly",
                "editMode": "authoredOnly"
            },
            {
                "collection": "NTRegistreringerLinjer",
                "deleteMode": "authoredOnly",
                "editMode": "authoredOnly"
            },
            {
                "collection": "NTRegistreringerFlater",
                "deleteMode": "authoredOnly",
                "editMode": "authoredOnly"
            },
            {
                "collection": "NTSporlogg",
                "deleteMode": "",
                "editMode": ""
            }
        ],
        "layers": [
            {
                "defaultopacity": 0,
                "identifyDisabled": true,
                "name": "Skyggerelieff",
                "type": "raster",
                "url": "http://35.228.152.51/Skyggerelieff/MapServer"
            },
            {
                "defaultopacity": 0,
                "identifyDisabled": true,
                "name": "BrattTerreng",
                "type": "raster",
                "url": "http://35.228.152.51/BrattTerreng/MapServer"
            },
            {
                "alias": "Bestandslinjer (NT)",
                "defaultopacity": 1,
                "identifyDisabled": true,
                "minscale": 20000,
                "name": "ntbestandslinjer",
                "type": "vector",
                "url": "https://mapprod.feltgis.no/vt/81249bb6-c1af-a89d-8efd-604f36e507c7_esri_25833"
            },
            {
                "alias": "Bestand (NT)",
                "defaultopacity": 0.5,
                "minscale": 20000,
                "name": "ntbestand",
                "type": "vector",
                "url": "https://mapprod.feltgis.no/vt/6f04efcc-9f8c-4ad0-6095-0084099e3b4a_esri_25833"
            },
            {
                "alias": "Livsløpstrær Norge",
                "defaultopacity": 0.5,
                "name": "livslopstrar_norge",
                "type": "vector",
                "url": "https://vtfront.feltgismaps.com/e8bc65a9-9f19-7733-9ab0-e30e5581c712_esri_25833"
            },
            {
                "alias": "Reguleringsplaner",
                "defaultopacity": 0,
                "hidefromlayerlist": false,
                "name": "Reguleringsplaner",
                "type": "raster",
                "url": "http://35.228.152.51/Reguleringsplaner/MapServer"
            },
            {
                "defaultopacity": 0,
                "minscale": 20000,
                "name": "Aldersklasseriskog",
                "type": "raster",
                "url": "http://35.228.152.51/Aldersklasseriskog/MapServer"
            },
            {
                "minscale": 20000,
                "name": "Markfuktighetskart",
                "type": "raster",
                "url": "http://35.228.152.51/Markfuktighetskart/MapServer"
            },
            {
                "minscale": 20000,
                "name": "EntreprenorNortommer",
                "type": "raster",
                "url": "http://35.228.152.51/EntreprenorNortommer/MapServer"
            },
            {
                "hidefromlayerlist": true,
                "minopacity": 1,
                "minscale": 20000,
                "name": "Miljo",
                "type": "raster",
                "url": "http://35.228.152.51/Miljo/MapServer"
            },
            {
                "minscale": 20000,
                "name": "MatrikkelFG",
                "type": "raster",
                "url": "http://35.228.152.51/MatrikkelFG/MapServer"
            },
            {
                "hidefromlayerlist": true,
                "minopacity": 1,
                "minscale": 40000,
                "name": "Riksantikvaren",
                "type": "raster",
                "url": "http://35.228.152.51/Riksantikvaren/MapServer"
            },
            {
                "alias": "Høydekurver",
                "bodyreplacements": [
                    {
                        "collection": "mapcache",
                        "contenttype": "application/json",
                        "replace": "http://localhost:[CACHEPORT]/mapcache/vector.services.geodataonline.no",
                        "search": "https://vector.services.geodataonline.no",
                        "urlcontains": "VectorTileServer",
                        "urlnotcontains": "tilemap"
                    },
                    {
                        "collection": "mapcache",
                        "contenttype": "application/json",
                        "replace": "http://localhost:[CACHEPORT]/mapcache/vector.services.geodataonline.no",
                        "search": "https://vector.services.geodataonline.no",
                        "urlcontains": "VectorTileServer",
                        "urlnotcontains": "tilemap"
                    },
                    {
                        "collection": "mapcache",
                        "contenttype": "application/json",
                        "replace": "http://localhost:[CACHEPORT]/mapcache/services.geodataonline.no",
                        "search": "https://services.geodataonline.no",
                        "urlcontains": "VectorTileServer",
                        "urlnotcontains": "tilemap"
                    },
                    {
                        "collection": "mapcache",
                        "contenttype": "application/json",
                        "replace": "http://localhost:[CACHEPORT]/mapcache/vector.services.geodataonline.no",
                        "search": "https://vector.services.geodataonline.no",
                        "urlcontains": "mapprod.feltgis.no",
                        "urlnotcontains": "tilemap"
                    },
                    {
                        "collection": "mapcache",
                        "contenttype": "application/json",
                        "replace": "http://localhost:[CACHEPORT]/mapcache/vector.services.geodataonline.no",
                        "search": "https://vector.services.geodataonline.no",
                        "urlcontains": "mapprod.feltgis.no",
                        "urlnotcontains": "tilemap"
                    },
                    {
                        "collection": "mapcache",
                        "contenttype": "application/json",
                        "replace": "http://localhost:[CACHEPORT]/mapcache/services.geodataonline.no",
                        "search": "https://services.geodataonline.no",
                        "urlcontains": "mapprod.feltgis.no",
                        "urlnotcontains": "tilemap"
                    },
                    {
                        "collection": "mapcache",
                        "contenttype": "application/json",
                        "replace": "TilesOnly",
                        "search": "TilesOnly,Tilemap",
                        "urlcontains": "?f=json",
                        "urlnotcontains": "tilemap"
                    },
                    {
                        "collection": "mapcache",
                        "contenttype": "application/json",
                        "replace": "\"_tileMap\"",
                        "search": "\"tileMap\"",
                        "urlcontains": "?f=json",
                        "urlnotcontains": "tilemap"
                    }
                ],
                "cachewarmupurls": [
                    {
                        "collection": "mapcache",
                        "urls": [
                            "https://services.geodataonline.no/arcgis/rest/services/GeocacheVector/GeocacheHoydekurver/VectorTileServer?f=json",
                            "https://services.geodataonline.no/arcgis/rest/services/GeocacheVector/GeocacheHoydekurver/VectorTileServer/resources/styles?f=json",
                            "https://vector.services.geodataonline.no/arcgis/rest/services/GeocacheVector/GeocacheHoydekurver/VectorTileServer?f=json",
                            "https://vector.services.geodataonline.no/arcgis/rest/services/GeocacheVector/GeocacheHoydekurver/VectorTileServer/resources/sprites/sprite@2x.json?f=json",
                            "https://vector.services.geodataonline.no/arcgis/rest/services/GeocacheVector/GeocacheHoydekurver/VectorTileServer/resources/sprites/sprite@2x.png",
                            "https://vector.services.geodataonline.no/arcgis/rest/services/GeocacheVector/GeocacheHoydekurver/VectorTileServer/?f=json"
                        ]
                    }
                ],
                "defaultopacity": 0.6,
                "hidefromlayerlist": false,
                "identifyDisabled": true,
                "mpcurl": "https://vector.services.geodataonline.no/arcgis/rest/services/GeocacheVector/GeocacheHoydekurver/VectorTileServer/tile/{z}/{y}/{x}.pbf",
                "name": "Hoydekurver",
                "type": "vector",
                "url": "https://services.geodataonline.no/arcgis/rest/services/GeocacheVector/GeocacheHoydekurver/VectorTileServer"
            },
            {
                "alias": "Driftsområde",
                "hidefromlayerlist": true,
                "minscale": 50000,
                "name": "NTPTommerdrift",
                "rendering": {
                    "definitionExpression": "_serviceOrderId='{{_serviceOrderId}}'",
                    "includeFields": [
                        "_serviceOrderId"
                    ]
                },
                "type": "polygon"
            },
            {
                "minscale": 50000,
                "name": "NTRegistreringerFlater",
                "rendering": {
                    "includeFields": [
                        "comment"
                    ]
                },
                "type": "polygon"
            },
            {
                "hidefromlayerlist": true,
                "keepInBackgroundMap": true,
                "name": "NTMiljoFlater",
                "type": "polygon"
            },
            {
                "identifyDisabled": true,
                "minscale": 50000,
                "name": "NTSporlogg",
                "rendering": {
                    "definitionExpression": "_serviceOrderId='{{_serviceOrderId}}'",
                    "includeFields": [
                        "_serviceOrderId"
                    ]
                },
                "type": "line"
            },
            {
                "minscale": 50000,
                "name": "NTRegistreringerLinjer",
                "rendering": {
                    "includeFields": [
                        "comment"
                    ]
                },
                "type": "line"
            },
            {
                "hidefromlayerlist": true,
                "keepInBackgroundMap": true,
                "name": "NTMiljoLinjer",
                "type": "line"
            },
            {
                "minscale": 50000,
                "name": "NTRegistreringerPunkt",
                "rendering": {
                    "includeFields": [
                        "comment"
                    ]
                },
                "type": "point"
            },
            {
                "hidefromlayerlist": true,
                "keepInBackgroundMap": true,
                "minscale": 50000,
                "name": "NTMiljoPunkt",
                "type": "point"
            },
            {
                "alias": "Stammepunkt",
                "defaultopacity": 0.3,
                "identifyDisabled": true,
                "name": "NTStem",
                "rendering": {
                    "definitionExpression": "_serviceOrderId='{{_serviceOrderId}}'",
                    "includeFields": [
                        "_serviceOrderId"
                    ]
                },
                "type": "point"
            },
            {
                "alias": "Stedsnavn",
                "bodyreplacements": [
                    {
                        "collection": "mapcache",
                        "contenttype": "application/json",
                        "replace": "\"maxzoom\":19",
                        "search": "\"maxzoom\":16",
                        "urlcontains": "geocachenames",
                        "urlnotcontains": "tilemap"
                    },
                    {
                        "collection": "mapcache",
                        "contenttype": "application/json",
                        "replace": "\"maxzoom\":19",
                        "search": "\"maxzoom\":15",
                        "urlcontains": "geocachenames",
                        "urlnotcontains": "tilemap"
                    },
                    {
                        "collection": "mapcache",
                        "contenttype": "application/json",
                        "replace": "\"maxzoom\":19",
                        "search": "\"maxzoom\":14",
                        "urlcontains": "geocachenames",
                        "urlnotcontains": "tilemap"
                    }
                ],
                "defaultopacity": 0.8,
                "identifyDisabled": true,
                "name": "geocachenames",
                "type": "vector",
                "url": "https://mapprod.feltgis.no/vt/geocachenames"
            },
            {
                "disablePull": true,
                "disablePush": true,
                "minscale": 50000,
                "name": "NTSkogdata",
                "rpi": true,
                "type": "point"
            }
        ],
        "tilecacher": {
            "maxzlevel": 15,
            "url": "http://35.228.152.51/feltgis/get_tiles"
        }
    },
    "name": "Nortommer prod",
    "orgNum": "980018709",
    "reports": [
        {
            "collection": "NTEgenkontroll",
            "template": "https://bitbucket.org/feltgis/feltgis-config/raw/master/rapport-egenkontroll-nortommer.html"
        },
        {
            "collection": "NTEgenkontrollLass",
            "template": "https://bitbucket.org/feltgis/feltgis-config/raw/master/rapporter/nortommer/egenkontroll-lass.html"
        },
        {
            "collection": "NTEgenkontrollHogst",
            "template": "https://bitbucket.org/feltgis/feltgis-config/raw/master/rapporter/nortommer/egenkontroll-hogst.html"
        }
    ],
    "serverQueries": [
        {
            "name": "matrikkel",
            "returnFields": [
                "eiernavn",
                "bruksnavn",
                "matrikkeltype",
                "fylkesnavn",
                "kommunenavn",
                "kommunenr",
                "gardsnr",
                "bruksnr",
                "lagretareal",
                "eierdatofra"
            ]
        }
    ],
    "sync": {
        "collections": [
            {
                "alias": "Stammedata fra produksjonsfil",
                "appFeature": "Stems",
                "batchSize": 2000,
                "indexFields": [
                    "_orderId",
                    "_serviceOrderId"
                ],
                "name": "NTStem",
                "syncFilter": {
                    "useServiceOrderId": true
                }
            },
            {
                "alias": "Hendelser",
                "appFeature": "Incidents",
                "attachmentsBucket": "ntincident",
                "batchSize": 100,
                "indexFields": [
                    "_orderId",
                    "_serviceOrderId"
                ],
                "name": "NTIncident",
                "syncFilter": {
                    "useServiceOrderId": true
                }
            },
            {
                "name": "NTMiljoPunkt",
                "syncFilter": {
                    "syncEverything": true
                }
            },
            {
                "name": "NTMiljoLinjer",
                "syncFilter": {
                    "syncEverything": true
                }
            },
            {
                "name": "NTMiljoFlater",
                "syncFilter": {
                    "syncEverything": true
                }
            },
            {
                "batchSize": 1000,
                "indexFields": [
                    "_orderId",
                    "_serviceOrderId"
                ],
                "name": "NTRegistreringerPunkt",
                "rpi": true,
                "syncFilter": {
                    "useServiceOrderId": true
                }
            },
            {
                "appFeature": "Sporlogg",
                "batchSize": 500,
                "indexFields": [
                    "_orderId",
                    "_serviceOrderId"
                ],
                "name": "NTSporlogg",
                "rpi": true,
                "skipWaitOnAdd": true,
                "syncFilter": {
                    "useServiceOrderId": true
                }
            },
            {
                "batchSize": 1000,
                "indexFields": [
                    "_orderId",
                    "_serviceOrderId"
                ],
                "name": "NTRegistreringerLinjer",
                "rpi": true,
                "syncFilter": {
                    "useServiceOrderId": true
                }
            },
            {
                "batchSize": 1000,
                "indexFields": [
                    "_orderId",
                    "_serviceOrderId"
                ],
                "name": "NTRegistreringerFlater",
                "rpi": true,
                "syncFilter": {
                    "useServiceOrderId": true
                }
            },
            {
                "appFeature": "Egenkontroll",
                "attachmentsBucket": "ntegenkontroll",
                "batchSize": 10,
                "indexFields": [
                    "_orderId",
                    "_serviceOrderId"
                ],
                "name": "NTEgenkontroll"
            },
            {
                "appFeature": "EgenkontrollLass",
                "attachmentsBucket": "ntegenkontroll-lass",
                "batchSize": 10,
                "indexFields": [
                    "_orderId",
                    "_serviceOrderId"
                ],
                "name": "NTEgenkontrollLass"
            },
            {
                "appFeature": "EgenkontrollHogst",
                "attachmentsBucket": "ntegenkontroll-hogst",
                "batchSize": 10,
                "indexFields": [
                    "_orderId",
                    "_serviceOrderId"
                ],
                "name": "NTEgenkontrollHogst"
            },
            {
                "disablePull": true,
                "disablePush": true,
                "indexFields": [
                    "_orderId"
                ],
                "name": "NTSkogdata",
                "rpi": true
            },
            {
                "appFeature": "Tømmerdrift",
                "batchSize": 10,
                "disablePush": true,
                "indexFields": [
                    "_orderId",
                    "_serviceOrderId"
                ],
                "name": "NTPTommerdrift",
                "rpi": true,
                "syncFilter": {
                    "useServiceOrderId": true
                }
            },
            {
                "appFeature": "work order acceptance",
                "disablePull": true,
                "indexFields": [
                    "_orderId"
                ],
                "name": "NTWorkOrderAcceptance",
                "rpi": false
            },
            {
                "alias": "Entreprenørdata",
                "appFeature": "ContractorPoints",
                "batchSize": 1000,
                "indexFields": [
                    "_orderId",
                    "_serviceOrderId",
                    "_visibilityMode"
                ],
                "name": "NTContractorPoint",
                "syncFilter": {
                    "useServiceOrderId": true
                }
            }
        ],
        "intervalMinutes": 2
    },
    "vsysFeatures": [
        {
            "feature": "everythingProdForw",
            "users": [
                "*"
            ]
        },
        {
            "feature": "productLines",
            "users": [
                "*"
            ]
        },
        {
            "feature": "workOrder",
            "users": [
                "*"
            ]
        },
        {
            "feature": "prodForw",
            "users": [
                "*"
            ]
        },
        {
            "feature": "attachments",
            "users": [
                "*"
            ]
        },
        {
            "feature": "keyFigures",
            "users": [
                "*"
            ]
        },
        {
            "feature": "removeFromList",
            "users": [
                "*"
            ]
        },
        {
            "feature": "deviations",
            "users": [
                "*"
            ]
        },
        {
            "feature": "measuringtickets",
            "users": [
                "*"
            ]
        },
        {
            "feature": "wreckanddowngrade",
            "users": [
                "*"
            ]
        },
        {
            "feature": "map",
            "users": [
                "*"
            ]
        },
        {
            "feature": "prepareOffline",
            "users": [
                "*"
            ]
        },
        {
            "feature": "incidents",
            "users": [
                "*"
            ]
        },
        {
            "feature": "stems",
            "users": [
                "*"
            ]
        }
    ]
}
