{
    "contractorMapUsers": [
        "kristoffer@feltgis.no",
        "+4790022887",
        "hhalse57@gmail.com",
        "damirmi@gmail.com",
        "+4791754725",
        "ths@glommen-mjosen.no",
        "+4797192383",
        "+4798858737",
        "+4790300093",
        "+4747606041"
    ],
    "map": {
        "background": [
            {
                "name": "Foto",
                "type": "raster",
                "url": "http://services.geodataonline.no/arcgis/rest/services/Geocache_UTM33_EUREF89/GeocacheBilder/MapServer"
            },
            {
                "hidden": true,
                "name": "Kart",
                "type": "raster",
                "url": "http://services.geodataonline.no/arcgis/rest/services/Geocache_UTM33_EUREF89/GeocacheBasis/MapServer"
            }
        ],
        "layers": [
            {
                "defaultopacity": 0,
                "name": "Reguleringsplaner",
                "type": "raster",
                "url": "http://35.228.152.51:8000/Reguleringsplaner/MapServer"
            },
            {
                "alias": "SR16",
                "defaultopacity": 0.5,
                "name": "SR16FG",
                "type": "vector",
                "url": "https://mapprod.feltgis.no/vt/a63f9073-16a8-253d-46f6-f777d56d14b0_esri_25833"
            },
            {
                "alias": "Livsløpstrær Norge",
                "defaultopacity": 0.5,
                "name": "livslopstrar_norge",
                "type": "vector",
                "url": "https://vtfront.feltgismaps.com/e8bc65a9-9f19-7733-9ab0-e30e5581c712_esri_25833"
            },
            {
                "defaultopacity": 0,
                "name": "Aldersklasseriskog",
                "type": "raster",
                "url": "http://35.228.152.51:8000/Aldersklasseriskog/MapServer"
            },
            {
                "defaultopacity": 0.4,
                "name": "Markfuktighetskart",
                "type": "raster",
                "url": "http://35.228.152.51:8000/Markfuktighetskart/MapServer"
            },
            {
                "alias": "Naturtyper HB13",
                "defaultopacity": 0,
                "name": "naturtyper_hb13_naturtyper_hb13_alle",
                "type": "vector",
                "url": "https://mapprod.feltgis.no/vt/ca89ae1d-5991-1e1c-c518-7e089b00a013_esri_25833"
            },
            {
                "alias": "Narin",
                "defaultopacity": 0.5,
                "hidefromlayerlist": false,
                "name": "narin",
                "type": "vector",
                "url": "https://mapprod.feltgis.no/vt/compound/narin"
            },
            {
                "alias": "NiN",
                "hidefromlayerlist": false,
                "name": "naturtyper_unfiltered",
                "type": "vector",
                "url": "https://mapprod.feltgis.no/vt/01e46583-4a65-7c47-cdd8-bfade774b0e4_esri_25833"
            },
            {
                "alias": "Friluftsliv",
                "hidefromlayerlist": false,
                "name": "friluftsliv_statlig_sikra_friluftsliv_statlig_sikra",
                "type": "vector",
                "url": "https://mapprod.feltgis.no/vt/d822d3a8-6e60-7f19-713b-c5b7553528c5_esri_25833"
            },
            {
                "name": "mis2",
                "type": "raster",
                "url": "http://35.228.152.51:8000/mis2/MapServer"
            },
            {
                "alias": "Markagrensen",
                "hidefromlayerlist": false,
                "name": "markagrensen",
                "type": "vector",
                "url": "https://mapprod.feltgis.no/vt/7b58c63f-399b-9fee-cd06-47ec42025d90_esri_25833"
            },
            {
                "alias": "Vern",
                "hidefromlayerlist": false,
                "name": "vern_naturvern_omrade",
                "type": "vector",
                "url": "https://mapprod.feltgis.no/vt/d6699eb5-3b93-31ee-2652-d91aea0ff422_esri_25833"
            },
            {
                "alias": "Vernskog",
                "hidefromlayerlist": false,
                "name": "vernskog",
                "type": "vector",
                "url": "https://mapprod.feltgis.no/vt/763000db-5503-0166-a585-9b5ccce9a8ac_esri_25833"
            },
            {
                "alias": "ArterFG",
                "hidefromlayerlist": false,
                "name": "obslist",
                "type": "vector",
                "url": "https://mapprod.feltgis.no/vt/2dfb961f-fb09-bf26-3ebb-295a250d6bef_esri_25833"
            },
            {
                "alias": "Kvikkleirerisiko",
                "hidefromlayerlist": false,
                "name": "skredkvikkleire2_kvikkleirerisiko",
                "type": "vector",
                "url": "https://mapprod.feltgis.no/vt/728fb65f-65a9-ab92-b5a2-e95141649aac_esri_25833"
            },
            {
                "name": "Andre",
                "type": "raster",
                "url": "http://35.228.152.51:8000/Andre/MapServer"
            },
            {
                "alias": "Eiendom",
                "hidefromlayerlist": false,
                "identifyDisabled": true,
                "name": "teig",
                "type": "vector",
                "url": "https://mapprod.feltgis.no/vt/acc14f4e-4aac-7bf0-558a-1700a0fafaf4_esri_25833"
            },
            {
                "alias": "Kulturminner",
                "hidefromlayerlist": true,
                "name": "kulturminner",
                "type": "vector",
                "url": "https://mapprod.feltgis.no/vt/compound/kulturminner"
            },
            {
                "bodyreplacements": [
                    {
                        "collection": "mapcache",
                        "contenttype": "application/json; charset=utf-8",
                        "replace": "http://localhost:[CACHEPORT]/mapcache/cache.services.geodataonline.no",
                        "search": "https://cache.services.geodataonline.no",
                        "urlcontains": "VectorTileServer/resources/styles"
                    }
                ],
                "cachewarmupurls": [
                    {
                        "collection": "mapcache",
                        "urls": [
                            "https://services.geodataonline.no/arcgis/rest/services/GeocacheVector/GeocacheHoydekurver/VectorTileServer?f=json",
                            "https://services.geodataonline.no/arcgis/rest/services/GeocacheVector/GeocacheHoydekurver/VectorTileServer/resources/styles?f=json",
                            "https://cache.services.geodataonline.no/arcgis/rest/services/GeocacheVector/GeocacheHoydekurver/VectorTileServer?f=json",
                            "https://cache.services.geodataonline.no/arcgis/rest/services/GeocacheVector/GeocacheHoydekurver/VectorTileServer/tilemap?f=json",
                            "https://cache.services.geodataonline.no/arcgis/rest/services/GeocacheVector/GeocacheHoydekurver/VectorTileServer/resources/sprites/sprite@2x.json?f=json",
                            "https://cache.services.geodataonline.no/arcgis/rest/services/GeocacheVector/GeocacheHoydekurver/VectorTileServer/resources/sprites/sprite@2x.png"
                        ]
                    }
                ],
                "mpcurl": "https://cache.services.geodataonline.no/arcgis/rest/services/GeocacheVector/GeocacheHoydekurver/VectorTileServer/tile/{z}/{y}/{x}.pbf",
                "name": "Hoydekurver",
                "type": "vector",
                "url": "https://services.geodataonline.no/arcgis/rest/services/GeocacheVector/GeocacheHoydekurver/VectorTileServer"
            }
        ]
    },
    "name": "ContractorMap Beta",
    "serverQueries": [
        {
            "name": "matrikkel",
            "returnFields": [
                "eiernavn",
                "bruksnavn",
                "matrikkeltype",
                "fylkesnavn",
                "kommunenavn",
                "kommunenr",
                "gardsnr",
                "bruksnr",
                "lagretareal",
                "eierdatofra"
            ]
        }
    ]
}
