{
    "androidKillBelow": 932,
    "androidWarnBelow": 932,
    "desktopKillBelow": "2.2.1",
    "desktopWarnBelow": "2.2.1",
    "authserver": "https://authprod-dot-feltgis-prod.appspot.com",
    "boxLogin": "https://authprod-dot-feltgis-prod.appspot.com/boxlogin",
    "customHeaders": {
        "testing_without_this_35.228.152.51": {
            "Cache-Control": [
                "max-age=86400",
                "private"
            ],
            "Date": [
                "Fri, 19 Nov 2021 09:36:46 GMT"
            ],
            "Etag": [
                "17b422e3a38"
            ],
            "Strict-Transport-Security": [
                "max-age=3144960000; includeSubDomains"
            ],
            "Updated": [
                "1637314605.714177"
            ],
            "Vary": [
                "Origin"
            ],
            "X-Content-Type-Options": [
                "nosniff"
            ],
            "X-Xss-Protection": [
                "1; mode=block"
            ]
        }
    },
    "filetypes": {
        "161": "hpr",
        "162": "hpr",
        "163": "hpr",
        "default": "apt,drf,ktr,prd,pri,stm,prl,hpr,mom,oin,pin,spi,fpr,thp,hqc,fqc,foi,fdi,ogi,ogr"
    },
    "forestvolume": "https://feltgis-prod-sync-fppskc73cq-lz.a.run.app/forest-volume",
    "jobTrackLogConfig": {
        "maxConsecutiveOutlierCount": 10,
        "maxDistance": 33,
        "maxDistanceFromFirstPoint": 2000,
        "maxHorizontalInaccuracy": 25,
        "maxSpeedKmH": 30,
        "maxSpeedKmHInaccuracy": 15,
        "maxVerticalInaccuracy": 25,
        "minDistance": 5,
        "minSaveSegmentLength": 10,
        "smoothingFilterAndroid": {
            "enableKalman": true,
            "enableSlidingWindow": true,
            "kalmanExpDistancePerSecond": 1,
            "kalmanExpSpeedPerSecond": 0.1,
            "slidingWindowMaxDuration": 30,
            "slidingWindowSize": 60
        },
        "smoothingFilterApple": {
            "enableKalman": true,
            "enableSlidingWindow": true,
            "kalmanExpDistancePerSecond": 1,
            "kalmanExpSpeedPerSecond": 0.1,
            "slidingWindowMaxDuration": 30,
            "slidingWindowSize": 60
        },
        "visvalingamThreshold": 1
    },
    "keeprpifilesdays": 30,
    "killbuildbelow": 1543,
    "killbuildbelow_comment": "Feltlogg 3.4.18 1413 released Apr 23, 2024",
    "name": "Feltlogg",
    "pdfgenerator": "https://feltgis-prod-sync-fppskc73cq-lz.a.run.app/generate-pdf",
    "prepBufferSize": 1000,
    "recommendedbuild": 1543,
    "recommendedbuild_comment": "Feltlogg 3.4.25 1542 released Oct 24, 2024",
    "requestHeaders": {
        "feltgis-prod-ingress-fppskc73cq-lz.a.run.app": {
            "Authorization": [
                "Bearer {{sdtoken}}"
            ],
            "BearerSource": [
                "sd"
            ]
        },
        "vtfront.feltgismaps.com": {
            "Authorization": [
                "Bearer {{sdtoken}}"
            ],
            "BearerSource": [
                "sd"
            ],
            "Origin": [
                "https://feltgis.no"
            ]
        }
    },
    "stemGridWidth": 10,
    "syncfiletypes": {
        "custom": [
            {
                "box": 1,
                "types": "pri,hpr,fpr,prl,fpr,prd"
            },
            {
                "box": 134,
                "types": "apt,drf,ktr,prd,pri,stm,prl,hpr,mom,oin,pin,spi,fpr,thp,hqc,fqc,foi,fdi,ogr,ogi"
            },
            {
                "box": 161,
                "types": "hpr"
            },
            {
                "box": 162,
                "types": "hpr"
            },
            {
                "box": 163,
                "types": "hpr"
            }
        ],
        "default": "apt,drf,ktr,prd,pri,stm,prl,hpr,mom,oin,pin,spi,fpr,thp,hqc,fqc,foi,fdi,ogi,ogr"
    },
    "syncIntervalSeconds": 120,
    "syncserver": "https://feltgis-prod-sync-fppskc73cq-lz.a.run.app/sync",
    "syncserverroot": "https://feltgis-prod-sync-fppskc73cq-lz.a.run.app",
    "updateurl": "https://apps.apple.com/gb/app/feltlogg/id1477944429"
}
