{
    "admin": {
        "superusers": [
            "admin@feltgis.no",
            "kristoffer@feltgis.no",
            "cs@fritzoeskoger.no",
            "cm@fritzoeskoger.no",
            "gb@fritzoeskoger.no",
            "sb@fritzoeskoger.no",
            "ks@fritzoeskoger.no"
        ]
    },
    "environmentClearedEmails": {
        "to": [],
        "cc": [
            {
                "name": "Christer Sandum",
                "email": "cs@fritzoeskoger.no"
            }
        ],
        "bcc": [
            {
                "name": "Kristoffer Stenersen",
                "email": "kristoffer.stenersen@gmail.com"
            }
        ],
        "subject": "Utdatert miljøsjekk IO {{PurchaseOrderNum}}",
        "template": "Hei {{PlannerContactName}} og miljøansvarlig.<br><br>Miljøforholdene i oppdraget IO {{PurchaseOrderNum}} er utdatert (det er {{DaysSinceCheck}} dager siden de ble klarert, og grensen er på 60 dager). <br><br><br><b>Oppdraget ble først signert inn av:</b> <br>{{WorkOrderContractor}}<br>{{WorkOrderContractorSignDate}}<br><br>Åpne <b>FeltPlan</b>, gå til geografi-fanen og <b>bekreft på nytt</b> dersom alle miljøforhold fortsatt er ivaretatt."
    },
    "customConfig": {
        "customerDbVersion": "3",
        "skogkulturUsers": "*"
    },
    "featureSwitches": [
        {
            "enabled": true,
            "feature": "feltkontroll"
        },
        {
            "enabled": true,
            "feature": "videresalg"
        },
        {
            "enabled": true,
            "feature": "querySyncOrders"
        },
        {
            "enabled": true,
            "feature": "hogstklasseIdentify"
        },
        {
            "enabled": true,
            "feature": "copyOrderToDraft"
        },
        {
            "enabled": true,
            "feature": "forestOwnerContract"
        },
        {
            "enabled": true,
            "feature": "workOrder"
        },
        {
            "enabled": true,
            "feature": "fieldControl"
        },
        {
            "enabled": true,
            "feature": "silviculture"
        }
    ],
    "newFeatureDefaults": [
        {
            "collection": "FZPSkogkultur",
            "values": {
                "forestOwnerEmail": "cs@fritzoeskoger.no",
                "forestOwnerPhone": "+4791199456",
                "plannerContactPhone": "TOKEN_PHONE_OR_+4791199456"
            }
        }
    ],
    "newFeatureCopyOperations": [
        {
            "source": "bestand_bestandsflater",
            "target": "FZPTommerdrift",
            "copyFields": {
                "Bestandsnr": "bestand_str",
                "Teig": "teignr",
                "Volum furu": "volumeFuru",
                "Volum gran": "volumeGran",
                "Volum lauv": "volumeLauv",
                "info": "name"
            }
        },
        {
            "source": "bestand_bestandsflater",
            "target": "FZP\\w+Geom",
            "copyFields": {
                "Alder": "age",
                "Bestandsnr": "bestand_str",
                "Teig": "teignr"
            }
        }
    ],
    "map": {
        "addFeatures": [
            {
                "collection": "FZRegistreringerPunkt",
                "displayname": "Registreringer punkt"
            },
            {
                "collection": "FZRegistreringerLinjer",
                "displayname": "Registreringer linjer"
            },
            {
                "collection": "FZRegistreringerFlater",
                "displayname": "Registreringer flater"
            }
        ],
        "background": [
            {
                "name": "Kart",
                "type": "raster",
                "url": "http://services.geodataonline.no/arcgis/rest/services/Geocache_UTM33_EUREF89/GeocacheBasis/MapServer"
            },
            {
                "hidden": true,
                "name": "Foto",
                "type": "raster",
                "url": "http://services.geodataonline.no/arcgis/rest/services/Geocache_UTM33_EUREF89/GeocacheBilder/MapServer"
            }
        ],
        "freeHandPointDistance": 4,
        "layers": [
            {
                "alias": "Fugl hensyn",
                "bodyreplacements": [
                    {
                        "collection": "mapcache",
                        "contenttype": "application/json",
                        "replace": "http://localhost:[CACHEPORT]/mapcache/vector.services.geodataonline.no",
                        "search": "https://vector.services.geodataonline.no",
                        "urlcontains": "-ingress-fppskc73cq-lz.a.run.app/vtfront",
                        "urlnotcontains": "tilemap"
                    }
                ],
                "defaultopacity": 1,
                "name": "FGFugl",
                "type": "vector",
                "url": "https://feltgis-prod-ingress-fppskc73cq-lz.a.run.app/vtfront/0aa39fba-cf92-748a-018c-d7d150996777"
            },
            {
                "alias": "Veg - bruksklasser",
                "bodyreplacements": [
                    {
                        "collection": "mapcache",
                        "contenttype": "application/json",
                        "replace": "http://localhost:[CACHEPORT]/mapcache/vector.services.geodataonline.no",
                        "search": "https://vector.services.geodataonline.no",
                        "urlcontains": "-ingress-fppskc73cq-lz.a.run.app/vtfront",
                        "urlnotcontains": "tilemap"
                    }
                ],
                "defaultopacity": 0,
                "identifyDisabled": true,
                "name": "veg_bruksklasser",
                "type": "vector",
                "preview": "https://map-thumbs.feltgis.no/vegdata.png",
                "url": "https://feltgis-prod-ingress-fppskc73cq-lz.a.run.app/vtfront/e68c7527-a35c-ca91-155e-3a061a7e673a"
            },
            {
                "alias": "MiS (tidlig)",
                "bodyreplacements": [
                    {
                        "collection": "mapcache",
                        "contenttype": "application/json",
                        "replace": "http://localhost:[CACHEPORT]/mapcache/vector.services.geodataonline.no",
                        "search": "https://vector.services.geodataonline.no",
                        "urlcontains": "-ingress-fppskc73cq-lz.a.run.app/vtfront",
                        "urlnotcontains": "tilemap"
                    }
                ],
                "defaultopacity": 0.8,
                "hidefromlayerlist": true,
                "minscale": 20000,
                "minopacity": 0.75,
                "name": "misc",
                "type": "vector",
                "preview": "https://map-thumbs.feltgis.no/mis.png",
                "url": "https://feltgis-prod-ingress-fppskc73cq-lz.a.run.app/vtfront/5a9307ec-28f8-9d3b-8901-6a85cd645501"
            },
            {
                "alias": "SR16",
                "bodyreplacements": [
                    {
                        "collection": "mapcache",
                        "contenttype": "application/json",
                        "replace": "http://localhost:[CACHEPORT]/mapcache/vector.services.geodataonline.no",
                        "search": "https://vector.services.geodataonline.no",
                        "urlcontains": "-ingress-fppskc73cq-lz.a.run.app/vtfront",
                        "urlnotcontains": "tilemap"
                    }
                ],
                "defaultopacity": 0,
                "name": "SR16FG",
                "type": "vector",
                "preview": "https://map-thumbs.feltgis.no/sr16.png",
                "url": "https://feltgis-prod-ingress-fppskc73cq-lz.a.run.app/vtfront/a63f9073-16a8-253d-46f6-f777d56d14b0",
                "statusUrl": "https://feltgis-prod-ingress-fppskc73cq-lz.a.run.app/vtfront/a63f9073-16a8-253d-46f6-f777d56d14b0/status"
            },
            {
                "defaultopacity": 0,
                "name": "Aldersklasseriskog",
                "type": "raster",
                "preview": "https://map-thumbs.feltgis.no/Aldersklasseriskog.png",
                "url": "http://35.228.152.51/Aldersklasseriskog/MapServer"
            },
            {
                "defaultopacity": 0,
                "name": "TurRuter",
                "type": "raster",
                "preview": "https://map-thumbs.feltgis.no/turruter.png",
                "url": "http://35.228.152.51/TurRuter/MapServer"
            },
            {
                "defaultopacity": 0,
                "name": "Brukerminner",
                "type": "raster",
                "preview": "https://map-thumbs.feltgis.no/brukerminner.png",
                "url": "http://35.228.152.51/Brukerminner/MapServer"
            },
            {
                "alias": "Naturtyper HB13",
                "bodyreplacements": [
                    {
                        "collection": "mapcache",
                        "contenttype": "application/json",
                        "replace": "http://localhost:[CACHEPORT]/mapcache/vector.services.geodataonline.no",
                        "search": "https://vector.services.geodataonline.no",
                        "urlcontains": "-ingress-fppskc73cq-lz.a.run.app/vtfront",
                        "urlnotcontains": "tilemap"
                    }
                ],
                "defaultopacity": 1,
                "hidefromlayerlist": true,
                "minopacity": 0.75,
                "name": "naturtyper_hb13_alle_a_b",
                "type": "vector",
                "preview": "https://map-thumbs.feltgis.no/naturtyperhb13.png",
                "url": "https://feltgis-prod-ingress-fppskc73cq-lz.a.run.app/vtfront/c61708f5-112f-2eac-1ed2-66b2a36392c9",
                "statusUrl": "https://feltgis-prod-ingress-fppskc73cq-lz.a.run.app/vtfront/c61708f5-112f-2eac-1ed2-66b2a36392c9/status"
            },
            {
                "alias": "Narin",
                "bodyreplacements": [
                    {
                        "collection": "mapcache",
                        "contenttype": "application/json",
                        "replace": "http://localhost:[CACHEPORT]/mapcache/vector.services.geodataonline.no",
                        "search": "https://vector.services.geodataonline.no",
                        "urlcontains": "-ingress-fppskc73cq-lz.a.run.app/vtfront",
                        "urlnotcontains": "tilemap"
                    }
                ],
                "hidefromlayerlist": true,
                "minopacity": 0.75,
                "name": "narin",
                "type": "vector",
                "preview": "https://map-thumbs.feltgis.no/narin.png",
                "url": "https://feltgis-prod-ingress-fppskc73cq-lz.a.run.app/vtfront/compound/dbnarin"
            },
            {
                "alias": "NiN",
                "bodyreplacements": [
                    {
                        "collection": "mapcache",
                        "contenttype": "application/json",
                        "replace": "http://localhost:[CACHEPORT]/mapcache/vector.services.geodataonline.no",
                        "search": "https://vector.services.geodataonline.no",
                        "urlcontains": "-ingress-fppskc73cq-lz.a.run.app/vtfront",
                        "urlnotcontains": "tilemap"
                    }
                ],
                "hidefromlayerlist": true,
                "minopacity": 0.75,
                "name": "naturtyper_unfiltered",
                "type": "vector",
                "preview": "https://map-thumbs.feltgis.no/nin.png",
                "url": "https://feltgis-prod-ingress-fppskc73cq-lz.a.run.app/vtfront/a1e5b8df-6b52-151a-a7b4-69681300068f",
                "statusUrl": "https://feltgis-prod-ingress-fppskc73cq-lz.a.run.app/vtfront/a1e5b8df-6b52-151a-a7b4-69681300068f/status"
            },
            {
                "alias": "Friluftsliv",
                "bodyreplacements": [
                    {
                        "collection": "mapcache",
                        "contenttype": "application/json",
                        "replace": "http://localhost:[CACHEPORT]/mapcache/vector.services.geodataonline.no",
                        "search": "https://vector.services.geodataonline.no",
                        "urlcontains": "-ingress-fppskc73cq-lz.a.run.app/vtfront",
                        "urlnotcontains": "tilemap"
                    }
                ],
                "hidefromlayerlist": true,
                "minopacity": 0.75,
                "name": "friluftsliv_statlig_sikra_friluftsliv_statlig_sikra",
                "type": "vector",
                "preview": "https://map-thumbs.feltgis.no/friluftsliv.png",
                "url": "https://feltgis-prod-ingress-fppskc73cq-lz.a.run.app/vtfront/894a1dce-5731-ff71-4af8-40c4aa7a4058",
                "statusUrl": "https://feltgis-prod-ingress-fppskc73cq-lz.a.run.app/vtfront/894a1dce-5731-ff71-4af8-40c4aa7a4058/status"
            },
            {
                "alias": "Vern",
                "bodyreplacements": [
                    {
                        "collection": "mapcache",
                        "contenttype": "application/json",
                        "replace": "http://localhost:[CACHEPORT]/mapcache/vector.services.geodataonline.no",
                        "search": "https://vector.services.geodataonline.no",
                        "urlcontains": "-ingress-fppskc73cq-lz.a.run.app/vtfront",
                        "urlnotcontains": "tilemap"
                    }
                ],
                "hidefromlayerlist": true,
                "minopacity": 0.75,
                "name": "vern_naturvern_omrade",
                "type": "vector",
                "preview": "https://map-thumbs.feltgis.no/vern_naturvern_omrade.png",
                "url": "https://feltgis-prod-ingress-fppskc73cq-lz.a.run.app/vtfront/1f1aace9-82dc-b429-ffd9-b578fce18e63",
                "statusUrl": "https://feltgis-prod-ingress-fppskc73cq-lz.a.run.app/vtfront/1f1aace9-82dc-b429-ffd9-b578fce18e63/status"
            },
            {
                "alias": "Vernskog",
                "bodyreplacements": [
                    {
                        "collection": "mapcache",
                        "contenttype": "application/json",
                        "replace": "http://localhost:[CACHEPORT]/mapcache/vector.services.geodataonline.no",
                        "search": "https://vector.services.geodataonline.no",
                        "urlcontains": "-ingress-fppskc73cq-lz.a.run.app/vtfront",
                        "urlnotcontains": "tilemap"
                    }
                ],
                "hidefromlayerlist": true,
                "minopacity": 0.75,
                "name": "vernskog",
                "type": "vector",
                "preview": "https://map-thumbs.feltgis.no/vernskog.png",
                "url": "https://feltgis-prod-ingress-fppskc73cq-lz.a.run.app/vtfront/763000db-5503-0166-a585-9b5ccce9a8ac",
                "statusUrl": "https://feltgis-prod-ingress-fppskc73cq-lz.a.run.app/vtfront/763000db-5503-0166-a585-9b5ccce9a8ac/status"
            },
            {
                "alias": "Artsdata NIBIO",
                "defaultopacity": 1,
                "hidefromlayerlist": true,
                "minopacity": 1,
                "name": "artsdata",
                "type": "raster",
                "preview": "https://map-thumbs.feltgis.no/artsdatanibio.png",
                "url": "http://35.228.152.51/artsdata/MapServer"
            },
            {
                "alias": "Arter",
                "bodyreplacements": [
                    {
                        "collection": "mapcache",
                        "contenttype": "application/json",
                        "replace": "http://localhost:[CACHEPORT]/mapcache/vector.services.geodataonline.no",
                        "search": "https://vector.services.geodataonline.no",
                        "urlcontains": "-ingress-fppskc73cq-lz.a.run.app/vtfront",
                        "urlnotcontains": "tilemap"
                    }
                ],
                "hidefromlayerlist": true,
                "minopacity": 0.75,
                "name": "arter",
                "type": "vector",
                "preview": "https://map-thumbs.feltgis.no/arter.png",
                "url": "https://feltgis-prod-ingress-fppskc73cq-lz.a.run.app/vtfront/compound/dbarter"
            },
            {
                "alias": "Kvikkleirefaregrad",
                "bodyreplacements": [
                    {
                        "collection": "mapcache",
                        "contenttype": "application/json",
                        "replace": "http://localhost:[CACHEPORT]/mapcache/vector.services.geodataonline.no",
                        "search": "https://vector.services.geodataonline.no",
                        "urlcontains": "-ingress-fppskc73cq-lz.a.run.app/vtfront",
                        "urlnotcontains": "tilemap"
                    }
                ],
                "name": "skredkvikkleire2_kvikkleirefaregrad",
                "type": "vector",
                "preview": "https://map-thumbs.feltgis.no/kvikkleirefaregrad.png",
                "url": "https://feltgis-prod-ingress-fppskc73cq-lz.a.run.app/vtfront/bfbb39c2-45b2-ee9c-2457-c986f83099fa"
            },
            {
                "alias": "Jord og flomskred",
                "bodyreplacements": [
                    {
                        "collection": "mapcache",
                        "contenttype": "application/json",
                        "replace": "http://localhost:[CACHEPORT]/mapcache/vector.services.geodataonline.no",
                        "search": "https://vector.services.geodataonline.no",
                        "urlcontains": "-ingress-fppskc73cq-lz.a.run.app/vtfront",
                        "urlnotcontains": "tilemap"
                    }
                ],
                "name": "jord_og_flomskred",
                "type": "vector",
                "preview": "https://map-thumbs.feltgis.no/jordogflom.png",
                "url": "https://feltgis-prod-ingress-fppskc73cq-lz.a.run.app/vtfront/2e540c0d-b7d3-e932-eb0c-d0763337c778",
                "statusUrl": "https://feltgis-prod-ingress-fppskc73cq-lz.a.run.app/vtfront/2e540c0d-b7d3-e932-eb0c-d0763337c778/status"
            },
            {
                "alias": "Reguleringsplaner",
                "defaultopacity": 0,
                "name": "Reguleringsplaner",
                "type": "raster",
                "preview": "https://map-thumbs.feltgis.no/reguleringsplaner.png",
                "url": "http://35.228.152.51/Reguleringsplaner/MapServer"
            },
            {
                "alias": "Eiendom",
                "bodyreplacements": [
                    {
                        "collection": "mapcache",
                        "contenttype": "application/json",
                        "replace": "http://localhost:[CACHEPORT]/mapcache/vector.services.geodataonline.no",
                        "search": "https://vector.services.geodataonline.no",
                        "urlcontains": "-ingress-fppskc73cq-lz.a.run.app/vtfront",
                        "urlnotcontains": "tilemap"
                    }
                ],
                "hidefromlayerlist": true,
                "minopacity": 0.75,
                "identifyDisabled": true,
                "name": "teig",
                "type": "vector",
                "preview": "https://map-thumbs.feltgis.no/teig.png",
                "url": "https://feltgis-prod-ingress-fppskc73cq-lz.a.run.app/vtfront/acc14f4e-4aac-7bf0-558a-1700a0fafaf4",
                "statusUrl": "https://feltgis-prod-ingress-fppskc73cq-lz.a.run.app/vtfront/acc14f4e-4aac-7bf0-558a-1700a0fafaf4/status"
            },
            {
                "alias": "Grensepunkter",
                "bodyreplacements": [
                    {
                        "collection": "mapcache",
                        "contenttype": "application/json",
                        "replace": "http://localhost:[CACHEPORT]/mapcache/vector.services.geodataonline.no",
                        "search": "https://vector.services.geodataonline.no",
                        "urlcontains": "-ingress-fppskc73cq-lz.a.run.app/vtfront",
                        "urlnotcontains": "tilemap"
                    }
                ],
                "identifyDisabled": true,
                "name": "grensepunkter",
                "type": "vector",
                "preview": "https://map-thumbs.feltgis.no/grensepunkter.png",
                "url": "https://feltgis-prod-ingress-fppskc73cq-lz.a.run.app/vtfront/2cda7982-5089-763e-f37a-bc53f566e37f"
            },
            {
                "alias": "NTmis",
                "bodyreplacements": [
                    {
                        "collection": "mapcache",
                        "contenttype": "application/json",
                        "replace": "http://localhost:[CACHEPORT]/mapcache/vector.services.geodataonline.no",
                        "search": "https://vector.services.geodataonline.no",
                        "urlcontains": "-ingress-fppskc73cq-lz.a.run.app/vtfront",
                        "urlnotcontains": "tilemap"
                    }
                ],
                "hidefromlayerlist": true,
                "minopacity": 0.75,
                "name": "NTmis",
                "type": "vector",
                "preview": "https://map-thumbs.feltgis.no/ntmis.png",
                "url": "https://feltgis-prod-ingress-fppskc73cq-lz.a.run.app/vtfront/0ce16765-06dd-1619-63ee-544ff17a5e79"
            },
            {
                "alias": "MiS",
                "hidefromlayerlist": true,
                "minopacity": 0.75,
                "name": "mis",
                "type": "raster",
                "preview": "https://map-thumbs.feltgis.no/mis.png",
                "url": "http://35.228.152.51/mis/MapServer"
            },
            {
                "alias": "Kulturminner",
                "bodyreplacements": [
                    {
                        "collection": "mapcache",
                        "contenttype": "application/json",
                        "replace": "http://localhost:[CACHEPORT]/mapcache/vector.services.geodataonline.no",
                        "search": "https://vector.services.geodataonline.no",
                        "urlcontains": "-ingress-fppskc73cq-lz.a.run.app/vtfront",
                        "urlnotcontains": "tilemap"
                    }
                ],
                "hidefromlayerlist": true,
                "minopacity": 0.5,
                "name": "kulturminner",
                "type": "vector",
                "preview": "https://map-thumbs.feltgis.no/ra.png",
                "url": "https://feltgis-prod-ingress-fppskc73cq-lz.a.run.app/vtfront/compound/dbkulturminner"
            },
            {
                "alias": "Høydekurver",
                "bodyreplacements": [
                    {
                        "collection": "mapcache",
                        "contenttype": "application/json",
                        "replace": "http://localhost:[CACHEPORT]/mapcache/vector.services.geodataonline.no",
                        "search": "https://vector.services.geodataonline.no",
                        "urlcontains": "VectorTileServer",
                        "urlnotcontains": "tilemap"
                    },
                    {
                        "collection": "mapcache",
                        "contenttype": "application/json",
                        "replace": "http://localhost:[CACHEPORT]/mapcache/services.geodataonline.no",
                        "search": "https://services.geodataonline.no",
                        "urlcontains": "VectorTileServer",
                        "urlnotcontains": "tilemap"
                    },
                    {
                        "collection": "mapcache",
                        "contenttype": "application/json",
                        "replace": "http://localhost:[CACHEPORT]/mapcache/vector.services.geodataonline.no",
                        "search": "https://vector.services.geodataonline.no",
                        "urlcontains": "mapprod.feltgis.no",
                        "urlnotcontains": "tilemap"
                    },
                    {
                        "collection": "mapcache",
                        "contenttype": "application/json",
                        "replace": "http://localhost:[CACHEPORT]/mapcache/services.geodataonline.no",
                        "search": "https://services.geodataonline.no",
                        "urlcontains": "mapprod.feltgis.no",
                        "urlnotcontains": "tilemap"
                    },
                    {
                        "collection": "mapcache",
                        "contenttype": "application/json",
                        "replace": "TilesOnly",
                        "search": "TilesOnly,Tilemap",
                        "urlcontains": "?f=json",
                        "urlnotcontains": "tilemap"
                    },
                    {
                        "collection": "mapcache",
                        "contenttype": "application/json",
                        "replace": "\"_tileMap\"",
                        "search": "\"tileMap\"",
                        "urlcontains": "?f=json",
                        "urlnotcontains": "tilemap"
                    }
                ],
                "cachewarmupurls": [
                    {
                        "collection": "mapcache",
                        "urls": [
                            "https://services.geodataonline.no/arcgis/rest/services/GeocacheVector/GeocacheHoydekurver/VectorTileServer?f=json",
                            "https://services.geodataonline.no/arcgis/rest/services/GeocacheVector/GeocacheHoydekurver/VectorTileServer/resources/styles?f=json",
                            "https://vector.services.geodataonline.no/arcgis/rest/services/GeocacheVector/GeocacheHoydekurver/VectorTileServer?f=json",
                            "https://vector.services.geodataonline.no/arcgis/rest/services/GeocacheVector/GeocacheHoydekurver/VectorTileServer/resources/sprites/sprite@2x.json?f=json",
                            "https://vector.services.geodataonline.no/arcgis/rest/services/GeocacheVector/GeocacheHoydekurver/VectorTileServer/resources/sprites/sprite@2x.png",
                            "https://vector.services.geodataonline.no/arcgis/rest/services/GeocacheVector/GeocacheHoydekurver/VectorTileServer/?f=json"
                        ]
                    }
                ],
                "defaultopacity": 0.6,
                "identifyDisabled": true,
                "name": "Hoydekurver",
                "type": "vector",
                "preview": "https://map-thumbs.feltgis.no/hoydekurver.png",
                "url": "https://services.geodataonline.no/arcgis/rest/services/GeocacheVector/GeocacheHoydekurver/VectorTileServer"
            },
            {
                "alias": "Trevolum (raster)",
                "bodyreplacements": [
                    {
                        "collection": "mapcache",
                        "contenttype": "",
                        "replace": "feltgis-prod-ingress-fppskc73cq-lz.a.run.app",
                        "search": "feltgis-testing-ingress-fppskc73cq-lz.a.run.app",
                        "urlcontains": "WMTSCapabilities.xml",
                        "urlnotcontains": ""
                    },
                    {
                        "collection": "mapcache",
                        "contenttype": "",
                        "replace": "http://localhost:[CACHEPORT]/mapcache/feltgis-prod-ingress-fppskc73cq-lz.a.run.app/wmts/FZ_Fritzoe/wmts/1.0.0/trees_cache/default/{TileMatrixSet}/{TileMatrix}/{TileRow}/{TileCol}.xxx",
                        "search": "https://feltgis-prod-ingress-fppskc73cq-lz.a.run.app/wmts/FZ_Fritzoe/wmts/1.0.0/trees_cache/default/{TileMatrixSet}/{TileMatrix}/{TileRow}/{TileCol}.xxx",
                        "urlcontains": "WMTSCapabilities.xml",
                        "urlnotcontains": ""
                    },
                    {
                        "collection": "mapcache",
                        "contenttype": "",
                        "replace": "image/png",
                        "search": "image/unknown",
                        "urlcontains": "WMTSCapabilities.xml",
                        "urlnotcontains": ""
                    }
                ],
                "defaultopacity": 0,
                "identifyDisabled": true,
                "layerid": "trees_cache",
                "minLevel": 13,
                "name": "Trevolum (raster)",
                "type": "wmts",
                "preview": "https://map-thumbs.feltgis.no/fztrevolum.png",
                "url": "https://feltgis-prod-ingress-fppskc73cq-lz.a.run.app/wmts/FZ_Fritzoe/wmts/1.0.0/WMTSCapabilities.xml?layerid=trees_cache"
            },
            {
                "alias": "Orto",
                "bodyreplacements": [
                    {
                        "collection": "mapcache",
                        "contenttype": "",
                        "replace": "feltgis-prod-ingress-fppskc73cq-lz.a.run.app",
                        "search": "feltgis-testing-ingress-fppskc73cq-lz.a.run.app",
                        "urlcontains": "WMTSCapabilities.xml",
                        "urlnotcontains": ""
                    },
                    {
                        "collection": "mapcache",
                        "contenttype": "",
                        "replace": "http://localhost:[CACHEPORT]/mapcache/feltgis-prod-ingress-fppskc73cq-lz.a.run.app/wmts/wmts/1.0.0/orto_optimized_cache/default/{TileMatrixSet}/{TileMatrix}/{TileRow}/{TileCol}.xxx",
                        "search": "https://feltgis-prod-ingress-fppskc73cq-lz.a.run.app/wmts/wmts/1.0.0/orto_optimized_cache/default/{TileMatrixSet}/{TileMatrix}/{TileRow}/{TileCol}.xxx",
                        "urlcontains": "WMTSCapabilities.xml",
                        "urlnotcontains": ""
                    },
                    {
                        "collection": "mapcache",
                        "contenttype": "",
                        "replace": "image/png",
                        "search": "image/unknown",
                        "urlcontains": "WMTSCapabilities.xml",
                        "urlnotcontains": ""
                    }
                ],
                "defaultopacity": 0,
                "identifyDisabled": true,
                "layerid": "orto_optimized_cache",
                "name": "Orto",
                "type": "wmts",
                "preview": "https://map-thumbs.feltgis.no/fzorto.png",
                "url": "https://feltgis-prod-ingress-fppskc73cq-lz.a.run.app/wmts/wmts/1.0.0/WMTSCapabilities.xml?layerid=orto_optimized_cache"
            },
            {
                "alias": "Markfuktighetskart",
                "bodyreplacements": [
                    {
                        "collection": "mapcache",
                        "contenttype": "",
                        "replace": "feltgis-prod-ingress-fppskc73cq-lz.a.run.app",
                        "search": "feltgis-testing-ingress-fppskc73cq-lz.a.run.app",
                        "urlcontains": "WMTSCapabilities.xml",
                        "urlnotcontains": ""
                    },
                    {
                        "collection": "mapcache",
                        "contenttype": "",
                        "replace": "http://localhost:[CACHEPORT]/mapcache/feltgis-prod-ingress-fppskc73cq-lz.a.run.app/wmts/wmts/1.0.0/wetmap_optimized_cache/default/{TileMatrixSet}/{TileMatrix}/{TileRow}/{TileCol}.xxx",
                        "search": "https://feltgis-prod-ingress-fppskc73cq-lz.a.run.app/wmts/wmts/1.0.0/wetmap_optimized_cache/default/{TileMatrixSet}/{TileMatrix}/{TileRow}/{TileCol}.xxx",
                        "urlcontains": "WMTSCapabilities.xml",
                        "urlnotcontains": ""
                    },
                    {
                        "collection": "mapcache",
                        "contenttype": "",
                        "replace": "image/png",
                        "search": "image/unknown",
                        "urlcontains": "WMTSCapabilities.xml",
                        "urlnotcontains": ""
                    }
                ],
                "defaultopacity": 0,
                "identifyDisabled": true,
                "layerid": "wetmap_optimized_cache",
                "name": "Markfuktighetskart",
                "type": "wmts",
                "preview": "https://map-thumbs.feltgis.no/markfuktighetskart.png",
                "url": "https://feltgis-prod-ingress-fppskc73cq-lz.a.run.app/wmts/wmts/1.0.0/WMTSCapabilities.xml?layerid=wetmap_optimized_cache"
            },
            {
                "alias": "Terreng grå",
                "bodyreplacements": [
                    {
                        "collection": "mapcache",
                        "contenttype": "",
                        "replace": "feltgis-prod-ingress-fppskc73cq-lz.a.run.app",
                        "search": "feltgis-testing-ingress-fppskc73cq-lz.a.run.app",
                        "urlcontains": "WMTSCapabilities.xml",
                        "urlnotcontains": ""
                    },
                    {
                        "collection": "mapcache",
                        "contenttype": "",
                        "replace": "http://localhost:[CACHEPORT]/mapcache/feltgis-prod-ingress-fppskc73cq-lz.a.run.app/wmts/wmts/1.0.0/terrain_grey_optimized_cache/default/{TileMatrixSet}/{TileMatrix}/{TileRow}/{TileCol}.xxx",
                        "search": "https://feltgis-prod-ingress-fppskc73cq-lz.a.run.app/wmts/wmts/1.0.0/terrain_grey_optimized_cache/default/{TileMatrixSet}/{TileMatrix}/{TileRow}/{TileCol}.xxx",
                        "urlcontains": "WMTSCapabilities.xml",
                        "urlnotcontains": ""
                    },
                    {
                        "collection": "mapcache",
                        "contenttype": "",
                        "replace": "image/png",
                        "search": "image/unknown",
                        "urlcontains": "WMTSCapabilities.xml",
                        "urlnotcontains": ""
                    }
                ],
                "defaultopacity": 0,
                "identifyDisabled": true,
                "layerid": "terrain_grey_optimized_cache",
                "name": "Terreng grå",
                "type": "wmts",
                "preview": "https://map-thumbs.feltgis.no/fzterrenggraa.png",
                "url": "https://feltgis-prod-ingress-fppskc73cq-lz.a.run.app/wmts/wmts/1.0.0/WMTSCapabilities.xml?layerid=terrain_grey_optimized_cache"
            },
            {
                "alias": "Trehøyde",
                "bodyreplacements": [
                    {
                        "collection": "mapcache",
                        "contenttype": "",
                        "replace": "feltgis-prod-ingress-fppskc73cq-lz.a.run.app",
                        "search": "feltgis-testing-ingress-fppskc73cq-lz.a.run.app",
                        "urlcontains": "WMTSCapabilities.xml",
                        "urlnotcontains": ""
                    },
                    {
                        "collection": "mapcache",
                        "contenttype": "",
                        "replace": "http://localhost:[CACHEPORT]/mapcache/feltgis-prod-ingress-fppskc73cq-lz.a.run.app/wmts/wmts/1.0.0/skogshojd_optimized_cache/default/{TileMatrixSet}/{TileMatrix}/{TileRow}/{TileCol}.xxx",
                        "search": "https://feltgis-prod-ingress-fppskc73cq-lz.a.run.app/wmts/wmts/1.0.0/skogshojd_optimized_cache/default/{TileMatrixSet}/{TileMatrix}/{TileRow}/{TileCol}.xxx",
                        "urlcontains": "WMTSCapabilities.xml",
                        "urlnotcontains": ""
                    },
                    {
                        "collection": "mapcache",
                        "contenttype": "",
                        "replace": "image/png",
                        "search": "image/unknown",
                        "urlcontains": "WMTSCapabilities.xml",
                        "urlnotcontains": ""
                    }
                ],
                "defaultopacity": 0,
                "identifyDisabled": true,
                "layerid": "skogshojd_optimized_cache",
                "name": "Trehøyde",
                "type": "wmts",
                "preview": "https://map-thumbs.feltgis.no/fztrehoyde.png",
                "url": "https://feltgis-prod-ingress-fppskc73cq-lz.a.run.app/wmts/wmts/1.0.0/WMTSCapabilities.xml?layerid=skogshojd_optimized_cache"
            },
            {
                "alias": "slope_30",
                "bodyreplacements": [
                    {
                        "collection": "mapcache",
                        "contenttype": "",
                        "replace": "feltgis-prod-ingress-fppskc73cq-lz.a.run.app",
                        "search": "feltgis-testing-ingress-fppskc73cq-lz.a.run.app",
                        "urlcontains": "WMTSCapabilities.xml",
                        "urlnotcontains": ""
                    },
                    {
                        "collection": "mapcache",
                        "contenttype": "",
                        "replace": "http://localhost:[CACHEPORT]/mapcache/feltgis-prod-ingress-fppskc73cq-lz.a.run.app/wmts/wmts/1.0.0/slope_30_optimized_cache/default/{TileMatrixSet}/{TileMatrix}/{TileRow}/{TileCol}.xxx",
                        "search": "https://feltgis-prod-ingress-fppskc73cq-lz.a.run.app/wmts/wmts/1.0.0/slope_30_optimized_cache/default/{TileMatrixSet}/{TileMatrix}/{TileRow}/{TileCol}.xxx",
                        "urlcontains": "WMTSCapabilities.xml",
                        "urlnotcontains": ""
                    },
                    {
                        "collection": "mapcache",
                        "contenttype": "",
                        "replace": "image/png",
                        "search": "image/unknown",
                        "urlcontains": "WMTSCapabilities.xml",
                        "urlnotcontains": ""
                    }
                ],
                "defaultopacity": 0,
                "identifyDisabled": true,
                "layerid": "slope_30_optimized_cache",
                "minLevel": 10,
                "name": "slope_30",
                "type": "wmts",
                "preview": "https://map-thumbs.feltgis.no/fzslope30.png",
                "url": "https://feltgis-prod-ingress-fppskc73cq-lz.a.run.app/wmts/wmts/1.0.0/WMTSCapabilities.xml?layerid=slope_30_optimized_cache"
            },
            {
                "alias": "FZ: Data",
                "bodyreplacements": [
                    {
                        "collection": "mapcache",
                        "contenttype": "",
                        "replace": "feltgis-prod-ingress-fppskc73cq-lz.a.run.app",
                        "search": "feltgis-testing-ingress-fppskc73cq-lz.a.run.app",
                        "urlcontains": "WMTSCapabilities.xml",
                        "urlnotcontains": ""
                    },
                    {
                        "collection": "mapcache",
                        "contenttype": "",
                        "replace": "http://localhost:[CACHEPORT]/mapcache/feltgis-prod-ingress-fppskc73cq-lz.a.run.app/wmts/fzdata/wmts/1.0.0/FZsync_cache/default/{TileMatrixSet}/{TileMatrix}/{TileRow}/{TileCol}.xxx",
                        "search": "https://feltgis-prod-ingress-fppskc73cq-lz.a.run.app/wmts/fzdata/wmts/1.0.0/FZsync_cache/default/{TileMatrixSet}/{TileMatrix}/{TileRow}/{TileCol}.xxx",
                        "urlcontains": "WMTSCapabilities.xml",
                        "urlnotcontains": ""
                    },
                    {
                        "collection": "mapcache",
                        "contenttype": "",
                        "replace": "image/png",
                        "search": "image/unknown",
                        "urlcontains": "WMTSCapabilities.xml",
                        "urlnotcontains": ""
                    }
                ],
                "defaultopacity": 0,
                "identifyDisabled": true,
                "layerid": "FZsync_cache",
                "minLevel": 10,
                "name": "FZ: Data",
                "type": "wmts",
                "url": "https://feltgis-prod-ingress-fppskc73cq-lz.a.run.app/wmts/fzdata/wmts/1.0.0/WMTSCapabilities.xml?layerid=FZsync_cache"
            },
            {
                "alias": "Skadeovervåking: Barkbilleskade gradert",
                "bodyreplacements": [
                    {
                        "collection": "mapcache",
                        "contenttype": "",
                        "replace": "feltgis-prod-ingress-fppskc73cq-lz.a.run.app",
                        "search": "feltgis-testing-ingress-fppskc73cq-lz.a.run.app",
                        "urlcontains": "WMTSCapabilities.xml",
                        "urlnotcontains": ""
                    },
                    {
                        "collection": "mapcache",
                        "contenttype": "",
                        "replace": "http://localhost:[CACHEPORT]/mapcache/feltgis-prod-ingress-fppskc73cq-lz.a.run.app/wmts/nibio_skadeovervaking/wmts/1.0.0/Barkbilleskade_gradert_cache/default/{TileMatrixSet}/{TileMatrix}/{TileRow}/{TileCol}.xxx",
                        "search": "https://feltgis-prod-ingress-fppskc73cq-lz.a.run.app/wmts/nibio_skadeovervaking/wmts/1.0.0/Barkbilleskade_gradert_cache/default/{TileMatrixSet}/{TileMatrix}/{TileRow}/{TileCol}.xxx",
                        "urlcontains": "WMTSCapabilities.xml",
                        "urlnotcontains": ""
                    },
                    {
                        "collection": "mapcache",
                        "contenttype": "",
                        "replace": "image/png",
                        "search": "image/unknown",
                        "urlcontains": "WMTSCapabilities.xml",
                        "urlnotcontains": ""
                    }
                ],
                "defaultopacity": 0,
                "identifyDisabled": true,
                "layerid": "Barkbilleskade_gradert_cache",
                "minLevel": 10,
                "name": "Barkbilleskade_gradert",
                "type": "wmts",
                "url": "https://feltgis-prod-ingress-fppskc73cq-lz.a.run.app/wmts/nibio_skadeovervaking/wmts/1.0.0/WMTSCapabilities.xml?layerid=Barkbilleskade_gradert_cache"
            },
            {
                "alias": "External: Drone orto photo",
                "bodyreplacements": [
                    {
                        "collection": "mapcache",
                        "contenttype": "",
                        "replace": "feltgis-prod-ingress-fppskc73cq-lz.a.run.app",
                        "search": "feltgis-testing-ingress-fppskc73cq-lz.a.run.app",
                        "urlcontains": "WMTSCapabilities.xml",
                        "urlnotcontains": ""
                    },
                    {
                        "collection": "mapcache",
                        "contenttype": "",
                        "replace": "http://localhost:[CACHEPORT]/mapcache/feltgis-prod-ingress-fppskc73cq-lz.a.run.app/wmts/fz_extern_wms/wmts/1.0.0/gf_drone_ortophoto_cache/default/{TileMatrixSet}/{TileMatrix}/{TileRow}/{TileCol}.xxx",
                        "search": "https://feltgis-prod-ingress-fppskc73cq-lz.a.run.app/wmts/fz_extern_wms/wmts/1.0.0/gf_drone_ortophoto_cache/default/{TileMatrixSet}/{TileMatrix}/{TileRow}/{TileCol}.xxx",
                        "urlcontains": "WMTSCapabilities.xml",
                        "urlnotcontains": ""
                    },
                    {
                        "collection": "mapcache",
                        "contenttype": "",
                        "replace": "image/png",
                        "search": "image/unknown",
                        "urlcontains": "WMTSCapabilities.xml",
                        "urlnotcontains": ""
                    }
                ],
                "defaultopacity": 0,
                "identifyDisabled": true,
                "layerid": "gf_drone_ortophoto_cache",
                "minLevel": 10,
                "name": "External: Drone orto photo",
                "type": "wmts",
                "url": "https://feltgis-prod-ingress-fppskc73cq-lz.a.run.app/wmts/fz_extern_wms/wmts/1.0.0/WMTSCapabilities.xml?layerid=gf_drone_ortophoto_cache"
            },
            {
                "alias": "Brønn, gjødselfelt, forsøksfelt",
                "minopacity": 0.2,
                "name": "Andre",
                "type": "raster",
                "url": "http://35.228.152.51/Andre/MapServer"
            },
            {
                "alias": "Løsmasser",
                "defaultopacity": 0,
                "name": "losmasser",
                "type": "raster",
                "preview": "https://map-thumbs.feltgis.no/fzlosmasser.png",
                "url": "http://35.228.152.51/losmasser/MapServer"
            },
            {
                "bodyreplacements": [
                    {
                        "collection": "mapcache",
                        "contenttype": "application/json",
                        "replace": "http://localhost:[CACHEPORT]/mapcache/vector.services.geodataonline.no",
                        "search": "https://vector.services.geodataonline.no",
                        "urlcontains": "-ingress-fppskc73cq-lz.a.run.app/vtfront",
                        "urlnotcontains": "tilemap"
                    }
                ],
                "name": "Teig",
                "type": "vector",
                "preview": "https://map-thumbs.feltgis.no/teig.png",
                "url": "https://feltgis-prod-ingress-fppskc73cq-lz.a.run.app/vtfront/5a0cfc3c-d3b5-76ca-a8ff-a1bce5d19407",
                "statusUrl": "https://feltgis-prod-ingress-fppskc73cq-lz.a.run.app/vtfront/5a0cfc3c-d3b5-76ca-a8ff-a1bce5d19407/status"
            },
            {
                "alias": "Trevolum",
                "bodyreplacements": [
                    {
                        "collection": "mapcache",
                        "contenttype": "application/json",
                        "replace": "http://localhost:[CACHEPORT]/mapcache/vector.services.geodataonline.no",
                        "search": "https://vector.services.geodataonline.no",
                        "urlcontains": "-ingress-fppskc73cq-lz.a.run.app/vtfront",
                        "urlnotcontains": "tilemap"
                    }
                ],
                "minLevel": 13,
                "name": "trees_vol",
                "type": "vector",
                "preview": "https://map-thumbs.feltgis.no/fztrevolum.png",
                "url": "https://feltgis-prod-ingress-fppskc73cq-lz.a.run.app/vtfront/0ddf4de5-f20b-8457-c1ae-d4029bbe0a7c",
                "statusUrl": "https://feltgis-prod-ingress-fppskc73cq-lz.a.run.app/vtfront/0ddf4de5-f20b-8457-c1ae-d4029bbe0a7c/status"
            },
            {
                "alias": "Bestand skogtyper",
                "bodyreplacements": [
                    {
                        "collection": "mapcache",
                        "contenttype": "application/json",
                        "replace": "http://localhost:[CACHEPORT]/mapcache/vector.services.geodataonline.no",
                        "search": "https://vector.services.geodataonline.no",
                        "urlcontains": "-ingress-fppskc73cq-lz.a.run.app/vtfront",
                        "urlnotcontains": "tilemap"
                    }
                ],
                "defaultopacity": 0,
                "name": "bestand_skogtyper",
                "type": "vector",
                "preview": "https://map-thumbs.feltgis.no/bestandskogtyper.png",
                "url": "https://feltgis-prod-ingress-fppskc73cq-lz.a.run.app/vtfront/a29257b7-239c-346b-ee8d-25abf3ceef08",
                "statusUrl": "https://feltgis-prod-ingress-fppskc73cq-lz.a.run.app/vtfront/a29257b7-239c-346b-ee8d-25abf3ceef08/status"
            },
            {
                "alias": "Gytebekker",
                "bodyreplacements": [
                    {
                        "collection": "mapcache",
                        "contenttype": "application/json",
                        "replace": "http://localhost:[CACHEPORT]/mapcache/vector.services.geodataonline.no",
                        "search": "https://vector.services.geodataonline.no",
                        "urlcontains": "-ingress-fppskc73cq-lz.a.run.app/vtfront",
                        "urlnotcontains": "tilemap"
                    }
                ],
                "name": "gytebekker",
                "type": "vector",
                "url": "https://feltgis-prod-ingress-fppskc73cq-lz.a.run.app/vtfront/8e7de85f-9826-eb0b-437b-22912db2d3d9",
                "statusUrl": "https://feltgis-prod-ingress-fppskc73cq-lz.a.run.app/vtfront/8e7de85f-9826-eb0b-437b-22912db2d3d9/status"
            },
            {
                "alias": "Stammepunkt",
                "name": "FZStem",
                "type": "point",
                "preview": "https://map-thumbs.feltgis.no/stammepunkt.png"
            },
            {
                "alias": "Driftsområde",
                "keepInBackgroundMap": true,
                "minscale": 20000,
                "name": "FZPTommerdrift",
                "type": "polygon",
                "preview": "https://map-thumbs.feltgis.no/fzdriftsomraade.png"
            },
            {
                "alias": "Miljø flater",
                "hidefromlayerlist": true,
                "keepInBackgroundMap": true,
                "minopacity": 0.75,
                "name": "FZMiljoFlater",
                "type": "polygon"
            },
            {
                "alias": "Registreringer flater",
                "minopacity": 0.5,
                "name": "FZRegistreringerFlater",
                "rendering": {
                    "definitionExpression": "_headId='{{_headId}}'",
                    "includeFields": [
                        "comment",
                        "_headId"
                    ]
                },
                "type": "polygon"
            },
            {
                "alias": "Registreringer linjer",
                "name": "FZRegistreringerLinjer",
                "rendering": {
                    "definitionExpression": "_headId='{{_headId}}'",
                    "includeFields": [
                        "comment",
                        "_headId"
                    ]
                },
                "type": "line",
                "preview": "https://map-thumbs.feltgis.no/fzreglinjer.png"
            },
            {
                "alias": "Miljø linjer",
                "hidefromlayerlist": true,
                "keepInBackgroundMap": true,
                "minopacity": 0.75,
                "name": "FZMiljoLinjer",
                "type": "line"
            },
            {
                "alias": "Sporlogg",
                "identifyDisabled": true,
                "name": "FZSporlogg",
                "type": "line"
            },
            {
                "alias": "Stedsnavn",
                "defaultopacity": 0.8,
                "identifyDisabled": true,
                "name": "geocachenames",
                "type": "vector",
                "preview": "https://map-thumbs.feltgis.no/stedsnavn.png",
                "url": "https://feltgis-prod-ingress-fppskc73cq-lz.a.run.app/vtfront/geocachenames"
            },
            {
                "hidefromlayerlist": true,
                "keepInBackgroundMap": true,
                "minopacity": 0.75,
                "name": "FZMiljoPunkt",
                "type": "point"
            },
            {
                "alias": "Registreringer punkt",
                "name": "FZRegistreringerPunkt",
                "rendering": {
                    "definitionExpression": "_headId='{{_headId}}'",
                    "includeFields": [
                        "comment",
                        "_headId"
                    ]
                },
                "type": "point",
                "preview": "https://map-thumbs.feltgis.no/regpunkt.png"
            },
            {
                "hidefromlayerlist": true,
                "minopacity": 0.75,
                "name": "NTSkogdata",
                "type": "point"
            },
            {
                "bodyreplacements": [
                    {
                        "collection": "mapcache",
                        "contenttype": "application/json",
                        "replace": "http://localhost:[CACHEPORT]/mapcache/vector.services.geodataonline.no",
                        "search": "https://vector.services.geodataonline.no",
                        "urlcontains": "-ingress-fppskc73cq-lz.a.run.app/vtfront",
                        "urlnotcontains": "tilemap"
                    }
                ],
                "name": "Miljø",
                "type": "vector",
                "preview": "https://map-thumbs.feltgis.no/fzmiljo.png",
                "url": "https://feltgis-prod-ingress-fppskc73cq-lz.a.run.app/vtfront/compound/FZmiljo"
            },
            {
                "bodyreplacements": [
                    {
                        "collection": "mapcache",
                        "contenttype": "application/json",
                        "replace": "http://localhost:[CACHEPORT]/mapcache/vector.services.geodataonline.no",
                        "search": "https://vector.services.geodataonline.no",
                        "urlcontains": "-ingress-fppskc73cq-lz.a.run.app/vtfront",
                        "urlnotcontains": "tilemap"
                    }
                ],
                "name": "Infrastruktur",
                "type": "vector",
                "preview": "https://map-thumbs.feltgis.no/fzinfrastruktur.png",
                "url": "https://feltgis-prod-ingress-fppskc73cq-lz.a.run.app/vtfront/compound/FZsamferdsel"
            }
        ]
    },
    "name": "Planner FZ",
    "purchaseOrderPresets": {
        "defaultOrders": [
            {
                "alias": "Fritzøe",
                "head": {
                    "BuyerAdress": "POSTBOKS 2051",
                    "BuyerCity": "SILJAN",
                    "BuyerContactEMail": "cs@fritzoeskoger.no",
                    "BuyerContactName": "Christer Sandum",
                    "BuyerContactPhone": "+4791199456",
                    "BuyerCountryCode": "NO",
                    "BuyerCountryName": "Norge",
                    "BuyerDepartmentName": "Admin",
                    "BuyerDepartmentNum": 1,
                    "BuyerEMail": "cs@fritzoeskoger.no",
                    "BuyerName": "Fritzøe Skoger AS",
                    "BuyerOrgNum": "922965404",
                    "BuyerPartyVSYSName": "FRITZØE SKOGER",
                    "BuyerPartyVSYSNum": 503015,
                    "BuyerZipCode": "3748",
                    "CertificationDescription": "FSC/PEFC",
                    "CertificationNum": 9,
                    "SellerAddress": "Industrivegen 24",
                    "SellerCity": "SILJAN",
                    "SellerCountryCode": "NO",
                    "SellerCountryName": "Norge",
                    "SellerDepartmentName": "Skog",
                    "SellerDepartmentNum": 2,
                    "SellerName": "FRITZØE SKOGER AS",
                    "SellerOrgNum": "922965404",
                    "SellerZipCode": "3748"
                }
            },
            {
                "alias": "Hellestvedt Bruk",
                "head": {
                    "BuyerAdress": "POSTBOKS 2051",
                    "BuyerCity": "SILJAN",
                    "BuyerContactEMail": "cs@fritzoeskoger.no",
                    "BuyerContactName": "Christer Sandum",
                    "BuyerContactPhone": "+4791199456",
                    "BuyerCountryCode": "NO",
                    "BuyerCountryName": "Norge",
                    "BuyerDepartmentName": "Admin",
                    "BuyerDepartmentNum": 1,
                    "BuyerEMail": "cs@fritzoeskoger.no",
                    "BuyerName": "Fritzøe Skoger AS",
                    "BuyerOrgNum": "922965404",
                    "BuyerPartyVSYSName": "FRITZØE SKOGER",
                    "BuyerPartyVSYSNum": 503015,
                    "BuyerZipCode": "3748",
                    "CertificationDescription": "FSC/PEFC",
                    "CertificationNum": 9,
                    "MuniName": "Bamble",
                    "MuniNum": 4012,
                    "SellerAddress": "Jernværksvegen 12",
                    "SellerCity": "SILJAN",
                    "SellerCountryCode": "NO",
                    "SellerCountryName": "Norge",
                    "SellerDepartmentName": "1",
                    "SellerDepartmentNum": 1,
                    "SellerName": "HELLESTVEDT BRUK AS",
                    "SellerOrgNum": "932760649",
                    "SellerPartyVSYSName": "HELLESTVEDT BRUK AS",
                    "SellerPartyVSYSNum": 827247,
                    "SellerZipCode": "3748"
                }
            },
            {
                "alias": "Vold & Nenset brug",
                "head": {
                    "BuyerAdress": "POSTBOKS 2051",
                    "BuyerCity": "SILJAN",
                    "BuyerContactEMail": "cs@fritzoeskoger.no",
                    "BuyerContactName": "Christer Sandum",
                    "BuyerContactPhone": "+4791199456",
                    "BuyerCountryCode": "NO",
                    "BuyerCountryName": "Norge",
                    "BuyerDepartmentName": "Admin",
                    "BuyerDepartmentNum": 1,
                    "BuyerEMail": "cs@fritzoeskoger.no",
                    "BuyerName": "Fritzøe Skoger AS",
                    "BuyerOrgNum": "922965404",
                    "BuyerPartyVSYSName": "FRITZØE SKOGER",
                    "BuyerPartyVSYSNum": 503015,
                    "BuyerZipCode": "3748",
                    "CertificationDescription": "FSC/PEFC",
                    "CertificationNum": 9,
                    "MuniName": "Skien",
                    "MuniNum": 4003,
                    "SellerAddress": "Jernværksvegen 12",
                    "SellerCity": "SILJAN",
                    "SellerCountryCode": "NO",
                    "SellerCountryName": "Norge",
                    "SellerDepartmentName": "1",
                    "SellerDepartmentNum": 1,
                    "SellerName": "VOLD & NENSET BRUG AS",
                    "SellerOrgNum": "917224285",
                    "SellerPartyVSYSName": "VOLD OG NENSET BRUG AS",
                    "SellerPartyVSYSNum": 875294,
                    "SellerZipCode": "3748"
                }
            }
        ]
    },
    "genericReports": {
        "template": "https://bitbucket.org/feltgis/feltgis-config/raw/master/rapporter/fritzoe/generic.html",
        "staticHtmlTemplates": {
            "arbeidsinstruks-forhandsrydding": "https://bitbucket.org/feltgis/feltgis-config/raw/master/rapporter/fritzoe/staticHtml/arbeidsinstruks-forhandsrydding.html",
            "arbeidsinstruks-forhandsrydding-en": "https://bitbucket.org/feltgis/feltgis-config/raw/master/rapporter/fritzoe/staticHtml/arbeidsinstruks-forhandsrydding-en.html",
            "arbeidsinstruks-markberedning": "https://bitbucket.org/feltgis/feltgis-config/raw/master/rapporter/fritzoe/staticHtml/arbeidsinstruks-markberedning.html",
            "arbeidsinstruks-planting": "https://bitbucket.org/feltgis/feltgis-config/raw/master/rapporter/fritzoe/staticHtml/arbeidsinstruks-planting.html",
            "arbeidsinstruks-planting-en": "https://bitbucket.org/feltgis/feltgis-config/raw/master/rapporter/fritzoe/staticHtml/arbeidsinstruks-planting-en.html",
            "arbeidsinstruks-ungskogpleie": "https://bitbucket.org/feltgis/feltgis-config/raw/master/rapporter/fritzoe/staticHtml/arbeidsinstruks-ungskogpleie.html"
        }
    },
    "reports": [
        {
            "collection": "FZPOrdre",
            "template": "https://bitbucket.org/feltgis/feltgis-config/raw/master/rapporter/fritzoe/skogeieravtale.html"
        },
        {
            "collection": "FZPSkogkultur",
            "template": "https://bitbucket.org/feltgis/feltgis-config/raw/master/rapporter/fritzoe/skogeierkontrakt.html"
        },
        {
            "collection": "FZMiljo",
            "template": "https://bitbucket.org/feltgis/feltgis-config/raw/master/rapporter/fritzoe/hogstinstruks.html"
        },
        {
            "collection": "FZFeltkontrollDrift",
            "template": "https://bitbucket.org/feltgis/feltgis-config/raw/master/rapporter/fritzoe/feltkontrolldrift.html"
        },
        {
            "collection": "FZFeltkontrollAvsluttet",
            "template": "https://bitbucket.org/feltgis/feltgis-config/raw/master/rapporter/fritzoe/feltkontrollavsluttet.html"
        },
        {
            "collection": "FZPPlantingGeom",
            "template": "https://bitbucket.org/feltgis/feltgis-config/raw/master/rapporter/fritzoe/arbeidsinstruks-FZPPlantingGeom.html",
            "languages": [
                "engelsk",
                "norsk"
            ]
        },
        {
            "collection": "FZPUngskogpleieGeom",
            "template": "https://bitbucket.org/feltgis/feltgis-config/raw/master/rapporter/fritzoe/arbeidsinstruks-FZPUngskogpleieGeom.html",
            "languages": [
                "engelsk",
                "norsk"
            ]
        },
        {
            "collection": "FZPForhandsryddingGeom",
            "template": "https://bitbucket.org/feltgis/feltgis-config/raw/master/rapporter/fritzoe/arbeidsinstruks-FZPForhandsryddingGeom.html",
            "languages": [
                "engelsk",
                "norsk"
            ]
        },
        {
            "collection": "FZPMarkberedningGeom",
            "template": "https://bitbucket.org/feltgis/feltgis-config/raw/master/rapporter/fritzoe/arbeidsinstruks-FZPMarkberedningGeom.html"
        },
        {
            "collection": "FZPGrofterenskGeom",
            "template": "https://bitbucket.org/feltgis/feltgis-config/raw/master/rapporter/fritzoe/arbeidsinstruks-FZPGrofterenskGeom.html"
        },
        {
            "collection": "FZPSaaingGeom",
            "template": "https://bitbucket.org/feltgis/feltgis-config/raw/master/rapporter/fritzoe/arbeidsinstruks-FZPSaaingGeom.html",
            "languages": [
                "engelsk",
                "norsk"
            ]
        },
        {
            "collection": "FZPSkogskadeGeom",
            "template": "https://bitbucket.org/feltgis/feltgis-config/raw/master/rapporter/fritzoe/arbeidsinstruks-FZPSkogskadeGeom.html",
            "languages": [
                "engelsk",
                "norsk"
            ]
        },
        {
            "collection": "FZPInfrastrukturGeom",
            "template": "https://bitbucket.org/feltgis/feltgis-config/raw/master/rapporter/fritzoe/arbeidsinstruks-FZPInfrastrukturGeom.html",
            "languages": [
                "engelsk",
                "norsk"
            ]
        }
    ],
    "search": [
        {
            "buttonText": "Søk i matrikkelen",
            "fields": [
                {
                    "title": "Kommune",
                    "type": "muni"
                },
                {
                    "title": "Fornavn",
                    "type": "text"
                },
                {
                    "title": "Etternavn",
                    "type": "text"
                }
            ],
            "symbol": "{\"type\":\"CIMSymbolReference\",\"symbol\":{\"type\":\"CIMLineSymbol\",\"symbolLayers\":[{\"type\":\"CIMSolidStroke\",\"enable\":true,\"width\":2,\"color\":[255,0,0,255]}]}}",
            "title": "Navn",
            "type": "matrikkel"
        },
        {
            "buttonText": "Søk i gårdskart",
            "fields": [
                {
                    "title": "Kommune",
                    "type": "muni"
                },
                {
                    "title": "Gårdsnummer",
                    "type": "int"
                },
                {
                    "title": "Bruksnummer",
                    "type": "int"
                }
            ],
            "title": "Gårdsnummer",
            "type": "gardskart"
        },
        {
            "autocompleteField": "navn",
            "buttonText": "Søk i veinavn",
            "fields": [
                {
                    "alias": "Navn",
                    "title": "navn",
                    "type": "text"
                }
            ],
            "maxAutoCompleteResults": 5,
            "resultSubTitleTemplate": "{{veiklasse}}",
            "resultTitleTemplate": "{{navn}}",
            "symbol": "{\"type\":\"CIMSymbolReference\",\"symbol\":{\"type\":\"CIMLineSymbol\",\"symbolLayers\":[{\"type\":\"CIMSolidStroke\",\"enable\":true,\"width\":2,\"color\":[255,0,0,255]}]}}",
            "title": "Veinavn",
            "type": "vtfront",
            "url": "https://vtfront.feltgismaps.com/36e22217-cb47-cf2c-ae48-832fc31bbcb7"
        },
        {
            "autocompleteField": "presentasj",
            "buttonText": "Søk i bestand (offline)",
            "fields": [
                {
                    "alias": "bestandsnummer",
                    "title": "presentasj",
                    "type": "text"
                }
            ],
            "collection": "FZVTStand",
            "maxAutoCompleteResults": 5,
            "resultSubTitleTemplate": "{{navn}} prod {{arealprod}}daa",
            "resultTitleTemplate": "{{presentasj}} {{bontresl}}{{bontekst}}",
            "symbol": "{\"type\":\"CIMSymbolReference\",\"symbol\":{\"type\":\"CIMLineSymbol\",\"symbolLayers\":[{\"type\":\"CIMSolidStroke\",\"enable\":true,\"width\":2,\"color\":[255,0,0,255]}]}}",
            "title": "Bestand",
            "type": "syncdb"
        }
    ],
    "serverQueries": [
        {
            "name": "matrikkel",
            "returnFields": [
                "adresse",
                "bruksnavn",
                "bruksnr",
                "eierdatofra",
                "eieretternavn",
                "eierfodselsdato",
                "eierfornavn",
                "eiernavn",
                "eierorgnummer",
                "eierpostadresselinje1",
                "eierpostadresselinje2",
                "eierpostadresselinje3",
                "eierpostadresselinje4",
                "eierpostid",
                "eierpostlandkode",
                "eierpostnr",
                "eiertype",
                "fylkesnavn",
                "gardsnr",
                "hovedbruk_bruksnr",
                "hovedbruk_gardsnr",
                "hovedbruk_kommunenr",
                "kommunenavn",
                "kommunenr",
                "lagretareal",
                "matrikkeltype",
                "postnavn",
                "postnr",
                "teigid"
            ]
        }
    ],
    "sync": {
        "bucket": "planner-sync-dbs",
        "collections": [
            {
                "alias": "Sesjonsdata",
                "appFeature": "Session",
                "attachmentsBucket": "fzsession",
                "batchSize": 100,
                "disablePull": true,
                "name": "FZSession"
            },
            {
                "name": "FZMiljoPunkt",
                "syncFilter": {
                    "syncEverything": true
                }
            },
            {
                "name": "FZMiljoLinjer",
                "syncFilter": {
                    "syncEverything": true
                }
            },
            {
                "name": "FZMiljoFlater",
                "syncFilter": {
                    "syncEverything": true
                }
            },
            {
                "appFeature": "SharedObjects",
                "batchSize": 100,
                "name": "FZPDelteObjekter",
                "syncFilter": {
                    "syncEverything": true
                }
            },
            {
                "appFeature": "Ordre",
                "attachmentsBucket": "fzpordre",
                "batchSize": 100,
                "indexFields": [
                    "_headId"
                ],
                "name": "FZPOrdre"
            },
            {
                "alias": "Driftsområde",
                "appFeature": "Tømmerdrift",
                "batchSize": 1000,
                "indexFields": [
                    "_headId"
                ],
                "name": "FZPTommerdrift"
            },
            {
                "appFeature": "SupplyPoints",
                "disablePull": true,
                "disablePush": true,
                "indexFields": [
                    "_headId"
                ],
                "name": "NTSkogdata"
            },
            {
                "appFeature": "Register",
                "batchSize": 10000,
                "disablePush": true,
                "ftsFields": [
                    "Fts"
                ],
                "indexFields": [
                    "OrgNum"
                ],
                "initialDump": "NTRegister.sync.db",
                "name": "NTRegister"
            },
            {
                "batchSize": 10000,
                "indexFields": [
                    "komnr"
                ],
                "initialDump": "Grunneiendom.sync.db",
                "name": "Grunneiendom"
            },
            {
                "batchSize": 10000,
                "indexFields": [
                    "komnr",
                    "orgnr"
                ],
                "initialDump": "LandbruksForetak.sync.db",
                "name": "LandbruksForetak"
            },
            {
                "appFeature": "RegistreringerPunkt",
                "indexFields": [
                    "_headId",
                    "_parentGlobalId",
                    "_referenceCollection",
                    "_visibilityMode"
                ],
                "name": "FZRegistreringerPunkt"
            },
            {
                "indexFields": [
                    "_headId",
                    "_parentGlobalId",
                    "_visibilityMode"
                ],
                "name": "FZRegistreringerLinjer"
            },
            {
                "appFeature": "Sporlogg",
                "batchSize": 1000,
                "indexFields": [
                    "_headId",
                    "_parentGlobalId"
                ],
                "name": "FZSporlogg"
            },
            {
                "indexFields": [
                    "_headId",
                    "_parentGlobalId",
                    "_visibilityMode"
                ],
                "name": "FZRegistreringerFlater"
            },
            {
                "appFeature": "Miljø",
                "indexFields": [
                    "_headId"
                ],
                "name": "FZMiljo"
            },
            {
                "appFeature": "FeltkontrollDrift",
                "indexFields": [
                    "_headId"
                ],
                "name": "FZFeltkontrollDrift"
            },
            {
                "appFeature": "FeltkontrollAvsluttet",
                "indexFields": [
                    "_headId"
                ],
                "name": "FZFeltkontrollAvsluttet"
            },
            {
                "alias": "Skogkultur",
                "appFeature": "Skogkultur",
                "attachmentsBucket": "fzpskogkultur",
                "children": [
                    {
                        "collectionName": "FZPPlantingGeom",
                        "referenceField": "_parentGlobalId"
                    },
                    {
                        "collectionName": "FZPMarkberedningGeom",
                        "referenceField": "_parentGlobalId"
                    },
                    {
                        "collectionName": "FZPGrofterenskGeom",
                        "referenceField": "_parentGlobalId"
                    },
                    {
                        "collectionName": "FZPUngskogpleieGeom",
                        "referenceField": "_parentGlobalId"
                    },
                    {
                        "collectionName": "FZPForhandsryddingGeom",
                        "referenceField": "_parentGlobalId"
                    },
                    {
                        "collectionName": "FZPSaaingGeom",
                        "referenceField": "_parentGlobalId"
                    },
                    {
                        "collectionName": "FZPSkogskadeGeom",
                        "referenceField": "_parentGlobalId"
                    },
                    {
                        "collectionName": "FZPInfrastrukturGeom",
                        "referenceField": "_parentGlobalId"
                    },
                    {
                        "collectionName": "FZPGjodslingGeom",
                        "referenceField": "_parentGlobalId"
                    },
                    {
                        "collectionName": "FZPSproytingGeom",
                        "referenceField": "_parentGlobalId"
                    },
                    {
                        "collectionName": "FZPGravearbeidGeom",
                        "referenceField": "_parentGlobalId"
                    },
                    {
                        "collectionName": "FZPSporskaderettingGeom",
                        "referenceField": "_parentGlobalId"
                    },
                    {
                        "collectionName": "FZPStammekvistingGeom",
                        "referenceField": "_parentGlobalId"
                    },
                    {
                        "collectionName": "FZRegistreringerPunkt",
                        "referenceField": "_parentGlobalId"
                    },
                    {
                        "collectionName": "FZRegistreringerLinjer",
                        "referenceField": "_parentGlobalId"
                    },
                    {
                        "collectionName": "FZRegistreringerFlater",
                        "referenceField": "_parentGlobalId"
                    },
                    {
                        "collectionName": "FZSporlogg",
                        "referenceField": "_parentGlobalId"
                    },
                    {
                        "collectionName": "FZPFeltkontrollPlanting",
                        "referenceField": "_parentGlobalId"
                    },
                    {
                        "collectionName": "FZPFeltkontrollPlantingTelling",
                        "referenceField": "_parentGlobalId"
                    },
                    {
                        "collectionName": "FZPFeltkontrollUngskogpleie",
                        "referenceField": "_parentGlobalId"
                    },
                    {
                        "collectionName": "FZPFeltkontrollUngskogpleieTelling",
                        "referenceField": "_parentGlobalId"
                    }
                ],
                "indexFields": [
                    "_globalId",
                    "_headId"
                ],
                "name": "FZPSkogkultur",
                "syncByLocalGlobalIds": true
            },
            {
                "alias": "Stammedata fra produksjonsfil",
                "appFeature": "Stems",
                "batchSize": 2000,
                "indexFields": [
                    "_headId"
                ],
                "name": "FZStem",
                "syncFilter": {
                    "ands": [
                        {
                            "attributeName": "_shareStemPosition_Boolean",
                            "operator": "!=",
                            "intValue": 0
                        }
                    ]
                }
            },
            {
                "alias": "Planting feltkontroll",
                "attachmentsBucket": "fz_pfeltkontroll_planting",
                "indexFields": [
                    "_parentGlobalId"
                ],
                "name": "FZPFeltkontrollPlanting"
            },
            {
                "alias": "Planting feltkontroll telling",
                "indexFields": [
                    "_parentGlobalId",
                    "_feltkontrollGlobalId"
                ],
                "name": "FZPFeltkontrollPlantingTelling"
            },
            {
                "alias": "Ungskogpleie feltkontroll",
                "attachmentsBucket": "fz_pfeltkontroll_ungskogpleie",
                "indexFields": [
                    "_parentGlobalId"
                ],
                "name": "FZPFeltkontrollUngskogpleie"
            },
            {
                "alias": "Ungskogpleie feltkontroll telling",
                "indexFields": [
                    "_parentGlobalId",
                    "_feltkontrollGlobalId"
                ],
                "name": "FZPFeltkontrollUngskogpleieTelling"
            },
            {
                "alias": "Planting",
                "appFeature": "SkogkulturGeom",
                "indexFields": [
                    "_parentGlobalId",
                    "_headId"
                ],
                "name": "FZPPlantingGeom"
            },
            {
                "alias": "Ungskogpleie",
                "appFeature": "SkogkulturGeom",
                "indexFields": [
                    "_parentGlobalId",
                    "_headId"
                ],
                "name": "FZPUngskogpleieGeom"
            },
            {
                "alias": "Markberedning",
                "appFeature": "SkogkulturGeom",
                "indexFields": [
                    "_parentGlobalId",
                    "_headId"
                ],
                "name": "FZPMarkberedningGeom"
            },
            {
                "alias": "Grøfterensk",
                "appFeature": "SkogkulturGeom",
                "indexFields": [
                    "_parentGlobalId",
                    "_headId"
                ],
                "name": "FZPGrofterenskGeom"
            },
            {
                "alias": "Forhåndsrydding",
                "appFeature": "SkogkulturGeom",
                "indexFields": [
                    "_parentGlobalId",
                    "_headId"
                ],
                "name": "FZPForhandsryddingGeom"
            },
            {
                "alias": "Såing",
                "appFeature": "SkogkulturGeom",
                "indexFields": [
                    "_parentGlobalId",
                    "_headId"
                ],
                "name": "FZPSaaingGeom"
            },
            {
                "alias": "Skogskade",
                "appFeature": "SkogkulturGeom",
                "indexFields": [
                    "_parentGlobalId",
                    "_headId"
                ],
                "name": "FZPSkogskadeGeom"
            },
            {
                "alias": "Infrastruktur",
                "appFeature": "SkogkulturGeom",
                "indexFields": [
                    "_parentGlobalId",
                    "_headId"
                ],
                "name": "FZPInfrastrukturGeom"
            },
            {
                "alias": "Gjodsling",
                "appFeature": "SkogkulturGeom",
                "indexFields": [
                    "_parentGlobalId",
                    "_headId"
                ],
                "name": "FZPGjodslingGeom"
            },
            {
                "alias": "Sproyting",
                "appFeature": "SkogkulturGeom",
                "indexFields": [
                    "_parentGlobalId",
                    "_headId"
                ],
                "name": "FZPSproytingGeom"
            },
            {
                "alias": "Gravearbeid",
                "appFeature": "SkogkulturGeom",
                "indexFields": [
                    "_parentGlobalId",
                    "_headId"
                ],
                "name": "FZPGravearbeidGeom"
            },
            {
                "alias": "Sporskaderetting",
                "appFeature": "SkogkulturGeom",
                "indexFields": [
                    "_parentGlobalId",
                    "_headId"
                ],
                "name": "FZPSporskaderettingGeom"
            },
            {
                "alias": "Stammekvisting",
                "appFeature": "SkogkulturGeom",
                "indexFields": [
                    "_parentGlobalId",
                    "_headId"
                ],
                "name": "FZPStammekvistingGeom"
            },
            {
                "alias": "Føre var",
                "appFeature": "ForeVar",
                "indexFields": [
                    "_headId"
                ],
                "name": "FZForeVar"
            }
        ],
        "intervalMinutes": 2,
        "orgPrefix": "FZ"
    },
    "newFeatureFromStand": [
        {
            "target": "FZPTommerdrift",
            "volumeGran": "volumeGran",
            "volumeFuru": "volumeFuru",
            "volumeLauv": "volumeLauv",
            "standNum": "bestand_str",
            "teigNum": "teignr",
            "title": "bestand_str"
        },
        {
            "target": "FZP\\w+Geom",
            "age": "age",
            "standNum": "bestand_str",
            "teigNum": "teignr",
            "title": "bestand_str"
        }
    ]
}

