{
    "admin": {
        "superusers": [
            "admin@feltgis.no",
            "kristoffer@feltgis.no"
        ]
    },
    "customConfig": {
        "customerDbVersion": "3",
        "skogkulturUsers": "*"
    },
    "featureSwitches": [
        {
            "enabled": true,
            "feature": "skogeieravtale",
            "username": "*"
        },
        {
            "enabled": true,
            "feature": "feltkontroll"
        },
        {
            "enabled": true,
            "feature": "videresalg"
        },
        {
            "enabled": true,
            "feature": "querySyncOrders"
        },
        {
            "enabled": true,
            "feature": "hogstklasseIdentify"
        },
        {
            "enabled": true,
            "feature": "copyOrderToDraft"
        },
        {
            "enabled": true,
            "feature": "forestOwnerContract"
        },
        {
            "enabled": true,
            "feature": "workOrder"
        },
        {
            "enabled": true,
            "feature": "fieldControl"
        },
        {
            "enabled": true,
            "feature": "silviculture"
        }
    ],
    "map": {
        "addFeatures": [
            {
                "collection": "SERegistreringerPunkt",
                "displayname": "Registreringer punkt"
            },
            {
                "collection": "SERegistreringerLinjer",
                "displayname": "Registreringer linjer"
            },
            {
                "collection": "SERegistreringerFlater",
                "displayname": "Registreringer flater"
            }
        ],
        "background": [
            {
                "name": "Foto",
                "type": "raster",
                "url": "http://services.geodataonline.no/arcgis/rest/services/Geocache_UTM33_EUREF89/GeocacheBilder/MapServer"
            },
            {
                "hidden": true,
                "name": "Kart",
                "type": "raster",
                "url": "http://services.geodataonline.no/arcgis/rest/services/Geocache_UTM33_EUREF89/GeocacheBasis/MapServer"
            }
        ],
        "freeHandPointDistance": 4,
        "layers": [
            {
                "alias": "Fugl hensyn",
                "bodyreplacements": [
                    {
                        "collection": "mapcache",
                        "contenttype": "application/json",
                        "replace": "http://localhost:[CACHEPORT]/mapcache/vector.services.geodataonline.no",
                        "search": "https://vector.services.geodataonline.no",
                        "urlcontains": "-ingress-fppskc73cq-lz.a.run.app/vtfront",
                        "urlnotcontains": "tilemap"
                    }
                ],
                "defaultopacity": 1,
                "name": "FGFugl",
                "type": "vector",
                "url": "https://feltgis-testing-ingress-fppskc73cq-lz.a.run.app/vtfront/0aa39fba-cf92-748a-018c-d7d150996777"
            },
            {
                "defaultopacity": 0,
                "identifyDisabled": true,
                "name": "Skyggerelieff",
                "type": "raster",
                "preview": "https://map-thumbs.feltgis.no/skyggerelieff.png",
                "url": "http://35.228.152.51:8000/Skyggerelieff/MapServer"
            },
            {
                "alias": "Veg - bruksklasser",
                "bodyreplacements": [
                    {
                        "collection": "mapcache",
                        "contenttype": "application/json",
                        "replace": "http://localhost:[CACHEPORT]/mapcache/vector.services.geodataonline.no",
                        "search": "https://vector.services.geodataonline.no",
                        "urlcontains": "-ingress-fppskc73cq-lz.a.run.app/vtfront",
                        "urlnotcontains": "tilemap"
                    }
                ],
                "defaultopacity": 0,
                "identifyDisabled": true,
                "name": "veg_bruksklasser",
                "type": "vector",
                "preview": "https://map-thumbs.feltgis.no/vegdata.png",
                "url": "https://feltgis-testing-ingress-fppskc73cq-lz.a.run.app/vtfront/e68c7527-a35c-ca91-155e-3a061a7e673a"
            },
            {
                "alias": "MiS (tidlig)",
                "bodyreplacements": [
                    {
                        "collection": "mapcache",
                        "contenttype": "application/json",
                        "replace": "http://localhost:[CACHEPORT]/mapcache/vector.services.geodataonline.no",
                        "search": "https://vector.services.geodataonline.no",
                        "urlcontains": "-ingress-fppskc73cq-lz.a.run.app/vtfront",
                        "urlnotcontains": "tilemap"
                    }
                ],
                "defaultopacity": 0.8,
                "hidefromlayerlist": true,
                "minscale": 20000,
                "minopacity": 0.75,
                "name": "misc",
                "type": "vector",
                "preview": "https://map-thumbs.feltgis.no/mis.png",
                "url": "https://feltgis-testing-ingress-fppskc73cq-lz.a.run.app/vtfront/5a9307ec-28f8-9d3b-8901-6a85cd645501"
            },
            {
                "alias": "SR16",
                "bodyreplacements": [
                    {
                        "collection": "mapcache",
                        "contenttype": "application/json",
                        "replace": "http://localhost:[CACHEPORT]/mapcache/vector.services.geodataonline.no",
                        "search": "https://vector.services.geodataonline.no",
                        "urlcontains": "-ingress-fppskc73cq-lz.a.run.app/vtfront",
                        "urlnotcontains": "tilemap"
                    }
                ],
                "defaultopacity": 0,
                "name": "SR16FG",
                "type": "vector",
                "preview": "https://map-thumbs.feltgis.no/sr16.png",
                "url": "https://feltgis-testing-ingress-fppskc73cq-lz.a.run.app/vtfront/a63f9073-16a8-253d-46f6-f777d56d14b0",
                "statusUrl": "https://feltgis-testing-ingress-fppskc73cq-lz.a.run.app/vtfront/a63f9073-16a8-253d-46f6-f777d56d14b0/status"
            },
            {
                "defaultopacity": 0,
                "name": "Aldersklasseriskog",
                "type": "raster",
                "preview": "https://map-thumbs.feltgis.no/Aldersklasseriskog.png",
                "url": "http://35.228.152.51:8000/Aldersklasseriskog/MapServer"
            },
            {
                "defaultopacity": 0,
                "name": "TurRuter",
                "type": "raster",
                "preview": "https://map-thumbs.feltgis.no/turruter.png",
                "url": "http://35.228.152.51:8000/TurRuter/MapServer"
            },
            {
                "defaultopacity": 0,
                "name": "Brukerminner",
                "type": "raster",
                "preview": "https://map-thumbs.feltgis.no/brukerminner.png",
                "url": "http://35.228.152.51:8000/Brukerminner/MapServer"
            },
            {
                "defaultopacity": 0.6,
                "identifyDisabled": true,
                "name": "Markfuktighetskart",
                "type": "raster",
                "preview": "https://map-thumbs.feltgis.no/markfuktighetskart.png",
                "url": "http://35.228.152.51:8000/Markfuktighetskart/MapServer"
            },
            {
                "alias": "Naturtyper HB13",
                "bodyreplacements": [
                    {
                        "collection": "mapcache",
                        "contenttype": "application/json",
                        "replace": "http://localhost:[CACHEPORT]/mapcache/vector.services.geodataonline.no",
                        "search": "https://vector.services.geodataonline.no",
                        "urlcontains": "-ingress-fppskc73cq-lz.a.run.app/vtfront",
                        "urlnotcontains": "tilemap"
                    }
                ],
                "defaultopacity": 1,
                "hidefromlayerlist": true,
                "minopacity": 0.75,
                "name": "naturtyper_hb13_naturtyper_hb13_alle",
                "type": "vector",
                "preview": "https://map-thumbs.feltgis.no/naturtyperhb13.png",
                "url": "https://feltgis-testing-ingress-fppskc73cq-lz.a.run.app/vtfront/6bad240f-1b59-9d77-f2c3-a4afc4a44514"
            },
            {
                "alias": "Narin",
                "bodyreplacements": [
                    {
                        "collection": "mapcache",
                        "contenttype": "application/json",
                        "replace": "http://localhost:[CACHEPORT]/mapcache/vector.services.geodataonline.no",
                        "search": "https://vector.services.geodataonline.no",
                        "urlcontains": "-ingress-fppskc73cq-lz.a.run.app/vtfront",
                        "urlnotcontains": "tilemap"
                    }
                ],
                "hidefromlayerlist": true,
                "minopacity": 0.75,
                "name": "narin",
                "type": "vector",
                "preview": "https://map-thumbs.feltgis.no/narin.png",
                "url": "https://feltgis-testing-ingress-fppskc73cq-lz.a.run.app/vtfront/compound/dbnarin"
            },
            {
                "alias": "NiN",
                "bodyreplacements": [
                    {
                        "collection": "mapcache",
                        "contenttype": "application/json",
                        "replace": "http://localhost:[CACHEPORT]/mapcache/vector.services.geodataonline.no",
                        "search": "https://vector.services.geodataonline.no",
                        "urlcontains": "-ingress-fppskc73cq-lz.a.run.app/vtfront",
                        "urlnotcontains": "tilemap"
                    }
                ],
                "hidefromlayerlist": true,
                "minopacity": 0.75,
                "name": "naturtyper_unfiltered",
                "type": "vector",
                "preview": "https://map-thumbs.feltgis.no/nin.png",
                "url": "https://feltgis-testing-ingress-fppskc73cq-lz.a.run.app/vtfront/a1e5b8df-6b52-151a-a7b4-69681300068f",
                "statusUrl": "https://feltgis-testing-ingress-fppskc73cq-lz.a.run.app/vtfront/a1e5b8df-6b52-151a-a7b4-69681300068f/status"
            },
            {
                "alias": "Friluftsliv",
                "bodyreplacements": [
                    {
                        "collection": "mapcache",
                        "contenttype": "application/json",
                        "replace": "http://localhost:[CACHEPORT]/mapcache/vector.services.geodataonline.no",
                        "search": "https://vector.services.geodataonline.no",
                        "urlcontains": "-ingress-fppskc73cq-lz.a.run.app/vtfront",
                        "urlnotcontains": "tilemap"
                    }
                ],
                "hidefromlayerlist": true,
                "minopacity": 0.75,
                "name": "friluftsliv_statlig_sikra_friluftsliv_statlig_sikra",
                "type": "vector",
                "preview": "https://map-thumbs.feltgis.no/friluftsliv.png",
                "url": "https://feltgis-testing-ingress-fppskc73cq-lz.a.run.app/vtfront/894a1dce-5731-ff71-4af8-40c4aa7a4058",
                "statusUrl": "https://feltgis-testing-ingress-fppskc73cq-lz.a.run.app/vtfront/894a1dce-5731-ff71-4af8-40c4aa7a4058/status"
            },
            {
                "alias": "Markagrensen",
                "bodyreplacements": [
                    {
                        "collection": "mapcache",
                        "contenttype": "application/json",
                        "replace": "http://localhost:[CACHEPORT]/mapcache/vector.services.geodataonline.no",
                        "search": "https://vector.services.geodataonline.no",
                        "urlcontains": "-ingress-fppskc73cq-lz.a.run.app/vtfront",
                        "urlnotcontains": "tilemap"
                    }
                ],
                "hidefromlayerlist": true,
                "minopacity": 0.75,
                "name": "markagrensen",
                "type": "vector",
                "preview": "https://map-thumbs.feltgis.no/markagrensen.png",
                "url": "https://feltgis-testing-ingress-fppskc73cq-lz.a.run.app/vtfront/7b58c63f-399b-9fee-cd06-47ec42025d90"
            },
            {
                "alias": "Vern",
                "bodyreplacements": [
                    {
                        "collection": "mapcache",
                        "contenttype": "application/json",
                        "replace": "http://localhost:[CACHEPORT]/mapcache/vector.services.geodataonline.no",
                        "search": "https://vector.services.geodataonline.no",
                        "urlcontains": "-ingress-fppskc73cq-lz.a.run.app/vtfront",
                        "urlnotcontains": "tilemap"
                    }
                ],
                "hidefromlayerlist": true,
                "minopacity": 0.75,
                "name": "vern_naturvern_omrade",
                "type": "vector",
                "preview": "https://map-thumbs.feltgis.no/vern_naturvern_omrade.png",
                "url": "https://feltgis-testing-ingress-fppskc73cq-lz.a.run.app/vtfront/1f1aace9-82dc-b429-ffd9-b578fce18e63",
                "statusUrl": "https://feltgis-testing-ingress-fppskc73cq-lz.a.run.app/vtfront/1f1aace9-82dc-b429-ffd9-b578fce18e63/status"
            },
            {
                "alias": "Vernskog",
                "bodyreplacements": [
                    {
                        "collection": "mapcache",
                        "contenttype": "application/json",
                        "replace": "http://localhost:[CACHEPORT]/mapcache/vector.services.geodataonline.no",
                        "search": "https://vector.services.geodataonline.no",
                        "urlcontains": "-ingress-fppskc73cq-lz.a.run.app/vtfront",
                        "urlnotcontains": "tilemap"
                    }
                ],
                "hidefromlayerlist": true,
                "minopacity": 0.75,
                "name": "vernskog",
                "type": "vector",
                "preview": "https://map-thumbs.feltgis.no/vernskog.png",
                "url": "https://feltgis-testing-ingress-fppskc73cq-lz.a.run.app/vtfront/763000db-5503-0166-a585-9b5ccce9a8ac",
                "statusUrl": "https://feltgis-testing-ingress-fppskc73cq-lz.a.run.app/vtfront/763000db-5503-0166-a585-9b5ccce9a8ac/status"
            },
            {
                "alias": "Artsdata NIBIO",
                "defaultopacity": 1,
                "hidefromlayerlist": true,
                "minopacity": 1,
                "name": "artsdata",
                "type": "raster",
                "preview": "https://map-thumbs.feltgis.no/artsdatanibio.png",
                "url": "http://35.228.152.51:8000/artsdata/MapServer"
            },
            {
                "alias": "Arter",
                "bodyreplacements": [
                    {
                        "collection": "mapcache",
                        "contenttype": "application/json",
                        "replace": "http://localhost:[CACHEPORT]/mapcache/vector.services.geodataonline.no",
                        "search": "https://vector.services.geodataonline.no",
                        "urlcontains": "-ingress-fppskc73cq-lz.a.run.app/vtfront",
                        "urlnotcontains": "tilemap"
                    }
                ],
                "hidefromlayerlist": true,
                "minopacity": 0.75,
                "name": "arter",
                "type": "vector",
                "preview": "https://map-thumbs.feltgis.no/arter.png",
                "url": "https://feltgis-testing-ingress-fppskc73cq-lz.a.run.app/vtfront/compound/dbarter"
            },
            {
                "alias": "Kvikkleirefaregrad",
                "bodyreplacements": [
                    {
                        "collection": "mapcache",
                        "contenttype": "application/json",
                        "replace": "http://localhost:[CACHEPORT]/mapcache/vector.services.geodataonline.no",
                        "search": "https://vector.services.geodataonline.no",
                        "urlcontains": "-ingress-fppskc73cq-lz.a.run.app/vtfront",
                        "urlnotcontains": "tilemap"
                    }
                ],
                "name": "skredkvikkleire2_kvikkleirefaregrad",
                "type": "vector",
                "preview": "https://map-thumbs.feltgis.no/kvikkleirefaregrad.png",
                "url": "https://feltgis-testing-ingress-fppskc73cq-lz.a.run.app/vtfront/bfbb39c2-45b2-ee9c-2457-c986f83099fa"
            },
            {
                "alias": "Jord og flomskred",
                "bodyreplacements": [
                    {
                        "collection": "mapcache",
                        "contenttype": "application/json",
                        "replace": "http://localhost:[CACHEPORT]/mapcache/vector.services.geodataonline.no",
                        "search": "https://vector.services.geodataonline.no",
                        "urlcontains": "-ingress-fppskc73cq-lz.a.run.app/vtfront",
                        "urlnotcontains": "tilemap"
                    }
                ],
                "name": "jord_og_flomskred",
                "type": "vector",
                "preview": "https://map-thumbs.feltgis.no/jordogflom.png",
                "url": "https://feltgis-testing-ingress-fppskc73cq-lz.a.run.app/vtfront/2e540c0d-b7d3-e932-eb0c-d0763337c778",
                "statusUrl": "https://feltgis-testing-ingress-fppskc73cq-lz.a.run.app/vtfront/2e540c0d-b7d3-e932-eb0c-d0763337c778/status"
            },
            {
                "alias": "Reguleringsplaner",
                "defaultopacity": 0,
                "name": "Reguleringsplaner",
                "type": "raster",
                "preview": "https://map-thumbs.feltgis.no/reguleringsplaner.png",
                "url": "http://35.228.152.51:8000/Reguleringsplaner/MapServer"
            },
            {
                "alias": "Eiendom",
                "bodyreplacements": [
                    {
                        "collection": "mapcache",
                        "contenttype": "application/json",
                        "replace": "http://localhost:[CACHEPORT]/mapcache/vector.services.geodataonline.no",
                        "search": "https://vector.services.geodataonline.no",
                        "urlcontains": "-ingress-fppskc73cq-lz.a.run.app/vtfront",
                        "urlnotcontains": "tilemap"
                    }
                ],
                "hidefromlayerlist": true,
                "minopacity": 0.75,
                "identifyDisabled": true,
                "name": "teig",
                "type": "vector",
                "preview": "https://map-thumbs.feltgis.no/teig.png",
                "url": "https://feltgis-testing-ingress-fppskc73cq-lz.a.run.app/vtfront/acc14f4e-4aac-7bf0-558a-1700a0fafaf4",
                "statusUrl": "https://feltgis-testing-ingress-fppskc73cq-lz.a.run.app/vtfront/acc14f4e-4aac-7bf0-558a-1700a0fafaf4/status"
            },
            {
                "alias": "Grensepunkter",
                "bodyreplacements": [
                    {
                        "collection": "mapcache",
                        "contenttype": "application/json",
                        "replace": "http://localhost:[CACHEPORT]/mapcache/vector.services.geodataonline.no",
                        "search": "https://vector.services.geodataonline.no",
                        "urlcontains": "-ingress-fppskc73cq-lz.a.run.app/vtfront",
                        "urlnotcontains": "tilemap"
                    }
                ],
                "identifyDisabled": true,
                "name": "grensepunkter",
                "type": "vector",
                "preview": "https://map-thumbs.feltgis.no/grensepunkter.png",
                "url": "https://feltgis-testing-ingress-fppskc73cq-lz.a.run.app/vtfront/2cda7982-5089-763e-f37a-bc53f566e37f"
            },
            {
                "alias": "Andre hensyn",
                "hidefromlayerlist": true,
                "minopacity": 0.75,
                "name": "Andre",
                "type": "raster",
                "preview": "https://map-thumbs.feltgis.no/andre.png",
                "url": "http://35.228.152.51:8000/Andre/MapServer"
            },
            {
                "alias": "MiS",
                "bodyreplacements": [
                    {
                        "collection": "mapcache",
                        "contenttype": "application/json",
                        "replace": "http://localhost:[CACHEPORT]/mapcache/vector.services.geodataonline.no",
                        "search": "https://vector.services.geodataonline.no",
                        "urlcontains": "-ingress-fppskc73cq-lz.a.run.app/vtfront",
                        "urlnotcontains": "tilemap"
                    }
                ],
                "name": "ntmiljo",
                "type": "vector",
                "preview": "https://map-thumbs.feltgis.no/ntmiljo.png",
                "url": "https://feltgis-testing-ingress-fppskc73cq-lz.a.run.app/vtfront/compound/dbntmiljo"
            },
            {
                "alias": "MiS (1)",
                "bodyreplacements": [
                    {
                        "collection": "mapcache",
                        "contenttype": "application/json",
                        "replace": "http://localhost:[CACHEPORT]/mapcache/vector.services.geodataonline.no",
                        "search": "https://vector.services.geodataonline.no",
                        "urlcontains": "-ingress-fppskc73cq-lz.a.run.app/vtfront",
                        "urlnotcontains": "tilemap"
                    }
                ],
                "hidefromlayerlist": true,
                "minopacity": 0.75,
                "name": "NTmis",
                "type": "vector",
                "preview": "https://map-thumbs.feltgis.no/ntmis.png",
                "url": "https://feltgis-testing-ingress-fppskc73cq-lz.a.run.app/vtfront/0ce16765-06dd-1619-63ee-544ff17a5e79"
            },
            {
                "alias": "MiS (2)",
                "name": "mis",
                "type": "raster",
                "preview": "https://map-thumbs.feltgis.no/mis.png",
                "url": "http://35.228.152.51:8000/mis/MapServer"
            },
            {
                "alias": "Kulturminner",
                "bodyreplacements": [
                    {
                        "collection": "mapcache",
                        "contenttype": "application/json",
                        "replace": "http://localhost:[CACHEPORT]/mapcache/vector.services.geodataonline.no",
                        "search": "https://vector.services.geodataonline.no",
                        "urlcontains": "-ingress-fppskc73cq-lz.a.run.app/vtfront",
                        "urlnotcontains": "tilemap"
                    }
                ],
                "hidefromlayerlist": true,
                "minopacity": 0.5,
                "name": "kulturminner",
                "type": "vector",
                "preview": "https://map-thumbs.feltgis.no/ra.png",
                "url": "https://feltgis-testing-ingress-fppskc73cq-lz.a.run.app/vtfront/compound/dbkulturminner"
            },
            {
                "alias": "Høydekurver",
                "bodyreplacements": [
                    {
                        "collection": "mapcache",
                        "contenttype": "application/json",
                        "replace": "http://localhost:[CACHEPORT]/mapcache/vector.services.geodataonline.no",
                        "search": "https://vector.services.geodataonline.no",
                        "urlcontains": "VectorTileServer",
                        "urlnotcontains": "tilemap"
                    },
                    {
                        "collection": "mapcache",
                        "contenttype": "application/json",
                        "replace": "http://localhost:[CACHEPORT]/mapcache/services.geodataonline.no",
                        "search": "https://services.geodataonline.no",
                        "urlcontains": "VectorTileServer",
                        "urlnotcontains": "tilemap"
                    },
                    {
                        "collection": "mapcache",
                        "contenttype": "application/json",
                        "replace": "http://localhost:[CACHEPORT]/mapcache/vector.services.geodataonline.no",
                        "search": "https://vector.services.geodataonline.no",
                        "urlcontains": "mapprod.feltgis.no",
                        "urlnotcontains": "tilemap"
                    },
                    {
                        "collection": "mapcache",
                        "contenttype": "application/json",
                        "replace": "http://localhost:[CACHEPORT]/mapcache/services.geodataonline.no",
                        "search": "https://services.geodataonline.no",
                        "urlcontains": "mapprod.feltgis.no",
                        "urlnotcontains": "tilemap"
                    },
                    {
                        "collection": "mapcache",
                        "contenttype": "application/json",
                        "replace": "TilesOnly",
                        "search": "TilesOnly,Tilemap",
                        "urlcontains": "?f=json",
                        "urlnotcontains": "tilemap"
                    },
                    {
                        "collection": "mapcache",
                        "contenttype": "application/json",
                        "replace": "\"_tileMap\"",
                        "search": "\"tileMap\"",
                        "urlcontains": "?f=json",
                        "urlnotcontains": "tilemap"
                    }
                ],
                "cachewarmupurls": [
                    {
                        "collection": "mapcache",
                        "urls": [
                            "https://services.geodataonline.no/arcgis/rest/services/GeocacheVector/GeocacheHoydekurver/VectorTileServer?f=json",
                            "https://services.geodataonline.no/arcgis/rest/services/GeocacheVector/GeocacheHoydekurver/VectorTileServer/resources/styles?f=json",
                            "https://vector.services.geodataonline.no/arcgis/rest/services/GeocacheVector/GeocacheHoydekurver/VectorTileServer?f=json",
                            "https://vector.services.geodataonline.no/arcgis/rest/services/GeocacheVector/GeocacheHoydekurver/VectorTileServer/resources/sprites/sprite@2x.json?f=json",
                            "https://vector.services.geodataonline.no/arcgis/rest/services/GeocacheVector/GeocacheHoydekurver/VectorTileServer/resources/sprites/sprite@2x.png",
                            "https://vector.services.geodataonline.no/arcgis/rest/services/GeocacheVector/GeocacheHoydekurver/VectorTileServer/?f=json"
                        ]
                    }
                ],
                "defaultopacity": 0.6,
                "identifyDisabled": true,
                "name": "Hoydekurver",
                "type": "vector",
                "preview": "https://map-thumbs.feltgis.no/hoydekurver.png",
                "url": "https://services.geodataonline.no/arcgis/rest/services/GeocacheVector/GeocacheHoydekurver/VectorTileServer"
            },
            {
                "alias": "Driftsområde",
                "minopacity": 0.3,
                "name": "SEPTommerdrift",
                "type": "polygon"
            },
            {
                "alias": "Miljø flater",
                "hidefromlayerlist": true,
                "keepInBackgroundMap": true,
                "minopacity": 0.75,
                "name": "SEMiljoFlater",
                "type": "polygon"
            },
            {
                "alias": "Registreringer flater",
                "hidefromlayerlist": true,
                "minopacity": 0.5,
                "name": "SERegistreringerFlater",
                "rendering": {
                    "includeFields": [
                        "comment"
                    ]
                },
                "type": "polygon"
            },
            {
                "alias": "Registreringer linjer",
                "hidefromlayerlist": true,
                "minopacity": 0.75,
                "name": "SERegistreringerLinjer",
                "rendering": {
                    "includeFields": [
                        "comment"
                    ]
                },
                "type": "line"
            },
            {
                "alias": "Miljø linjer",
                "hidefromlayerlist": true,
                "keepInBackgroundMap": true,
                "minopacity": 0.75,
                "name": "SEMiljoLinjer",
                "type": "line"
            },
            {
                "alias": "Sporlogg",
                "hidefromlayerlist": true,
                "minopacity": 0.75,
                "identifyDisabled": true,
                "name": "SESporlogg",
                "type": "line"
            },
            {
                "alias": "Stedsnavn",
                "defaultopacity": 0.8,
                "identifyDisabled": true,
                "name": "geocachenames",
                "type": "vector",
                "preview": "https://map-thumbs.feltgis.no/stedsnavn.png",
                "url": "https://feltgis-testing-ingress-fppskc73cq-lz.a.run.app/vtfront/geocachenames"
            },
            {
                "hidefromlayerlist": true,
                "keepInBackgroundMap": true,
                "minopacity": 0.75,
                "name": "SEMiljoPunkt",
                "type": "point"
            },
            {
                "alias": "Registreringer punkt",
                "hidefromlayerlist": true,
                "minopacity": 0.75,
                "name": "SERegistreringerPunkt",
                "rendering": {
                    "includeFields": [
                        "comment"
                    ]
                },
                "type": "point",
                "preview": "https://map-thumbs.feltgis.no/regpunkt.png"
            },
            {
                "hidefromlayerlist": true,
                "minopacity": 0.75,
                "name": "NTSkogdata",
                "type": "point"
            }
        ]
    },
    "name": "Planner SE beta",
    "genericReports": {
        "template": "https://bitbucket.org/feltgis/feltgis-config/raw/master/rapporter/storaenso/generic.html"
    },
    "reports": [
        {
            "collection": "SEPOrdre",
            "template": "https://bitbucket.org/feltgis/feltgis-config/raw/master/rapporter/storaenso/skogeieravtale-io-test.html"
        },
        {
            "collection": "SEPSkogkultur",
            "template": "https://bitbucket.org/feltgis/feltgis-config/raw/master/rapporter/storaenso/skogeieravtale-sk-test.html"
        },
        {
            "collection": "SEMiljo",
            "template": "https://bitbucket.org/feltgis/feltgis-config/raw/master/rapporter/storaenso/hogstinstruks-test.html"
        },
        {
            "collection": "SEFeltkontrollDrift",
            "template": "https://bitbucket.org/feltgis/feltgis-config/raw/master/rapporter/storaenso/feltkontrolldrift-test.html"
        },
        {
            "collection": "SEFeltkontrollAvsluttet",
            "template": "https://bitbucket.org/feltgis/feltgis-config/raw/master/rapporter/storaenso/feltkontrollavsluttet-test.html"
        },
        {
            "collection": "SEPPlantingGeom",
            "template": "https://bitbucket.org/feltgis/feltgis-config/raw/master/rapporter/storaenso/arbeidsinstruks-SEPPlantingGeom-test.html"
        },
        {
            "collection": "SEPUngskogpleieGeom",
            "template": "https://bitbucket.org/feltgis/feltgis-config/raw/master/rapporter/storaenso/arbeidsinstruks-SEPUngskogpleieGeom-test.html"
        },
        {
            "collection": "SEPForhandsryddingGeom",
            "template": "https://bitbucket.org/feltgis/feltgis-config/raw/master/rapporter/storaenso/arbeidsinstruks-SEPForhandsryddingGeom-test.html"
        },
        {
            "collection": "SEPMarkberedningGeom",
            "template": "https://bitbucket.org/feltgis/feltgis-config/raw/master/rapporter/storaenso/arbeidsinstruks-SEPMarkberedningGeom-test.html"
        },
        {
            "collection": "SEPGrofterenskGeom",
            "template": "https://bitbucket.org/feltgis/feltgis-config/raw/master/rapporter/storaenso/arbeidsinstruks-SEPGrofterenskGeom-test.html"
        },
        {
            "collection": "SEPSaaingGeom",
            "template": "https://bitbucket.org/feltgis/feltgis-config/raw/master/rapporter/storaenso/arbeidsinstruks-SEPSaaingGeom-test.html"
        },
        {
            "collection": "SEPSkogskadeGeom",
            "template": "https://bitbucket.org/feltgis/feltgis-config/raw/master/rapporter/storaenso/arbeidsinstruks-SEPSkogskadeGeom-test.html"
        },
        {
            "collection": "SEPInfrastrukturGeom",
            "template": "https://bitbucket.org/feltgis/feltgis-config/raw/master/rapporter/storaenso/arbeidsinstruks-SEPInfrastrukturGeom-test.html"
        }
    ],
    "search": [
        {
            "buttonText": "Søk i matrikkelen",
            "fields": [
                {
                    "title": "Kommune",
                    "type": "muni"
                },
                {
                    "title": "Fornavn",
                    "type": "text"
                },
                {
                    "title": "Etternavn",
                    "type": "text"
                }
            ],
            "symbol": "{\"type\":\"CIMSymbolReference\",\"symbol\":{\"type\":\"CIMLineSymbol\",\"symbolLayers\":[{\"type\":\"CIMSolidStroke\",\"enable\":true,\"width\":2,\"color\":[255,0,0,255]}]}}",
            "title": "Navn",
            "type": "matrikkel"
        },
        {
            "buttonText": "Søk i gårdskart",
            "fields": [
                {
                    "title": "Kommune",
                    "type": "muni"
                },
                {
                    "title": "Gårdsnummer",
                    "type": "int"
                },
                {
                    "title": "Bruksnummer",
                    "type": "int"
                }
            ],
            "title": "Gårdsnummer",
            "type": "gardskart"
        }
    ],
    "serverQueries": [
        {
            "name": "matrikkel",
            "returnFields": [
                "adresse",
                "bruksnavn",
                "bruksnr",
                "eierdatofra",
                "eieretternavn",
                "eierfodselsdato",
                "eierfornavn",
                "eiernavn",
                "eierorgnummer",
                "eierpostadresselinje1",
                "eierpostadresselinje2",
                "eierpostadresselinje3",
                "eierpostadresselinje4",
                "eierpostid",
                "eierpostlandkode",
                "eierpostnr",
                "eiertype",
                "fylkesnavn",
                "gardsnr",
                "hovedbruk_bruksnr",
                "hovedbruk_gardsnr",
                "hovedbruk_kommunenr",
                "kommunenavn",
                "kommunenr",
                "lagretareal",
                "matrikkeltype",
                "postnavn",
                "postnr",
                "teigid"
            ]
        }
    ],
    "sync": {
        "bucket": "planner-sync-dbs-test",
        "collections": [
            {
                "alias": "Sesjonsdata",
                "appFeature": "Session",
                "attachmentsBucket": "sesession-test",
                "batchSize": 100,
                "disablePull": true,
                "name": "SESession"
            },
            {
                "name": "SEMiljoPunkt",
                "syncFilter": {
                    "syncEverything": true
                }
            },
            {
                "name": "SEMiljoLinjer",
                "syncFilter": {
                    "syncEverything": true
                }
            },
            {
                "name": "SEMiljoFlater",
                "syncFilter": {
                    "syncEverything": true
                }
            },
            {
                "appFeature": "SharedObjects",
                "batchSize": 100,
                "name": "SEPDelteObjekter",
                "syncFilter": {
                    "syncEverything": true
                }
            },
            {
                "appFeature": "Ordre",
                "attachmentsBucket": "sepordre-test",
                "batchSize": 100,
                "indexFields": [
                    "_headId"
                ],
                "name": "SEPOrdre"
            },
            {
                "alias": "Driftsområde",
                "appFeature": "Tømmerdrift",
                "batchSize": 1000,
                "indexFields": [
                    "_headId"
                ],
                "name": "SEPTommerdrift"
            },
            {
                "appFeature": "SupplyPoints",
                "disablePull": true,
                "disablePush": true,
                "indexFields": [
                    "_headId"
                ],
                "name": "NTSkogdata"
            },
            {
                "appFeature": "Register",
                "batchSize": 10000,
                "disablePush": true,
                "ftsFields": [
                    "Fts"
                ],
                "indexFields": [
                    "OrgNum"
                ],
                "initialDump": "NTRegister.sync.db",
                "name": "NTRegister"
            },
            {
                "batchSize": 10000,
                "indexFields": [
                    "komnr"
                ],
                "initialDump": "Grunneiendom.sync.db",
                "name": "Grunneiendom"
            },
            {
                "batchSize": 10000,
                "indexFields": [
                    "komnr",
                    "orgnr"
                ],
                "initialDump": "LandbruksForetak.sync.db",
                "name": "LandbruksForetak"
            },
            {
                "appFeature": "RegistreringerPunkt",
                "indexFields": [
                    "_headId",
                    "_parentGlobalId",
                    "_referenceCollection",
                    "_visibilityMode"
                ],
                "name": "SERegistreringerPunkt"
            },
            {
                "indexFields": [
                    "_headId",
                    "_parentGlobalId",
                    "_visibilityMode"
                ],
                "name": "SERegistreringerLinjer"
            },
            {
                "appFeature": "Sporlogg",
                "batchSize": 1000,
                "indexFields": [
                    "_headId",
                    "_parentGlobalId"
                ],
                "name": "SESporlogg"
            },
            {
                "indexFields": [
                    "_headId",
                    "_parentGlobalId",
                    "_visibilityMode"
                ],
                "name": "SERegistreringerFlater"
            },
            {
                "appFeature": "Miljø",
                "indexFields": [
                    "_headId"
                ],
                "name": "SEMiljo"
            },
            {
                "appFeature": "FeltkontrollDrift",
                "indexFields": [
                    "_headId"
                ],
                "name": "SEFeltkontrollDrift"
            },
            {
                "appFeature": "FeltkontrollAvsluttet",
                "indexFields": [
                    "_headId"
                ],
                "name": "SEFeltkontrollAvsluttet"
            },
            {
                "alias": "Skogkultur",
                "appFeature": "Skogkultur",
                "attachmentsBucket": "sepskogkultur-test",
                "children": [
                    {
                        "collectionName": "SEPPlantingGeom",
                        "referenceField": "_parentGlobalId"
                    },
                    {
                        "collectionName": "SEPMarkberedningGeom",
                        "referenceField": "_parentGlobalId"
                    },
                    {
                        "collectionName": "SEPGrofterenskGeom",
                        "referenceField": "_parentGlobalId"
                    },
                    {
                        "collectionName": "SEPUngskogpleieGeom",
                        "referenceField": "_parentGlobalId"
                    },
                    {
                        "collectionName": "SEPForhandsryddingGeom",
                        "referenceField": "_parentGlobalId"
                    },
                    {
                        "collectionName": "SEPSaaingGeom",
                        "referenceField": "_parentGlobalId"
                    },
                    {
                        "collectionName": "SEPSkogskadeGeom",
                        "referenceField": "_parentGlobalId"
                    },
                    {
                        "collectionName": "SEPInfrastrukturGeom",
                        "referenceField": "_parentGlobalId"
                    },
                    {
                        "collectionName": "SEPGjodslingGeom",
                        "referenceField": "_parentGlobalId"
                    },
                    {
                        "collectionName": "SEPSproytingGeom",
                        "referenceField": "_parentGlobalId"
                    },
                    {
                        "collectionName": "SEPGravearbeidGeom",
                        "referenceField": "_parentGlobalId"
                    },
                    {
                        "collectionName": "SEPSporskaderettingGeom",
                        "referenceField": "_parentGlobalId"
                    },
                    {
                        "collectionName": "SEPStammekvistingGeom",
                        "referenceField": "_parentGlobalId"
                    },
                    {
                        "collectionName": "SERegistreringerPunkt",
                        "referenceField": "_parentGlobalId"
                    },
                    {
                        "collectionName": "SERegistreringerLinjer",
                        "referenceField": "_parentGlobalId"
                    },
                    {
                        "collectionName": "SERegistreringerFlater",
                        "referenceField": "_parentGlobalId"
                    },
                    {
                        "collectionName": "SESporlogg",
                        "referenceField": "_parentGlobalId"
                    },
                    {
                        "collectionName": "SEPFeltkontrollPlanting",
                        "referenceField": "_parentGlobalId"
                    },
                    {
                        "collectionName": "SEPFeltkontrollPlantingTelling",
                        "referenceField": "_parentGlobalId"
                    },
                    {
                        "collectionName": "SEPFeltkontrollUngskogpleie",
                        "referenceField": "_parentGlobalId"
                    },
                    {
                        "collectionName": "SEPFeltkontrollUngskogpleieTelling",
                        "referenceField": "_parentGlobalId"
                    }
                ],
                "indexFields": [
                    "_globalId",
                    "_headId"
                ],
                "name": "SEPSkogkultur",
                "syncByLocalGlobalIds": true
            },
            {
                "alias": "Planting feltkontroll",
                "attachmentsBucket": "se_pfeltkontroll_planting-test",
                "indexFields": [
                    "_parentGlobalId"
                ],
                "name": "SEPFeltkontrollPlanting"
            },
            {
                "alias": "Planting feltkontroll telling",
                "indexFields": [
                    "_parentGlobalId",
                    "_feltkontrollGlobalId"
                ],
                "name": "SEPFeltkontrollPlantingTelling"
            },
            {
                "alias": "Ungskogpleie feltkontroll",
                "attachmentsBucket": "se_pfeltkontroll_ungskogpleie-test",
                "indexFields": [
                    "_parentGlobalId"
                ],
                "name": "SEPFeltkontrollUngskogpleie"
            },
            {
                "alias": "Ungskogpleie feltkontroll telling",
                "indexFields": [
                    "_parentGlobalId",
                    "_feltkontrollGlobalId"
                ],
                "name": "SEPFeltkontrollUngskogpleieTelling"
            },
            {
                "alias": "Planting",
                "appFeature": "SkogkulturGeom",
                "indexFields": [
                    "_parentGlobalId",
                    "_headId"
                ],
                "name": "SEPPlantingGeom"
            },
            {
                "alias": "Ungskogpleie",
                "appFeature": "SkogkulturGeom",
                "indexFields": [
                    "_parentGlobalId",
                    "_headId"
                ],
                "name": "SEPUngskogpleieGeom"
            },
            {
                "alias": "Markberedning",
                "appFeature": "SkogkulturGeom",
                "indexFields": [
                    "_parentGlobalId",
                    "_headId"
                ],
                "name": "SEPMarkberedningGeom"
            },
            {
                "alias": "Grøfterensk",
                "appFeature": "SkogkulturGeom",
                "indexFields": [
                    "_parentGlobalId",
                    "_headId"
                ],
                "name": "SEPGrofterenskGeom"
            },
            {
                "alias": "Forhåndsrydding",
                "appFeature": "SkogkulturGeom",
                "indexFields": [
                    "_parentGlobalId",
                    "_headId"
                ],
                "name": "SEPForhandsryddingGeom"
            },
            {
                "alias": "Såing",
                "appFeature": "SkogkulturGeom",
                "indexFields": [
                    "_parentGlobalId",
                    "_headId"
                ],
                "name": "SEPSaaingGeom"
            },
            {
                "alias": "Skogskade",
                "appFeature": "SkogkulturGeom",
                "indexFields": [
                    "_parentGlobalId",
                    "_headId"
                ],
                "name": "SEPSkogskadeGeom"
            },
            {
                "alias": "Infrastruktur",
                "appFeature": "SkogkulturGeom",
                "indexFields": [
                    "_parentGlobalId",
                    "_headId"
                ],
                "name": "SEPInfrastrukturGeom"
            },
            {
                "alias": "Gjodsling",
                "appFeature": "SkogkulturGeom",
                "indexFields": [
                    "_parentGlobalId",
                    "_headId"
                ],
                "name": "SEPGjodslingGeom"
            },
            {
                "alias": "Sproyting",
                "appFeature": "SkogkulturGeom",
                "indexFields": [
                    "_parentGlobalId",
                    "_headId"
                ],
                "name": "SEPSproytingGeom"
            },
            {
                "alias": "Gravearbeid",
                "appFeature": "SkogkulturGeom",
                "indexFields": [
                    "_parentGlobalId",
                    "_headId"
                ],
                "name": "SEPGravearbeidGeom"
            },
            {
                "alias": "Sporskaderetting",
                "appFeature": "SkogkulturGeom",
                "indexFields": [
                    "_parentGlobalId",
                    "_headId"
                ],
                "name": "SEPSporskaderettingGeom"
            },
            {
                "alias": "Stammekvisting",
                "appFeature": "SkogkulturGeom",
                "indexFields": [
                    "_parentGlobalId",
                    "_headId"
                ],
                "name": "SEPStammekvistingGeom"
            },
            {
                "alias": "Føre var",
                "appFeature": "ForeVar",
                "indexFields": [
                    "_headId"
                ],
                "name": "SEForeVar"
            },
            {
                "alias": "Kunderegister",
                "appFeature": "CustomerDatabase",
                "ftsFields": [
                    "name"
                ],
                "indexFields": [
                    "orgNum"
                ],
                "name": "SEPCustomer"
            }
        ],
        "intervalMinutes": 2,
        "orgPrefix": "SE"
    },
    "newFeatureFromStand": [
        {
            "target": "SEPTommerdrift",
            "bonitet": "bonitet",
            "volumeGran": "volumeGran",
            "volumeFuru": "volumeFuru",
            "volumeLauv": "volumeLauv",
            "standNum": "bestandnr",
            "teigNum": "teignr",
            "title": "name"
        },
        {
            "target": "SEP\\w+Geom",
            "age": "age",
            "standNum": "bestandnr",
            "teigNum": "teignr",
            "title": "bestandnr"
        }
    ]
}

