[
	{
		"source":
		{
			"baseUrl": "https://services6.arcgis.com/MQL5OkiQgYRp5etb/ArcGIS/rest/services/",
			"folder": "",
			"service": "Teiger",
			"layers": ["Teiger"]
		},
		"destination":
		{
			"schemaName": "fritzoe",
			"tableName": "-"	
		},
		"strategy":
		{
			"rowsPerCall": 100,
			"trustRecordCount": true
		},
		"buildTables": true,
		"buildStyles": true,
		"getData": false
	}
]