[
	{
		"source":
		{
			"baseUrl": "https://kart.ra.no/arcgis/rest/services/",
			"folder": "Distribusjon",
			"service": "Kulturminner20180301",
			"layers": ["*"]
		},
		"destination":
		{
			"schemaName": "kulturminner",
			"tableName": "-"	
		},
		"strategy":
		{
			"rowsPerCall": 100,
			"trustRecordCount": true
		},
		"buildTables": true,
		"buildStyles": true,
		"getData": true
	}
]