[
	{
		"source":
		{
			"baseUrl": "https://services7.arcgis.com/DHpEe7XpJWVT2kWU/arcgis/rest/services/",
			"folder": "",
			"service": "Livsløpstrær_Smartforest",
			"layers": ["Livsløpstrær Smartforest"]
		},
		"destination":
		{
			"schemaName": "Smartforest",
			"tableName": "-"	
		},
		"strategy":
		{
			"rowsPerCall": 1000,
			"trustRecordCount": true
		},
		"buildTables": true,
		"buildStyles": true,
		"getData": true
	}
]