{
    "tileInfo":
    {
        "origin":
        {
            "y": 9045984,
            "x": -2500000
        },
        "rows": 512,
        "format": "pbf",
        "cols": 512,
        "spatialReference":
        {
            "wkid": 25833,
            "latestWkid": 25833
        },
        "lods":
        [
            {
                "scale": 81920000,
                "resolution": 21674.7100160867,
                "level": 0
            },
            {
                "scale": 40960000,
                "resolution": 10837.35500804335,
                "level": 1
            },
            {
                "scale": 20480000,
                "resolution": 5418.677504021675,
                "level": 2
            },
            {
                "scale": 10240000,
                "resolution": 2709.3387520108377,
                "level": 3
            },
            {
                "scale": 5120000,
                "resolution": 1354.6693760054188,
                "level": 4
            },
            {
                "scale": 2560000,
                "resolution": 677.3346880027094,
                "level": 5
            },
            {
                "scale": 1280000,
                "resolution": 338.6673440013547,
                "level": 6
            },
            {
                "scale": 640000,
                "resolution": 169.33367200067735,
                "level": 7
            },
            {
                "scale": 320000,
                "resolution": 84.66683600033868,
                "level": 8
            },
            {
                "scale": 160000,
                "resolution": 42.33341800016934,
                "level": 9
            },
            {
                "scale": 80000,
                "resolution": 21.16670900008467,
                "level": 10
            },
            {
                "scale": 40000,
                "resolution": 10.583354500042335,
                "level": 11
            },
            {
                "scale": 20000,
                "resolution": 5.291677250021167,
                "level": 12
            },
            {
                "scale": 10000,
                "resolution": 2.6458386250105836,
                "level": 13
            },
            {
                "scale": 5000,
                "resolution": 1.3229193125052918,
                "level": 14
            },
            {
                "scale": 2500,
                "resolution": 0.6614596562526459,
                "level": 15
            },
            {
                "scale": 1250,
                "resolution": 0.33072982812632296,
                "level": 16
            },
            {
                "scale": 625,
                "resolution": 0.16536491406316148,
                "level": 17
            },
            {
                "scale": 312.5,
                "resolution": 0.08268245703158074,
                "level": 18
            },
            {
                "scale": 156.25,
                "resolution": 0.04134122851579037,
                "level": 19
            },
            {
                "scale": 78.125,
                "resolution": 0.020670614257895185,
                "level": 20
            },
            {
                "scale": 39.0625,
                "resolution": 0.010335307128947592,
                "level": 21
            },
            {
                "scale": 19.53125,
                "resolution": 0.005167653564473796,
                "level": 22
            }
        ],
        "dpi": 96
    },
    "tiles":
    [
        "{z}/{y}/{x}.pbf"
    ],
    "name": "ntbestand",
    "maxLOD": 22,
    "maxScale": 0.0,
    "capabilities": "TilesOnly,Tilemap",
    "copyrightText": "Kartverket, Geovekst, Kommuner, Corine og OSM - Geodata AS",
    "defaultStyles": "styles",
    "currentVersion": 10.71,
    "resourceInfo":
    {
        "styleVersion": 8,
        "tileCompression": "gzip",
        "cacheInfo":
        {
            "storageInfo":
            {
                "packetSize": 128,
                "storageFormat": "compactV2"
            }
        }
    },
    "initialExtent":
    {
        "xmin": -579820.8895718101,
        "ymin": 6372801.949629217,
        "ymax": 8083351.23211297,
        "xmax": 1340639.1403707846,
        "spatialReference":
        {
            "wkid": 25833,
            "latestWkid": 25833
        }
    },
    "fullExtent":
    {
        "xmin": -579820.8895718101,
        "ymin": 6372801.949629217,
        "ymax": 8083351.23211297,
        "xmax": 1340639.1403707846,
        "spatialReference":
        {
            "wkid": 25833,
            "latestWkid": 25833
        }
    },
    "minScale": 0.0,
    "minLOD": 0,
    "type": "indexedVector",
    "exportTilesAllowed": true,
    "maxExportTilesCount": 100000
}