{
    "allowGeometryUpdates": true,
    "capabilities": "Create,Delete,Query,Sync,Update,Uploads,Editing",
    "copyrightText": "",
    "currentVersion": 10.22,
    "defaultVisibility": true,
    "description": "",
    "displayField": "name",
    "drawingInfo": null,
    "editFieldsInfo": null,
    "extent": {
        "spatialReference": {
            "latestWkid": 25833,
            "wkid": 25833
        },
        "xmax": 449078.5729,
        "xmin": 22145.20600000024,
        "ymax": 7182411.7896,
        "ymin": 6488287.4629999995
    },
    "fieldOrder": [],
    "fields": [
        {
            "alias": "HeadID",
            "editable": false,
            "fieldid": 0,
            "name": "_headId",
            "nullable": false,
            "type": "esriFieldTypeString"
        },
        {
            "alias": "Contractor Order Id",
            "editable": false,
            "fieldid": 1,
            "name": "_orderId",
            "nullable": false,
            "type": "esriFieldTypeString"
        },
        {
            "alias": "Service Order Id",
            "editable": false,
            "fieldid": 2,
            "name": "_serviceOrderId",
            "nullable": false,
            "type": "esriFieldTypeString"
        },
        {
            "alias": "IO",
            "editable": false,
            "fieldid": 3,
            "name": "_orderNum",
            "nullable": false,
            "type": "esriFieldTypeString"
        },
        {
            "alias": "Opprettet",
            "editable": false,
            "fieldid": 4,
            "name": "_created_Date",
            "nullable": false,
            "type": "esriFieldTypeDouble"
        },
        {
            "alias": "Opprettet av",
            "editable": false,
            "fieldid": 5,
            "name": "_createdBy",
            "nullable": false,
            "type": "esriFieldTypeString"
        },
        {
            "alias": "Endret",
            "editable": false,
            "fieldid": 6,
            "name": "_modified_Date",
            "nullable": false,
            "type": "esriFieldTypeDouble"
        },
        {
            "alias": "Endret av",
            "editable": false,
            "fieldid": 7,
            "name": "_modifiedBy",
            "nullable": false,
            "type": "esriFieldTypeString"
        },
        {
            "alias": "En eller flere av følgende vegetasjonstyper forekommer:",
            "domain": {
                "multipleChoiceSeparator": "|",
                "suggestedValues": [
                    {
                        "name": "Nei",
                        "preferred": true,
                        "solo": true,
                        "value": "Nei"
                    },
                    {
                        "name": "Høgstaudeskog",
                        "value": "Høgstaudeskog"
                    },
                    {
                        "name": "Lågurtskog",
                        "value": "Lågurtskog"
                    },
                    {
                        "name": "Kalkpåvirket skog",
                        "value": "Kalkpåvirket skog"
                    },
                    {
                        "name": "Sumpskog",
                        "value": "Sumpskog"
                    },
                    {
                        "name": "Tresatt flommark/oversvømmingsareal",
                        "value": "Tresatt flommark/oversvømmingsareal"
                    },
                    {
                        "name": "Gjengrodd rik slåtte-/beitemark",
                        "value": "Gjengrodd rik slåtte-/beitemark"
                    },
                    {
                        "name": "Oppkomme/kildeframspring",
                        "value": "Oppkomme/kildeframspring"
                    }
                ],
                "type": "codedValue"
            },
            "editable": true,
            "fieldid": 10,
            "name": "bakkevegetasjon",
            "notes": "En eller flere av følgende vegetasjonstyper forekommer",
            "nullable": false,
            "section": 1,
            "type": "esriFieldTypeString"
        },
        {
            "alias": "Gamle trær",
            "domain": {
                "suggestedValues": [
                    {
                        "name": "Ja",
                        "value": "Ja"
                    },
                    {
                        "name": "Nei",
                        "preferred": true,
                        "solo": true,
                        "value": "Nei"
                    }
                ],
                "type": "codedValue"
            },
            "editable": true,
            "fieldid": 20,
            "name": "gamletraer",
            "notes": "Minsteareal: 2 daa. \\Inngang: >= 3 gamle trær pr daa (maks avstand 20 meter)\\Definisjon gamle trær: \\- Furu >=200 år\\- Gran >=150 år\\- Eik >= 50 cm bhd\\- Edellauvtrær, osp, selje, bjørk: > = 40 cm bhd\\- Rogn, gråor: > = 30 cm bhd",
            "nullable": false,
            "section": 1,
            "type": "esriFieldTypeString"
        },
        {
            "alias": "Eldre lauvsuksesjon",
            "domain": {
                "suggestedValues": [
                    {
                        "name": "Ja",
                        "value": "Ja"
                    },
                    {
                        "name": "Nei",
                        "preferred": true,
                        "solo": true,
                        "value": "Nei"
                    }
                ],
                "type": "codedValue"
            },
            "editable": true,
            "fieldid": 30,
            "name": "eldrelauvsuksesjon",
            "notes": "Minsteareal: 2 daa\\Inngang: >= 4 gamle lauvtrær pr. daa (maks avstand 15 meter)\\Gjelder kun nordiske lauvtreslag. Gjelder ikke skjøttet skog.\\Definisjon gamle lauvtrær: > 20 cm i bhd.",
            "nullable": false,
            "section": 1,
            "type": "esriFieldTypeString"
        },
        {
            "alias": "Hule lauvtrær",
            "domain": {
                "suggestedValues": [
                    {
                        "name": "Ja",
                        "value": "Ja"
                    },
                    {
                        "name": "Nei",
                        "preferred": true,
                        "solo": true,
                        "value": "Nei"
                    }
                ],
                "type": "codedValue"
            },
            "editable": true,
            "fieldid": 40,
            "name": "hulelauvtraer",
            "notes": "Inngang: Forekomst av Styva eller hule lauvtrær > 30 cm i bhd ",
            "nullable": false,
            "section": 1,
            "type": "esriFieldTypeString"
        },
        {
            "alias": "Stående/liggende død ved",
            "domain": {
                "suggestedValues": [
                    {
                        "name": "Ja",
                        "value": "Ja"
                    },
                    {
                        "name": "Nei",
                        "preferred": true,
                        "solo": true,
                        "value": "Nei"
                    }
                ],
                "type": "codedValue"
            },
            "editable": true,
            "fieldid": 50,
            "name": "staende",
            "notes": "Minsteareal: 2 daa Minstedimensjon: 10 cm bhd\\Inngang:\\- Min. 4 liggende døde trær <30 cm  bhd  pr daa (maks avstand 15 meter)\\- Min. 4 stående døde trær <30 cm  bhd  pr daa (maks avstand 15 meter)\\- Min. 2 liggende døde trær >=30 cm  bhd  pr daa (maks avstand 25 meter)\\- Min. 2 stående døde trær >=30 cm  bhd  pr daa (maks avstand 25 meter)",
            "nullable": false,
            "section": 1,
            "type": "esriFieldTypeString"
        },
        {
            "alias": "Rikbarkstrær",
            "domain": {
                "suggestedValues": [
                    {
                        "name": "Ja",
                        "value": "Ja"
                    },
                    {
                        "name": "Nei",
                        "preferred": true,
                        "solo": true,
                        "value": "Nei"
                    }
                ],
                "type": "codedValue"
            },
            "editable": true,
            "fieldid": 60,
            "name": "rikbarkstraer",
            "notes": "Minsteareal: 2 daa\\Inngang:\\- Minimum 2 trær pr dekar (maks avstand 25 meter) med neverlav (lungenever etc)\\- Og/eller minimum 2 spisslønn > 20 cm bhd pr daa (maks avstand 25 meter)",
            "nullable": false,
            "section": 1,
            "type": "esriFieldTypeString"
        },
        {
            "alias": "Lyse hengelaver",
            "domain": {
                "suggestedValues": [
                    {
                        "name": "Ja",
                        "value": "Ja"
                    },
                    {
                        "name": "Nei",
                        "preferred": true,
                        "solo": true,
                        "value": "Nei"
                    }
                ],
                "type": "codedValue"
            },
            "editable": true,
            "fieldid": 70,
            "name": "lysehengelaver",
            "notes": "Minsteareal: 2 daa\\Inngang:\\- Minimum 10 trær pr dekar (maks 10 meter mellom trærne) med gode forekomster av lyse hengelaver (10 individer lengere enn 10 cm på treets rikeste kvadratmeter)\\- Og/eller forekomst av trær med huldrestry, mjuktjafs",
            "nullable": false,
            "section": 1,
            "type": "esriFieldTypeString"
        },
        {
            "alias": "Brent skog",
            "domain": {
                "suggestedValues": [
                    {
                        "name": "Ja",
                        "value": "Ja"
                    },
                    {
                        "name": "Nei",
                        "preferred": true,
                        "solo": true,
                        "value": "Nei"
                    }
                ],
                "type": "codedValue"
            },
            "editable": true,
            "fieldid": 80,
            "name": "brentskog",
            "notes": "Inngang: Forekomster av stubber med spor av brann",
            "nullable": false,
            "section": 1,
            "type": "esriFieldTypeString"
        },
        {
            "alias": "Topografi",
            "domain": {
                "suggestedValues": [
                    {
                        "name": "Ja",
                        "value": "Ja"
                    },
                    {
                        "name": "Nei",
                        "preferred": true,
                        "solo": true,
                        "value": "Nei"
                    }
                ],
                "type": "codedValue"
            },
            "editable": true,
            "fieldid": 90,
            "name": "topografi",
            "notes": "Inngang: Forekomst av en eller flere av følgende landformer\\- Bekkekløft (årsikker vannføring) Lengde mer enn 25 m, og gjennomsnittlig høydeforskjell over 5 m fra bunn til topp\\- Ravine (leire og løsmasser), lengde mer enn 25 meter\\- Store bergvegger (> 3 m høye, 80 grader stigning), og/eller blokkmark > 1daa, og/eller rasmark > 1 daa",
            "nullable": false,
            "section": 1,
            "type": "esriFieldTypeString"
        },
        {
            "alias": "Vis ekstra tabell",
            "editable": false,
            "fieldid": 190,
            "logic": {
                "setValue": {
                    "ifValueIs": {
                        "anyOf": [
                            {
                                "field": {
                                    "operator": "!=",
                                    "otherFieldName": "bakkevegetasjon",
                                    "otherFieldStringValue": "Nei"
                                }
                            },
                            {
                                "field": {
                                    "operator": "!=",
                                    "otherFieldName": "gamletraer",
                                    "otherFieldStringValue": "Nei"
                                }
                            },
                            {
                                "field": {
                                    "operator": "!=",
                                    "otherFieldName": "eldrelauvsuksesjon",
                                    "otherFieldStringValue": "Nei"
                                }
                            },
                            {
                                "field": {
                                    "operator": "!=",
                                    "otherFieldName": "hulelauvtraer",
                                    "otherFieldStringValue": "Nei"
                                }
                            },
                            {
                                "field": {
                                    "operator": "!=",
                                    "otherFieldName": "staende",
                                    "otherFieldStringValue": "Nei"
                                }
                            },
                            {
                                "field": {
                                    "operator": "!=",
                                    "otherFieldName": "rikbarkstraer",
                                    "otherFieldStringValue": "Nei"
                                }
                            },
                            {
                                "field": {
                                    "operator": "!=",
                                    "otherFieldName": "lysehengelaver",
                                    "otherFieldStringValue": "Nei"
                                }
                            },
                            {
                                "field": {
                                    "operator": "!=",
                                    "otherFieldName": "brentskog",
                                    "otherFieldStringValue": "Nei"
                                }
                            },
                            {
                                "field": {
                                    "operator": "!=",
                                    "otherFieldName": "topografi",
                                    "otherFieldStringValue": "Nei"
                                }
                            }
                        ]
                    },
                    "thenSetValue": {
                        "intValue": 1
                    },
                    "elseSetValue": {
                        "stringValue": "Nei"
                    }
                }
            },
            "name": "_showtable2_Boolean",
            "nullable": true,
            "type": "esriFieldTypeInteger"
        },
        {
            "alias": "Stor diameterspredning på hovedtreslaget (levende)",
            "domain": {
                "suggestedValues": [
                    {
                        "name": "Ja",
                        "value": "Ja"
                    },
                    {
                        "name": "Nei",
                        "preferred": true,
                        "solo": true,
                        "value": "Nei"
                    }
                ],
                "type": "codedValue"
            },
            "editable": true,
            "fieldid": 200,
            "logic": {
                "visibleIf": {
                    "field": {
                        "operator": "==",
                        "otherFieldIntValue": 1,
                        "otherFieldName": "_showtable2_Boolean"
                    }
                }
            },
            "name": "stordiamlevende",
            "nullable": true,
            "section": 2,
            "type": "esriFieldTypeString"
        },
        {
            "alias": "Stor diameterspredning på hovedtreslaget (dødt)",
            "domain": {
                "suggestedValues": [
                    {
                        "name": "Ja",
                        "value": "Ja"
                    },
                    {
                        "name": "Nei",
                        "preferred": true,
                        "solo": true,
                        "value": "Nei"
                    }
                ],
                "type": "codedValue"
            },
            "editable": true,
            "fieldid": 210,
            "logic": {
                "visibleIf": {
                    "field": {
                        "operator": "==",
                        "otherFieldIntValue": 1,
                        "otherFieldName": "_showtable2_Boolean"
                    }
                }
            },
            "name": "stordiamdodt",
            "nullable": true,
            "section": 2,
            "type": "esriFieldTypeString"
        },
        {
            "alias": "Flersjiktet bestand (kan være flere treslag i sjiktingen)",
            "domain": {
                "suggestedValues": [
                    {
                        "name": "Ja",
                        "value": "Ja"
                    },
                    {
                        "name": "Nei",
                        "preferred": true,
                        "solo": true,
                        "value": "Nei"
                    }
                ],
                "type": "codedValue"
            },
            "editable": true,
            "fieldid": 220,
            "logic": {
                "visibleIf": {
                    "field": {
                        "operator": "==",
                        "otherFieldIntValue": 1,
                        "otherFieldName": "_showtable2_Boolean"
                    }
                }
            },
            "name": "flersjiktet",
            "nullable": true,
            "section": 2,
            "type": "esriFieldTypeString"
        },
        {
            "alias": "Flere \"hull\"/åpninger i bestandet (> 0,1 daa)",
            "domain": {
                "suggestedValues": [
                    {
                        "name": "Ja",
                        "value": "Ja"
                    },
                    {
                        "name": "Nei",
                        "preferred": true,
                        "solo": true,
                        "value": "Nei"
                    }
                ],
                "type": "codedValue"
            },
            "editable": true,
            "fieldid": 240,
            "logic": {
                "visibleIf": {
                    "field": {
                        "operator": "==",
                        "otherFieldIntValue": 1,
                        "otherFieldName": "_showtable2_Boolean"
                    }
                }
            },
            "name": "flerehull",
            "nullable": true,
            "section": 2,
            "type": "esriFieldTypeString"
        },
        {
            "alias": "Flere hule trær/reirtrær (> 2 tre daa)",
            "domain": {
                "suggestedValues": [
                    {
                        "name": "Ja",
                        "value": "Ja"
                    },
                    {
                        "name": "Nei",
                        "preferred": true,
                        "solo": true,
                        "value": "Nei"
                    }
                ],
                "type": "codedValue"
            },
            "editable": true,
            "fieldid": 250,
            "logic": {
                "visibleIf": {
                    "field": {
                        "operator": "==",
                        "otherFieldIntValue": 1,
                        "otherFieldName": "_showtable2_Boolean"
                    }
                }
            },
            "name": "hule",
            "nullable": true,
            "section": 2,
            "type": "esriFieldTypeString"
        },
        {
            "alias": "Flere seintvoksende trær (overaldrige)",
            "domain": {
                "suggestedValues": [
                    {
                        "name": "Ja",
                        "value": "Ja"
                    },
                    {
                        "name": "Nei",
                        "preferred": true,
                        "solo": true,
                        "value": "Nei"
                    }
                ],
                "type": "codedValue"
            },
            "editable": true,
            "fieldid": 260,
            "logic": {
                "visibleIf": {
                    "field": {
                        "operator": "==",
                        "otherFieldIntValue": 1,
                        "otherFieldName": "_showtable2_Boolean"
                    }
                }
            },
            "name": "flereseintvoksende",
            "nullable": true,
            "section": 2,
            "type": "esriFieldTypeString"
        },
        {
            "alias": "Plantet bestand",
            "domain": {
                "suggestedValues": [
                    {
                        "name": "Ja",
                        "value": "Ja"
                    },
                    {
                        "name": "Nei",
                        "preferred": true,
                        "solo": true,
                        "value": "Nei"
                    }
                ],
                "type": "codedValue"
            },
            "editable": true,
            "fieldid": 270,
            "logic": {
                "visibleIf": {
                    "field": {
                        "operator": "==",
                        "otherFieldIntValue": 1,
                        "otherFieldName": "_showtable2_Boolean"
                    }
                }
            },
            "name": "plantetbestand",
            "nullable": true,
            "section": 2,
            "type": "esriFieldTypeString"
        },
        {
            "alias": "Nordlig eksponering eller forsenkning ",
            "domain": {
                "suggestedValues": [
                    {
                        "name": "Ja",
                        "value": "Ja"
                    },
                    {
                        "name": "Nei",
                        "preferred": true,
                        "solo": true,
                        "value": "Nei"
                    }
                ],
                "type": "codedValue"
            },
            "editable": true,
            "fieldid": 280,
            "logic": {
                "visibleIf": {
                    "field": {
                        "operator": "==",
                        "otherFieldIntValue": 1,
                        "otherFieldName": "_showtable2_Boolean"
                    }
                }
            },
            "name": "nordligeksponering",
            "nullable": true,
            "section": 2,
            "type": "esriFieldTypeString"
        },
        {
            "alias": "Sydlig eksponering eller på høyde/rygg",
            "domain": {
                "suggestedValues": [
                    {
                        "name": "Ja",
                        "value": "Ja"
                    },
                    {
                        "name": "Nei",
                        "preferred": true,
                        "solo": true,
                        "value": "Nei"
                    }
                ],
                "type": "codedValue"
            },
            "editable": true,
            "fieldid": 290,
            "logic": {
                "visibleIf": {
                    "field": {
                        "operator": "==",
                        "otherFieldIntValue": 1,
                        "otherFieldName": "_showtable2_Boolean"
                    }
                }
            },
            "name": "sydligeksponering",
            "nullable": true,
            "section": 2,
            "type": "esriFieldTypeString"
        }
    ],
    "geometryType": "esriGeometryPolygon",
    "globalIdField": "_headId",
    "hasAttachments": false,
    "htmlPopupType": "esriServerHTMLPopupTypeAsHTMLText",
    "id": 2,
    "isDataVersioned": false,
    "maxRecordCount": 100000,
    "maxScale": 0,
    "minScale": 100000,
    "name": "AIForeVar",
    "objectIdField": "OBJECTID",
    "ownershipBasedAccessControlForFeatures": null,
    "relationships": [],
    "sections": [
        {
            "id": 1,
            "title": "Rik bakkevegetasjon (vegetasjonstyper) "
        },
        {
            "id": 2,
            "title": "Tilleggsopplysninger"
        }
    ],
    "supportedQueryFormats": "JSON, AMF",
    "supportsAdvancedQueries": true,
    "supportsRollbackOnFailureParameter": true,
    "supportsStatistics": true,
    "syncCanReturnChanges": true,
    "templates": [],
    "type": "Feature Layer",
    "typeIdField": "",
    "types": [],
    "useStandardizedQueries": true
}

