{
    "allowGeometryUpdates": true,
    "capabilities": "Create,Delete,Query,Sync,Update,Uploads,Editing",
    "copyrightText": "",
    "currentVersion": 10.22,
    "defaultVisibility": true,
    "description": "",
    "displayField": "name",
    "drawingInfo": null,
    "editFieldsInfo": null,
    "extent": {
        "spatialReference": {
            "latestWkid": 25833,
            "wkid": 25833
        },
        "xmax": 449078.5729,
        "xmin": 22145.20600000024,
        "ymax": 7182411.7896,
        "ymin": 6488287.4629999995
    },
    "fieldOrder": [],
    "fields": [
        {
            "alias": "HeadID",
            "editable": false,
            "fieldid": 0,
            "name": "_headId",
            "nullable": false,
            "type": "esriFieldTypeString"
        },
        {
            "alias": "Opprettet",
            "editable": false,
            "fieldid": 20,
            "name": "_created_Date",
            "nullable": false,
            "type": "esriFieldTypeDouble"
        },
        {
            "alias": "Opprettet av",
            "editable": false,
            "fieldid": 21,
            "name": "_createdBy",
            "nullable": false,
            "type": "esriFieldTypeString"
        },
        {
            "alias": "Endret",
            "editable": false,
            "fieldid": 22,
            "name": "_modified_Date",
            "nullable": false,
            "type": "esriFieldTypeDouble"
        },
        {
            "alias": "Endret av",
            "editable": false,
            "fieldid": 23,
            "name": "_modifiedBy",
            "nullable": false,
            "type": "esriFieldTypeString"
        },
        {
            "alias": "Contractor Order Id",
            "editable": false,
            "fieldid": 24,
            "name": "_orderId",
            "nullable": true,
            "type": "esriFieldTypeString"
        },
        {
            "alias": "Service Order Id",
            "editable": false,
            "fieldid": 25,
            "name": "_serviceOrderId",
            "nullable": true,
            "type": "esriFieldTypeString"
        },
        {
            "alias": "Irreversibelt Omregulert",
            "editable": false,
            "fieldid": 45,
            "name": "_irreversiblyReregulated",
            "nullable": true,
            "type": "esriFieldTypeString"
        },
        {
            "alias": "Alt tømmer kommer fra kartfestet område?",
            "domain": {
                "suggestedValues": [
                    {
                        "name": "Ja",
                        "preferred": true,
                        "solo": true,
                        "value": "Ja"
                    },
                    {
                        "name": "Nei",
                        "value": "Nei"
                    }
                ],
                "type": "codedValue"
            },
            "editable": true,
            "fieldid": 3,
            "name": "sporing",
            "notes": "Alt virke virkeskjøper omsetter skal kunne spores tilbake til hogstfelt.",
            "nullable": false,
            "section": 1,
            "type": "esriFieldTypeString"
        },
        {
            "alias": "Er det bestemmelser i reguleringsplanen som legger føringer for hogsten? (kulturminner, Kantsoner, friområder  etc.)",
            "editable": true,
            "fieldid": 46,
            "logic": {
                "visibleIf": {
                    "field": {
                        "operator": "==",
                        "otherFieldIntValue": 1,
                        "otherFieldName": "_irreversiblyReregulated"
                    }
                }
            },
            "name": "regulationGivesGuidelinesForMeasure_Boolean",
            "nullable": true,
            "section": 2,
            "type": "esriFieldTypeInteger"
        },
        {
            "alias": "Krav til grønt/friområder?",
            "editable": true,
            "fieldid": 47,
            "logic": {
                "visibleIf": {
                    "allOf": [
                        {
                            "field": {
                                "operator": "==",
                                "otherFieldIntValue": 1,
                                "otherFieldName": "_irreversiblyReregulated"
                            }
                        },
                        {
                            "field": {
                                "operator": "!=",
                                "otherFieldIntValue": 0,
                                "otherFieldName": "regulationGivesGuidelinesForMeasure_Boolean"
                            }
                        }
                    ]
                }
            },
            "name": "requirementsForGreenOpenAreas_Boolean",
            "nullable": false,
            "section": 2,
            "type": "esriFieldTypeInteger"
        },
        {
            "alias": "Krav til ivaretakelse av kulturminner?",
            "editable": true,
            "fieldid": 48,
            "logic": {
                "visibleIf": {
                    "allOf": [
                        {
                            "field": {
                                "operator": "==",
                                "otherFieldIntValue": 1,
                                "otherFieldName": "_irreversiblyReregulated"
                            }
                        },
                        {
                            "field": {
                                "operator": "!=",
                                "otherFieldIntValue": 0,
                                "otherFieldName": "regulationGivesGuidelinesForMeasure_Boolean"
                            }
                        }
                    ]
                }
            },
            "name": "requirementsForSafeguardingCulturalHeritage_Boolean",
            "nullable": false,
            "section": 2,
            "type": "esriFieldTypeInteger"
        },
        {
            "alias": "Nøkkelbiotop/MiS-figur",
            "domain": {
                "multipleChoiceSeparator": "|",
                "suggestedValues": [
                    {
                        "name": "Hogg inn til merkebånd. Trær med merkebånd skal stå igjen.",
                        "value": "Hogg inn til merkebånd. Trær med merkebånd skal stå igjen."
                    },
                    {
                        "name": "Livsløpstrær skal stå igjen som buffer rundt MiS-figur.",
                        "value": "Livsløpstrær skal stå igjen som buffer rundt MiS-figur."
                    },
                    {
                        "name": "Hogst etter føringer fra biolog under vedlegg i virkeshandel.",
                        "value": "Hogst etter føringer fra biolog under vedlegg i virkeshandel."
                    },
                    {
                        "name": "Nei",
                        "preferred": true,
                        "solo": true,
                        "value": "Nei"
                    }
                ],
                "type": "codedValue"
            },
            "editable": true,
            "fieldid": 4,
            "logic": {
                "visibleIf": {
                    "field": {
                        "operator": "!=",
                        "otherFieldIntValue": 1,
                        "otherFieldName": "_irreversiblyReregulated"
                    }
                }
            },
            "name": "mis",
            "notes": "MiS-figurer SKAL merkes i felt i forkant av drift. Livsløpstrær kan med fordel settes som buffer rundt MiS-figuren. Evt. tiltak i MiS-figuren skal godkjennes og beskrives av biolog.",
            "nullable": false,
            "section": 2,
            "sortix": 49,
            "type": "esriFieldTypeString"
        },
        {
            "alias": "Naturreservat (vernet eller i verneprosess)?",
            "domain": {
                "suggestedValues": [
                    {
                        "name": "Hogg inn til merkebånd. Trær med merkebånd skal stå igjen.",
                        "value": "Hogg inn til merkebånd. Trær med merkebånd skal stå igjen."
                    },
                    {
                        "name": "Livsløpstrær skal stå igjen som buffer rundt naturreservat.",
                        "value": "Livsløpstrær skal stå igjen som buffer rundt naturreservat."
                    },
                    {
                        "name": "Nei",
                        "preferred": true,
                        "solo": true,
                        "value": "Nei"
                    }
                ],
                "type": "codedValue"
            },
            "editable": true,
            "fieldid": 5,
            "logic": {
                "visibleIf": {
                    "field": {
                        "operator": "!=",
                        "otherFieldIntValue": 1,
                        "otherFieldName": "_irreversiblyReregulated"
                    }
                }
            },
            "name": "naturreservat",
            "notes": "Naturreservat skal merkes i felt. Statsforvalteren kan kontaktes for merking der grensene er uklare.",
            "nullable": false,
            "section": 2,
            "sortix": 50,
            "type": "esriFieldTypeString"
        },
        {
            "alias": "Naturtype med A eller B-verdi, eller NiN?",
            "domain": {
                "multipleChoiceSeparator": "|",
                "suggestedValues": [
                    {
                        "name": "Hogg inn til merkebånd. Trær med merkebånd skal stå igjen.",
                        "value": "Hogg inn til merkebånd. Trær med merkebånd skal stå igjen."
                    },
                    {
                        "name": "Livsløpstrær skal stå igjen som buffer rundt naturtype.",
                        "value": "Livsløpstrær skal stå igjen som buffer rundt naturtype."
                    },
                    {
                        "name": "Hogst etter føringer fra biolog under vedlegg i virkeshandel.",
                        "value": "Hogst etter føringer fra biolog under vedlegg i virkeshandel."
                    },
                    {
                        "name": "Nei",
                        "preferred": true,
                        "solo": true,
                        "value": "Nei"
                    }
                ],
                "type": "codedValue"
            },
            "editable": true,
            "fieldid": 6,
            "logic": {
                "visibleIf": {
                    "field": {
                        "operator": "!=",
                        "otherFieldIntValue": 1,
                        "otherFieldName": "_irreversiblyReregulated"
                    }
                }
            },
            "name": "naturtype",
            "notes": "Naturtyper SKAL merkes i felt før oppstart av drift. Evt. hogst i naturtype skal godkjennes av biolog som også skal gi føringer for dette.",
            "nullable": false,
            "section": 2,
            "sortix": 51,
            "type": "esriFieldTypeString"
        },
        {
            "alias": "Tilsvarende verdisetting i NARIN?",
            "domain": {
                "multipleChoiceSeparator": "|",
                "suggestedValues": [
                    {
                        "name": "Hogg inn til merkebånd. Trær med merkebånd skal stå igjen.",
                        "value": "Hogg inn til merkebånd. Trær med merkebånd skal stå igjen."
                    },
                    {
                        "name": "Livsløpstrær skal stå igjen som buffer rundt naturtype.",
                        "value": "Livsløpstrær skal stå igjen som buffer rundt naturtype."
                    },
                    {
                        "name": "Hogst etter føringer fra biolog under vedlegg i virkeshandel.",
                        "value": "Hogst etter føringer fra biolog under vedlegg i virkeshandel."
                    },
                    {
                        "name": "Nei",
                        "preferred": true,
                        "solo": true,
                        "value": "Nei"
                    }
                ],
                "type": "codedValue"
            },
            "editable": true,
            "fieldid": 7,
            "logic": {
                "visibleIf": {
                    "field": {
                        "operator": "!=",
                        "otherFieldIntValue": 1,
                        "otherFieldName": "_irreversiblyReregulated"
                    }
                }
            },
            "name": "narin",
            "notes": "Narin-basen må sjekkes ut for mulige registreringer av verneverdier. Kjerneområder med to stjerner eller mer, må unntas hogst eller sjekkes ut med biolog.",
            "nullable": false,
            "section": 2,
            "sortix": 52,
            "type": "esriFieldTypeString"
        },
        {
            "alias": "Areal med behov for kantsone?",
            "domain": {
                "multipleChoiceSeparator": "|",
                "suggestedValues": [
                    {
                        "name": "La kantsone stå urørt.",
                        "value": "La kantsone stå urørt."
                    },
                    {
                        "name": "Kantsone er merket i kart.",
                        "value": "Kantsone er merket i kart."
                    },
                    {
                        "name": "Plukk enkelte store ustabile trær i kantsona.",
                        "value": "Plukk enkelte store ustabile trær i kantsona."
                    },
                    {
                        "name": "Hogg kantsona for etablering av ny flersjiktet kantsone, etter føringer fra Statsforvalteren/Miljøansvarlig under vedlegg i virkeshandel.",
                        "value": "Hogg kantsona for etablering av ny flersjiktet kantsone, etter føringer fra Statsforvalteren/Miljøansvarlig under vedlegg i virkeshandel."
                    },
                    {
                        "name": "Nei",
                        "preferred": true,
                        "solo": true,
                        "value": "Nei"
                    }
                ],
                "type": "codedValue"
            },
            "editable": true,
            "fieldid": 8,
            "logic": {
                "visibleIf": {
                    "anyOf": [
                        {
                            "field": {
                                "operator": "!=",
                                "otherFieldIntValue": 1,
                                "otherFieldName": "_irreversiblyReregulated"
                            }
                        },
                        {
                            "field": {
                                "operator": "!=",
                                "otherFieldIntValue": 0,
                                "otherFieldName": "regulationGivesGuidelinesForMeasure_Boolean"
                            }
                        }
                    ]
                }
            },
            "name": "kantsone",
            "notes": "Mot vann, bekk/elv og myr over 2 dekar skal det gjensettes en kantsone. Normal bredde på sonen er 10-15 meter.\n\nBredere kantsone (25-30 m) ved:\n* Edellauv-, høgstaude-, storbregne- eller sumpskog.\n\nSmalere kantsone (ned mot 5 m) ved:\n* Tørre vegetasjonstyper eller bratt terreng ned mot myr/vassdrag\n* Ensjikta furuskog.\n* Bekker 1-2 m.\n\nBekk < 1 m med årssikker vannføring:\n* Sett igjen et vegetasjonsbelte (< 5m).\n\nKantsonen skal som hovedregel stå urørt. \nSkal kantsone fjernes helt, må dette søkes om til SF.\n\nDet kan skje plukkhogst av større trær i kantsone. Alt av lauv og stormsterke trær med dype kroner gjensettes. Hvis eksisterende kantsone er lite funksjonell, er det viktig at kantskogen utvikles i neste omløp (ikke planting, hensyn under ungskogpleie og tynning).\n\nHogst i kantsone skal ikke skje i hekketida (mai, juni og juli).",
            "nullable": false,
            "section": 2,
            "sortix": 53,
            "type": "esriFieldTypeString"
        },
        {
            "alias": "Krav til skiltplan?",
            "domain": {
                "suggestedValues": [
                    {
                        "name": "Ja",
                        "value": "Ja"
                    },
                    {
                        "name": "Nei",
                        "preferred": true,
                        "solo": true,
                        "value": "Nei"
                    }
                ],
                "type": "codedValue"
            },
            "editable": true,
            "fieldid": 29,
            "name": "skiltplan",
            "notes": "Arbeid/velteplass ved offentlig vei krever godkjent skiltplan. Tømmeret lunnet langs veg skal ligge minste 3 meter fra vegskulder, målt vannrett.",
            "nullable": false,
            "section": 2,
            "sortix": 54,
            "type": "esriFieldTypeString"
        },
        {
            "alias": "Berører drift areal med krav om offentlig godkjenning?",
            "domain": {
                "multipleChoiceSeparator": "|",
                "suggestedValues": [
                    {
                        "name": "Hogst i vernskog: Følg anvisning i skogbrukssjefens hogstgodkjenning.",
                        "value": "Hogst i vernskog: Følg anvisning i skogbrukssjefens hogstgodkjenning."
                    },
                    {
                        "name": "Hogst i marka: Følg plan og vilkår i skogbrukssjefens svar på hogstmelding eller statsforvalterens hogstgodkjenning.",
                        "value": "Hogst i marka: Følg plan og vilkår i skogbrukssjefens svar på hogstmelding eller statsforvalterens hogstgodkjenning."
                    },
                    {
                        "name": "Hogst i områder/kommuner med generell meldeplikt for hogst. Følg kommunalt vedtak med vilkår/føringer for hogst under veglegg i virkeshandel.",
                        "value": "Hogst i områder/kommuner med generell meldeplikt for hogst. Følg kommunalt vedtak med vilkår/føringer for hogst under veglegg i virkeshandel."
                    },
                    {
                        "name": "Hogst i samisk reinbeitedistrikt med flate på over 100 dekar. Følg plan fra reindriftsavdelingen hos Statsforvalteren under vedlegg i virkeshandel.",
                        "value": "Hogst i samisk reinbeitedistrikt med flate på over 100 dekar. Følg plan fra reindriftsavdelingen hos Statsforvalteren under vedlegg i virkeshandel."
                    },
                    {
                        "name": "Nei",
                        "preferred": true,
                        "solo": true,
                        "value": "Nei"
                    }
                ],
                "type": "codedValue"
            },
            "editable": true,
            "fieldid": 19,
            "logic": {
                "visibleIf": {
                    "field": {
                        "operator": "!=",
                        "otherFieldIntValue": 1,
                        "otherFieldName": "_irreversiblyReregulated"
                    }
                }
            },
            "name": "offentliggodkjenning",
            "notes": "Områder med krav om offentlig godkjenning krever at melding sendes kommunen. Dette gjelder hogst i vernskog, hogst i 'Bymarka' (Oslo), og hogst i kommuner som har innført meldeplikt etter forskrift til skogloven. Avvirkning kan ikke starte før svar på melding er mottatt.",
            "nullable": false,
            "section": 2,
            "sortix": 55,
            "type": "esriFieldTypeString"
        },
        {
            "alias": "Berører drift/transport kulturminner eller kulturmiljøer?",
            "domain": {
                "multipleChoiceSeparator": "|",
                "suggestedValues": [
                    {
                        "name": "Hogg inn til merkebånd. Sett igjen trær med merkebånd, som kulturstubber.",
                        "value": "Hogg inn til merkebånd. Sett igjen trær med merkebånd, som kulturstubber."
                    },
                    {
                        "name": "Ikke kjør nærmere enn 5 meter fra ytterkant av kulturminnet!",
                        "value": "Ikke kjør nærmere enn 5 meter fra ytterkant av kulturminnet!"
                    },
                    {
                        "name": "Se føringer fra arkeolog under vedlegg i virkeshandel.",
                        "value": "Se føringer fra arkeolog under vedlegg i virkeshandel."
                    },
                    {
                        "name": "Nei",
                        "preferred": true,
                        "solo": true,
                        "value": "Nei"
                    }
                ],
                "type": "codedValue"
            },
            "editable": true,
            "fieldid": 15,
            "logic": {
                "visibleIf": {
                    "field": {
                        "operator": "!=",
                        "otherFieldIntValue": 1,
                        "otherFieldName": "_irreversiblyReregulated"
                    }
                }
            },
            "name": "kulturminner",
            "notes": "Kulturminner SKAL merkes i Felt i før oppstart av hogst.\n\nVær obs. på dårlig presisjon på enkelte kulturminner i kart. Kontakt arkeolog hos Fylkeskommunen ved usikkerhet om avgrensning eller hensyn til fredet minne.\n\nKulturstubber skal settes igjen rundt kulturminnet, og man kan ikke kjøre nærmere kulturminnet enn 5 meter fra ytterkanten.\n\nKulturminner fra før 1537 og alle samiske kulturminner fra år 1917 eller eldre er automatisk fredet. Skogeier plikter i tillegg å hensynta andre kjente og verdifulle kulturminner.",
            "nullable": false,
            "section": 2,
            "sortix": 56,
            "type": "esriFieldTypeString"
        },
        {
            "alias": "Påvirker drifta område definert som samisk reinbeitedistrikt?",
            "domain": {
                "multipleChoiceSeparator": "|",
                "suggestedValues": [
                    {
                        "name": "Tiltaket overstiger 100 dekar i tilstøtende område innen samme år. Reinbeitemyndighet er varslet. Se vedlegg i virkeshandel.",
                        "value": "Tiltaket overstiger 100 dekar i tilstøtende område innen samme år. Reinbeitemyndighet er varslet. Se vedlegg i virkeshandel."
                    },
                    {
                        "name": "Se føringer gitt av reindriftsmyndighetene.",
                        "value": "Se føringer gitt av reindriftsmyndighetene."
                    },
                    {
                        "name": "Nei",
                        "preferred": true,
                        "solo": true,
                        "value": "Nei"
                    }
                ],
                "type": "codedValue"
            },
            "editable": true,
            "fieldid": 33,
            "logic": {
                "visibleIf": {
                    "field": {
                        "operator": "!=",
                        "otherFieldIntValue": 1,
                        "otherFieldName": "_irreversiblyReregulated"
                    }
                }
            },
            "name": "reinbeitedistrikt",
            "notes": "Skogeier skal anerkjenne, respektere og opprettholde berørte reindriftssamers rettigheter, sedvaner og kultur i samsvar med reindriftslovens bestemmelser.\nSkogeier må ikke utnytte sin eiendom på en slik måte at det er til vesentlig skade for reindriftsutøvelse. I forkant av slike tiltak skal det gis varsel senest tre uker før planlagt iverksetting. Dette gjelder flatehogst, gjødsling og markberedning som overstiger 100 dekar i tilstøtende områder innen samme år. Reindriftsmyndighetene skal varsles ved markberedning uavhengig av arealomfang.\n \nDer reindriftsamene har rettigheter skal det ved hogst og andre skogbrukstiltak tas særskilt hensyn i følgende områder:\na) Viktige trekk- og flytteleder b) Oppsamlingsområder\nc) Vanskelige passasjer\nd) Viktige nødbeiteområder med hengelav i beitehøyde\ne) Beitehager\nf) Kalvingsland\n g) Lavrik mark\nh) Samiske hellige steder, offerplasser, gravplasser, kulturelt viktige stier og andre steder av særskilt kulturhistorisk betydning",
            "nullable": false,
            "section": 2,
            "sortix": 57,
            "type": "esriFieldTypeString"
        },
        {
            "alias": "Finnes det tidligere miljøhensyn, eks. livsløpstrær som må hensyntas?",
            "domain": {
                "multipleChoiceSeparator": "|",
                "suggestedValues": [
                    {
                        "name": "Nei",
                        "preferred": true,
                        "solo": true,
                        "value": "Nei"
                    }
                ],
                "type": "codedValue"
            },
            "editable": true,
            "fieldid": 9,
            "logic": {
                "visibleIf": {
                    "field": {
                        "operator": "!=",
                        "otherFieldIntValue": 1,
                        "otherFieldName": "_irreversiblyReregulated"
                    }
                }
            },
            "name": "tidligere",
            "notes": "Finnes miljøhensyn fra tidligere drifter som ikke vises på kart på eiendommen? Dette legges inn i kartet. Hvis livsløpstrær er satt i bestandsgrense eller nabobestand – legg basvei rundt.",
            "nullable": false,
            "section": 2,
            "sortix": 58,
            "type": "esriFieldTypeString"
        },
        {
            "alias": "Anbefalt plassering av livsløpstrær",
            "domain": {
                "suggestedValues": [
                    {
                        "name": "Synlig på flata",
                        "value": "Synlig på flata"
                    },
                    {
                        "name": "I kanten av flata",
                        "value": "I kanten av flata"
                    },
                    {
                        "name": "Virkeskjøper har merket disse i kart",
                        "value": "Virkeskjøper har merket disse i kart"
                    },
                    {
                        "name": "Som buffer rundt BVO",
                        "value": "Som buffer rundt BVO"
                    },
                    {
                        "name": "Som en utvidelse av kantsonen",
                        "value": "Som en utvidelse av kantsonen"
                    },
                    {
                        "name": "Ikke relevant for tiltakstypen",
                        "value": "Ikke relevant for tiltakstypen"
                    }
                ],
                "type": "codedValue"
            },
            "editable": true,
            "fieldid": 31,
            "logic": {
                "visibleIf": {
                    "field": {
                        "operator": "!=",
                        "otherFieldIntValue": 1,
                        "otherFieldName": "_irreversiblyReregulated"
                    }
                }
            },
            "name": "plasseringllt",
            "notes": "Hvor anbefaler du at maskinfører skal sette igjen livsløpstrærne på denne drifta?\n\nGjensetting av livsløpstrær Ved hogst skal det i gjennomsnitt settes igjen minst 10 livsløpstrær pr. hektar avvirket areal. Livsløpstrær settes igjen enkeltvis eller i grupper i driftsområdet på en måte som bidrar til stabilitet. Kravet til antall livsløpstrær gjelder som gjennomsnitt for det avvirkede område, og kan omfatte flere skogbestand. Livsløpstrærne velges blant de eldste trærne med høyest verdi for naturmangfoldet. Både dominerende treslag og eventuelt sjeldne/uvanlige treslag skal være representert. Der det er fare for stormfelling, kan inntil halvparten av livsløpstrærne av levende gran og osp kappes til høgstubbe (tre som kappes høyere enn 3 meter). For å finne stormsterke grantrær som kan fungere som livsløpstrær, kan også trær med stor barmasse og en diameter ned til ca. 20 cm brukes. Stående død gran kan inngå som livsløpstrær. Summen av stående død gran og høgstubber skal ikke utgjøre mer enn halvparten av antall livsløpstrær.\n\nMinst 2 av livsløpstrærne skal velges blant dominerende treslag. Utover disse skal følgende trær prioriteres:\n\na) Spesielt grove/gamle trær, hule trær og grove trær med utpreget vid, grovkvistet og/eller flat krone\n\nb) Grove/gamle trær med tydelige eldre kulturspor som hagemarkstrær, styvingstrær, beitetrær og barktatte furutrær\n\nc) Trær med hakkespetthull og reirfunksjon for rovfugler\n\nd) Rødlista treslag som ask, alm, barlind, villeple, og ulike asalarter\n\ne) Edelløvtrær i skoglandskapet innen boreal sone\n\nf) Store eksemplarer av osp, selje, rogn, lønn, lind, hegg, hassel, kirsebær, einer og kristtorn\n\ng) Levende trær med brannspor\n\nLauvtrær som livsløpstrær skal prioriteres.",
            "nullable": false,
            "section": 2,
            "sortix": 59,
            "type": "esriFieldTypeString"
        },
        {
            "alias": "Andre bestemmelser i reguleringsplanen?",
            "editable": true,
            "fieldid": 49,
            "logic": {
                "visibleIf": {
                    "allOf": [
                        {
                            "field": {
                                "operator": "==",
                                "otherFieldIntValue": 1,
                                "otherFieldName": "_irreversiblyReregulated"
                            }
                        },
                        {
                            "field": {
                                "operator": "!=",
                                "otherFieldIntValue": 0,
                                "otherFieldName": "regulationGivesGuidelinesForMeasure_Boolean"
                            }
                        }
                    ]
                }
            },
            "name": "otherProvisionsInRegulationPlan",
            "nullable": true,
            "section": 2,
            "sortix": 60,
            "type": "esriFieldTypeString"
        },
        {
            "alias": "Andre hensyn?",
            "editable": true,
            "fieldid": 50,
            "logic": {
                "visibleIf": {
                    "field": {
                        "operator": "==",
                        "otherFieldIntValue": 1,
                        "otherFieldName": "_irreversiblyReregulated"
                    }
                }
            },
            "name": "otherConserns",
            "nullable": true,
            "section": 2,
            "sortix": 61,
            "type": "esriFieldTypeString"
        },
        {
            "alias": "Truede arter med hensynskrav (sårbare-VU, truet-EN eller kritisk truet-CR)?",
            "domain": {
                "multipleChoiceSeparator": "|",
                "suggestedValues": [
                    {
                        "name": "Hogg inn til merkebånd. Trær med merkebånd skal stå igjen.",
                        "value": "Hogg inn til merkebånd. Trær med merkebånd skal stå igjen."
                    },
                    {
                        "name": "Hogg et føringer gitt av biolog under vedlegg i virkeshandel.",
                        "value": "Hogg et føringer gitt av biolog under vedlegg i virkeshandel."
                    },
                    {
                        "name": "Nei",
                        "preferred": true,
                        "solo": true,
                        "value": "Nei"
                    }
                ],
                "type": "codedValue"
            },
            "editable": true,
            "fieldid": 10,
            "logic": {
                "visibleIf": {
                    "field": {
                        "operator": "!=",
                        "otherFieldIntValue": 1,
                        "otherFieldName": "_irreversiblyReregulated"
                    }
                }
            },
            "name": "hensynskrav",
            "notes": "Hogst nærmere enn 50 meter fra artsregistreringen skal avklares med biolog som gir føringer for hvordan dette evt. skal gjennomføres.",
            "nullable": false,
            "section": 3,
            "type": "esriFieldTypeString"
        },
        {
            "alias": "Konsentrasjon av minst fire ulike truede (NT) arter innenfor 10 dekar?",
            "domain": {
                "suggestedValues": [
                    {
                        "name": "Hogg inn til merkebånd. Trær med merkebånd skal stå igjen.",
                        "value": "Hogg inn til merkebånd. Trær med merkebånd skal stå igjen."
                    },
                    {
                        "name": "Hogg etter føringer gitt av biolog under vedlegg i virkeshandel.",
                        "value": "Hogg etter føringer gitt av biolog under vedlegg i virkeshandel."
                    },
                    {
                        "name": "Nei",
                        "preferred": true,
                        "solo": true,
                        "value": "Nei"
                    }
                ],
                "type": "codedValue"
            },
            "editable": true,
            "fieldid": 11,
            "logic": {
                "visibleIf": {
                    "field": {
                        "operator": "!=",
                        "otherFieldIntValue": 1,
                        "otherFieldName": "_irreversiblyReregulated"
                    }
                }
            },
            "name": "truedearter",
            "notes": "Hogst nærmere enn 50 meter fra artsregistreringen skal avklares med biolog som gir føringer for hvordan dette evt. skal gjennomføres.",
            "nullable": false,
            "section": 3,
            "type": "esriFieldTypeString"
        },
        {
            "alias": "Spillplass tiur?",
            "domain": {
                "multipleChoiceSeparator": "|",
                "suggestedValues": [
                    {
                        "name": "Hogg inn mot merkebånd. Bånd skal henge igjen.",
                        "value": "Hogg inn mot merkebånd. Bånd skal henge igjen."
                    },
                    {
                        "name": "Hogg etter grense på kart mot GPS.",
                        "value": "Hogg etter grense på kart mot GPS."
                    },
                    {
                        "name": "Se føringer fra biolog under vedlegg i virkeshandel.",
                        "value": "Se føringer fra biolog under vedlegg i virkeshandel."
                    },
                    {
                        "name": "Plukkhogst, gjennomhogst etter anvisninger fra biolog. Spar gran med lav kvistsetting og undervegetasjon (skjul).",
                        "value": "Plukkhogst, gjennomhogst etter anvisninger fra biolog. Spar gran med lav kvistsetting og undervegetasjon (skjul)."
                    },
                    {
                        "name": "Gjennomhogst, gruppehogst etter anvisning fra biolog. Spar gran med lav kvistsetting og undervegetasjon.",
                        "value": "Gjennomhogst, gruppehogst etter anvisning fra biolog. Spar gran med lav kvistsetting og undervegetasjon."
                    },
                    {
                        "name": "Nei",
                        "preferred": true,
                        "solo": true,
                        "value": "Nei"
                    }
                ],
                "type": "codedValue"
            },
            "editable": true,
            "fieldid": 12,
            "logic": {
                "visibleIf": {
                    "field": {
                        "operator": "!=",
                        "otherFieldIntValue": 1,
                        "otherFieldName": "_irreversiblyReregulated"
                    }
                }
            },
            "name": "tiur",
            "notes": "Ved hogst nærmere enn 300 meter fra ytterkant av leiksentrum skal biolog gi føringer for denne. Entreprenør skal være med på befaring med biolog. Tiurleiker med mer enn 12 tiurer skal ha en forvaltningsplan.",
            "nullable": false,
            "section": 3,
            "type": "esriFieldTypeString"
        },
        {
            "alias": "Hekkeplass for rovfugl?",
            "domain": {
                "multipleChoiceSeparator": "|",
                "suggestedValues": [
                    {
                        "name": "Hogg inn mot merkebånd. Bånd skal henge igjen.",
                        "value": "Hogg inn mot merkebånd. Bånd skal henge igjen."
                    },
                    {
                        "name": "Plukkhogst, gjennomhogst i hensynssone etter anvisning fra biolog.",
                        "value": "Plukkhogst, gjennomhogst i hensynssone etter anvisning fra biolog."
                    },
                    {
                        "name": "Nei",
                        "preferred": true,
                        "solo": true,
                        "value": "Nei"
                    }
                ],
                "type": "codedValue"
            },
            "editable": true,
            "fieldid": 13,
            "logic": {
                "visibleIf": {
                    "field": {
                        "operator": "!=",
                        "otherFieldIntValue": 1,
                        "otherFieldName": "_irreversiblyReregulated"
                    }
                }
            },
            "name": "rovfugl",
            "notes": "Hogstgrense mot rovfuglreir jfr. standardens krav, skal merkes i terrenget.",
            "nullable": false,
            "section": 3,
            "type": "esriFieldTypeString"
        },
        {
            "alias": "Andre hekkende fugler som kan bli påvirket?",
            "domain": {
                "multipleChoiceSeparator": "|",
                "suggestedValues": [
                    {
                        "name": "Unngå hogst og kjøring i Gjengrodde områder som tidligere var åpne landskaper, dyrket mark eller beiteområder.",
                        "value": "Unngå hogst og kjøring i Gjengrodde områder som tidligere var åpne landskaper, dyrket mark eller beiteområder."
                    },
                    {
                        "name": "Unngå hogst og kjøring i kantsoner mot kulturlandskap, vannstrenger og våtmarksområder.",
                        "value": "Unngå hogst og kjøring i kantsoner mot kulturlandskap, vannstrenger og våtmarksområder."
                    },
                    {
                        "name": "Unngå hogst og kjøring i myrskog og sumpskog.",
                        "value": "Unngå hogst og kjøring i myrskog og sumpskog."
                    },
                    {
                        "name": "Unngå hogst og kjøring i lauvtredominert skog.",
                        "value": "Unngå hogst og kjøring i lauvtredominert skog."
                    },
                    {
                        "name": "Nei",
                        "preferred": true,
                        "solo": true,
                        "value": "Nei"
                    }
                ],
                "type": "codedValue"
            },
            "editable": true,
            "fieldid": 32,
            "logic": {
                "visibleIf": {
                    "field": {
                        "operator": "!=",
                        "otherFieldIntValue": 1,
                        "otherFieldName": "_irreversiblyReregulated"
                    }
                }
            },
            "name": "andrehekkendefugler",
            "notes": "I hekketiden (normalt perioden mai, juni og juli) skal skogsdrift i skog av spesiell betydning for fuglelivet unngås, såfremt det ikke er nødvendig for å komme til bakenforliggende skog. Disse skogtypene er:\n\na) Gjengrodde områder som tidligere var åpne landskaper, dyrket mark eller beiteområder\nb) Kantsoner mot kulturlandskap, vannstrenger og våtmarksområder\nc) Myrskog og sumpskog\nd) Lauvtredominert skog\n \nFor eldre (hogstklasse 4 og 5), flersjiktet, lauvtredominert skog skal skogsdrift i denne perioden unngås. Med skogsdrift menes maskinell hogst av skogsvirke til industriformål av et visst omfang.\n\nBiolog skal kontaktes før drift hvis det finnes artsobservasjoner av:\na) Hvitryggspett (på Sørlandet og Østlandet)\nb) Dvergspurv (VU)\nc) Vierspurv (CR)\nd) Hortulan (CR)\ne) Lappsanger (EN)\nf) Trelerke (NT)\ng) Blåstjert",
            "nullable": false,
            "section": 3,
            "type": "esriFieldTypeString"
        },
        {
            "alias": "Forekomst av Nasjonal ansvarsart?",
            "domain": {
                "multipleChoiceSeparator": "|",
                "suggestedValues": [
                    {
                        "name": "Hogg inn mot merkebånd. Bånd skal henge igjen.",
                        "value": "Hogg inn mot merkebånd. Bånd skal henge igjen."
                    },
                    {
                        "name": "Hogstføring etter anvisning fra biolog.",
                        "value": "Hogstføring etter anvisning fra biolog."
                    },
                    {
                        "name": "Nei",
                        "preferred": true,
                        "solo": true,
                        "value": "Nei"
                    }
                ],
                "type": "codedValue"
            },
            "editable": true,
            "fieldid": 14,
            "logic": {
                "visibleIf": {
                    "field": {
                        "operator": "!=",
                        "otherFieldIntValue": 1,
                        "otherFieldName": "_irreversiblyReregulated"
                    }
                }
            },
            "name": "ansvarsart",
            "notes": "De artene som ikke er i kategoriene sårbar, sterkt truet eller kritisk truet, er tilrettelagt i egen liste. 27 arter. Kontakt biolog før hogst. Hogstgrense skal merkes i felt.",
            "nullable": false,
            "section": 3,
            "sortix": 33,
            "type": "esriFieldTypeString"
        },
        {
            "alias": "Berører drift/transport viktige friluftsverdier?",
            "domain": {
                "multipleChoiceSeparator": "|",
                "suggestedValues": [
                    {
                        "name": "Hogsten berører skiløype - ta hensyn. Hogstavfall skal ryddes vekk.",
                        "value": "Hogsten berører skiløype - ta hensyn. Hogstavfall skal ryddes vekk."
                    },
                    {
                        "name": "Hogsten berører mye brukt tursti. Hogstavfall skal ryddes vekk og kryssing skal skje uten vesentlig skade.",
                        "value": "Hogsten berører mye brukt tursti. Hogstavfall skal ryddes vekk og kryssing skal skje uten vesentlig skade."
                    },
                    {
                        "name": "Nei",
                        "preferred": true,
                        "solo": true,
                        "value": "Nei"
                    }
                ],
                "type": "codedValue"
            },
            "editable": true,
            "fieldid": 16,
            "name": "friluftsverdier",
            "notes": "Friluftsinteressene skal tillegges særlig vekst i viktige friluftslivsområder blant annet valg av hogstform og flatestørrelse, og ved å unngå kjøreskader på stier. Man skal legge vekt på å ivareta opplevelseskvalitetene, særlig langs stier og skiløyper. Ved skogsdrift i områder med mye brukte stier eller preparerte skiløyper skal tiltaket varsles gjennom skilting og dialog med foreninger etc.",
            "nullable": false,
            "section": 4,
            "type": "esriFieldTypeString"
        },
        {
            "alias": "Sikkerhet- eller beredskapstiltak?",
            "domain": {
                "multipleChoiceSeparator": "|",
                "suggestedValues": [
                    {
                        "name": "Lunneplass er nær populært turområde eller der barn og ungdom leker. Husk rasfarelapper og ikke for bratte eller høye lunner.",
                        "value": "Lunneplass er nær populært turområde eller der barn og ungdom leker. Husk rasfarelapper og ikke for bratte eller høye lunner."
                    },
                    {
                        "name": "Hogst nær høyspent",
                        "value": "Hogst nær høyspent"
                    },
                    {
                        "name": "Kryssing under høyspent er nødvendig",
                        "value": "Kryssing under høyspent er nødvendig"
                    },
                    {
                        "name": "Hold 30 meters avstand til høyspent ved lunning",
                        "value": "Hold 30 meters avstand til høyspent ved lunning"
                    },
                    {
                        "name": "Nei",
                        "preferred": true,
                        "solo": true,
                        "value": "Nei"
                    }
                ],
                "type": "codedValue"
            },
            "editable": true,
            "fieldid": 17,
            "name": "beredskap",
            "notes": "Gjelder sikkerhet - og beredskapstiltak, lunne nær bolig eller populært turområde. Kontakt med skole/barnehage for informasjon om fare, informer tømmerbilsjåfør om risiko. Vurder sperrebukker med varselplakat og bånding av sikkerhetssone. Hogst nær høyspent. Linjeeier kontaktes før igangsettelse av drift som er 30 meter eller nærmere høyspent. Ved kryssing under høyspent skal linjeeier kontaktes før oppdrag.",
            "nullable": false,
            "section": 4,
            "type": "esriFieldTypeString"
        },
        {
            "alias": "Område med høy risiko for ras eller skadelig erosjon?",
            "domain": {
                "multipleChoiceSeparator": "|",
                "suggestedValues": [
                    {
                        "name": "Se godkjent søknad på bygging av midlertidig driftsveg under vedlegg i virkeshandel.",
                        "value": "Se godkjent søknad på bygging av midlertidig driftsveg under vedlegg i virkeshandel."
                    },
                    {
                        "name": "Nei",
                        "preferred": true,
                        "solo": true,
                        "value": "Nei"
                    }
                ],
                "type": "codedValue"
            },
            "editable": true,
            "fieldid": 18,
            "name": "erosjon",
            "notes": "Lokal skredmyndighet skal konsulteres dersom området hvor det planlegges hogst er definert i NVEs faresonekart for skred og kvikkleire.\n\nI områder for midlertidige driftsveier kan planering ha et samlet omfang på 150 meter eller på areal inntil 450m2, der fylling eller skjæring ikke fører til mer enn 1 meter avvik fra opprinnelig terrengnivå. Prosjekter med omfang ut over dette er søknadspliktige.",
            "nullable": false,
            "section": 4,
            "type": "esriFieldTypeString"
        },
        {
            "alias": "Finnes det risikoer utenfor driftsområdet?",
            "domain": {
                "multipleChoiceSeparator": "|",
                "suggestedValues": [
                    {
                        "name": "Ja",
                        "value": "Ja"
                    },
                    {
                        "name": "Nei",
                        "preferred": true,
                        "solo": true,
                        "value": "Nei"
                    }
                ],
                "type": "codedValue"
            },
            "editable": true,
            "fieldid": 26,
            "logic": {
                "visibleIf": {
                    "field": {
                        "operator": "!=",
                        "otherFieldIntValue": 1,
                        "otherFieldName": "_irreversiblyReregulated"
                    }
                }
            },
            "name": "risikoutenfordrift",
            "notes": "Finnes det noe utfor driftsområdet som kan bli påvirket av driften?",
            "nullable": false,
            "section": 4,
            "type": "esriFieldTypeString"
        },
        {
            "alias": "Risiko for avrenning til vann, vassdrag eller drikkevannskilder?",
            "domain": {
                "suggestedValues": [
                    {
                        "name": "Vær ekstra varsom og unngå avrenning!",
                        "value": "Vær ekstra varsom og unngå avrenning!"
                    },
                    {
                        "name": "Vær obs på brønn i området. Denne er merket i kart!",
                        "value": "Vær obs på brønn i området. Denne er merket i kart!"
                    },
                    {
                        "name": "Elv med elvemusling som kan bli påvirket. Denne er synlig i kart.",
                        "value": "Elv med elvemusling som kan bli påvirket. Denne er synlig i kart."
                    },
                    {
                        "name": "Anadrom lakseelv i området som kan bli påvirket. Denne er synlig i kart.",
                        "value": "Anadrom lakseelv i området som kan bli påvirket. Denne er synlig i kart."
                    },
                    {
                        "name": "Åpen drikkevannskilde som kan bli påvirket.",
                        "value": "Åpen drikkevannskilde som kan bli påvirket."
                    },
                    {
                        "name": "Nei",
                        "preferred": true,
                        "solo": true,
                        "value": "Nei"
                    }
                ],
                "type": "codedValue"
            },
            "editable": true,
            "fieldid": 30,
            "name": "avrenning",
            "notes": "Finnes det f.eks. bekk med elvemusling, brønn, åpen drikkevannskilde etc. i nedenfor av driftsområdet som kan bli påvirket? Hvis det er tilfellet: informer entreprenør tydelig om nulltoleranse for forurenset/brunt vann i forbindelse med drifta.",
            "nullable": false,
            "section": 4,
            "type": "esriFieldTypeString"
        },
        {
            "alias": "Andre føringer",
            "editable": true,
            "fieldid": 51,
            "name": "otherGuides",
            "nullable": true,
            "section": 4,
            "type": "esriFieldTypeString"
        },
        {
            "alias": "Første dato alle miljøforhold ble undersøkt",
            "editable": false,
            "fieldid": 27,
            "logic": {
                "setValue": {
                    "ifValueIs": {
                        "allOf": [
                            {
                                "field": {
                                    "operator": "valid",
                                    "otherFieldName": "sporing"
                                }
                            },
                            {
                                "field": {
                                    "operator": "valid",
                                    "otherFieldName": "regulationGivesGuidelinesForMeasure_Boolean"
                                }
                            },
                            {
                                "field": {
                                    "operator": "valid",
                                    "otherFieldName": "requirementsForGreenOpenAreas_Boolean"
                                }
                            },
                            {
                                "field": {
                                    "operator": "valid",
                                    "otherFieldName": "requirementsForSafeguardingCulturalHeritage_Boolean"
                                }
                            },
                            {
                                "field": {
                                    "operator": "valid",
                                    "otherFieldName": "mis"
                                }
                            },
                            {
                                "field": {
                                    "operator": "valid",
                                    "otherFieldName": "naturreservat"
                                }
                            },
                            {
                                "field": {
                                    "operator": "valid",
                                    "otherFieldName": "naturtype"
                                }
                            },
                            {
                                "field": {
                                    "operator": "valid",
                                    "otherFieldName": "narin"
                                }
                            },
                            {
                                "field": {
                                    "operator": "valid",
                                    "otherFieldName": "kantsone"
                                }
                            },
                            {
                                "field": {
                                    "operator": "valid",
                                    "otherFieldName": "skiltplan"
                                }
                            },
                            {
                                "field": {
                                    "operator": "valid",
                                    "otherFieldName": "offentliggodkjenning"
                                }
                            },
                            {
                                "field": {
                                    "operator": "valid",
                                    "otherFieldName": "kulturminner"
                                }
                            },
                            {
                                "field": {
                                    "operator": "valid",
                                    "otherFieldName": "reinbeitedistrikt"
                                }
                            },
                            {
                                "field": {
                                    "operator": "valid",
                                    "otherFieldName": "tidligere"
                                }
                            },
                            {
                                "field": {
                                    "operator": "valid",
                                    "otherFieldName": "plasseringllt"
                                }
                            },
                            {
                                "field": {
                                    "operator": "valid",
                                    "otherFieldName": "otherProvisionsInRegulationPlan"
                                }
                            },
                            {
                                "field": {
                                    "operator": "valid",
                                    "otherFieldName": "otherConserns"
                                }
                            },
                            {
                                "field": {
                                    "operator": "valid",
                                    "otherFieldName": "hensynskrav"
                                }
                            },
                            {
                                "field": {
                                    "operator": "valid",
                                    "otherFieldName": "truedearter"
                                }
                            },
                            {
                                "field": {
                                    "operator": "valid",
                                    "otherFieldName": "ansvarsart"
                                }
                            },
                            {
                                "field": {
                                    "operator": "valid",
                                    "otherFieldName": "friluftsverdier"
                                }
                            },
                            {
                                "field": {
                                    "operator": "valid",
                                    "otherFieldName": "tiur"
                                }
                            },
                            {
                                "field": {
                                    "operator": "valid",
                                    "otherFieldName": "rovfugl"
                                }
                            },
                            {
                                "field": {
                                    "operator": "valid",
                                    "otherFieldName": "andrehekkendefugler"
                                }
                            },
                            {
                                "field": {
                                    "operator": "valid",
                                    "otherFieldName": "beredskap"
                                }
                            },
                            {
                                "field": {
                                    "operator": "valid",
                                    "otherFieldName": "erosjon"
                                }
                            },
                            {
                                "field": {
                                    "operator": "valid",
                                    "otherFieldName": "risikoutenfordrift"
                                }
                            },
                            {
                                "field": {
                                    "operator": "valid",
                                    "otherFieldName": "avrenning"
                                }
                            }
                        ]
                    },
                    "thenSetValue": {
                        "comment": "one means now",
                        "doubleValue": 1
                    }
                }
            },
            "name": "checked_Date",
            "nullable": true,
            "section": 5,
            "type": "esriFieldTypeDouble"
        }
    ],
    "geometryType": "esriGeometryPolygon",
    "globalIdField": "_headId",
    "hasAttachments": false,
    "htmlPopupType": "esriServerHTMLPopupTypeAsHTMLText",
    "id": 2,
    "isDataVersioned": false,
    "maxRecordCount": 100000,
    "maxScale": 0,
    "minScale": 100000,
    "name": "AIMiljo",
    "objectIdField": "OBJECTID",
    "ownershipBasedAccessControlForFeatures": null,
    "relationships": [],
    "sections": [
        {
            "id": 1,
            "title": "Spesielle formål"
        },
        {
            "id": 2,
            "title": "Spesielle hensyn - om driften berører"
        },
        {
            "id": 3,
            "title": "Truede/sårbare arter"
        },
        {
            "id": 4,
            "title": "Risikoområder"
        },
        {
            "id": 5,
            "title": ""
        }
    ],
    "supportedQueryFormats": "JSON, AMF",
    "supportsAdvancedQueries": true,
    "supportsRollbackOnFailureParameter": true,
    "supportsStatistics": true,
    "syncCanReturnChanges": true,
    "templates": [],
    "type": "Feature Layer",
    "typeIdField": "",
    "types": [],
    "useStandardizedQueries": true
}

