{
    "allowGeometryUpdates": true,
    "capabilities": "Create,Delete,Query,Sync,Update,Uploads,Editing",
    "copyrightText": "",
    "currentVersion": 10.22,
    "defaultVisibility": true,
    "description": "",
    "displayField": "_title",
    "drawingInfo": {
        "labelingInfo": [
            {
                "labelExpression": "[_title]",
                "labelPlacement": "esriServerPolygonPlacementAlwaysHorizontal",
                "maxScale": 0,
                "minScale": 9000,
                "symbol": {
                    "angle": 0,
                    "backgroundColor": null,
                    "borderLineColor": null,
                    "borderLineSize": null,
                    "color": [
                        0,
                        0,
                        0,
                        255
                    ],
                    "font": {
                        "decoration": "none",
                        "family": "Arial",
                        "size": 9,
                        "style": "normal",
                        "weight": "normal"
                    },
                    "haloColor": [
                        255,
                        255,
                        255,
                        127
                    ],
                    "haloSize": 20,
                    "horizontalAlignment": "center",
                    "kerning": true,
                    "rightToLeft": false,
                    "type": "esriTS",
                    "verticalAlignment": "bottom",
                    "xoffset": 0,
                    "yoffset": 0
                },
                "useCodedValues": false
            }
        ],
        "renderer": {
            "defaultLabel": null,
            "defaultSymbol": null,
            "field1": "_type",
            "field2": null,
            "field3": null,
            "fieldDelimiter": ", ",
            "note to future self": "!!! HUSK AT DETTE FELTET MÅ VÆRE EDITABLE !!!",
            "type": "uniqueValue",
            "uniqueValueInfos": [
                {
                    "description": "Infrastruktur",
                    "label": "Infrastruktur",
                    "symbol": {
                        "color": [
                            0,
                            0,
                            0,
                            0
                        ],
                        "outline": {
                            "color": [
                                128,
                                0,
                                200,
                                255
                            ],
                            "style": "esriSLSDash",
                            "type": "esriSLS",
                            "width": 3
                        },
                        "style": "esriSFSSolid",
                        "type": "esriSFS"
                    },
                    "cimSymbol": {
                        "type": "CIMSymbolReference",
                        "symbol": {
                            "type": "CIMLineSymbol",
                            "symbolLayers": [
                                {
                                    "type": "CIMSolidStroke",
                                    "enable": true,
                                    "width": 3,
                                    "color": [
                                        255,
                                        255,
                                        255,
                                        255
                                    ],
                                    "capStyle": "Round",
                                    "effects": [
                                        {
                                            "type": "CIMGeometricEffectDashes",
                                            "dashTemplate": [
                                                12,
                                                12
                                            ],
                                            "lineEnding": "HalfPattern"
                                        }
                                    ]
                                },
                                {
                                    "type": "CIMSolidStroke",
                                    "enable": true,
                                    "width": 5,
                                    "color": [
                                        128,
                                        0,
                                        200,
                                        255
                                    ]
                                }
                            ]
                        }
                    },
                    "value": "Infrastruktur"
                },
                {
                    "description": "",
                    "label": "styleOverride",
                    "symbol": {
                        "color": [
                            0,
                            0,
                            0,
                            0
                        ],
                        "outline": {
                            "color": [
                                255,
                                255,
                                255,
                                255
                            ],
                            "style": "esriSLSSolid",
                            "type": "esriSLS",
                            "width": 3
                        },
                        "style": "esriSFSNull",
                        "type": "esriSFS"
                    },
                    "value": "styleOverride"
                }
            ]
        }
    },
    "editFieldsInfo": null,
    "extent": {
        "spatialReference": {
            "latestWkid": 25833,
            "wkid": 25833
        },
        "xmax": 500000,
        "xmin": 0,
        "ymax": 8000000,
        "ymin": 5000000
    },
    "fieldOrder": [],
    "fields": [
        {
            "alias": "GlobalId",
            "editable": false,
            "fieldid": 1,
            "name": "_globalId",
            "nullable": false,
            "type": "esriFieldTypeString"
        },
        {
            "alias": "Opprettet",
            "editable": false,
            "fieldid": 2,
            "name": "_created_Date",
            "nullable": false,
            "type": "esriFieldTypeDouble"
        },
        {
            "alias": "Opprettet av",
            "editable": false,
            "fieldid": 3,
            "name": "_createdBy",
            "nullable": false,
            "type": "esriFieldTypeString"
        },
        {
            "alias": "Endret",
            "editable": false,
            "fieldid": 4,
            "name": "_modified_Date",
            "nullable": false,
            "type": "esriFieldTypeDouble"
        },
        {
            "alias": "Endret av",
            "editable": false,
            "fieldid": 5,
            "name": "_modifiedBy",
            "nullable": false,
            "type": "esriFieldTypeString"
        },
        {
            "alias": "Type",
            "editable": false,
            "fieldid": 6,
            "name": "_type",
            "nullable": false,
            "type": "esriFieldTypeString"
        },
        {
            "alias": "Tilhørende objekt",
            "editable": false,
            "fieldid": 1000,
            "name": "_parentGlobalId",
            "nullable": false,
            "type": "esriFieldTypeString"
        },
        {
            "alias": "Tittel på tiltaket",
            "editable": false,
            "fieldid": 1001,
            "name": "_title",
            "nullable": false,
            "type": "esriFieldTypeString"
        },
        {
            "alias": "Tiltaksnummer",
            "editable": false,
            "fieldid": 1002,
            "name": "_number",
            "nullable": true,
            "type": "esriFieldTypeInteger"
        },
        {
            "alias": "Ordrenummer. Ett nummer per tiltakstype (dvs antall unike nummer er likt antall tiltakstyper i ordren)",
            "editable": false,
            "fieldid": 1003,
            "name": "_job_nr",
            "nullable": true,
            "type": "esriFieldTypeInteger"
        },
        {
            "alias": "IO",
            "editable": false,
            "fieldid": 1004,
            "name": "_headId",
            "nullable": false,
            "type": "esriFieldTypeString"
        },
        {
            "alias": "Organisasjonsnummer arbeidslag stammekvisting",
            "editable": false,
            "fieldid": 1005,
            "name": "_workTeamOrgNumSK",
            "nullable": false,
            "type": "esriFieldTypeString"
        },
        {
            "alias": "Bestandsnummer",
            "editable": true,
            "fieldid": 7,
            "name": "bestand",
            "nullable": true,
            "section": 1,
            "translations": [
                {
                    "key": "Bestandsnummer",
                    "language": "en",
                    "value": "Stand number"
                }
            ],
            "type": "esriFieldTypeInteger"
        },
        {
            "alias": "Teignavn",
            "editable": true,
            "fieldid": 8,
            "name": "teignavn",
            "nullable": true,
            "section": 1,
            "translations": [
                {
                    "key": "Teignavn",
                    "language": "en",
                    "value": "Lot name"
                }
            ],
            "type": "esriFieldTypeString"
        },
        {
            "alias": "Plannummer",
            "editable": true,
            "fieldid": 56,
            "name": "plannr",
            "nullable": true,
            "section": 1,
            "translations": [
                {
                    "key": "Plannummer",
                    "language": "en",
                    "value": "Plan number"
                }
            ],
            "type": "esriFieldTypeInteger"
        },
        {
            "alias": "Teignummer",
            "editable": true,
            "fieldid": 9,
            "name": "teignr",
            "nullable": true,
            "section": 1,
            "sortix": 57,
            "translations": [
                {
                    "key": "Teignummer",
                    "language": "en",
                    "value": "Lot number"
                }
            ],
            "type": "esriFieldTypeInteger"
        },
        {
            "alias": "Areal",
            "editable": false,
            "fieldid": 11,
            "name": "area",
            "nullable": true,
            "section": 1,
            "sortix": 58,
            "translations": [
                {
                    "key": "Areal",
                    "language": "en",
                    "value": "Area"
                }
            ],
            "type": "esriFieldTypeDouble"
        },
        {
            "alias": "Høyde over havet",
            "editable": false,
            "fieldid": 14,
            "name": "elevation",
            "nullable": true,
            "section": 1,
            "sortix": 59,
            "translations": [
                {
                    "key": "Høyde over havet",
                    "language": "en",
                    "value": "Height above sea level"
                }
            ],
            "type": "esriFieldTypeInteger"
        },
        {
            "alias": "Bonitet",
            "domain": {
                "codedValues": [
                    {
                        "name": "6",
                        "value": "6"
                    },
                    {
                        "name": "8",
                        "value": "8"
                    },
                    {
                        "name": "11",
                        "value": "11"
                    },
                    {
                        "name": "14",
                        "value": "14"
                    },
                    {
                        "name": "17",
                        "value": "17"
                    },
                    {
                        "name": "20",
                        "value": "20"
                    },
                    {
                        "name": "23",
                        "value": "23"
                    },
                    {
                        "name": "26 eller høyere",
                        "value": "26"
                    }
                ],
                "type": "codedValue"
            },
            "editable": true,
            "fieldid": 57,
            "name": "bonitet",
            "nullable": true,
            "section": 1,
            "sortix": 60,
            "translations": [
                {
                    "key": "Bonitet",
                    "language": "en",
                    "value": "Site quality"
                }
            ],
            "type": "esriFieldTypeString"
        },
        {
            "alias": "Ønsket starttidspunkt",
            "domain": {
                "codedValues": [
                    {
                        "name": "Høsten 2024",
                        "value": "Høsten 2024"
                    },
                    {
                        "name": "Våren 2025",
                        "value": "Våren 2025"
                    },
                    {
                        "name": "Høsten 2025",
                        "value": "Høsten 2025"
                    },
                    {
                        "name": "Våren 2026",
                        "value": "Våren 2026"
                    },
                    {
                        "name": "Høsten 2026",
                        "value": "Høsten 2026"
                    },
                    {
                        "name": "Våren 2027",
                        "value": "Våren 2027"
                    },
                    {
                        "name": "Høsten 2027",
                        "value": "Høsten 2027"
                    },
                    {
                        "name": "Våren 2028",
                        "value": "Våren 2028"
                    }
                ],
                "type": "codedValue"
            },
            "editable": true,
            "fieldid": 23,
            "name": "start",
            "nullable": false,
            "section": 2,
            "translations": [
                {
                    "key": "Ønsket starttidspunkt",
                    "language": "en",
                    "value": "Desired start time"
                }
            ],
            "type": "esriFieldTypeString"
        },
        {
            "alias": "Avstand fra parkeringsplass",
            "editable": true,
            "fieldid": 24,
            "name": "road_dist",
            "nullable": false,
            "section": 2,
            "translations": [
                {
                    "key": "Avstand fra parkeringsplass",
                    "language": "en",
                    "value": "Distance from parking lot"
                }
            ],
            "type": "esriFieldTypeInteger"
        },
        {
            "alias": "Bomveg kommentar",
            "editable": true,
            "fieldid": 25,
            "name": "keys",
            "nullable": true,
            "section": 2,
            "translations": [
                {
                    "key": "Bomveg kommentar",
                    "language": "en",
                    "value": "Toll road comment"
                }
            ],
            "type": "esriFieldTypeString"
        },
        {
            "alias": "Kommentarer til tiltaket",
            "editable": true,
            "fieldid": 300,
            "length": 2048,
            "name": "comment",
            "nullable": true,
            "section": 2,
            "translations": [
                {
                    "key": "Kommentarer til tiltaket",
                    "language": "en",
                    "value": "Comments on the measure"
                }
            ],
            "type": "esriFieldTypeString"
        },
        {
            "alias": "Berører tiltaket biologisk viktig område?",
            "editable": true,
            "fieldid": 27,
            "name": "bio_Boolean",
            "nullable": false,
            "section": 3,
            "translations": [
                {
                    "key": "Berører tiltaket biologisk viktig område?",
                    "language": "en",
                    "value": "Does the measure affect a biologically important area?"
                }
            ],
            "type": "esriFieldTypeInteger"
        },
        {
            "alias": "Biologisk, kommentar",
            "editable": true,
            "fieldid": 28,
            "logic": {
                "visibleIf": {
                    "field": {
                        "operator": "==",
                        "otherFieldIntValue": 1,
                        "otherFieldName": "bio_Boolean"
                    }
                }
            },
            "name": "bioComment",
            "nullable": true,
            "section": 3,
            "translations": [
                {
                    "key": "Biologisk, kommentar",
                    "language": "en",
                    "value": "Biological, comment"
                }
            ],
            "type": "esriFieldTypeString"
        },
        {
            "alias": "Berører tiltaket kjent kulturminne?",
            "editable": true,
            "fieldid": 29,
            "name": "herit_Boolean",
            "nullable": false,
            "section": 3,
            "translations": [
                {
                    "key": "Berører tiltaket kjent kulturminne?",
                    "language": "en",
                    "value": "Does the measure affect a known cultural heritage site?"
                }
            ],
            "type": "esriFieldTypeInteger"
        },
        {
            "alias": "Kulturminne, kommentar",
            "editable": true,
            "fieldid": 30,
            "logic": {
                "visibleIf": {
                    "field": {
                        "operator": "==",
                        "otherFieldIntValue": 1,
                        "otherFieldName": "herit_Boolean"
                    }
                }
            },
            "name": "heritComment",
            "nullable": true,
            "section": 3,
            "translations": [
                {
                    "key": "Kulturminne, kommentar",
                    "language": "en",
                    "value": "Cultural heritage, comment"
                }
            ],
            "type": "esriFieldTypeString"
        },
        {
            "alias": "Berører tiltaket viktige friluftsverdier?",
            "editable": true,
            "fieldid": 31,
            "name": "recreational_Boolean",
            "nullable": false,
            "section": 3,
            "translations": [
                {
                    "key": "Berører tiltaket viktige friluftsverdier?",
                    "language": "en",
                    "value": "Does the measure affect important outdoor recreation values?"
                }
            ],
            "type": "esriFieldTypeInteger"
        },
        {
            "alias": "Friluftsverdier, kommentar",
            "editable": true,
            "fieldid": 32,
            "logic": {
                "visibleIf": {
                    "field": {
                        "operator": "==",
                        "otherFieldIntValue": 1,
                        "otherFieldName": "recreational_Boolean"
                    }
                }
            },
            "name": "recreationalComment",
            "nullable": true,
            "section": 3,
            "translations": [
                {
                    "key": "Friluftsverdier, kommentar",
                    "language": "en",
                    "value": "Outdoor recreation values, comment"
                }
            ],
            "type": "esriFieldTypeString"
        },
        {
            "alias": "Kantsone?",
            "editable": true,
            "fieldid": 33,
            "name": "bufferZone_Boolean",
            "nullable": false,
            "section": 3,
            "translations": [
                {
                    "key": "Kantsone?",
                    "language": "en",
                    "value": "Riparian zone?"
                }
            ],
            "type": "esriFieldTypeInteger"
        },
        {
            "alias": "Kantsone, kommentar",
            "editable": true,
            "fieldid": 34,
            "logic": {
                "visibleIf": {
                    "field": {
                        "operator": "==",
                        "otherFieldIntValue": 1,
                        "otherFieldName": "bufferZone_Boolean"
                    }
                }
            },
            "name": "bufferZoneComment",
            "nullable": true,
            "section": 3,
            "translations": [
                {
                    "key": "Kantsone, kommentar",
                    "language": "en",
                    "value": "Riparian zone, comment"
                }
            ],
            "type": "esriFieldTypeString"
        },
        {
            "alias": "Kommentar til avtale med skogeier",
            "editable": true,
            "fieldid": 55,
            "name": "forestOwnerComment",
            "nullable": true,
            "section": 4,
            "translations": [
                {
                    "key": "Kommentar til avtale med skogeier",
                    "language": "en",
                    "value": "Comment on agreement with forest owner"
                }
            ],
            "type": "esriFieldTypeString"
        }
    ],
    "geometryType": "esriGeometryPolygon",
    "globalIdField": "_globalId",
    "hasAttachments": false,
    "hasM": false,
    "hasZ": false,
    "htmlPopupType": "esriServerHTMLPopupTypeAsHTMLText",
    "id": 2,
    "isDataVersioned": false,
    "maxRecordCount": 100000,
    "maxScale": 0,
    "minScale": 100000,
    "name": "AIPStammekvistingGeom",
    "objectIdField": "OBJECTID",
    "ownershipBasedAccessControlForFeatures": null,
    "relationships": [],
    "sections": [
        {
            "id": 1,
            "title": "Generelt"
        },
        {
            "id": 2,
            "title": "Arbeidsinstruks"
        },
        {
            "id": 3,
            "title": "Miljø"
        },
        {
            "id": 4,
            "title": ""
        }
    ],
    "supportedQueryFormats": "JSON, AMF",
    "supportsAdvancedQueries": true,
    "supportsRollbackOnFailureParameter": true,
    "supportsStatistics": true,
    "syncCanReturnChanges": true,
    "templates": [],
    "translations": [
        {
            "key": "Generelt",
            "language": "en",
            "value": "General"
        },
        {
            "key": "Arbeidsinstruks",
            "language": "en",
            "value": "Work order"
        },
        {
            "key": "Miljø",
            "language": "en",
            "value": "Environment"
        }
    ],
    "type": "Feature Layer",
    "typeIdField": "_type",
    "types": [
        {
            "domains": {},
            "id": "Stammekvisting",
            "name": "Stammekvisting",
            "templates": [
                {
                    "description": "",
                    "drawingTool": "esriFeatureEditToolPolygon",
                    "name": "Stammekvisting",
                    "prototype": {
                        "attributes": {
                            "_type": "Stammekvisting"
                        }
                    }
                }
            ]
        }
    ],
    "useStandardizedQueries": true
}

