{
    "allowGeometryUpdates": true,
    "capabilities": "Create,Delete,Query,Sync,Update,Uploads,Editing",
    "copyrightText": "",
    "currentVersion": 10.22,
    "defaultVisibility": true,
    "description": "",
    "displayField": "tema",
    "drawingInfo": {
        "labelingInfo": null,
        "renderer": {
            "defaultLabel": null,
            "defaultSymbol": null,
            "field1": "tema",
            "field2": null,
            "field3": null,
            "fieldDelimiter": ", ",
            "note to future self": "!!! HUSK AT DETTE FELTET MÅ VÆRE EDITABLE !!!",
            "type": "uniqueValue",
            "uniqueValueInfos": [
                {
                    "description": "",
                    "label": "01. Sporlogg",
                    "symbol": {
                        "color": [
                            0,
                            255,
                            197,
                            255
                        ],
                        "style": "esriSLSSolid",
                        "type": "esriSLS",
                        "width": 2
                    },
                    "value": "Sporlogg"
                },
                {
                    "description": "",
                    "label": "02. Basveg",
                    "symbol": {
                        "color": [
                            139,
                            69,
                            19,
                            255
                        ],
                        "style": "esriSLSDash",
                        "type": "esriSLS",
                        "width": 2
                    },
                    "value": "Basveg"
                },
                {
                    "description": "",
                    "label": "03. Bilveg (ikke registrert i grunnkart)",
                    "symbol": {
                        "color": [
                            244,
                            164,
                            96,
                            255
                        ],
                        "style": "esriSLSSolid",
                        "type": "esriSLS",
                        "width": 2
                    },
                    "value": "Vegtrase"
                },
                {
                    "description": "",
                    "label": "05. Linjetrase",
                    "symbol": {
                        "color": [
                            255,
                            0,
                            0,
                            255
                        ],
                        "style": "esriSLSSolid",
                        "type": "esriSLS",
                        "width": 4
                    },
                    "value": "Linjetrase"
                },
                {
                    "description": "",
                    "label": "06. Sti",
                    "symbol": {
                        "color": [
                            0,
                            0,
                            0,
                            255
                        ],
                        "style": "esriSLSDash",
                        "type": "esriSLS",
                        "width": 1
                    },
                    "value": "Sti"
                },
                {
                    "description": "",
                    "label": "08. Sporskader",
                    "symbol": {
                        "color": [
                            126,
                            35,
                            26,
                            255
                        ],
                        "style": "esriSLSDash",
                        "type": "esriSLS",
                        "width": 1
                    },
                    "value": "Sporskader"
                }
            ]
        },
        "transparency": 0
    },
    "editFieldsInfo": null,
    "extent": {
        "spatialReference": {
            "latestWkid": 25833,
            "wkid": 25833
        },
        "xmax": 449391.4824999999,
        "xmin": 12479.43200000003,
        "ymax": 7182842.207400002,
        "ymin": 6487407.353700001
    },
    "fieldOrder": null,
    "fields": [
        {
            "alias": "GlobalId",
            "editable": false,
            "fieldid": 0,
            "name": "_globalId",
            "nullable": false,
            "type": "esriFieldTypeString"
        },
        {
            "alias": "Opprettet",
            "editable": false,
            "fieldid": 1,
            "name": "_created_Date",
            "nullable": false,
            "type": "esriFieldTypeDouble"
        },
        {
            "alias": "Opprettet av",
            "editable": false,
            "fieldid": 2,
            "name": "_createdBy",
            "nullable": false,
            "type": "esriFieldTypeString"
        },
        {
            "alias": "Endret",
            "editable": false,
            "fieldid": 3,
            "name": "_modified_Date",
            "nullable": false,
            "type": "esriFieldTypeDouble"
        },
        {
            "alias": "Endret av",
            "editable": false,
            "fieldid": 4,
            "name": "_modifiedBy",
            "nullable": false,
            "type": "esriFieldTypeString"
        },
        {
            "alias": "Tema",
            "editable": false,
            "fieldid": 5,
            "name": "tema",
            "nullable": false,
            "translations": [
                {
                    "key": "Tema",
                    "language": "en",
                    "value": "Theme"
                }
            ],
            "type": "esriFieldTypeString"
        },
        {
            "alias": "Kommentar",
            "editable": true,
            "fieldid": 6,
            "name": "comment",
            "nullable": true,
            "translations": [
                {
                    "key": "Kommentar",
                    "language": "en",
                    "value": "Comment"
                }
            ],
            "type": "esriFieldTypeString"
        },
        {
            "alias": "Lengde",
            "editable": false,
            "fieldid": 20,
            "name": "length",
            "nullable": false,
            "translations": [
                {
                    "key": "Lengde",
                    "language": "en",
                    "value": "Length"
                }
            ],
            "type": "esriFieldTypeDouble"
        }
    ],
    "geometryType": "esriGeometryPolyline",
    "globalIdField": "_globalId",
    "hasAttachments": false,
    "hasM": false,
    "hasZ": false,
    "htmlPopupType": "esriServerHTMLPopupTypeAsHTMLText",
    "id": 2,
    "isDataVersioned": false,
    "maxRecordCount": 100000,
    "maxScale": 0,
    "minScale": 50000,
    "name": "CAMiljoLinjer",
    "objectIdField": "OBJECTID",
    "ownershipBasedAccessControlForFeatures": null,
    "relationships": [],
    "sections": null,
    "supportedQueryFormats": "JSON, AMF",
    "supportsAdvancedQueries": true,
    "supportsRollbackOnFailureParameter": true,
    "supportsStatistics": true,
    "syncCanReturnChanges": true,
    "templates": [],
    "type": "Feature Layer",
    "typeIdField": "tema",
    "types": null,
    "useStandardizedQueries": true
}

