{
    "allowGeometryUpdates": true,
    "capabilities": "Create,Delete,Query,Sync,Update,Uploads,Editing",
    "copyrightText": "",
    "currentVersion": 10.22,
    "defaultVisibility": true,
    "description": "",
    "displayField": "forest_owner",
    "drawingInfo": {
        "renderer": {
            "defaultLabel": null,
            "defaultSymbol": null,
            "field1": "_type",
            "field2": null,
            "field3": null,
            "fieldDelimiter": ", ",
            "type": "uniqueValue",
            "uniqueValueInfos": [
                {
                    "description": "",
                    "label": "Planting",
                    "symbol": {
                        "color": [
                            255,
                            0,
                            197,
                            100
                        ],
                        "outline": {
                            "color": [
                                255,
                                0,
                                197,
                                255
                            ],
                            "style": "esriSLSDashDotDot",
                            "type": "esriSLS",
                            "width": 0.4
                        },
                        "style": "esriSFSSolid",
                        "type": "esriSFS"
                    },
                    "value": "Planting"
                }
            ]
        }
    },
    "editFieldsInfo": null,
    "fieldOrder": [],
    "fields": [
        {
            "alias": "Bilde",
            "editable": false,
            "fieldid": 0,
            "name": "_geojpgs",
            "nullable": true,
            "type": "esriFieldTypeBlob"
        },
        {
            "alias": "GlobalId",
            "editable": false,
            "fieldid": 1,
            "name": "_globalId",
            "nullable": false,
            "type": "esriFieldTypeString"
        },
        {
            "alias": "Opprettet",
            "editable": false,
            "fieldid": 2,
            "name": "_created_Date",
            "nullable": false,
            "type": "esriFieldTypeDouble"
        },
        {
            "alias": "Opprettet av",
            "editable": false,
            "fieldid": 3,
            "name": "_createdBy",
            "nullable": false,
            "type": "esriFieldTypeString"
        },
        {
            "alias": "Endret",
            "editable": false,
            "fieldid": 4,
            "name": "_modified_Date",
            "nullable": false,
            "type": "esriFieldTypeDouble"
        },
        {
            "alias": "Endret av",
            "editable": false,
            "fieldid": 5,
            "name": "_modifiedBy",
            "nullable": false,
            "type": "esriFieldTypeString"
        },
        {
            "alias": "Type",
            "editable": false,
            "fieldid": 6,
            "name": "_type",
            "nullable": false,
            "type": "esriFieldTypeString"
        },
        {
            "alias": "Sendt per epost (nb ikke automatisk)",
            "editable": true,
            "fieldid": 7,
            "name": "sent_Boolean",
            "nullable": true,
            "type": "esriFieldTypeInteger"
        },
        {
            "alias": "Navn på skogeier",
            "editable": true,
            "fieldid": 8,
            "name": "forest_owner",
            "nullable": false,
            "type": "esriFieldTypeString"
        },
        {
            "alias": "Leverandørnummer",
            "editable": true,
            "fieldid": 9,
            "name": "lev_nr",
            "nullable": false,
            "type": "esriFieldTypeInteger"
        },
        {
            "alias": "Kommune",
            "editable": true,
            "fieldid": 10,
            "name": "muni",
            "nullable": false,
            "type": "esriFieldTypeString"
        },
        {
            "alias": "Bestandsnummer",
            "editable": true,
            "fieldid": 11,
            "name": "bestand_str",
            "nullable": false,
            "type": "esriFieldTypeString"
        },
        {
            "alias": "Gnr/bnr",
            "editable": true,
            "fieldid": 12,
            "name": "gb_nr",
            "nullable": false,
            "type": "esriFieldTypeString"
        },
        {
            "alias": "Areal",
            "editable": false,
            "fieldid": 13,
            "name": "area",
            "nullable": true,
            "type": "esriFieldTypeDouble"
        },
        {
            "alias": "Planter/daa",
            "editable": true,
            "fieldid": 14,
            "name": "plants_per_da",
            "nullable": false,
            "type": "esriFieldTypeInteger"
        },
        {
            "alias": "Ønsket tidspunkt",
            "editable": true,
            "fieldid": 15,
            "name": "start",
            "nullable": false,
            "type": "esriFieldTypeString"
        },
        {
            "alias": "Avstand fra bilveg",
            "editable": true,
            "fieldid": 16,
            "name": "road_dist",
            "nullable": false,
            "type": "esriFieldTypeString"
        },
        {
            "alias": "Bonitet",
            "editable": true,
            "fieldid": 17,
            "name": "bonitet",
            "nullable": true,
            "type": "esriFieldTypeString"
        },
        {
            "alias": "Plantetype",
            "editable": true,
            "fieldid": 18,
            "name": "plant_type",
            "nullable": false,
            "type": "esriFieldTypeString"
        },
        {
            "alias": "Treslag",
            "editable": true,
            "fieldid": 19,
            "name": "tree_kind",
            "nullable": false,
            "type": "esriFieldTypeString"
        },
        {
            "alias": "Proveniens",
            "editable": true,
            "fieldid": 20,
            "name": "proveniens",
            "nullable": true,
            "type": "esriFieldTypeString"
        },
        {
            "alias": "Kommentar",
            "editable": true,
            "fieldid": 21,
            "name": "comment",
            "nullable": false,
            "type": "esriFieldTypeString"
        },
        {
            "alias": "Antall planter totalt",
            "editable": true,
            "fieldid": 22,
            "name": "_plants_total",
            "nullable": true,
            "type": "esriFieldTypeInteger"
        },
        {
            "alias": "Berører tiltaket biologisk viktig område?",
            "editable": true,
            "fieldid": 23,
            "name": "check_bio_Boolean",
            "nullable": false,
            "type": "esriFieldTypeInteger"
        },
        {
            "alias": "Biologisk område, merknad",
            "editable": true,
            "fieldid": 24,
            "name": "check_bio_comment",
            "nullable": true,
            "type": "esriFieldTypeString"
        },
        {
            "alias": "Berører tiltaket kjent kulturminne?",
            "editable": true,
            "fieldid": 25,
            "name": "check_herit_Boolean",
            "nullable": false,
            "type": "esriFieldTypeInteger"
        },
        {
            "alias": "Kulturminne, merknad",
            "editable": true,
            "fieldid": 26,
            "name": "check_herit_comment",
            "nullable": true,
            "type": "esriFieldTypeString"
        },
        {
            "alias": "Berører tiltaket viktige friluftsverdier?",
            "editable": true,
            "fieldid": 27,
            "name": "check_recreational_Boolean",
            "nullable": false,
            "type": "esriFieldTypeInteger"
        },
        {
            "alias": "Friluftsverdier, merknad",
            "editable": true,
            "fieldid": 28,
            "name": "check_recreational_comment",
            "nullable": true,
            "type": "esriFieldTypeString"
        },
        {
            "alias": "Kantsone?",
            "editable": true,
            "fieldid": 29,
            "name": "buffer_zone_Boolean",
            "nullable": false,
            "type": "esriFieldTypeInteger"
        },
        {
            "alias": "Kantsone, merknad",
            "editable": true,
            "fieldid": 30,
            "name": "buffer_zone_comment",
            "nullable": true,
            "type": "esriFieldTypeString"
        },
        {
            "alias": "Bomnøkler?",
            "editable": true,
            "fieldid": 31,
            "name": "keys_Boolean",
            "nullable": false,
            "type": "esriFieldTypeInteger"
        },
        {
            "alias": "Løpenummer",
            "editable": false,
            "fieldid": 32,
            "name": "_job_nr",
            "nullable": true,
            "type": "esriFieldTypeInteger"
        },
        {
            "alias": "Fakturanummer",
            "editable": true,
            "fieldid": 33,
            "name": "invoice_nr",
            "nullable": true,
            "type": "esriFieldTypeInteger"
        },
        {
            "alias": "E-post",
            "editable": true,
            "fieldid": 34,
            "name": "_email",
            "nullable": true,
            "type": "esriFieldTypeString"
        }
    ],
    "geometryType": "esriGeometryPolygon",
    "globalIdField": "_globalId",
    "hasAttachments": false,
    "hasM": false,
    "hasZ": false,
    "htmlPopupType": "esriServerHTMLPopupTypeAsHTMLText",
    "id": 2,
    "isDataVersioned": false,
    "maxRecordCount": 100000,
    "maxScale": 0,
    "minScale": 100000,
    "name": "CAPlanting",
    "objectIdField": "OBJECTID",
    "ownershipBasedAccessControlForFeatures": null,
    "relationships": [],
    "supportedQueryFormats": "JSON, AMF",
    "supportsAdvancedQueries": true,
    "supportsRollbackOnFailureParameter": true,
    "supportsStatistics": true,
    "syncCanReturnChanges": true,
    "templates": [],
    "type": "Feature Layer",
    "typeIdField": "_type",
    "types": [
        {
            "domains": {},
            "id": "Planting",
            "name": "Planting",
            "templates": [
                {
                    "description": "",
                    "drawingTool": "esriFeatureEditToolPolygon",
                    "name": "Planting",
                    "prototype": {
                        "attributes": {
                            "_type": "Planting"
                        }
                    }
                }
            ]
        }
    ],
    "useStandardizedQueries": true
}
