{
    "allowGeometryUpdates": true,
    "capabilities": "Create,Delete,Query,Sync,Update,Uploads,Editing",
    "copyrightText": "",
    "currentVersion": 10.22,
    "defaultVisibility": true,
    "description": "",
    "displayField": "_title",
    "drawingInfo": {
        "labelingInfo": [
            {
                "labelExpression": "[_title]",
                "labelPlacement": "esriServerPolygonPlacementAlwaysHorizontal",
                "maxScale": 0,
                "minScale": 9000,
                "symbol": {
                    "angle": 0,
                    "backgroundColor": null,
                    "borderLineColor": null,
                    "borderLineSize": null,
                    "color": [
                        0,
                        0,
                        0,
                        255
                    ],
                    "font": {
                        "decoration": "none",
                        "family": "Arial",
                        "size": 9,
                        "style": "normal",
                        "weight": "normal"
                    },
                    "haloColor": [
                        255,
                        255,
                        255,
                        127
                    ],
                    "haloSize": 20,
                    "horizontalAlignment": "center",
                    "kerning": true,
                    "rightToLeft": false,
                    "type": "esriTS",
                    "verticalAlignment": "bottom",
                    "xoffset": 0,
                    "yoffset": 0
                },
                "useCodedValues": false
            }
        ],
        "renderer": {
            "defaultLabel": null,
            "defaultSymbol": null,
            "field1": "_type",
            "field2": null,
            "field3": null,
            "fieldDelimiter": ", ",
            "note to future self": "!!! HUSK AT DETTE FELTET MÅ VÆRE EDITABLE !!!",
            "type": "uniqueValue",
            "uniqueValueInfos": [
                {
                    "description": "Planting",
                    "label": "Planting",
                    "symbol": {
                        "color": [
                            0,
                            0,
                            0,
                            0
                        ],
                        "outline": {
                            "color": [
                                255,
                                0,
                                0,
                                255
                            ],
                            "style": "esriSLSDash",
                            "type": "esriSLS",
                            "width": 3
                        },
                        "style": "esriSFSSolid",
                        "type": "esriSFS"
                    },
                    "cimSymbol": {
                        "type": "CIMSymbolReference",
                        "symbol": {
                            "type": "CIMLineSymbol",
                            "symbolLayers": [
                                {
                                    "type": "CIMSolidStroke",
                                    "enable": true,
                                    "width": 3,
                                    "color": [
                                        255,
                                        255,
                                        255,
                                        255
                                    ],
                                    "capStyle": "Round",
                                    "effects": [
                                        {
                                            "type": "CIMGeometricEffectDashes",
                                            "dashTemplate": [
                                                12,
                                                12
                                            ],
                                            "lineEnding": "HalfPattern"
                                        }
                                    ]
                                },
                                {
                                    "type": "CIMSolidStroke",
                                    "enable": true,
                                    "width": 5,
                                    "color": [
                                        255,
                                        0,
                                        0,
                                        255
                                    ]
                                }
                            ]
                        }
                    },
                    "value": "Planting"
                },
                {
                    "description": "",
                    "label": "styleOverride",
                    "symbol": {
                        "color": [
                            0,
                            0,
                            0,
                            0
                        ],
                        "outline": {
                            "color": [
                                255,
                                255,
                                255,
                                255
                            ],
                            "style": "esriSLSSolid",
                            "type": "esriSLS",
                            "width": 3
                        },
                        "style": "esriSFSNull",
                        "type": "esriSFS"
                    },
                    "value": "styleOverride"
                }
            ]
        }
    },
    "editFieldsInfo": null,
    "extent": {
        "spatialReference": {
            "latestWkid": 25833,
            "wkid": 25833
        },
        "xmax": 500000,
        "xmin": 0,
        "ymax": 8000000,
        "ymin": 5000000
    },
    "fieldOrder": [],
    "fields": [
        {
            "alias": "GlobalId",
            "editable": false,
            "fieldid": 1,
            "name": "_globalId",
            "nullable": false,
            "type": "esriFieldTypeString"
        },
        {
            "alias": "Opprettet",
            "editable": false,
            "fieldid": 2,
            "name": "_created_Date",
            "nullable": false,
            "type": "esriFieldTypeDouble"
        },
        {
            "alias": "Opprettet av",
            "editable": false,
            "fieldid": 3,
            "name": "_createdBy",
            "nullable": false,
            "type": "esriFieldTypeString"
        },
        {
            "alias": "Endret",
            "editable": false,
            "fieldid": 4,
            "name": "_modified_Date",
            "nullable": false,
            "type": "esriFieldTypeDouble"
        },
        {
            "alias": "Endret av",
            "editable": false,
            "fieldid": 5,
            "name": "_modifiedBy",
            "nullable": false,
            "type": "esriFieldTypeString"
        },
        {
            "alias": "Type",
            "editable": false,
            "fieldid": 6,
            "name": "_type",
            "nullable": false,
            "type": "esriFieldTypeString"
        },
        {
            "alias": "Tilhørende objekt",
            "editable": false,
            "fieldid": 35,
            "name": "_parentGlobalId",
            "nullable": false,
            "type": "esriFieldTypeString"
        },
        {
            "alias": "Tittel på tiltaket",
            "editable": false,
            "fieldid": 37,
            "name": "_title",
            "nullable": false,
            "type": "esriFieldTypeString"
        },
        {
            "alias": "Tiltaksnummer",
            "editable": false,
            "fieldid": 38,
            "name": "_number",
            "nullable": true,
            "type": "esriFieldTypeInteger"
        },
        {
            "alias": "Ordrenummer. Ett nummer per tiltakstype (dvs antall unike nummer er likt antall tiltakstyper i ordren)",
            "editable": false,
            "fieldid": 39,
            "name": "_job_nr",
            "nullable": true,
            "type": "esriFieldTypeInteger"
        },
        {
            "alias": "IO",
            "editable": false,
            "fieldid": 40,
            "name": "_headId",
            "nullable": false,
            "type": "esriFieldTypeString"
        },
        {
            "alias": "Organisasjonsnummer arbeidslag planting",
            "editable": false,
            "fieldid": 53,
            "name": "_workTeamOrgNumPL",
            "nullable": false,
            "type": "esriFieldTypeString"
        },
        {
            "alias": "Planter totalt",
            "editable": false,
            "fieldid": 20,
            "name": "_plants_total",
            "nullable": true,
            "type": "esriFieldTypeInteger"
        },
        {
            "alias": "Oppdragstype",
            "domain": {
                "codedValues": [
                    {
                        "name": "Nyplanting",
                        "value": "Nyplanting"
                    },
                    {
                        "name": "Suppleringsplanting",
                        "value": "Suppleringsplanting"
                    }
                ],
                "type": "codedValue"
            },
            "editable": true,
            "fieldid": 46,
            "name": "job_type",
            "nullable": false,
            "section": 2,
            "translations": [
                {
                    "key": "Oppdragstype",
                    "language": "en",
                    "value": "Assignment type"
                }
            ],
            "type": "esriFieldTypeString"
        },
        {
            "alias": "Bestandsnummer",
            "editable": true,
            "fieldid": 15,
            "name": "bestand_str",
            "nullable": true,
            "section": 2,
            "sortix": 47,
            "translations": [
                {
                    "key": "Bestandsnummer",
                    "language": "en",
                    "value": "Stand number"
                }
            ],
            "type": "esriFieldTypeString"
        },
        {
            "alias": "Plannummer",
            "editable": true,
            "fieldid": 56,
            "name": "plannr",
            "nullable": true,
            "section": 2,
            "translations": [
                {
                    "key": "Plannummer",
                    "language": "en",
                    "value": "Plan number"
                }
            ],
            "type": "esriFieldTypeInteger"
        },
        {
            "alias": "Teignummer",
            "editable": true,
            "fieldid": 9,
            "name": "teignr",
            "nullable": true,
            "section": 2,
            "sortix": 57,
            "translations": [
                {
                    "key": "Teignummer",
                    "language": "en",
                    "value": "Lot number"
                }
            ],
            "type": "esriFieldTypeInteger"
        },
        {
            "alias": "Areal",
            "editable": false,
            "fieldid": 11,
            "name": "area",
            "nullable": true,
            "section": 2,
            "sortix": 58,
            "translations": [
                {
                    "key": "Areal",
                    "language": "en",
                    "value": "Area"
                }
            ],
            "type": "esriFieldTypeDouble"
        },
        {
            "alias": "Høyde over havet",
            "editable": false,
            "fieldid": 14,
            "name": "elevation",
            "nullable": true,
            "section": 2,
            "sortix": 59,
            "translations": [
                {
                    "key": "Høyde over havet",
                    "language": "en",
                    "value": "Height above sea level"
                }
            ],
            "type": "esriFieldTypeInteger"
        },
        {
            "alias": "Bonitet",
            "domain": {
                "codedValues": [
                    {
                        "name": "6",
                        "value": "6"
                    },
                    {
                        "name": "8",
                        "value": "8"
                    },
                    {
                        "name": "11",
                        "value": "11"
                    },
                    {
                        "name": "14",
                        "value": "14"
                    },
                    {
                        "name": "17",
                        "value": "17"
                    },
                    {
                        "name": "20",
                        "value": "20"
                    },
                    {
                        "name": "23",
                        "value": "23"
                    },
                    {
                        "name": "26 eller høyere",
                        "value": "26"
                    }
                ],
                "type": "codedValue"
            },
            "editable": true,
            "fieldid": 12,
            "name": "bonitet",
            "nullable": true,
            "section": 2,
            "sortix": 60,
            "translations": [
                {
                    "key": "Bonitet",
                    "language": "en",
                    "value": "Site quality"
                }
            ],
            "type": "esriFieldTypeString"
        },
        {
            "alias": "Anslått pantbart areal",
            "editable": true,
            "fieldid": 79,
            "name": "estimated_area",
            "nullable": false,
            "section": 2,
            "translations": [
                {
                    "key": "Anslått pantbart areal",
                    "language": "en",
                    "value": "Estimated mortgageable area"
                }
            ],
            "type": "esriFieldTypeInteger"
        },
        {
            "alias": "Markberedt",
            "editable": true,
            "fieldid": 17,
            "name": "soil_preparation_Boolean",
            "nullable": false,
            "section": 2,
            "sortix": 80,
            "translations": [
                {
                    "key": "Markberedt",
                    "language": "en",
                    "value": "Soil prepared"
                }
            ],
            "type": "esriFieldTypeInteger"
        },
        {
            "alias": "Tettere planting",
            "editable": true,
            "fieldid": 18,
            "name": "plants_denser_Boolean",
            "nullable": false,
            "section": 2,
            "sortix": 81,
            "translations": [
                {
                    "key": "Tettere planting",
                    "language": "en",
                    "value": "Denser planting"
                }
            ],
            "type": "esriFieldTypeInteger"
        },
        {
            "alias": "Antall planter pr daa",
            "editable": true,
            "fieldid": 19,
            "name": "plants_per_da",
            "notes": "Du kan søke om tilskudd til tettere skogplanting som klimatiltak ved nyplanting, nyplanting etter markberedning og suppleringsplaning\n\n[Vilkår og detaljer for støtteordningen på Landbruksdirektoratets nettsider](https://www.landbruksdirektoratet.no/nb/skogbruk/ordninger-for-skogbruk/tilskudd-til-tettere-skogplanting-som-klimatiltak?openStep=a2051e73-7f33-475c-84c6-933b57ac52d5-0)",
            "nullable": false,
            "section": 2,
            "sortix": 82,
            "translations": [
                {
                    "key": "Antall planter pr daa",
                    "language": "en",
                    "value": "Number of plants per decare"
                }
            ],
            "type": "esriFieldTypeInteger"
        },
        {
            "alias": "Markslag",
            "domain": {
                "codedValues": [
                    {
                        "name": "Barskog",
                        "value": "Barskog"
                    },
                    {
                        "name": "Lauvskog",
                        "value": "Lauvskog"
                    },
                    {
                        "name": "Snaumark",
                        "value": "Snaumark"
                    },
                    {
                        "name": "Fulldyrket jord",
                        "value": "Fulldyrket jord"
                    },
                    {
                        "name": "Innmarksbeite",
                        "value": "Innmarksbeite"
                    },
                    {
                        "name": "Overflatedyrket jord",
                        "value": "Overflatedyrket jord"
                    },
                    {
                        "name": "Blandingsskog",
                        "value": "Blandingsskog"
                    },
                    {
                        "name": "Myr",
                        "value": "Myr"
                    }
                ],
                "type": "codedValue"
            },
            "editable": true,
            "fieldid": 49,
            "logic": {
                "visibleIf": {
                    "field": {
                        "operator": "!=",
                        "otherFieldName": "_type",
                        "otherFieldStringValue": "Plantesalg"
                    }
                }
            },
            "name": "markslag",
            "nullable": false,
            "section": 2,
            "sortix": 83,
            "translations": [
                {
                    "key": "Markslag",
                    "language": "en",
                    "value": "Soil type"
                }
            ],
            "type": "esriFieldTypeString"
        },
        {
            "alias": "Prismodell for arbeid",
            "domain": {
                "codedValues": [
                    {
                        "name": "Per plante",
                        "value": "Per plante"
                    },
                    {
                        "name": "Timespris",
                        "value": "Timespris"
                    }
                ],
                "type": "codedValue"
            },
            "editable": true,
            "fieldid": 47,
            "logic": {
                "setValue": {
                    "ifValueIs": {
                        "field": {
                            "operator": "==",
                            "otherFieldName": "job_type",
                            "otherFieldStringValue": "Nyplanting"
                        }
                    },
                    "thenSetValue": {
                        "stringValue": "Per plante"
                    }
                },
                "visibleIf": {
                    "field": {
                        "operator": "==",
                        "otherFieldName": "job_type",
                        "otherFieldStringValue": "never this value"
                    }
                }
            },
            "name": "price_model",
            "nullable": false,
            "section": 2,
            "sortix": 84,
            "translations": [
                {
                    "key": "Prismodell for arbeid",
                    "language": "en",
                    "value": "Work pricing model"
                }
            ],
            "type": "esriFieldTypeString"
        },
        {
            "alias": "Andel gran",
            "editable": true,
            "fieldid": 80,
            "name": "perc_gran",
            "nullable": false,
            "section": 3,
            "translations": [
                {
                    "key": "Andel gran",
                    "language": "en",
                    "value": "Proportion of spruce"
                }
            ],
            "type": "esriFieldTypeInteger"
        },
        {
            "alias": "Andel furu",
            "editable": true,
            "fieldid": 81,
            "name": "perc_furu",
            "nullable": false,
            "section": 3,
            "translations": [
                {
                    "key": "Andel furu",
                    "language": "en",
                    "value": "Proportion of pine"
                }
            ],
            "type": "esriFieldTypeInteger"
        },
        {
            "alias": "Andel lauv",
            "editable": true,
            "fieldid": 82,
            "name": "perc_lauv",
            "nullable": false,
            "section": 3,
            "translations": [
                {
                    "key": "Andel lauv",
                    "language": "en",
                    "value": "Proportion of deciduous trees"
                }
            ],
            "type": "esriFieldTypeInteger"
        },
        {
            "alias": "Beregnet antall planter",
            "editable": false,
            "fieldid": 42,
            "name": "num_plants",
            "nullable": true,
            "section": 3,
            "sortix": 83,
            "translations": [
                {
                    "key": "Beregnet antall planter",
                    "language": "en",
                    "value": "Estimated number of plants"
                }
            ],
            "type": "esriFieldTypeInteger"
        },
        {
            "alias": "Beskrivelse av tiltaket",
            "editable": true,
            "fieldid": 26,
            "length": 2048,
            "name": "comment",
            "nullable": true,
            "section": 4,
            "translations": [
                {
                    "key": "Beskrivelse av tiltaket",
                    "language": "en",
                    "value": "Description of the measure"
                }
            ],
            "type": "esriFieldTypeString"
        },
        {
            "alias": "Berører tiltaket biologisk viktig område?",
            "editable": true,
            "fieldid": 27,
            "name": "bio_Boolean",
            "nullable": false,
            "section": 5,
            "translations": [
                {
                    "key": "Berører tiltaket biologisk viktig område?",
                    "language": "en",
                    "value": "Does the measure affect a biologically important area?"
                }
            ],
            "type": "esriFieldTypeInteger"
        },
        {
            "alias": "Biologisk, kommentar",
            "editable": true,
            "fieldid": 28,
            "logic": {
                "visibleIf": {
                    "field": {
                        "operator": "==",
                        "otherFieldIntValue": 1,
                        "otherFieldName": "bio_Boolean"
                    }
                }
            },
            "name": "bioComment",
            "nullable": true,
            "section": 5,
            "translations": [
                {
                    "key": "Biologisk, kommentar",
                    "language": "en",
                    "value": "Biological, comment"
                }
            ],
            "type": "esriFieldTypeString"
        },
        {
            "alias": "Berører tiltaket kjent kulturminne?",
            "editable": true,
            "fieldid": 29,
            "name": "herit_Boolean",
            "nullable": false,
            "section": 5,
            "translations": [
                {
                    "key": "Berører tiltaket kjent kulturminne?",
                    "language": "en",
                    "value": "Does the measure affect a known cultural heritage site?"
                }
            ],
            "type": "esriFieldTypeInteger"
        },
        {
            "alias": "Kulturminne, kommentar",
            "editable": true,
            "fieldid": 30,
            "logic": {
                "visibleIf": {
                    "field": {
                        "operator": "==",
                        "otherFieldIntValue": 1,
                        "otherFieldName": "herit_Boolean"
                    }
                }
            },
            "name": "heritComment",
            "nullable": true,
            "section": 5,
            "translations": [
                {
                    "key": "Kulturminne, kommentar",
                    "language": "en",
                    "value": "Cultural heritage, comment"
                }
            ],
            "type": "esriFieldTypeString"
        },
        {
            "alias": "Berører tiltaket viktige friluftsverdier?",
            "editable": true,
            "fieldid": 31,
            "name": "recreational_Boolean",
            "nullable": false,
            "section": 5,
            "translations": [
                {
                    "key": "Berører tiltaket viktige friluftsverdier?",
                    "language": "en",
                    "value": "Does the measure affect important outdoor recreation values?"
                }
            ],
            "type": "esriFieldTypeInteger"
        },
        {
            "alias": "Friluftsverdier, kommentar",
            "editable": true,
            "fieldid": 32,
            "logic": {
                "visibleIf": {
                    "field": {
                        "operator": "==",
                        "otherFieldIntValue": 1,
                        "otherFieldName": "recreational_Boolean"
                    }
                }
            },
            "name": "recreationalComment",
            "nullable": true,
            "section": 5,
            "translations": [
                {
                    "key": "Friluftsverdier, kommentar",
                    "language": "en",
                    "value": "Outdoor recreation values, comment"
                }
            ],
            "type": "esriFieldTypeString"
        },
        {
            "alias": "Kantsone?",
            "editable": true,
            "fieldid": 33,
            "name": "bufferZone_Boolean",
            "nullable": false,
            "section": 5,
            "translations": [
                {
                    "key": "Kantsone?",
                    "language": "en",
                    "value": "Riparian zone?"
                }
            ],
            "type": "esriFieldTypeInteger"
        },
        {
            "alias": "Kantsone, kommentar",
            "editable": true,
            "fieldid": 34,
            "logic": {
                "visibleIf": {
                    "field": {
                        "operator": "==",
                        "otherFieldIntValue": 1,
                        "otherFieldName": "bufferZone_Boolean"
                    }
                }
            },
            "name": "bufferZoneComment",
            "nullable": true,
            "section": 5,
            "translations": [
                {
                    "key": "Kantsone, kommentar",
                    "language": "en",
                    "value": "Riparian zone, comment"
                }
            ],
            "type": "esriFieldTypeString"
        },
        {
            "alias": "Treslag",
            "domain": {
                "codedValues": [
                    {
                        "name": "Gran",
                        "value": "Gran"
                    },
                    {
                        "name": "Furu",
                        "value": "Furu"
                    },
                    {
                        "name": "Bjørk",
                        "value": "Bjørk"
                    },
                    {
                        "name": "Svartor",
                        "value": "Svartor"
                    },
                    {
                        "name": "Lerk",
                        "value": "Lerk"
                    },
                    {
                        "name": "Sitka",
                        "value": "Sitka"
                    }
                ],
                "type": "codedValue"
            },
            "editable": true,
            "fieldid": 10,
            "logic": {
                "visibleIf": {
                    "field": {
                        "operator": "!=",
                        "otherFieldName": "_type",
                        "otherFieldStringValue": "AlwaysTrueSinceTypeCanNeverBeThis"
                    }
                }
            },
            "name": "tree_kind",
            "nullable": false,
            "section": 6,
            "translations": [
                {
                    "key": "Treslag",
                    "language": "en",
                    "value": "Tree kind"
                }
            ],
            "type": "esriFieldTypeString"
        },
        {
            "alias": "Plantetype",
            "domain": {
                "suggestedValues": [
                    {
                        "name": "M60 2år",
                        "value": "M60 2år"
                    },
                    {
                        "name": "M95 1år",
                        "value": "M95 1år"
                    },
                    {
                        "name": "M95 2år",
                        "value": "M95 2år"
                    }
                ],
                "type": "codedValue"
            },
            "editable": true,
            "fieldid": 13,
            "logic": {},
            "name": "plant_type",
            "nullable": true,
            "section": 6,
            "translations": [
                {
                    "key": "Plantetype",
                    "language": "en",
                    "value": "Plant type"
                }
            ],
            "type": "esriFieldTypeString"
        },
        {
            "alias": "Plantetype, kommentar",
            "editable": true,
            "fieldid": 44,
            "logic": {
                "visibleIf": {
                    "field": {
                        "operator": "!=",
                        "otherFieldName": "_type",
                        "otherFieldStringValue": "AlwaysTrueSinceTypeCanNeverBeThis"
                    }
                }
            },
            "name": "plant_type_comment",
            "nullable": true,
            "section": 6,
            "translations": [
                {
                    "key": "Plantetype, kommentar",
                    "language": "en",
                    "value": "Plant type, comment"
                }
            ],
            "type": "esriFieldTypeString"
        },
        {
            "alias": "Proveniens",
            "editable": true,
            "fieldid": 54,
            "logic": {
                "visibleIf": {
                    "field": {
                        "operator": "!=",
                        "otherFieldName": "_type",
                        "otherFieldStringValue": "AlwaysTrueSinceTypeCanNeverBeThis"
                    }
                }
            },
            "name": "proveniens",
            "nullable": true,
            "section": 6,
            "translations": [
                {
                    "key": "Proveniens",
                    "language": "en",
                    "value": "Provenance"
                }
            ],
            "type": "esriFieldTypeString"
        },
        {
            "alias": "Behandling",
            "domain": {
                "codedValues": [
                    {
                        "name": "Voks",
                        "value": "Voks"
                    },
                    {
                        "name": "Kjemisk",
                        "value": "Kjemisk"
                    },
                    {
                        "name": "Conniflex",
                        "value": "Conniflex"
                    },
                    {
                        "name": "Woodcoat",
                        "value": "Woodcoat"
                    },
                    {
                        "name": "Ingen",
                        "value": "Ingen"
                    }
                ],
                "type": "codedValue"
            },
            "editable": true,
            "fieldid": 16,
            "logic": {
                "visibleIf": {
                    "field": {
                        "operator": "!=",
                        "otherFieldName": "_type",
                        "otherFieldStringValue": "AlwaysTrueSinceTypeCanNeverBeThis"
                    }
                }
            },
            "name": "plant_treatment",
            "nullable": true,
            "section": 6,
            "sortix": 55,
            "translations": [
                {
                    "key": "Behandling",
                    "language": "en",
                    "value": "Treatment"
                }
            ],
            "type": "esriFieldTypeString"
        },
        {
            "alias": "Behandling, kommentar",
            "editable": true,
            "fieldid": 45,
            "logic": {
                "visibleIf": {
                    "field": {
                        "operator": "!=",
                        "otherFieldName": "_type",
                        "otherFieldStringValue": "AlwaysTrueSinceTypeCanNeverBeThis"
                    }
                }
            },
            "name": "plant_treatment_comment",
            "nullable": true,
            "section": 6,
            "sortix": 56,
            "translations": [
                {
                    "key": "Behandling, kommentar",
                    "language": "en",
                    "value": "Treatment, comment"
                }
            ],
            "type": "esriFieldTypeString"
        },
        {
            "alias": "Referansenummer planter",
            "domain": {
                "suggestedValues": [
                    {
                        "name": "SO24540 Furu M95 1år CV1",
                        "value": "SO24540"
                    },
                    {
                        "name": "BU240C1 Furu M95 1år CV1",
                        "value": "BU240C1"
                    },
                    {
                        "name": "SO24550 Furu M95 1år CV2",
                        "value": "SO24550"
                    },
                    {
                        "name": "SO24560 Furu M95 1år CV3",
                        "value": "SO24560"
                    },
                    {
                        "name": "BU240C3 Furu M95 1år CV3",
                        "value": "BU240C3"
                    },
                    {
                        "name": "BU240SO Furu M95 1år Sollerön",
                        "value": "BU240SO"
                    },
                    {
                        "name": "BU240MO Furu M95 1år Mosås",
                        "value": "BU240MO"
                    },
                    {
                        "name": "SO24110W Gran M95 1år Bastøy",
                        "value": "SO24110W"
                    },
                    {
                        "name": "TE24130 Gran M95 2år Jordtveit",
                        "value": "TE24130"
                    },
                    {
                        "name": "TE24330 Gran M60 2år Jordtveit",
                        "value": "TE24330"
                    },
                    {
                        "name": "TE24125 Gran M95 2år Sanderud",
                        "value": "TE24125"
                    },
                    {
                        "name": "SO24420W Gran M95 2år Hallen",
                        "value": "SO24420W"
                    },
                    {
                        "name": "TE24135 Gran M95 2år Hallen",
                        "value": "TE24135"
                    },
                    {
                        "name": "TE24335 Gran M60 2år Hallen",
                        "value": "TE24335"
                    },
                    {
                        "name": "TE24165 Gran M95 2år Kaupanger S",
                        "value": "TE24165"
                    }
                ],
                "type": "codedValue"
            },
            "editable": true,
            "fieldid": 50,
            "logic": {},
            "name": "refnr_plants",
            "nullable": true,
            "section": 6,
            "sortix": 57,
            "translations": [
                {
                    "key": "Referansenummer planter",
                    "language": "en",
                    "value": "Reference number for plants"
                }
            ],
            "type": "esriFieldTypeString"
        },
        {
            "alias": "Prosentfordeling plantetype 1",
            "editable": true,
            "fieldid": 69,
            "logic": {
                "visibleIf": {
                    "allOf": [
                        {
                            "field": {
                                "operator": "!=",
                                "otherFieldName": "_type",
                                "otherFieldStringValue": "AlwaysTrueSinceTypeCanNeverBeThis"
                            }
                        },
                        {
                            "field": {
                                "operator": "exists",
                                "otherFieldName": "tree_kind_2"
                            }
                        }
                    ]
                }
            },
            "name": "plant_type_1_percent",
            "nullable": true,
            "section": 6,
            "translations": [
                {
                    "key": "Prosentfordeling plantetype 1",
                    "language": "en",
                    "value": "Percentage distribution of plant type 1"
                }
            ],
            "type": "esriFieldTypeInteger"
        },
        {
            "alias": "Treslag",
            "domain": {
                "codedValues": [
                    {
                        "name": "Gran",
                        "value": "Gran"
                    },
                    {
                        "name": "Furu",
                        "value": "Furu"
                    },
                    {
                        "name": "Bjørk",
                        "value": "Bjørk"
                    },
                    {
                        "name": "Svartor",
                        "value": "Svartor"
                    },
                    {
                        "name": "Lerk",
                        "value": "Lerk"
                    },
                    {
                        "name": "Sitka",
                        "value": "Sitka"
                    }
                ],
                "type": "codedValue"
            },
            "editable": true,
            "fieldid": 67,
            "logic": {
                "visibleIf": {
                    "allOf": [
                        {
                            "field": {
                                "operator": "!=",
                                "otherFieldName": "_type",
                                "otherFieldStringValue": "AlwaysTrueSinceTypeCanNeverBeThis"
                            }
                        },
                        {
                            "field": {
                                "operator": "exists",
                                "otherFieldName": "tree_kind"
                            }
                        }
                    ]
                }
            },
            "name": "tree_kind_2",
            "nullable": true,
            "section": 7,
            "translations": [
                {
                    "key": "Treslag",
                    "language": "en",
                    "value": "Tree kind"
                }
            ],
            "type": "esriFieldTypeString"
        },
        {
            "alias": "Plantetype",
            "domain": {
                "suggestedValues": [
                    {
                        "name": "M60 2år",
                        "value": "M60 2år"
                    },
                    {
                        "name": "M95 1år",
                        "value": "M95 1år"
                    },
                    {
                        "name": "M95 2år",
                        "value": "M95 2år"
                    }
                ],
                "type": "codedValue"
            },
            "editable": true,
            "fieldid": 61,
            "logic": {
                "visibleIf": {
                    "allOf": [
                        {
                            "field": {
                                "operator": "exists",
                                "otherFieldName": "tree_kind"
                            }
                        },
                        {
                            "field": {
                                "operator": "exists",
                                "otherFieldName": "tree_kind_2"
                            }
                        }
                    ]
                }
            },
            "name": "plant_type_2",
            "nullable": true,
            "section": 7,
            "sortix": 68,
            "translations": [
                {
                    "key": "Plantetype",
                    "language": "en",
                    "value": "Plant type"
                }
            ],
            "type": "esriFieldTypeString"
        },
        {
            "alias": "Plantetype, kommentar",
            "editable": true,
            "fieldid": 62,
            "logic": {
                "visibleIf": {
                    "allOf": [
                        {
                            "field": {
                                "operator": "!=",
                                "otherFieldName": "_type",
                                "otherFieldStringValue": "AlwaysTrueSinceTypeCanNeverBeThis"
                            }
                        },
                        {
                            "field": {
                                "operator": "exists",
                                "otherFieldName": "tree_kind"
                            }
                        },
                        {
                            "field": {
                                "operator": "exists",
                                "otherFieldName": "tree_kind_2"
                            }
                        }
                    ]
                }
            },
            "name": "plant_type_comment_2",
            "nullable": true,
            "section": 7,
            "sortix": 69,
            "translations": [
                {
                    "key": "Plantetype, kommentar",
                    "language": "en",
                    "value": "Plant type, comment"
                }
            ],
            "type": "esriFieldTypeString"
        },
        {
            "alias": "Proveniens",
            "editable": true,
            "fieldid": 65,
            "logic": {
                "visibleIf": {
                    "allOf": [
                        {
                            "field": {
                                "operator": "!=",
                                "otherFieldName": "_type",
                                "otherFieldStringValue": "AlwaysTrueSinceTypeCanNeverBeThis"
                            }
                        },
                        {
                            "field": {
                                "operator": "exists",
                                "otherFieldName": "tree_kind"
                            }
                        },
                        {
                            "field": {
                                "operator": "exists",
                                "otherFieldName": "tree_kind_2"
                            }
                        }
                    ]
                }
            },
            "name": "proveniens_2",
            "nullable": true,
            "section": 7,
            "sortix": 70,
            "translations": [
                {
                    "key": "Proveniens",
                    "language": "en",
                    "value": "Provenance"
                }
            ],
            "type": "esriFieldTypeString"
        },
        {
            "alias": "Behandling",
            "domain": {
                "codedValues": [
                    {
                        "name": "Voks",
                        "value": "Voks"
                    },
                    {
                        "name": "Kjemisk",
                        "value": "Kjemisk"
                    },
                    {
                        "name": "Conniflex",
                        "value": "Conniflex"
                    },
                    {
                        "name": "Woodcoat",
                        "value": "Woodcoat"
                    },
                    {
                        "name": "Ingen",
                        "value": "Ingen"
                    }
                ],
                "type": "codedValue"
            },
            "editable": true,
            "fieldid": 63,
            "logic": {
                "visibleIf": {
                    "allOf": [
                        {
                            "field": {
                                "operator": "!=",
                                "otherFieldName": "_type",
                                "otherFieldStringValue": "AlwaysTrueSinceTypeCanNeverBeThis"
                            }
                        },
                        {
                            "field": {
                                "operator": "exists",
                                "otherFieldName": "tree_kind"
                            }
                        },
                        {
                            "field": {
                                "operator": "exists",
                                "otherFieldName": "tree_kind_2"
                            }
                        }
                    ]
                }
            },
            "name": "plant_treatment_2",
            "nullable": true,
            "section": 7,
            "sortix": 71,
            "translations": [
                {
                    "key": "Behandling",
                    "language": "en",
                    "value": "Treatment"
                }
            ],
            "type": "esriFieldTypeString"
        },
        {
            "alias": "Behandling, kommentar",
            "editable": true,
            "fieldid": 64,
            "logic": {
                "visibleIf": {
                    "allOf": [
                        {
                            "field": {
                                "operator": "!=",
                                "otherFieldName": "_type",
                                "otherFieldStringValue": "AlwaysTrueSinceTypeCanNeverBeThis"
                            }
                        },
                        {
                            "field": {
                                "operator": "exists",
                                "otherFieldName": "tree_kind"
                            }
                        },
                        {
                            "field": {
                                "operator": "exists",
                                "otherFieldName": "tree_kind_2"
                            }
                        }
                    ]
                }
            },
            "name": "plant_treatment_comment_2",
            "nullable": true,
            "section": 7,
            "sortix": 72,
            "translations": [
                {
                    "key": "Behandling, kommentar",
                    "language": "en",
                    "value": "Treatment, comment"
                }
            ],
            "type": "esriFieldTypeString"
        },
        {
            "alias": "Referansenummer planter",
            "domain": {
                "suggestedValues": [
                    {
                        "name": "SO24540 Furu M95 1år CV1",
                        "value": "SO24540"
                    },
                    {
                        "name": "BU240C1 Furu M95 1år CV1",
                        "value": "BU240C1"
                    },
                    {
                        "name": "SO24550 Furu M95 1år CV2",
                        "value": "SO24550"
                    },
                    {
                        "name": "SO24560 Furu M95 1år CV3",
                        "value": "SO24560"
                    },
                    {
                        "name": "BU240C3 Furu M95 1år CV3",
                        "value": "BU240C3"
                    },
                    {
                        "name": "BU240SO Furu M95 1år Sollerön",
                        "value": "BU240SO"
                    },
                    {
                        "name": "BU240MO Furu M95 1år Mosås",
                        "value": "BU240MO"
                    },
                    {
                        "name": "SO24110W Gran M95 1år Bastøy",
                        "value": "SO24110W"
                    },
                    {
                        "name": "TE24130 Gran M95 2år Jordtveit",
                        "value": "TE24130"
                    },
                    {
                        "name": "TE24330 Gran M60 2år Jordtveit",
                        "value": "TE24330"
                    },
                    {
                        "name": "TE24125 Gran M95 2år Sanderud",
                        "value": "TE24125"
                    },
                    {
                        "name": "SO24420W Gran M95 2år Hallen",
                        "value": "SO24420W"
                    },
                    {
                        "name": "TE24135 Gran M95 2år Hallen",
                        "value": "TE24135"
                    },
                    {
                        "name": "TE24335 Gran M60 2år Hallen",
                        "value": "TE24335"
                    },
                    {
                        "name": "TE24165 Gran M95 2år Kaupanger S",
                        "value": "TE24165"
                    }
                ],
                "type": "codedValue"
            },
            "editable": true,
            "fieldid": 500,
            "logic": {
                "visibleIf": {
                    "allOf": [
                        {
                            "field": {
                                "operator": "exists",
                                "otherFieldName": "tree_kind"
                            }
                        },
                        {
                            "field": {
                                "operator": "exists",
                                "otherFieldName": "tree_kind_2"
                            }
                        }
                    ]
                }
            },
            "name": "refnr_plants_2",
            "nullable": true,
            "section": 7,
            "translations": [
                {
                    "key": "Referansenummer planter",
                    "language": "en",
                    "value": "Reference number for plants"
                }
            ],
            "type": "esriFieldTypeString"
        },
        {
            "alias": "Prosentfordeling plantetype 2",
            "editable": true,
            "fieldid": 68,
            "logic": {
                "visibleIf": {
                    "allOf": [
                        {
                            "field": {
                                "operator": "!=",
                                "otherFieldName": "_type",
                                "otherFieldStringValue": "AlwaysTrueSinceTypeCanNeverBeThis"
                            }
                        },
                        {
                            "field": {
                                "operator": "exists",
                                "otherFieldName": "tree_kind"
                            }
                        },
                        {
                            "field": {
                                "operator": "exists",
                                "otherFieldName": "tree_kind_2"
                            }
                        }
                    ]
                }
            },
            "name": "plant_type_2_percent",
            "nullable": true,
            "section": 7,
            "sortix": 501,
            "translations": [
                {
                    "key": "Prosentfordeling plantetype 2",
                    "language": "en",
                    "value": "Percentage distribution of plant type 2"
                }
            ],
            "type": "esriFieldTypeInteger"
        },
        {
            "alias": "Treslag",
            "domain": {
                "codedValues": [
                    {
                        "name": "Gran",
                        "value": "Gran"
                    },
                    {
                        "name": "Furu",
                        "value": "Furu"
                    },
                    {
                        "name": "Bjørk",
                        "value": "Bjørk"
                    },
                    {
                        "name": "Svartor",
                        "value": "Svartor"
                    },
                    {
                        "name": "Lerk",
                        "value": "Lerk"
                    },
                    {
                        "name": "Sitka",
                        "value": "Sitka"
                    }
                ],
                "type": "codedValue"
            },
            "editable": true,
            "fieldid": 3067,
            "logic": {
                "visibleIf": {
                    "allOf": [
                        {
                            "field": {
                                "operator": "!=",
                                "otherFieldName": "_type",
                                "otherFieldStringValue": "AlwaysTrueSinceTypeCanNeverBeThis"
                            }
                        },
                        {
                            "field": {
                                "operator": "exists",
                                "otherFieldName": "tree_kind_2"
                            }
                        }
                    ]
                }
            },
            "name": "tree_kind_3",
            "nullable": true,
            "section": 8,
            "translations": [
                {
                    "key": "Treslag",
                    "language": "en",
                    "value": "Tree kind"
                }
            ],
            "type": "esriFieldTypeString"
        },
        {
            "alias": "Plantetype",
            "domain": {
                "suggestedValues": [
                    {
                        "name": "M60 2år",
                        "value": "M60 2år"
                    },
                    {
                        "name": "M95 1år",
                        "value": "M95 1år"
                    },
                    {
                        "name": "M95 2år",
                        "value": "M95 2år"
                    }
                ],
                "type": "codedValue"
            },
            "editable": true,
            "fieldid": 3061,
            "logic": {
                "visibleIf": {
                    "allOf": [
                        {
                            "field": {
                                "operator": "exists",
                                "otherFieldName": "tree_kind_2"
                            }
                        },
                        {
                            "field": {
                                "operator": "exists",
                                "otherFieldName": "tree_kind_3"
                            }
                        }
                    ]
                }
            },
            "name": "plant_type_3",
            "nullable": true,
            "section": 8,
            "sortix": 3068,
            "translations": [
                {
                    "key": "Plantetype",
                    "language": "en",
                    "value": "Plant type"
                }
            ],
            "type": "esriFieldTypeString"
        },
        {
            "alias": "Plantetype, kommentar",
            "editable": true,
            "fieldid": 3062,
            "logic": {
                "visibleIf": {
                    "allOf": [
                        {
                            "field": {
                                "operator": "!=",
                                "otherFieldName": "_type",
                                "otherFieldStringValue": "AlwaysTrueSinceTypeCanNeverBeThis"
                            }
                        },
                        {
                            "field": {
                                "operator": "exists",
                                "otherFieldName": "tree_kind_2"
                            }
                        },
                        {
                            "field": {
                                "operator": "exists",
                                "otherFieldName": "tree_kind_3"
                            }
                        }
                    ]
                }
            },
            "name": "plant_type_comment_3",
            "nullable": true,
            "section": 8,
            "sortix": 3069,
            "translations": [
                {
                    "key": "Plantetype, kommentar",
                    "language": "en",
                    "value": "Plant type, comment"
                }
            ],
            "type": "esriFieldTypeString"
        },
        {
            "alias": "Proveniens",
            "editable": true,
            "fieldid": 3065,
            "logic": {
                "visibleIf": {
                    "allOf": [
                        {
                            "field": {
                                "operator": "!=",
                                "otherFieldName": "_type",
                                "otherFieldStringValue": "AlwaysTrueSinceTypeCanNeverBeThis"
                            }
                        },
                        {
                            "field": {
                                "operator": "exists",
                                "otherFieldName": "tree_kind_2"
                            }
                        },
                        {
                            "field": {
                                "operator": "exists",
                                "otherFieldName": "tree_kind_3"
                            }
                        }
                    ]
                }
            },
            "name": "proveniens_3",
            "nullable": true,
            "section": 8,
            "sortix": 3070,
            "translations": [
                {
                    "key": "Proveniens",
                    "language": "en",
                    "value": "Provenance"
                }
            ],
            "type": "esriFieldTypeString"
        },
        {
            "alias": "Behandling",
            "domain": {
                "codedValues": [
                    {
                        "name": "Voks",
                        "value": "Voks"
                    },
                    {
                        "name": "Kjemisk",
                        "value": "Kjemisk"
                    },
                    {
                        "name": "Conniflex",
                        "value": "Conniflex"
                    },
                    {
                        "name": "Woodcoat",
                        "value": "Woodcoat"
                    },
                    {
                        "name": "Ingen",
                        "value": "Ingen"
                    }
                ],
                "type": "codedValue"
            },
            "editable": true,
            "fieldid": 3063,
            "logic": {
                "visibleIf": {
                    "allOf": [
                        {
                            "field": {
                                "operator": "!=",
                                "otherFieldName": "_type",
                                "otherFieldStringValue": "AlwaysTrueSinceTypeCanNeverBeThis"
                            }
                        },
                        {
                            "field": {
                                "operator": "exists",
                                "otherFieldName": "tree_kind_2"
                            }
                        },
                        {
                            "field": {
                                "operator": "exists",
                                "otherFieldName": "tree_kind_3"
                            }
                        }
                    ]
                }
            },
            "name": "plant_treatment_3",
            "nullable": true,
            "section": 8,
            "sortix": 3071,
            "translations": [
                {
                    "key": "Behandling",
                    "language": "en",
                    "value": "Treatment"
                }
            ],
            "type": "esriFieldTypeString"
        },
        {
            "alias": "Behandling, kommentar",
            "editable": true,
            "fieldid": 3064,
            "logic": {
                "visibleIf": {
                    "allOf": [
                        {
                            "field": {
                                "operator": "!=",
                                "otherFieldName": "_type",
                                "otherFieldStringValue": "AlwaysTrueSinceTypeCanNeverBeThis"
                            }
                        },
                        {
                            "field": {
                                "operator": "exists",
                                "otherFieldName": "tree_kind_2"
                            }
                        },
                        {
                            "field": {
                                "operator": "exists",
                                "otherFieldName": "tree_kind_3"
                            }
                        }
                    ]
                }
            },
            "name": "plant_treatment_comment_3",
            "nullable": true,
            "section": 8,
            "sortix": 3072,
            "translations": [
                {
                    "key": "Behandling, kommentar",
                    "language": "en",
                    "value": "Treatment, comment"
                }
            ],
            "type": "esriFieldTypeString"
        },
        {
            "alias": "Referansenummer planter",
            "domain": {
                "suggestedValues": [
                    {
                        "name": "SO24540 Furu M95 1år CV1",
                        "value": "SO24540"
                    },
                    {
                        "name": "BU240C1 Furu M95 1år CV1",
                        "value": "BU240C1"
                    },
                    {
                        "name": "SO24550 Furu M95 1år CV2",
                        "value": "SO24550"
                    },
                    {
                        "name": "SO24560 Furu M95 1år CV3",
                        "value": "SO24560"
                    },
                    {
                        "name": "BU240C3 Furu M95 1år CV3",
                        "value": "BU240C3"
                    },
                    {
                        "name": "BU240SO Furu M95 1år Sollerön",
                        "value": "BU240SO"
                    },
                    {
                        "name": "BU240MO Furu M95 1år Mosås",
                        "value": "BU240MO"
                    },
                    {
                        "name": "SO24110W Gran M95 1år Bastøy",
                        "value": "SO24110W"
                    },
                    {
                        "name": "TE24130 Gran M95 2år Jordtveit",
                        "value": "TE24130"
                    },
                    {
                        "name": "TE24330 Gran M60 2år Jordtveit",
                        "value": "TE24330"
                    },
                    {
                        "name": "TE24125 Gran M95 2år Sanderud",
                        "value": "TE24125"
                    },
                    {
                        "name": "SO24420W Gran M95 2år Hallen",
                        "value": "SO24420W"
                    },
                    {
                        "name": "TE24135 Gran M95 2år Hallen",
                        "value": "TE24135"
                    },
                    {
                        "name": "TE24335 Gran M60 2år Hallen",
                        "value": "TE24335"
                    },
                    {
                        "name": "TE24165 Gran M95 2år Kaupanger S",
                        "value": "TE24165"
                    }
                ],
                "type": "codedValue"
            },
            "editable": true,
            "fieldid": 3500,
            "logic": {
                "visibleIf": {
                    "allOf": [
                        {
                            "field": {
                                "operator": "exists",
                                "otherFieldName": "tree_kind_2"
                            }
                        },
                        {
                            "field": {
                                "operator": "exists",
                                "otherFieldName": "tree_kind_3"
                            }
                        }
                    ]
                }
            },
            "name": "refnr_plants_3",
            "nullable": true,
            "section": 8,
            "translations": [
                {
                    "key": "Referansenummer planter",
                    "language": "en",
                    "value": "Reference number for plants"
                }
            ],
            "type": "esriFieldTypeString"
        },
        {
            "alias": "Prosentfordeling plantetype 3",
            "editable": true,
            "fieldid": 3068,
            "logic": {
                "visibleIf": {
                    "allOf": [
                        {
                            "field": {
                                "operator": "!=",
                                "otherFieldName": "_type",
                                "otherFieldStringValue": "AlwaysTrueSinceTypeCanNeverBeThis"
                            }
                        },
                        {
                            "field": {
                                "operator": "exists",
                                "otherFieldName": "tree_kind_2"
                            }
                        },
                        {
                            "field": {
                                "operator": "exists",
                                "otherFieldName": "tree_kind_3"
                            }
                        }
                    ]
                }
            },
            "name": "plant_type_3_percent",
            "nullable": true,
            "section": 8,
            "sortix": 3501,
            "translations": [
                {
                    "key": "Prosentfordeling plantetype 3",
                    "language": "en",
                    "value": "Percentage distribution of plant type 3"
                }
            ],
            "type": "esriFieldTypeInteger"
        },
        {
            "alias": "Treslag",
            "domain": {
                "codedValues": [
                    {
                        "name": "Gran",
                        "value": "Gran"
                    },
                    {
                        "name": "Furu",
                        "value": "Furu"
                    },
                    {
                        "name": "Bjørk",
                        "value": "Bjørk"
                    },
                    {
                        "name": "Svartor",
                        "value": "Svartor"
                    },
                    {
                        "name": "Lerk",
                        "value": "Lerk"
                    },
                    {
                        "name": "Sitka",
                        "value": "Sitka"
                    }
                ],
                "type": "codedValue"
            },
            "editable": true,
            "fieldid": 4067,
            "logic": {
                "visibleIf": {
                    "allOf": [
                        {
                            "field": {
                                "operator": "!=",
                                "otherFieldName": "_type",
                                "otherFieldStringValue": "AlwaysTrueSinceTypeCanNeverBeThis"
                            }
                        },
                        {
                            "field": {
                                "operator": "exists",
                                "otherFieldName": "tree_kind_3"
                            }
                        }
                    ]
                }
            },
            "name": "tree_kind_4",
            "nullable": true,
            "section": 9,
            "translations": [
                {
                    "key": "Treslag",
                    "language": "en",
                    "value": "Tree kind"
                }
            ],
            "type": "esriFieldTypeString"
        },
        {
            "alias": "Plantetype",
            "domain": {
                "suggestedValues": [
                    {
                        "name": "M60 2år",
                        "value": "M60 2år"
                    },
                    {
                        "name": "M95 1år",
                        "value": "M95 1år"
                    },
                    {
                        "name": "M95 2år",
                        "value": "M95 2år"
                    }
                ],
                "type": "codedValue"
            },
            "editable": true,
            "fieldid": 4061,
            "logic": {
                "visibleIf": {
                    "allOf": [
                        {
                            "field": {
                                "operator": "exists",
                                "otherFieldName": "tree_kind_3"
                            }
                        },
                        {
                            "field": {
                                "operator": "exists",
                                "otherFieldName": "tree_kind_4"
                            }
                        }
                    ]
                }
            },
            "name": "plant_type_4",
            "nullable": true,
            "section": 9,
            "sortix": 4068,
            "translations": [
                {
                    "key": "Plantetype",
                    "language": "en",
                    "value": "Plant type"
                }
            ],
            "type": "esriFieldTypeString"
        },
        {
            "alias": "Plantetype, kommentar",
            "editable": true,
            "fieldid": 4062,
            "logic": {
                "visibleIf": {
                    "allOf": [
                        {
                            "field": {
                                "operator": "!=",
                                "otherFieldName": "_type",
                                "otherFieldStringValue": "AlwaysTrueSinceTypeCanNeverBeThis"
                            }
                        },
                        {
                            "field": {
                                "operator": "exists",
                                "otherFieldName": "tree_kind_3"
                            }
                        },
                        {
                            "field": {
                                "operator": "exists",
                                "otherFieldName": "tree_kind_4"
                            }
                        }
                    ]
                }
            },
            "name": "plant_type_comment_4",
            "nullable": true,
            "section": 9,
            "sortix": 4069,
            "translations": [
                {
                    "key": "Plantetype, kommentar",
                    "language": "en",
                    "value": "Plant type, comment"
                }
            ],
            "type": "esriFieldTypeString"
        },
        {
            "alias": "Proveniens",
            "editable": true,
            "fieldid": 4065,
            "logic": {
                "visibleIf": {
                    "allOf": [
                        {
                            "field": {
                                "operator": "!=",
                                "otherFieldName": "_type",
                                "otherFieldStringValue": "AlwaysTrueSinceTypeCanNeverBeThis"
                            }
                        },
                        {
                            "field": {
                                "operator": "exists",
                                "otherFieldName": "tree_kind_3"
                            }
                        },
                        {
                            "field": {
                                "operator": "exists",
                                "otherFieldName": "tree_kind_4"
                            }
                        }
                    ]
                }
            },
            "name": "proveniens_4",
            "nullable": true,
            "section": 9,
            "sortix": 4070,
            "translations": [
                {
                    "key": "Proveniens",
                    "language": "en",
                    "value": "Provenance"
                }
            ],
            "type": "esriFieldTypeString"
        },
        {
            "alias": "Behandling",
            "domain": {
                "codedValues": [
                    {
                        "name": "Voks",
                        "value": "Voks"
                    },
                    {
                        "name": "Kjemisk",
                        "value": "Kjemisk"
                    },
                    {
                        "name": "Conniflex",
                        "value": "Conniflex"
                    },
                    {
                        "name": "Woodcoat",
                        "value": "Woodcoat"
                    },
                    {
                        "name": "Ingen",
                        "value": "Ingen"
                    }
                ],
                "type": "codedValue"
            },
            "editable": true,
            "fieldid": 4063,
            "logic": {
                "visibleIf": {
                    "allOf": [
                        {
                            "field": {
                                "operator": "!=",
                                "otherFieldName": "_type",
                                "otherFieldStringValue": "AlwaysTrueSinceTypeCanNeverBeThis"
                            }
                        },
                        {
                            "field": {
                                "operator": "exists",
                                "otherFieldName": "tree_kind_3"
                            }
                        },
                        {
                            "field": {
                                "operator": "exists",
                                "otherFieldName": "tree_kind_4"
                            }
                        }
                    ]
                }
            },
            "name": "plant_treatment_4",
            "nullable": true,
            "section": 9,
            "sortix": 4071,
            "translations": [
                {
                    "key": "Behandling",
                    "language": "en",
                    "value": "Treatment"
                }
            ],
            "type": "esriFieldTypeString"
        },
        {
            "alias": "Behandling, kommentar",
            "editable": true,
            "fieldid": 4064,
            "logic": {
                "visibleIf": {
                    "allOf": [
                        {
                            "field": {
                                "operator": "!=",
                                "otherFieldName": "_type",
                                "otherFieldStringValue": "AlwaysTrueSinceTypeCanNeverBeThis"
                            }
                        },
                        {
                            "field": {
                                "operator": "exists",
                                "otherFieldName": "tree_kind_3"
                            }
                        },
                        {
                            "field": {
                                "operator": "exists",
                                "otherFieldName": "tree_kind_4"
                            }
                        }
                    ]
                }
            },
            "name": "plant_treatment_comment_4",
            "nullable": true,
            "section": 9,
            "sortix": 4072,
            "translations": [
                {
                    "key": "Behandling, kommentar",
                    "language": "en",
                    "value": "Treatment, comment"
                }
            ],
            "type": "esriFieldTypeString"
        },
        {
            "alias": "Referansenummer planter",
            "domain": {
                "suggestedValues": [
                    {
                        "name": "SO24540 Furu M95 1år CV1",
                        "value": "SO24540"
                    },
                    {
                        "name": "BU240C1 Furu M95 1år CV1",
                        "value": "BU240C1"
                    },
                    {
                        "name": "SO24550 Furu M95 1år CV2",
                        "value": "SO24550"
                    },
                    {
                        "name": "SO24560 Furu M95 1år CV3",
                        "value": "SO24560"
                    },
                    {
                        "name": "BU240C3 Furu M95 1år CV3",
                        "value": "BU240C3"
                    },
                    {
                        "name": "BU240SO Furu M95 1år Sollerön",
                        "value": "BU240SO"
                    },
                    {
                        "name": "BU240MO Furu M95 1år Mosås",
                        "value": "BU240MO"
                    },
                    {
                        "name": "SO24110W Gran M95 1år Bastøy",
                        "value": "SO24110W"
                    },
                    {
                        "name": "TE24130 Gran M95 2år Jordtveit",
                        "value": "TE24130"
                    },
                    {
                        "name": "TE24330 Gran M60 2år Jordtveit",
                        "value": "TE24330"
                    },
                    {
                        "name": "TE24125 Gran M95 2år Sanderud",
                        "value": "TE24125"
                    },
                    {
                        "name": "SO24420W Gran M95 2år Hallen",
                        "value": "SO24420W"
                    },
                    {
                        "name": "TE24135 Gran M95 2år Hallen",
                        "value": "TE24135"
                    },
                    {
                        "name": "TE24335 Gran M60 2år Hallen",
                        "value": "TE24335"
                    },
                    {
                        "name": "TE24165 Gran M95 2år Kaupanger S",
                        "value": "TE24165"
                    }
                ],
                "type": "codedValue"
            },
            "editable": true,
            "fieldid": 4500,
            "logic": {
                "visibleIf": {
                    "allOf": [
                        {
                            "field": {
                                "operator": "exists",
                                "otherFieldName": "tree_kind_3"
                            }
                        },
                        {
                            "field": {
                                "operator": "exists",
                                "otherFieldName": "tree_kind_4"
                            }
                        }
                    ]
                }
            },
            "name": "refnr_plants_4",
            "nullable": true,
            "section": 9,
            "translations": [
                {
                    "key": "Referansenummer planter",
                    "language": "en",
                    "value": "Reference number for plants"
                }
            ],
            "type": "esriFieldTypeString"
        },
        {
            "alias": "Prosentfordeling plantetype 4",
            "editable": true,
            "fieldid": 4068,
            "logic": {
                "visibleIf": {
                    "allOf": [
                        {
                            "field": {
                                "operator": "!=",
                                "otherFieldName": "_type",
                                "otherFieldStringValue": "AlwaysTrueSinceTypeCanNeverBeThis"
                            }
                        },
                        {
                            "field": {
                                "operator": "exists",
                                "otherFieldName": "tree_kind_3"
                            }
                        },
                        {
                            "field": {
                                "operator": "exists",
                                "otherFieldName": "tree_kind_4"
                            }
                        },
                        {
                            "field": {
                                "operator": "exists",
                                "otherFieldName": "tree_kind_2"
                            }
                        }
                    ]
                }
            },
            "name": "plant_type_4_percent",
            "nullable": true,
            "section": 9,
            "sortix": 4501,
            "translations": [
                {
                    "key": "Prosentfordeling plantetype 4",
                    "language": "en",
                    "value": "Percentage distribution of plant type 4"
                }
            ],
            "type": "esriFieldTypeInteger"
        }
    ],
    "geometryType": "esriGeometryPolygon",
    "globalIdField": "_globalId",
    "hasAttachments": false,
    "hasM": false,
    "hasZ": false,
    "htmlPopupType": "esriServerHTMLPopupTypeAsHTMLText",
    "id": 2,
    "isDataVersioned": false,
    "maxRecordCount": 100000,
    "maxScale": 0,
    "minScale": 100000,
    "name": "FSPPlantingGeom",
    "objectIdField": "OBJECTID",
    "ownershipBasedAccessControlForFeatures": null,
    "relationships": [],
    "sections": [
        {
            "id": 1,
            "title": "[Info om planting](https://skogkurs.no/wp-content/uploads/planting.pdf)\n\n"
        },
        {
            "id": 2,
            "title": "Generelt"
        },
        {
            "id": 3,
            "title": "Ønsket treslagsfordeling"
        },
        {
            "id": 4,
            "title": "Arbeidsinstruks"
        },
        {
            "id": 5,
            "title": "Miljø"
        },
        {
            "id": 6,
            "title": "Plantetype 1"
        },
        {
            "id": 7,
            "title": "Plantetype 2"
        },
        {
            "id": 8,
            "title": "Plantetype 3"
        },
        {
            "id": 9,
            "title": "Plantetype 4"
        }
    ],
    "supportedQueryFormats": "JSON, AMF",
    "supportsAdvancedQueries": true,
    "supportsRollbackOnFailureParameter": true,
    "supportsStatistics": true,
    "syncCanReturnChanges": true,
    "templates": [],
    "translations": [
        {
            "key": "[Info om planting](https://skogkurs.no/wp-content/uploads/planting.pdf)\n\n",
            "language": "en",
            "value": "[Information on Planting](https://skogkurs.no/wp-content/uploads/planting.pdf)\n\n"
        },
        {
            "key": "Generelt",
            "language": "en",
            "value": "General"
        },
        {
            "key": "Ønsket treslagsfordeling",
            "language": "en",
            "value": "Desired tree species distribution"
        },
        {
            "key": "Arbeidsinstruks",
            "language": "en",
            "value": "Work order"
        },
        {
            "key": "Miljø",
            "language": "en",
            "value": "Environment"
        },
        {
            "key": "Plantetype 1",
            "language": "en",
            "value": "Plant type 1"
        },
        {
            "key": "Plantetype 2",
            "language": "en",
            "value": "Plant type 2"
        },
        {
            "key": "Plantetype 3",
            "language": "en",
            "value": "Plant type 3"
        },
        {
            "key": "Plantetype 4",
            "language": "en",
            "value": "Plant type 4"
        }
    ],
    "type": "Feature Layer",
    "typeIdField": "_type",
    "types": [
        {
            "domains": {},
            "id": "Planting",
            "name": "Planting",
            "templates": [
                {
                    "description": "Plantearbeid",
                    "drawingTool": "esriFeatureEditToolPolygon",
                    "name": "Planting",
                    "prototype": {
                        "attributes": {
                            "_type": "Planting"
                        }
                    }
                }
            ]
        }
    ],
    "useStandardizedQueries": true
}

