{
    "allowGeometryUpdates": true,
    "capabilities": "Create,Delete,Query,Sync,Update,Uploads,Editing",
    "copyrightText": "",
    "currentVersion": 10.22,
    "defaultVisibility": true,
    "description": "",
    "displayField": "Name",
    "drawingInfo": null,
    "editFieldsInfo": null,
    "fields": [
        {
            "alias": "PartyId",
            "editable": false,
            "fieldid": 0,
            "name": "PartyId",
            "nullable": false,
            "type": "esriFieldTypeString"
        },
        {
            "alias": "OrgNum",
            "editable": false,
            "fieldid": 1,
            "name": "OrgNum",
            "nullable": false,
            "type": "esriFieldTypeString"
        },
        {
            "alias": "OrgTypeNum",
            "editable": false,
            "fieldid": 2,
            "name": "OrgTypeNum",
            "nullable": false,
            "type": "esriFieldTypeInteger"
        },
        {
            "alias": "Name",
            "editable": false,
            "fieldid": 3,
            "name": "Name",
            "nullable": false,
            "type": "esriFieldTypeString"
        },
        {
            "alias": "Name2",
            "editable": false,
            "fieldid": 4,
            "name": "Name2",
            "nullable": false,
            "type": "esriFieldTypeString"
        },
        {
            "alias": "Address",
            "editable": false,
            "fieldid": 5,
            "name": "Address",
            "nullable": false,
            "type": "esriFieldTypeString"
        },
        {
            "alias": "ZipCode",
            "editable": false,
            "fieldid": 6,
            "name": "ZipCode",
            "nullable": false,
            "type": "esriFieldTypeString"
        },
        {
            "alias": "City",
            "editable": false,
            "fieldid": 7,
            "name": "City",
            "nullable": false,
            "type": "esriFieldTypeString"
        },
        {
            "alias": "EMail",
            "editable": false,
            "fieldid": 8,
            "name": "EMail",
            "nullable": false,
            "type": "esriFieldTypeString"
        },
        {
            "alias": "Full text search",
            "editable": false,
            "fieldid": 9,
            "name": "Fts",
            "nullable": false,
            "type": "esriFieldTypeString"
        },
        {
            "alias": "Country code",
            "editable": false,
            "fieldid": 10,
            "name": "CountryCode",
            "nullable": true,
            "type": "esriFieldTypeString"
        }
    ],
    "geometryType": "esriGeometryPoint",
    "globalIdField": "PartyId",
    "hasAttachments": false,
    "hasM": false,
    "hasZ": false,
    "htmlPopupType": "esriServerHTMLPopupTypeAsHTMLText",
    "id": 0,
    "isDataVersioned": false,
    "maxRecordCount": 100000,
    "maxScale": 0,
    "minScale": 100000,
    "name": "FSRegister",
    "objectIdField": "OBJECTID",
    "ownershipBasedAccessControlForFeatures": null,
    "relationships": [],
    "supportedQueryFormats": "JSON, AMF",
    "supportsAdvancedQueries": true,
    "supportsRollbackOnFailureParameter": true,
    "supportsStatistics": true,
    "syncCanReturnChanges": true,
    "templates": [],
    "type": "Feature Layer",
    "typeIdField": null,
    "useStandardizedQueries": true
}
