{
    "allowGeometryUpdates": true,
    "capabilities": "Create,Delete,Query,Sync,Update,Uploads,Editing",
    "copyrightText": "",
    "currentVersion": 10.22,
    "defaultVisibility": true,
    "description": "",
    "displayField": "tema",
    "drawingInfo": {
        "labelingInfo": null,
        "renderer": {
            "defaultLabel": null,
            "defaultSymbol": null,
            "field1": "tema",
            "field2": null,
            "field3": null,
            "fieldDelimiter": ", ",
            "note to future self": "!!! HUSK AT DETTE FELTET MÅ VÆRE EDITABLE !!!",
            "type": "uniqueValue",
            "uniqueValueInfos": [
                {
                    "description": "",
                    "label": "Storfuglleik",
                    "symbol": {
                        "color": [
                            255,
                            0,
                            197,
                            150
                        ],
                        "outline": {
                            "color": [
                                255,
                                0,
                                197,
                                255
                            ],
                            "style": "esriSLSSolid",
                            "type": "esriSLS",
                            "width": 2
                        },
                        "style": "esriSFSBackwardDiagonal",
                        "type": "esriSFS"
                    },
                    "value": "Storfuglleik"
                },
                {
                    "description": "",
                    "label": "Tiurleik",
                    "symbol": {
                        "color": [
                            255,
                            0,
                            197,
                            150
                        ],
                        "outline": {
                            "color": [
                                255,
                                0,
                                197,
                                255
                            ],
                            "style": "esriSLSSolid",
                            "type": "esriSLS",
                            "width": 2
                        },
                        "style": "esriSFSBackwardDiagonal",
                        "type": "esriSFS"
                    },
                    "value": "Tiurleik"
                },
                {
                    "description": "",
                    "label": "02. Annet",
                    "symbol": {
                        "color": [
                            110,
                            110,
                            110,
                            150
                        ],
                        "outline": {
                            "color": [
                                0,
                                0,
                                0,
                                255
                            ],
                            "style": "esriSLSSolid",
                            "type": "esriSLS",
                            "width": 2
                        },
                        "style": "esriSFSBackwardDiagonal",
                        "type": "esriSFS"
                    },
                    "value": "Annet"
                },
                {
                    "description": "",
                    "label": "03. Mis",
                    "symbol": {
                        "color": [
                            110,
                            110,
                            110,
                            150
                        ],
                        "outline": {
                            "color": [
                                0,
                                0,
                                0,
                                255
                            ],
                            "style": "esriSLSSolid",
                            "type": "esriSLS",
                            "width": 2
                        },
                        "style": "esriSFSBackwardDiagonal",
                        "type": "esriSFS"
                    },
                    "value": "Mis"
                }
            ]
        },
        "transparency": 0
    },
    "editFieldsInfo": null,
    "extent": {
        "spatialReference": {
            "latestWkid": 25833,
            "wkid": 25833
        },
        "xmax": 449078.5729,
        "xmin": 22145.20600000024,
        "ymax": 7182411.7896,
        "ymin": 6488287.4629999995
    },
    "fieldOrder": null,
    "fields": [
        {
            "alias": "GlobalId",
            "editable": false,
            "fieldid": 0,
            "name": "_globalId",
            "nullable": false,
            "type": "esriFieldTypeString"
        },
        {
            "alias": "Opprettet",
            "editable": false,
            "fieldid": 1,
            "name": "_created_Date",
            "nullable": false,
            "type": "esriFieldTypeDouble"
        },
        {
            "alias": "Opprettet av",
            "editable": false,
            "fieldid": 2,
            "name": "_createdBy",
            "nullable": false,
            "type": "esriFieldTypeString"
        },
        {
            "alias": "Endret",
            "editable": false,
            "fieldid": 3,
            "name": "_modified_Date",
            "nullable": false,
            "type": "esriFieldTypeDouble"
        },
        {
            "alias": "Endret av",
            "editable": false,
            "fieldid": 4,
            "name": "_modifiedBy",
            "nullable": false,
            "type": "esriFieldTypeString"
        },
        {
            "alias": "Tema",
            "editable": false,
            "fieldid": 5,
            "name": "tema",
            "nullable": false,
            "translations": [
                {
                    "key": "Tema",
                    "language": "en",
                    "value": "Theme"
                }
            ],
            "type": "esriFieldTypeString"
        },
        {
            "alias": "Kommentar",
            "editable": true,
            "fieldid": 6,
            "name": "comment",
            "nullable": true,
            "translations": [
                {
                    "key": "Kommentar",
                    "language": "en",
                    "value": "Comment"
                }
            ],
            "type": "esriFieldTypeString"
        }
    ],
    "geometryType": "esriGeometryPolygon",
    "globalIdField": "_globalId",
    "hasAttachments": false,
    "hasM": false,
    "hasZ": false,
    "htmlPopupType": "esriServerHTMLPopupTypeAsHTMLText",
    "id": 2,
    "isDataVersioned": false,
    "maxRecordCount": 100000,
    "maxScale": 0,
    "minScale": 50000,
    "name": "FTMiljoFlater",
    "objectIdField": "OBJECTID",
    "ownershipBasedAccessControlForFeatures": null,
    "relationships": [],
    "sections": null,
    "supportedQueryFormats": "JSON, AMF",
    "supportsAdvancedQueries": true,
    "supportsRollbackOnFailureParameter": true,
    "supportsStatistics": true,
    "syncCanReturnChanges": true,
    "templates": [],
    "type": "Feature Layer",
    "typeIdField": "tema",
    "types": null,
    "useStandardizedQueries": true
}

