{
    "alias": "Feltkontroll ungskogpleie",
    "allowGeometryUpdates": true,
    "capabilities": "Create,Delete,Query,Sync,Update,Uploads,Editing",
    "copyrightText": "",
    "currentVersion": 10.22,
    "defaultVisibility": true,
    "description": "",
    "displayField": "dev_Boolean",
    "drawingInfo": null,
    "editFieldsInfo": null,
    "extent": {
        "spatialReference": {
            "latestWkid": 25833,
            "wkid": 25833
        },
        "xmax": 450493.12090000045,
        "xmin": -305588.6796000004,
        "ymax": 7210241.434,
        "ymin": 6469673.3945
    },
    "fieldOrder": [],
    "fields": [
        {
            "alias": "Entreprenørordre GUID",
            "editable": false,
            "fieldid": 0,
            "name": "_globalId",
            "nullable": false,
            "type": "esriFieldTypeString"
        },
        {
            "alias": "Opprettet",
            "editable": false,
            "fieldid": 1,
            "name": "_created_Date",
            "nullable": false,
            "type": "esriFieldTypeDouble"
        },
        {
            "alias": "Opprettet av",
            "editable": false,
            "fieldid": 2,
            "name": "_createdBy",
            "nullable": false,
            "type": "esriFieldTypeString"
        },
        {
            "alias": "Endret",
            "editable": false,
            "fieldid": 3,
            "name": "_modified_Date",
            "nullable": false,
            "type": "esriFieldTypeDouble"
        },
        {
            "alias": "Endret av",
            "editable": false,
            "fieldid": 4,
            "name": "_modifiedBy",
            "nullable": false,
            "type": "esriFieldTypeString"
        },
        {
            "alias": "Ordrenummer",
            "editable": false,
            "fieldid": 5,
            "name": "_job_nr",
            "nullable": false,
            "type": "esriFieldTypeString"
        },
        {
            "alias": "Type",
            "editable": false,
            "fieldid": 6,
            "name": "_type",
            "nullable": true,
            "type": "esriFieldTypeString",
            "comment": "nullable because of backwards compability, null = 'Egenkontroll'"
        },
        {
            "alias": "Tilhørende objekt",
            "editable": false,
            "fieldid": 7,
            "name": "_parentGlobalId",
            "nullable": false,
            "type": "esriFieldTypeString"
        },
        {
            "alias": "Organisasjonsnummer arbeidslag",
            "editable": false,
            "fieldid": 8,
            "name": "_workTeamOrgNum",
            "nullable": true,
            "type": "esriFieldTypeString"
        },
        {
            "alias": "Hvilke bestand er kontrollen utført i?",
            "editable": true,
            "fieldid": 20,
            "name": "bestand_str",
            "nullable": false,
            "section": 1,
            "type": "esriFieldTypeString"
        },
        {
            "alias": "Er målingene tilfredsstillende i forhold til instruks?",
            "editable": true,
            "fieldid": 100,
            "name": "measurements_satisfactory_Boolean",
            "nullable": false,
            "section": 1,
            "type": "esriFieldTypeInteger"
        },
        {
            "alias": "Er valg av framtidsstammer tilfredsstillende?",
            "editable": true,
            "fieldid": 101,
            "name": "futuretrunks_satisfactory_Boolean",
            "nullable": false,
            "section": 1,
            "type": "esriFieldTypeInteger"
        },
        {
            "alias": "Er det god romlig fordeling mellom framtidstrærne?",
            "editable": true,
            "fieldid": 102,
            "name": "futuretrunks_spacing_Boolean",
            "nullable": false,
            "section": 1,
            "type": "esriFieldTypeInteger"
        },
        {
            "alias": "Er det satt igjen ROS, toppkappa løvtrær, furu til viltet?",
            "editable": true,
            "fieldid": 103,
            "name": "wildlife_retention_Boolean",
            "nullable": false,
            "section": 1,
            "type": "esriFieldTypeInteger"
        },
        {
            "alias": "Er stubbehøyden tilfredsstillende?",
            "editable": true,
            "fieldid": 104,
            "name": "stumpheight_satisfactory_Boolean",
            "nullable": false,
            "section": 1,
            "type": "esriFieldTypeInteger"
        },
        {
            "alias": "Kantsone intakt/avsatt i henhold til instruks?",
            "editable": true,
            "fieldid": 50,
            "name": "edge_zone_Boolean",
            "nullable": false,
            "section": 1,
            "sortix": 105,
            "type": "esriFieldTypeInteger"
        },
        {
            "alias": "Kantsone kommentar",
            "editable": true,
            "fieldid": 51,
            "logic": {
                "visibleIf": {
                    "field": {
                        "operator": "==",
                        "otherFieldIntValue": 0,
                        "otherFieldName": "edge_zone_Boolean"
                    }
                }
            },
            "name": "edge_zone_comment",
            "nullable": true,
            "section": 1,
            "sortix": 106,
            "type": "esriFieldTypeString"
        },
        {
            "alias": "Kantsone gjennomsnittsbredde",
            "editable": true,
            "fieldid": 52,
            "name": "edge_zone_average_width",
            "nullable": true,
            "section": 1,
            "sortix": 107,
            "type": "esriFieldTypeString"
        },
        {
            "alias": "Er avstand til stier/skiløyper ivaretatt i henhold til instruks?",
            "editable": true,
            "fieldid": 53,
            "name": "path_buffer_Boolean",
            "nullable": false,
            "section": 1,
            "sortix": 108,
            "type": "esriFieldTypeInteger"
        },
        {
            "alias": "Kommentar sti",
            "editable": true,
            "fieldid": 54,
            "logic": {
                "visibleIf": {
                    "field": {
                        "operator": "==",
                        "otherFieldIntValue": 0,
                        "otherFieldName": "path_buffer_Boolean"
                    }
                }
            },
            "name": "path_buffer_comment",
            "nullable": true,
            "section": 1,
            "sortix": 109,
            "type": "esriFieldTypeString"
        },
        {
            "alias": "Er grøfter holdt åpne i henhold til instruks?",
            "editable": true,
            "fieldid": 55,
            "name": "trench_Boolean",
            "nullable": false,
            "section": 1,
            "sortix": 110,
            "type": "esriFieldTypeInteger"
        },
        {
            "alias": "Kommentar grøft",
            "editable": true,
            "fieldid": 56,
            "logic": {
                "visibleIf": {
                    "field": {
                        "operator": "==",
                        "otherFieldIntValue": 0,
                        "otherFieldName": "trench_Boolean"
                    }
                }
            },
            "name": "trench_comment",
            "nullable": true,
            "section": 1,
            "sortix": 111,
            "type": "esriFieldTypeString"
        },
        {
            "alias": "Nøkkelbiotoper og naturtyper ivaretatt i henhold til instruks",
            "editable": true,
            "fieldid": 57,
            "name": "key_biotope_Boolean",
            "nullable": false,
            "section": 1,
            "sortix": 112,
            "type": "esriFieldTypeInteger"
        },
        {
            "alias": "Kommentar nøkkelbiotop",
            "editable": true,
            "fieldid": 58,
            "logic": {
                "visibleIf": {
                    "field": {
                        "operator": "==",
                        "otherFieldIntValue": 0,
                        "otherFieldName": "key_biotope_Boolean"
                    }
                }
            },
            "name": "key_biotope_comment",
            "nullable": true,
            "section": 1,
            "sortix": 113,
            "type": "esriFieldTypeString"
        },
        {
            "alias": "Kulturminner ivaretatt i henhold til instruks?",
            "editable": true,
            "fieldid": 61,
            "name": "cultural_Boolean",
            "nullable": false,
            "section": 1,
            "sortix": 114,
            "type": "esriFieldTypeInteger"
        },
        {
            "alias": "Kulturminner kommentar",
            "editable": true,
            "fieldid": 62,
            "logic": {
                "visibleIf": {
                    "field": {
                        "operator": "==",
                        "otherFieldIntValue": 0,
                        "otherFieldName": "cultural_Boolean"
                    }
                }
            },
            "name": "cultural_comment",
            "nullable": true,
            "section": 1,
            "sortix": 115,
            "type": "esriFieldTypeString"
        },
        {
            "alias": "Er aktuelle driftsveier holdt åpne i henhold til instruks?",
            "editable": true,
            "fieldid": 63,
            "name": "operating_routes_Boolean",
            "nullable": false,
            "section": 1,
            "sortix": 116,
            "type": "esriFieldTypeInteger"
        },
        {
            "alias": "Kommentar driftsveier",
            "editable": true,
            "fieldid": 64,
            "logic": {
                "visibleIf": {
                    "field": {
                        "operator": "==",
                        "otherFieldIntValue": 0,
                        "otherFieldName": "operating_routes_Boolean"
                    }
                }
            },
            "name": "operating_routes_comment",
            "nullable": true,
            "section": 1,
            "sortix": 117,
            "type": "esriFieldTypeString"
        },
        {
            "alias": "Fugler og arter hensyntatt i henhold til instruks?",
            "editable": true,
            "fieldid": 80,
            "name": "wildlife_Boolean",
            "nullable": false,
            "section": 1,
            "sortix": 118,
            "type": "esriFieldTypeInteger"
        },
        {
            "alias": "Kommentar fugler og arter",
            "editable": true,
            "fieldid": 81,
            "logic": {
                "visibleIf": {
                    "field": {
                        "operator": "==",
                        "otherFieldIntValue": 0,
                        "otherFieldName": "wildlife_Boolean"
                    }
                }
            },
            "name": "wildlife_comment",
            "nullable": true,
            "section": 1,
            "sortix": 119,
            "type": "esriFieldTypeString"
        },
        {
            "alias": "Er avstand til skogsbilvei/offentligvei ivaretatt i henhold til instruks?",
            "editable": true,
            "fieldid": 82,
            "name": "read_dist_Boolean",
            "nullable": false,
            "section": 1,
            "sortix": 120,
            "type": "esriFieldTypeInteger"
        },
        {
            "alias": "",
            "editable": true,
            "fieldid": 83,
            "logic": {
                "visibleIf": {
                    "field": {
                        "operator": "==",
                        "otherFieldIntValue": 0,
                        "otherFieldName": "read_dist_Boolean"
                    }
                }
            },
            "name": "read_dist_comment",
            "nullable": true,
            "section": 1,
            "sortix": 121,
            "type": "esriFieldTypeString"
        },
        {
            "alias": "Er det registrert avvik?",
            "editable": true,
            "fieldid": 70,
            "name": "deviation_Boolean",
            "nullable": false,
            "section": 1,
            "sortix": 122,
            "type": "esriFieldTypeInteger"
        },
        {
            "alias": "Kommentar avvik",
            "editable": true,
            "fieldid": 71,
            "logic": {
                "visibleIf": {
                    "field": {
                        "operator": "==",
                        "otherFieldIntValue": 1,
                        "otherFieldName": "deviation_Boolean"
                    }
                }
            },
            "name": "deviation_comment",
            "nullable": true,
            "section": 1,
            "sortix": 123,
            "type": "esriFieldTypeString"
        },
        {
            "alias": "Generell kommentar",
            "editable": true,
            "fieldid": 72,
            "name": "comment",
            "nullable": true,
            "section": 1,
            "sortix": 124,
            "type": "esriFieldTypeString"
        }
    ],
    "geometryType": "esriGeometryPoint",
    "globalIdField": "_globalId",
    "hasAttachments": false,
    "hasM": false,
    "hasZ": false,
    "htmlPopupType": "esriServerHTMLPopupTypeAsHTMLText",
    "id": 2,
    "isDataVersioned": false,
    "maxRecordCount": 100000,
    "maxScale": 0,
    "minScale": 100000,
    "name": "FTPFeltkontrollUngskogpleie",
    "objectIdField": "OBJECTID",
    "ownershipBasedAccessControlForFeatures": null,
    "relationships": [],
    "sections": [
        {
            "id": 1,
            "title": ""
        }
    ],
    "supportedQueryFormats": "JSON, AMF",
    "supportsAdvancedQueries": true,
    "supportsRollbackOnFailureParameter": true,
    "supportsStatistics": true,
    "syncCanReturnChanges": true,
    "templates": [],
    "type": "Feature Layer",
    "typeIdField": "dev_Boolean",
    "types": [
        {
            "domains": {},
            "id": "Feltkontroll",
            "name": "Feltkontroll",
            "templates": [
                {
                    "name": "FeltkontrollOngoing",
                    "prototype": {
                        "attributes": {
                            "_type": "FeltkontrollOngoing"
                        }
                    }
                },
                {
                    "name": "FeltkontrollCompleted",
                    "prototype": {
                        "attributes": {
                            "_type": "FeltkontrollCompleted"
                        }
                    }
                }
            ]
        }
    ],
    "useStandardizedQueries": true
}

