{
    "allowGeometryUpdates": true,
    "capabilities": "Create,Delete,Query,Sync,Update,Uploads,Editing",
    "copyrightText": "",
    "currentVersion": 10.22,
    "defaultVisibility": true,
    "description": "",
    "displayField": "_title",
    "drawingInfo": {
        "labelingInfo": [
            {
                "labelExpression": "[_title]",
                "labelPlacement": "esriServerPolygonPlacementAlwaysHorizontal",
                "maxScale": 0,
                "minScale": 9000,
                "symbol": {
                    "angle": 0,
                    "backgroundColor": null,
                    "borderLineColor": null,
                    "borderLineSize": null,
                    "color": [
                        0,
                        0,
                        0,
                        255
                    ],
                    "font": {
                        "decoration": "none",
                        "family": "Arial",
                        "size": 9,
                        "style": "normal",
                        "weight": "normal"
                    },
                    "haloColor": [
                        255,
                        255,
                        255,
                        127
                    ],
                    "haloSize": 20,
                    "horizontalAlignment": "center",
                    "kerning": true,
                    "rightToLeft": false,
                    "type": "esriTS",
                    "verticalAlignment": "bottom",
                    "xoffset": 0,
                    "yoffset": 0
                },
                "useCodedValues": false
            }
        ],
        "renderer": {
            "defaultLabel": null,
            "defaultSymbol": null,
            "field1": "_type",
            "field2": null,
            "field3": null,
            "fieldDelimiter": ", ",
            "note to future self": "!!! HUSK AT DETTE FELTET MÅ VÆRE EDITABLE !!!",
            "type": "uniqueValue",
            "uniqueValueInfos": [
                {
                    "description": "Planting",
                    "label": "Planting",
                    "symbol": {
                        "color": [
                            0,
                            0,
                            0,
                            0
                        ],
                        "outline": {
                            "color": [
                                255,
                                0,
                                0,
                                255
                            ],
                            "style": "esriSLSDash",
                            "type": "esriSLS",
                            "width": 3
                        },
                        "style": "esriSFSSolid",
                        "type": "esriSFS"
                    },
                    "cimSymbol": {
                        "type": "CIMSymbolReference",
                        "symbol": {
                            "type": "CIMLineSymbol",
                            "symbolLayers": [
                                {
                                    "type": "CIMSolidStroke",
                                    "enable": true,
                                    "width": 3,
                                    "color": [
                                        255,
                                        255,
                                        255,
                                        255
                                    ],
                                    "capStyle": "Round",
                                    "effects": [
                                        {
                                            "type": "CIMGeometricEffectDashes",
                                            "dashTemplate": [
                                                12,
                                                12
                                            ],
                                            "lineEnding": "HalfPattern"
                                        }
                                    ]
                                },
                                {
                                    "type": "CIMSolidStroke",
                                    "enable": true,
                                    "width": 5,
                                    "color": [
                                        255,
                                        0,
                                        0,
                                        255
                                    ]
                                }
                            ]
                        }
                    },
                    "value": "Planting"
                },
                {
                    "description": "Plantesalg inkl arbeid",
                    "label": "Plantesalg inkl arbeid",
                    "symbol": {
                        "color": [
                            0,
                            0,
                            0,
                            0
                        ],
                        "outline": {
                            "color": [
                                255,
                                255,
                                255,
                                255
                            ],
                            "style": "esriSLSDash",
                            "type": "esriSLS",
                            "width": 3
                        },
                        "style": "esriSFSSolid",
                        "type": "esriSFS"
                    },
                    "cimSymbol": {
                        "type": "CIMSymbolReference",
                        "symbol": {
                            "type": "CIMLineSymbol",
                            "symbolLayers": [
                                {
                                    "type": "CIMSolidStroke",
                                    "enable": true,
                                    "width": 3,
                                    "color": [
                                        0,
                                        255,
                                        0,
                                        255
                                    ],
                                    "capStyle": "Round",
                                    "effects": [
                                        {
                                            "type": "CIMGeometricEffectDashes",
                                            "dashTemplate": [
                                                12,
                                                12
                                            ],
                                            "lineEnding": "HalfPattern"
                                        }
                                    ]
                                },
                                {
                                    "type": "CIMSolidStroke",
                                    "enable": true,
                                    "width": 5,
                                    "color": [
                                        255,
                                        255,
                                        255,
                                        255
                                    ]
                                }
                            ]
                        }
                    },
                    "value": "PlantesalgPlanting"
                },
                {
                    "description": "Plantesalg",
                    "label": "Plantesalg",
                    "symbol": {
                        "color": [
                            0,
                            0,
                            0,
                            0
                        ],
                        "outline": {
                            "color": [
                                0,
                                0,
                                0,
                                255
                            ],
                            "style": "esriSLSDash",
                            "type": "esriSLS",
                            "width": 3
                        },
                        "style": "esriSFSSolid",
                        "type": "esriSFS"
                    },
                    "cimSymbol": {
                        "type": "CIMSymbolReference",
                        "symbol": {
                            "type": "CIMLineSymbol",
                            "symbolLayers": [
                                {
                                    "type": "CIMSolidStroke",
                                    "enable": true,
                                    "width": 3,
                                    "color": [
                                        0,
                                        255,
                                        0,
                                        255
                                    ],
                                    "capStyle": "Round",
                                    "effects": [
                                        {
                                            "type": "CIMGeometricEffectDashes",
                                            "dashTemplate": [
                                                12,
                                                12
                                            ],
                                            "lineEnding": "HalfPattern"
                                        }
                                    ]
                                },
                                {
                                    "type": "CIMSolidStroke",
                                    "enable": true,
                                    "width": 5,
                                    "color": [
                                        0,
                                        0,
                                        0,
                                        255
                                    ]
                                }
                            ]
                        }
                    },
                    "value": "Plantesalg"
                },
                {
                    "description": "",
                    "label": "styleOverride",
                    "symbol": {
                        "color": [
                            0,
                            0,
                            0,
                            0
                        ],
                        "outline": {
                            "color": [
                                0,
                                255,
                                0,
                                255
                            ],
                            "style": "esriSLSSolid",
                            "type": "esriSLS",
                            "width": 3
                        },
                        "style": "esriSFSNull",
                        "type": "esriSFS"
                    },
                    "value": "styleOverride"
                }
            ]
        }
    },
    "editFieldsInfo": null,
    "extent": {
        "spatialReference": {
            "latestWkid": 25833,
            "wkid": 25833
        },
        "xmax": 500000,
        "xmin": 0,
        "ymax": 8000000,
        "ymin": 5000000
    },
    "fieldOrder": [],
    "fields": [
        {
            "alias": "GlobalId",
            "editable": false,
            "fieldid": 1,
            "name": "_globalId",
            "nullable": false,
            "type": "esriFieldTypeString"
        },
        {
            "alias": "Opprettet",
            "editable": false,
            "fieldid": 2,
            "name": "_created_Date",
            "nullable": false,
            "type": "esriFieldTypeDouble"
        },
        {
            "alias": "Opprettet av",
            "editable": false,
            "fieldid": 3,
            "name": "_createdBy",
            "nullable": false,
            "type": "esriFieldTypeString"
        },
        {
            "alias": "Endret",
            "editable": false,
            "fieldid": 4,
            "name": "_modified_Date",
            "nullable": false,
            "type": "esriFieldTypeDouble"
        },
        {
            "alias": "Endret av",
            "editable": false,
            "fieldid": 5,
            "name": "_modifiedBy",
            "nullable": false,
            "type": "esriFieldTypeString"
        },
        {
            "alias": "Type",
            "editable": false,
            "fieldid": 6,
            "name": "_type",
            "nullable": false,
            "type": "esriFieldTypeString"
        },
        {
            "alias": "Tilhørende objekt",
            "editable": false,
            "fieldid": 35,
            "name": "_parentGlobalId",
            "nullable": false,
            "type": "esriFieldTypeString"
        },
        {
            "alias": "Tittel på tiltaket",
            "editable": false,
            "fieldid": 37,
            "name": "_title",
            "nullable": false,
            "type": "esriFieldTypeString"
        },
        {
            "alias": "Tiltaksnummer",
            "editable": false,
            "fieldid": 38,
            "name": "_number",
            "nullable": true,
            "type": "esriFieldTypeInteger"
        },
        {
            "alias": "Ordrenummer. Ett nummer per tiltakstype (dvs antall unike nummer er likt antall tiltakstyper i ordren)",
            "editable": false,
            "fieldid": 39,
            "name": "_job_nr",
            "nullable": true,
            "type": "esriFieldTypeInteger"
        },
        {
            "alias": "IO",
            "editable": false,
            "fieldid": 40,
            "name": "_headId",
            "nullable": false,
            "type": "esriFieldTypeString"
        },
        {
            "alias": "Organisasjonsnummer arbeidslag planting",
            "editable": false,
            "fieldid": 53,
            "name": "_workTeamOrgNumPL",
            "nullable": false,
            "type": "esriFieldTypeString"
        },
        {
            "alias": "Planter totalt",
            "editable": false,
            "fieldid": 20,
            "name": "_plants_total",
            "nullable": true,
            "type": "esriFieldTypeInteger"
        },
        {
            "alias": "Oppdragstype",
            "domain": {
                "codedValues": [
                    {
                        "name": "Nyplanting",
                        "value": "Nyplanting"
                    },
                    {
                        "name": "Suppleringsplanting",
                        "value": "Suppleringsplanting"
                    }
                ],
                "type": "codedValue"
            },
            "editable": true,
            "fieldid": 46,
            "logic": {
                "visibleIf": {
                    "field": {
                        "operator": "!=",
                        "otherFieldName": "_type",
                        "otherFieldStringValue": "Plantesalg"
                    }
                }
            },
            "name": "job_type",
            "nullable": false,
            "section": 2,
            "translations": [
                {
                    "key": "Oppdragstype",
                    "language": "en",
                    "value": "Assignment type"
                }
            ],
            "type": "esriFieldTypeString"
        },
        {
            "alias": "Bestandsnummer",
            "editable": true,
            "fieldid": 7,
            "logic": {
                "visibleIf": {
                    "field": {
                        "operator": "!=",
                        "otherFieldName": "_type",
                        "otherFieldStringValue": "Plantesalg"
                    }
                }
            },
            "name": "bestand",
            "nullable": true,
            "section": 2,
            "sortix": 47,
            "translations": [
                {
                    "key": "Bestandsnummer",
                    "language": "en",
                    "value": "Stand number"
                }
            ],
            "type": "esriFieldTypeInteger"
        },
        {
            "alias": "Teignavn",
            "editable": true,
            "fieldid": 8,
            "logic": {
                "visibleIf": {
                    "field": {
                        "operator": "!=",
                        "otherFieldName": "_type",
                        "otherFieldStringValue": "Plantesalg"
                    }
                }
            },
            "name": "teignavn",
            "nullable": true,
            "section": 2,
            "sortix": 48,
            "translations": [
                {
                    "key": "Teignavn",
                    "language": "en",
                    "value": "Lot name"
                }
            ],
            "type": "esriFieldTypeString"
        },
        {
            "alias": "Plannummer",
            "editable": true,
            "fieldid": 56,
            "logic": {
                "visibleIf": {
                    "field": {
                        "operator": "!=",
                        "otherFieldName": "_type",
                        "otherFieldStringValue": "Plantesalg"
                    }
                }
            },
            "name": "plannr",
            "nullable": true,
            "section": 2,
            "translations": [
                {
                    "key": "Plannummer",
                    "language": "en",
                    "value": "Plan number"
                }
            ],
            "type": "esriFieldTypeInteger"
        },
        {
            "alias": "Teignummer",
            "editable": true,
            "fieldid": 9,
            "logic": {
                "visibleIf": {
                    "field": {
                        "operator": "!=",
                        "otherFieldName": "_type",
                        "otherFieldStringValue": "Plantesalg"
                    }
                }
            },
            "name": "teignr",
            "nullable": true,
            "section": 2,
            "sortix": 57,
            "translations": [
                {
                    "key": "Teignummer",
                    "language": "en",
                    "value": "Lot number"
                }
            ],
            "type": "esriFieldTypeInteger"
        },
        {
            "alias": "Areal",
            "editable": false,
            "fieldid": 11,
            "logic": {
                "visibleIf": {
                    "field": {
                        "operator": "!=",
                        "otherFieldName": "_type",
                        "otherFieldStringValue": "Plantesalg"
                    }
                }
            },
            "name": "area",
            "nullable": true,
            "section": 2,
            "sortix": 58,
            "translations": [
                {
                    "key": "Areal",
                    "language": "en",
                    "value": "Area"
                }
            ],
            "type": "esriFieldTypeDouble"
        },
        {
            "alias": "Høyde over havet",
            "editable": false,
            "fieldid": 14,
            "logic": {
                "visibleIf": {
                    "field": {
                        "operator": "!=",
                        "otherFieldName": "_type",
                        "otherFieldStringValue": "Plantesalg"
                    }
                }
            },
            "name": "elevation",
            "nullable": true,
            "section": 2,
            "sortix": 59,
            "translations": [
                {
                    "key": "Høyde over havet",
                    "language": "en",
                    "value": "Height above sea level"
                }
            ],
            "type": "esriFieldTypeInteger"
        },
        {
            "alias": "Bonitet",
            "domain": {
                "codedValues": [
                    {
                        "name": "6",
                        "value": "6"
                    },
                    {
                        "name": "8",
                        "value": "8"
                    },
                    {
                        "name": "11",
                        "value": "11"
                    },
                    {
                        "name": "14",
                        "value": "14"
                    },
                    {
                        "name": "17",
                        "value": "17"
                    },
                    {
                        "name": "20",
                        "value": "20"
                    },
                    {
                        "name": "23",
                        "value": "23"
                    },
                    {
                        "name": "26 eller høyere",
                        "value": "26"
                    }
                ],
                "type": "codedValue"
            },
            "editable": true,
            "fieldid": 12,
            "logic": {
                "visibleIf": {
                    "field": {
                        "operator": "!=",
                        "otherFieldName": "_type",
                        "otherFieldStringValue": "Plantesalg"
                    }
                }
            },
            "name": "bonitet",
            "nullable": false,
            "section": 2,
            "sortix": 60,
            "translations": [
                {
                    "key": "Bonitet",
                    "language": "en",
                    "value": "Site quality"
                },
                {
                    "key": "26",
                    "language": "en",
                    "value": "26 or higher"
                }
            ],
            "type": "esriFieldTypeString"
        },
        {
            "alias": "Markberedt",
            "editable": true,
            "fieldid": 17,
            "logic": {
                "visibleIf": {
                    "field": {
                        "operator": "!=",
                        "otherFieldName": "_type",
                        "otherFieldStringValue": "Plantesalg"
                    }
                }
            },
            "name": "soil_preparation_Boolean",
            "nullable": false,
            "section": 2,
            "sortix": 61,
            "translations": [
                {
                    "key": "Markberedt",
                    "language": "en",
                    "value": "Soil prepared"
                }
            ],
            "type": "esriFieldTypeInteger"
        },
        {
            "alias": "Tettere planting",
            "editable": true,
            "fieldid": 18,
            "logic": {
                "visibleIf": {
                    "field": {
                        "operator": "!=",
                        "otherFieldName": "_type",
                        "otherFieldStringValue": "Plantesalg"
                    }
                }
            },
            "name": "plants_denser_Boolean",
            "nullable": false,
            "section": 2,
            "sortix": 62,
            "translations": [
                {
                    "key": "Tettere planting",
                    "language": "en",
                    "value": "Denser planting"
                }
            ],
            "type": "esriFieldTypeInteger"
        },
        {
            "alias": "Antall planter pr daa",
            "editable": true,
            "fieldid": 19,
            "logic": {
                "visibleIf": {
                    "field": {
                        "operator": "!=",
                        "otherFieldName": "_type",
                        "otherFieldStringValue": "Plantesalg"
                    }
                }
            },
            "name": "plants_per_da",
            "notes": "Du kan søke om tilskudd til tettere skogplanting som klimatiltak ved nyplanting, nyplanting etter markberedning og suppleringsplaning\n\n[Vilkår og detaljer for støtteordningen på Landbruksdirektoratets nettsider](https://www.landbruksdirektoratet.no/nb/skogbruk/ordninger-for-skogbruk/tilskudd-til-tettere-skogplanting-som-klimatiltak?openStep=a2051e73-7f33-475c-84c6-933b57ac52d5-0)",
            "nullable": false,
            "section": 2,
            "sortix": 63,
            "translations": [
                {
                    "key": "Antall planter pr daa",
                    "language": "en",
                    "value": "Number of plants per decare"
                }
            ],
            "type": "esriFieldTypeInteger"
        },
        {
            "alias": "Prosent døde planter som skal suppleres (feks 20%)",
            "editable": true,
            "fieldid": 51,
            "logic": {
                "setValue": {
                    "ifValueIs": {
                        "field": {
                            "operator": "!=",
                            "otherFieldName": "job_type",
                            "otherFieldStringValue": "Suppleringsplanting"
                        }
                    },
                    "thenSetValue": {
                        "intValue": 0
                    }
                },
                "visibleIf": {
                    "field": {
                        "operator": "==",
                        "otherFieldName": "job_type",
                        "otherFieldStringValue": "Suppleringsplanting"
                    }
                },
                "validation": {
                    "maxIntValue": 100
                }
            },
            "name": "dead_plants_perc",
            "nullable": true,
            "section": 2,
            "sortix": 64,
            "translations": [
                {
                    "key": "Prosent døde planter som skal suppleres (feks 20%)",
                    "language": "en",
                    "value": "Percentage of dead plants to be replaced (e.g., 20%)"
                }
            ],
            "type": "esriFieldTypeInteger"
        },
        {
            "alias": "Høydelag",
            "domain": {
                "codedValues": [
                    {
                        "name": "Høydelag 1: 0-149 moh",
                        "value": "1"
                    },
                    {
                        "name": "Høydelag 2: 150-249 moh",
                        "value": "2"
                    },
                    {
                        "name": "Høydelag 3: 250-349 moh",
                        "value": "3"
                    },
                    {
                        "name": "Høydelag 4: 350-449 moh",
                        "value": "4"
                    },
                    {
                        "name": "Høydelag 5: 450-549 moh",
                        "value": "5"
                    },
                    {
                        "name": "Høydelag 6: 550-649 moh",
                        "value": "6"
                    },
                    {
                        "name": "Høydelag 7: 650-749 moh",
                        "value": "7"
                    },
                    {
                        "name": "Høydelag 8: 750-849 moh",
                        "value": "8"
                    },
                    {
                        "name": "Høydelag 9: 850-949 moh",
                        "value": "9"
                    }
                ],
                "type": "codedValue"
            },
            "editable": true,
            "fieldid": 43,
            "logic": {
                "visibleIf": {
                    "field": {
                        "operator": "!=",
                        "otherFieldName": "_type",
                        "otherFieldStringValue": "Plantesalg"
                    }
                }
            },
            "name": "hoydelag",
            "nullable": false,
            "section": 2,
            "sortix": 65,
            "translations": [
                {
                    "key": "Høydelag",
                    "language": "en",
                    "value": "Elevation level"
                }
            ],
            "type": "esriFieldTypeString"
        },
        {
            "alias": "Markslag",
            "domain": {
                "codedValues": [
                    {
                        "name": "Barskog",
                        "value": "Barskog"
                    },
                    {
                        "name": "Lauvskog",
                        "value": "Lauvskog"
                    },
                    {
                        "name": "Snaumark",
                        "value": "Snaumark"
                    },
                    {
                        "name": "Fulldyrket jord",
                        "value": "Fulldyrket jord"
                    },
                    {
                        "name": "Innmarksbeite",
                        "value": "Innmarksbeite"
                    },
                    {
                        "name": "Overflatedyrket jord",
                        "value": "Overflatedyrket jord"
                    },
                    {
                        "name": "Blandingsskog",
                        "value": "Blandingsskog"
                    },
                    {
                        "name": "Myr",
                        "value": "Myr"
                    }
                ],
                "type": "codedValue"
            },
            "editable": true,
            "fieldid": 49,
            "logic": {
                "visibleIf": {
                    "field": {
                        "operator": "!=",
                        "otherFieldName": "_type",
                        "otherFieldStringValue": "Plantesalg"
                    }
                }
            },
            "name": "markslag",
            "nullable": false,
            "section": 2,
            "sortix": 66,
            "translations": [
                {
                    "key": "Markslag",
                    "language": "en",
                    "value": "Soil type"
                }
            ],
            "type": "esriFieldTypeString"
        },
        {
            "alias": "Prismodell for arbeid",
            "domain": {
                "codedValues": [
                    {
                        "name": "Per plante",
                        "value": "Per plante"
                    },
                    {
                        "name": "Timespris",
                        "value": "Timespris"
                    }
                ],
                "type": "codedValue"
            },
            "editable": true,
            "fieldid": 47,
            "logic": {
                "setValue": {
                    "ifValueIs": {
                        "field": {
                            "operator": "==",
                            "otherFieldName": "job_type",
                            "otherFieldStringValue": "Nyplanting"
                        }
                    },
                    "thenSetValue": {
                        "stringValue": "Per plante"
                    }
                },
                "visibleIf": {
                    "field": {
                        "operator": "==",
                        "otherFieldName": "job_type",
                        "otherFieldStringValue": "Suppleringsplanting"
                    }
                }
            },
            "name": "price_model",
            "nullable": false,
            "section": 2,
            "sortix": 67,
            "translations": [
                {
                    "key": "Prismodell for arbeid",
                    "language": "en",
                    "value": "Work pricing model"
                }
            ],
            "type": "esriFieldTypeString"
        },
        {
            "alias": "Kostnad for bæring av planter over 300 meter dekkes av skogeier",
            "editable": true,
            "fieldid": 600,
            "logic": {
                "visibleIf": {
                    "field": {
                        "operator": "==",
                        "otherFieldName": "_type",
                        "otherFieldStringValue": "PlantesalgPlanting"
                    }
                }
            },
            "name": "forestowner_covers_cost_for_300_m_Boolean",
            "nullable": false,
            "section": 2,
            "translations": [
                {
                    "key": "Kostnad for bæring av planter over 300 meter dekkes av skogeier",
                    "language": "en",
                    "value": "Cost for carrying plants over 300 meters is covered by the forest owner"
                }
            ],
            "type": "esriFieldTypeInteger"
        },
        {
            "alias": "Timespris bæring av planter",
            "editable": true,
            "fieldid": 601,
            "logic": {
                "visibleIf": {
                    "field": {
                        "operator": "==",
                        "otherFieldIntValue": 1,
                        "otherFieldName": "forestowner_covers_cost_for_300_m_Boolean"
                    }
                }
            },
            "name": "hour_price_to_carry_plants",
            "nullable": false,
            "section": 2,
            "translations": [
                {
                    "key": "Timespris bæring av planter",
                    "language": "en",
                    "value": "Hourly rate for carrying plants"
                }
            ],
            "type": "esriFieldTypeInteger"
        },
        {
            "alias": "Enhetspris, arbeid (eks. mva)",
            "editable": true,
            "fieldid": 48,
            "logic": {
                "visibleIf": {
                    "field": {
                        "operator": "!=",
                        "otherFieldName": "_type",
                        "otherFieldStringValue": "Plantesalg"
                    }
                }
            },
            "name": "work_price_Decimal2",
            "nullable": false,
            "section": 2,
            "sortix": 602,
            "translations": [
                {
                    "key": "Enhetspris, arbeid (eks. mva)",
                    "language": "en",
                    "value": "Unit price, work (excluding VAT)"
                }
            ],
            "type": "esriFieldTypeString"
        },
        {
            "alias": "Hentested/leveringssted planter",
            "editable": true,
            "fieldid": 22,
            "logic": {
                "visibleIf": {
                    "field": {
                        "operator": "==",
                        "otherFieldName": "_type",
                        "otherFieldStringValue": "Plantesalg"
                    }
                }
            },
            "name": "delivery_place",
            "nullable": true,
            "section": 3,
            "translations": [
                {
                    "key": "Hentested/leveringssted planter",
                    "language": "en",
                    "value": "Pickup/delivery location for plants"
                }
            ],
            "type": "esriFieldTypeString"
        },
        {
            "alias": "Ønsket starttidspunkt",
            "domain": {
                "codedValues": [
                    {
                        "name": "Høsten 2024",
                        "value": "Høsten 2024"
                    },
                    {
                        "name": "Våren 2025",
                        "value": "Våren 2025"
                    },
                    {
                        "name": "Høsten 2025",
                        "value": "Høsten 2025"
                    },
                    {
                        "name": "Våren 2026",
                        "value": "Våren 2026"
                    },
                    {
                        "name": "Høsten 2026",
                        "value": "Høsten 2026"
                    },
                    {
                        "name": "Våren 2027",
                        "value": "Våren 2027"
                    },
                    {
                        "name": "Høsten 2027",
                        "value": "Høsten 2027"
                    },
                    {
                        "name": "Våren 2028",
                        "value": "Våren 2028"
                    }
                ],
                "type": "codedValue"
            },
            "editable": true,
            "fieldid": 23,
            "name": "start",
            "nullable": false,
            "section": 3,
            "translations": [
                {
                    "key": "Ønsket starttidspunkt",
                    "language": "en",
                    "value": "Desired start time"
                }
            ],
            "type": "esriFieldTypeString"
        },
        {
            "alias": "Avstand fra parkeringsplass",
            "editable": true,
            "fieldid": 24,
            "name": "road_dist",
            "nullable": false,
            "section": 3,
            "translations": [
                {
                    "key": "Avstand fra parkeringsplass",
                    "language": "en",
                    "value": "Distance from parking lot"
                }
            ],
            "type": "esriFieldTypeInteger"
        },
        {
            "alias": "Bomveg kommentar",
            "editable": true,
            "fieldid": 25,
            "name": "keys",
            "nullable": true,
            "section": 3,
            "translations": [
                {
                    "key": "Bomveg kommentar",
                    "language": "en",
                    "value": "Toll road comment"
                }
            ],
            "type": "esriFieldTypeString"
        },
        {
            "alias": "Antall planter",
            "editable": true,
            "fieldid": 42,
            "logic": {
                "visibleIf": {
                    "field": {
                        "operator": "==",
                        "otherFieldName": "_type",
                        "otherFieldStringValue": "Plantesalg"
                    }
                }
            },
            "name": "num_plants",
            "nullable": false,
            "section": 3,
            "translations": [
                {
                    "key": "Antall planter",
                    "language": "en",
                    "value": "Number of plants"
                }
            ],
            "type": "esriFieldTypeInteger"
        },
        {
            "alias": "Kommentarer til tiltaket",
            "editable": true,
            "fieldid": 26,
            "length": 2048,
            "name": "comment",
            "nullable": true,
            "section": 3,
            "sortix": 43,
            "translations": [
                {
                    "key": "Kommentarer til tiltaket",
                    "language": "en",
                    "value": "Comments on the measure"
                }
            ],
            "type": "esriFieldTypeString"
        },
        {
            "alias": "Berører tiltaket biologisk viktig område?",
            "editable": true,
            "fieldid": 27,
            "logic": {
                "visibleIf": {
                    "field": {
                        "operator": "!=",
                        "otherFieldName": "_type",
                        "otherFieldStringValue": "Plantesalg"
                    }
                }
            },
            "name": "bio_Boolean",
            "nullable": false,
            "section": 4,
            "translations": [
                {
                    "key": "Berører tiltaket biologisk viktig område?",
                    "language": "en",
                    "value": "Does the measure affect a biologically important area?"
                }
            ],
            "type": "esriFieldTypeInteger"
        },
        {
            "alias": "Biologisk, kommentar",
            "editable": true,
            "fieldid": 28,
            "logic": {
                "visibleIf": {
                    "field": {
                        "operator": "==",
                        "otherFieldIntValue": 1,
                        "otherFieldName": "bio_Boolean"
                    }
                }
            },
            "name": "bioComment",
            "nullable": true,
            "section": 4,
            "translations": [
                {
                    "key": "Biologisk, kommentar",
                    "language": "en",
                    "value": "Biological, comment"
                }
            ],
            "type": "esriFieldTypeString"
        },
        {
            "alias": "Berører tiltaket kjent kulturminne?",
            "editable": true,
            "fieldid": 29,
            "logic": {
                "visibleIf": {
                    "field": {
                        "operator": "!=",
                        "otherFieldName": "_type",
                        "otherFieldStringValue": "Plantesalg"
                    }
                }
            },
            "name": "herit_Boolean",
            "nullable": false,
            "section": 4,
            "translations": [
                {
                    "key": "Berører tiltaket kjent kulturminne?",
                    "language": "en",
                    "value": "Does the measure affect a known cultural heritage site?"
                }
            ],
            "type": "esriFieldTypeInteger"
        },
        {
            "alias": "Kulturminne, kommentar",
            "editable": true,
            "fieldid": 30,
            "logic": {
                "visibleIf": {
                    "field": {
                        "operator": "==",
                        "otherFieldIntValue": 1,
                        "otherFieldName": "herit_Boolean"
                    }
                }
            },
            "name": "heritComment",
            "nullable": true,
            "section": 4,
            "translations": [
                {
                    "key": "Kulturminne, kommentar",
                    "language": "en",
                    "value": "Cultural heritage, comment"
                }
            ],
            "type": "esriFieldTypeString"
        },
        {
            "alias": "Berører tiltaket viktige friluftsverdier?",
            "editable": true,
            "fieldid": 31,
            "logic": {
                "visibleIf": {
                    "field": {
                        "operator": "!=",
                        "otherFieldName": "_type",
                        "otherFieldStringValue": "Plantesalg"
                    }
                }
            },
            "name": "recreational_Boolean",
            "nullable": false,
            "section": 4,
            "translations": [
                {
                    "key": "Berører tiltaket viktige friluftsverdier?",
                    "language": "en",
                    "value": "Does the measure affect important outdoor recreation values?"
                }
            ],
            "type": "esriFieldTypeInteger"
        },
        {
            "alias": "Friluftsverdier, kommentar",
            "editable": true,
            "fieldid": 32,
            "logic": {
                "visibleIf": {
                    "field": {
                        "operator": "==",
                        "otherFieldIntValue": 1,
                        "otherFieldName": "recreational_Boolean"
                    }
                }
            },
            "name": "recreationalComment",
            "nullable": true,
            "section": 4,
            "translations": [
                {
                    "key": "Friluftsverdier, kommentar",
                    "language": "en",
                    "value": "Outdoor recreation values, comment"
                }
            ],
            "type": "esriFieldTypeString"
        },
        {
            "alias": "Kantsone?",
            "editable": true,
            "fieldid": 33,
            "logic": {
                "visibleIf": {
                    "field": {
                        "operator": "!=",
                        "otherFieldName": "_type",
                        "otherFieldStringValue": "Plantesalg"
                    }
                }
            },
            "name": "bufferZone_Boolean",
            "nullable": false,
            "section": 4,
            "translations": [
                {
                    "key": "Kantsone?",
                    "language": "en",
                    "value": "Riparian zone?"
                }
            ],
            "type": "esriFieldTypeInteger"
        },
        {
            "alias": "Kantsone, kommentar",
            "editable": true,
            "fieldid": 34,
            "logic": {
                "visibleIf": {
                    "field": {
                        "operator": "==",
                        "otherFieldIntValue": 1,
                        "otherFieldName": "bufferZone_Boolean"
                    }
                }
            },
            "name": "bufferZoneComment",
            "nullable": true,
            "section": 4,
            "translations": [
                {
                    "key": "Kantsone, kommentar",
                    "language": "en",
                    "value": "Riparian zone, comment"
                }
            ],
            "type": "esriFieldTypeString"
        },
        {
            "alias": "Pris per plante (eks. mva)",
            "editable": true,
            "fieldid": 21,
            "logic": {
                "visibleIf": {
                    "field": {
                        "operator": "!=",
                        "otherFieldName": "_type",
                        "otherFieldStringValue": "Planting"
                    }
                }
            },
            "name": "plant_price_Decimal2",
            "nullable": false,
            "section": 5,
            "translations": [
                {
                    "key": "Pris per plante (eks. mva)",
                    "language": "en",
                    "value": "Price per plant (excluding VAT)"
                }
            ],
            "type": "esriFieldTypeString"
        },
        {
            "alias": "Treslag",
            "domain": {
                "codedValues": [
                    {
                        "name": "Gran",
                        "value": "Gran"
                    },
                    {
                        "name": "Furu",
                        "value": "Furu"
                    },
                    {
                        "name": "Bjørk",
                        "value": "Bjørk"
                    },
                    {
                        "name": "Svartor",
                        "value": "Svartor"
                    },
                    {
                        "name": "Lerk",
                        "value": "Lerk"
                    },
                    {
                        "name": "Sitka",
                        "value": "Sitka"
                    }
                ],
                "type": "codedValue"
            },
            "editable": true,
            "fieldid": 10,
            "logic": {
                "visibleIf": {
                    "field": {
                        "operator": "!=",
                        "otherFieldName": "_type",
                        "otherFieldStringValue": "Planting"
                    }
                }
            },
            "name": "tree_kind",
            "nullable": false,
            "section": 5,
            "sortix": 22,
            "translations": [
                {
                    "key": "Treslag",
                    "language": "en",
                    "value": "Tree kind"
                }
            ],
            "type": "esriFieldTypeString"
        },
        {
            "alias": "Plantetype gran",
            "domain": {
                "suggestedValues": [
                    {
                        "name": "M60",
                        "value": "M60"
                    },
                    {
                        "name": "M95",
                        "value": "M95"
                    }
                ],
                "type": "codedValue"
            },
            "editable": true,
            "fieldid": 13,
            "logic": {
                "setValue": {
                    "ifValueIs": {
                        "field": {
                            "operator": "!=",
                            "otherFieldName": "tree_kind",
                            "otherFieldStringValue": "Gran"
                        }
                    },
                    "thenSetValue": {
                        "stringValue": ""
                    }
                },
                "visibleIf": {
                    "allOf": [
                        {
                            "field": {
                                "operator": "contains",
                                "otherFieldName": "tree_kind",
                                "otherFieldStringValue": "Gran"
                            }
                        },
                        {
                            "field": {
                                "operator": "!=",
                                "otherFieldName": "_type",
                                "otherFieldStringValue": "Planting"
                            }
                        }
                    ]
                }
            },
            "name": "plant_type",
            "nullable": true,
            "section": 5,
            "sortix": 23,
            "translations": [
                {
                    "key": "Plantetype gran",
                    "language": "en",
                    "value": "Plant type spruce"
                }
            ],
            "type": "esriFieldTypeString"
        },
        {
            "alias": "Plantetype, kommentar",
            "editable": true,
            "fieldid": 44,
            "logic": {
                "visibleIf": {
                    "field": {
                        "operator": "!=",
                        "otherFieldName": "_type",
                        "otherFieldStringValue": "Planting"
                    }
                }
            },
            "name": "plant_type_comment",
            "nullable": true,
            "section": 5,
            "translations": [
                {
                    "key": "Plantetype, kommentar",
                    "language": "en",
                    "value": "Plant type, comment"
                }
            ],
            "type": "esriFieldTypeString"
        },
        {
            "alias": "Proveniens",
            "editable": true,
            "fieldid": 54,
            "logic": {
                "visibleIf": {
                    "field": {
                        "operator": "!=",
                        "otherFieldName": "_type",
                        "otherFieldStringValue": "Planting"
                    }
                }
            },
            "name": "proveniens",
            "nullable": true,
            "section": 5,
            "translations": [
                {
                    "key": "Proveniens",
                    "language": "en",
                    "value": "Provenance"
                }
            ],
            "type": "esriFieldTypeString"
        },
        {
            "alias": "Behandling",
            "domain": {
                "codedValues": [
                    {
                        "name": "Voks",
                        "value": "Voks"
                    },
                    {
                        "name": "Kjemisk",
                        "value": "Kjemisk"
                    },
                    {
                        "name": "Conniflex",
                        "value": "Conniflex"
                    },
                    {
                        "name": "Woodcoat",
                        "value": "Woodcoat"
                    },
                    {
                        "name": "Ingen",
                        "value": "Ingen"
                    }
                ],
                "type": "codedValue"
            },
            "editable": true,
            "fieldid": 16,
            "logic": {
                "visibleIf": {
                    "field": {
                        "operator": "!=",
                        "otherFieldName": "_type",
                        "otherFieldStringValue": "Planting"
                    }
                }
            },
            "name": "plant_treatment",
            "nullable": false,
            "section": 5,
            "sortix": 55,
            "translations": [
                {
                    "key": "Behandling",
                    "language": "en",
                    "value": "Treatment"
                }
            ],
            "type": "esriFieldTypeString"
        },
        {
            "alias": "Behandling, kommentar",
            "editable": true,
            "fieldid": 45,
            "logic": {
                "visibleIf": {
                    "field": {
                        "operator": "!=",
                        "otherFieldName": "_type",
                        "otherFieldStringValue": "Planting"
                    }
                }
            },
            "name": "plant_treatment_comment",
            "nullable": true,
            "section": 5,
            "sortix": 56,
            "translations": [
                {
                    "key": "Behandling, kommentar",
                    "language": "en",
                    "value": "Treatment, comment"
                }
            ],
            "type": "esriFieldTypeString"
        },
        {
            "alias": "Prosentfordeling plantetype 1",
            "editable": true,
            "fieldid": 69,
            "logic": {
                "visibleIf": {
                    "allOf": [
                        {
                            "field": {
                                "operator": "!=",
                                "otherFieldName": "_type",
                                "otherFieldStringValue": "Planting"
                            }
                        },
                        {
                            "field": {
                                "operator": "exists",
                                "otherFieldName": "tree_kind_2"
                            }
                        }
                    ]
                }
            },
            "name": "plant_type_1_percent",
            "nullable": true,
            "section": 5,
            "translations": [
                {
                    "key": "Prosentfordeling plantetype 1",
                    "language": "en",
                    "value": "Percentage distribution of plant type 1"
                }
            ],
            "type": "esriFieldTypeInteger"
        },
        {
            "alias": "Pris per plante (eks. mva)",
            "editable": true,
            "fieldid": 60,
            "logic": {
                "visibleIf": {
                    "allOf": [
                        {
                            "field": {
                                "operator": "!=",
                                "otherFieldName": "_type",
                                "otherFieldStringValue": "Planting"
                            }
                        },
                        {
                            "field": {
                                "operator": "exists",
                                "otherFieldName": "tree_kind"
                            }
                        },
                        {
                            "field": {
                                "operator": "exists",
                                "otherFieldName": "tree_kind_2"
                            }
                        }
                    ]
                }
            },
            "name": "plant_price_2_Decimal2",
            "nullable": false,
            "section": 6,
            "translations": [
                {
                    "key": "Pris per plante (eks. mva)",
                    "language": "en",
                    "value": "Price per plant (excluding VAT)"
                }
            ],
            "type": "esriFieldTypeString"
        },
        {
            "alias": "Treslag",
            "domain": {
                "codedValues": [
                    {
                        "name": "Gran",
                        "value": "Gran"
                    },
                    {
                        "name": "Furu",
                        "value": "Furu"
                    },
                    {
                        "name": "Bjørk",
                        "value": "Bjørk"
                    },
                    {
                        "name": "Svartor",
                        "value": "Svartor"
                    },
                    {
                        "name": "Lerk",
                        "value": "Lerk"
                    },
                    {
                        "name": "Sitka",
                        "value": "Sitka"
                    }
                ],
                "type": "codedValue"
            },
            "editable": true,
            "fieldid": 67,
            "logic": {
                "visibleIf": {
                    "allOf": [
                        {
                            "field": {
                                "operator": "!=",
                                "otherFieldName": "_type",
                                "otherFieldStringValue": "Planting"
                            }
                        },
                        {
                            "field": {
                                "operator": "exists",
                                "otherFieldName": "tree_kind"
                            }
                        }
                    ]
                }
            },
            "name": "tree_kind_2",
            "nullable": true,
            "section": 6,
            "translations": [
                {
                    "key": "Treslag",
                    "language": "en",
                    "value": "Tree kind"
                }
            ],
            "type": "esriFieldTypeString"
        },
        {
            "alias": "Plantetype gran",
            "domain": {
                "suggestedValues": [
                    {
                        "name": "M60",
                        "value": "M60"
                    },
                    {
                        "name": "M95",
                        "value": "M95"
                    }
                ],
                "type": "codedValue"
            },
            "editable": true,
            "fieldid": 61,
            "logic": {
                "setValue": {
                    "ifValueIs": {
                        "field": {
                            "operator": "!=",
                            "otherFieldName": "tree_kind_2",
                            "otherFieldStringValue": "Gran"
                        }
                    },
                    "thenSetValue": {
                        "stringValue": ""
                    }
                },
                "visibleIf": {
                    "allOf": [
                        {
                            "field": {
                                "operator": "contains",
                                "otherFieldName": "tree_kind_2",
                                "otherFieldStringValue": "Gran"
                            }
                        },
                        {
                            "field": {
                                "operator": "!=",
                                "otherFieldName": "_type",
                                "otherFieldStringValue": "Planting"
                            }
                        },
                        {
                            "field": {
                                "operator": "exists",
                                "otherFieldName": "tree_kind"
                            }
                        }
                    ]
                }
            },
            "name": "plant_type_2",
            "nullable": true,
            "section": 6,
            "sortix": 68,
            "translations": [
                {
                    "key": "Plantetype gran",
                    "language": "en",
                    "value": "Plant type spruce"
                }
            ],
            "type": "esriFieldTypeString"
        },
        {
            "alias": "Plantetype, kommentar",
            "editable": true,
            "fieldid": 62,
            "logic": {
                "visibleIf": {
                    "allOf": [
                        {
                            "field": {
                                "operator": "!=",
                                "otherFieldName": "_type",
                                "otherFieldStringValue": "Planting"
                            }
                        },
                        {
                            "field": {
                                "operator": "exists",
                                "otherFieldName": "tree_kind"
                            }
                        },
                        {
                            "field": {
                                "operator": "exists",
                                "otherFieldName": "tree_kind_2"
                            }
                        }
                    ]
                }
            },
            "name": "plant_type_comment_2",
            "nullable": true,
            "section": 6,
            "sortix": 69,
            "translations": [
                {
                    "key": "Plantetype, kommentar",
                    "language": "en",
                    "value": "Plant type, comment"
                }
            ],
            "type": "esriFieldTypeString"
        },
        {
            "alias": "Proveniens",
            "editable": true,
            "fieldid": 65,
            "logic": {
                "visibleIf": {
                    "allOf": [
                        {
                            "field": {
                                "operator": "!=",
                                "otherFieldName": "_type",
                                "otherFieldStringValue": "Planting"
                            }
                        },
                        {
                            "field": {
                                "operator": "exists",
                                "otherFieldName": "tree_kind"
                            }
                        },
                        {
                            "field": {
                                "operator": "exists",
                                "otherFieldName": "tree_kind_2"
                            }
                        }
                    ]
                }
            },
            "name": "proveniens_2",
            "nullable": true,
            "section": 6,
            "sortix": 70,
            "translations": [
                {
                    "key": "Proveniens",
                    "language": "en",
                    "value": "Provenance"
                }
            ],
            "type": "esriFieldTypeString"
        },
        {
            "alias": "Behandling",
            "domain": {
                "codedValues": [
                    {
                        "name": "Voks",
                        "value": "Voks"
                    },
                    {
                        "name": "Kjemisk",
                        "value": "Kjemisk"
                    },
                    {
                        "name": "Conniflex",
                        "value": "Conniflex"
                    },
                    {
                        "name": "Woodcoat",
                        "value": "Woodcoat"
                    },
                    {
                        "name": "Ingen",
                        "value": "Ingen"
                    }
                ],
                "type": "codedValue"
            },
            "editable": true,
            "fieldid": 63,
            "logic": {
                "visibleIf": {
                    "allOf": [
                        {
                            "field": {
                                "operator": "!=",
                                "otherFieldName": "_type",
                                "otherFieldStringValue": "Planting"
                            }
                        },
                        {
                            "field": {
                                "operator": "exists",
                                "otherFieldName": "tree_kind"
                            }
                        },
                        {
                            "field": {
                                "operator": "exists",
                                "otherFieldName": "tree_kind_2"
                            }
                        }
                    ]
                }
            },
            "name": "plant_treatment_2",
            "nullable": false,
            "section": 6,
            "sortix": 71,
            "translations": [
                {
                    "key": "Behandling",
                    "language": "en",
                    "value": "Treatment"
                }
            ],
            "type": "esriFieldTypeString"
        },
        {
            "alias": "Behandling, kommentar",
            "editable": true,
            "fieldid": 64,
            "logic": {
                "visibleIf": {
                    "allOf": [
                        {
                            "field": {
                                "operator": "!=",
                                "otherFieldName": "_type",
                                "otherFieldStringValue": "Planting"
                            }
                        },
                        {
                            "field": {
                                "operator": "exists",
                                "otherFieldName": "tree_kind"
                            }
                        },
                        {
                            "field": {
                                "operator": "exists",
                                "otherFieldName": "tree_kind_2"
                            }
                        }
                    ]
                }
            },
            "name": "plant_treatment_comment_2",
            "nullable": true,
            "section": 6,
            "sortix": 72,
            "translations": [
                {
                    "key": "Behandling, kommentar",
                    "language": "en",
                    "value": "Treatment, comment"
                }
            ],
            "type": "esriFieldTypeString"
        },
        {
            "alias": "Prosentfordeling plantetype 2",
            "editable": true,
            "fieldid": 68,
            "logic": {
                "visibleIf": {
                    "allOf": [
                        {
                            "field": {
                                "operator": "!=",
                                "otherFieldName": "_type",
                                "otherFieldStringValue": "Planting"
                            }
                        },
                        {
                            "field": {
                                "operator": "exists",
                                "otherFieldName": "tree_kind"
                            }
                        },
                        {
                            "field": {
                                "operator": "exists",
                                "otherFieldName": "tree_kind_2"
                            }
                        }
                    ]
                }
            },
            "name": "plant_type_2_percent",
            "nullable": true,
            "section": 6,
            "sortix": 73,
            "translations": [
                {
                    "key": "Prosentfordeling plantetype 2",
                    "language": "en",
                    "value": "Percentage distribution of plant type 2"
                }
            ],
            "type": "esriFieldTypeInteger"
        },
        {
            "alias": "Kommentar til avtale med skogeier",
            "editable": true,
            "fieldid": 55,
            "name": "forestOwnerComment",
            "nullable": true,
            "section": 7,
            "translations": [
                {
                    "key": "Kommentar til avtale med skogeier",
                    "language": "en",
                    "value": "Comment on agreement with forest owner"
                }
            ],
            "type": "esriFieldTypeString"
        }
    ],
    "geometryType": "esriGeometryPolygon",
    "globalIdField": "_globalId",
    "hasAttachments": false,
    "hasM": false,
    "hasZ": false,
    "htmlPopupType": "esriServerHTMLPopupTypeAsHTMLText",
    "id": 2,
    "isDataVersioned": false,
    "maxRecordCount": 100000,
    "maxScale": 0,
    "minScale": 100000,
    "name": "FTPPlantingGeom",
    "objectIdField": "OBJECTID",
    "ownershipBasedAccessControlForFeatures": null,
    "relationships": [],
    "sections": [
        {
            "id": 1,
            "title": "[Info om planting](https://skogkurs.no/wp-content/uploads/planting.pdf)\n\n"
        },
        {
            "id": 2,
            "title": "Generelt"
        },
        {
            "id": 3,
            "title": "Arbeidsinstruks"
        },
        {
            "id": 4,
            "title": "Miljø"
        },
        {
            "id": 5,
            "title": "Plantetype 1"
        },
        {
            "id": 6,
            "title": "Plantetype 2"
        },
        {
            "id": 7,
            "title": ""
        }
    ],
    "supportedQueryFormats": "JSON, AMF",
    "supportsAdvancedQueries": true,
    "supportsRollbackOnFailureParameter": true,
    "supportsStatistics": true,
    "syncCanReturnChanges": true,
    "templates": [],
    "translations": [
        {
            "key": "[Info om planting](https://skogkurs.no/wp-content/uploads/planting.pdf)\n\n",
            "language": "en",
            "value": "[Information on Planting](https://skogkurs.no/wp-content/uploads/planting.pdf)\n\n"
        },
        {
            "key": "Generelt",
            "language": "en",
            "value": "General"
        },
        {
            "key": "Arbeidsinstruks",
            "language": "en",
            "value": "Work order"
        },
        {
            "key": "Miljø",
            "language": "en",
            "value": "Environment"
        },
        {
            "key": "Plantetype 1",
            "language": "en",
            "value": "Plant type 1"
        },
        {
            "key": "Plantetype 2",
            "language": "en",
            "value": "Plant type 2"
        }
    ],
    "type": "Feature Layer",
    "typeIdField": "_type",
    "types": [
        {
            "domains": {},
            "id": "Planting",
            "name": "Planting",
            "templates": [
                {
                    "description": "Plantearbeid",
                    "drawingTool": "esriFeatureEditToolPolygon",
                    "name": "Planting",
                    "prototype": {
                        "attributes": {
                            "_type": "Planting"
                        }
                    }
                },
                {
                    "description": "Plantesalg",
                    "drawingTool": "esriFeatureEditToolNone",
                    "name": "Plantesalg",
                    "prototype": {
                        "attributes": {
                            "_type": "Plantesalg"
                        }
                    }
                },
                {
                    "description": "Plantesalg inkl arbeid",
                    "drawingTool": "esriFeatureEditToolPolygon",
                    "name": "PlantesalgPlanting",
                    "prototype": {
                        "attributes": {
                            "_type": "PlantesalgPlanting"
                        }
                    }
                }
            ]
        }
    ],
    "useStandardizedQueries": true
}

