{
    "allowGeometryUpdates": true,
    "capabilities": "Create,Delete,Query,Sync,Update,Uploads,Editing",
    "copyrightText": "",
    "currentVersion": 10.22,
    "defaultVisibility": true,
    "description": "",
    "displayField": "name",
    "drawingInfo": null,
    "editFieldsInfo": null,
    "extent": {
        "spatialReference": {
            "latestWkid": 25833,
            "wkid": 25833
        },
        "xmax": 449078.5729,
        "xmin": 22145.20600000024,
        "ymax": 7182411.7896,
        "ymin": 6488287.4629999995
    },
    "fieldOrder": [],
    "fields": [
        {
            "alias": "HeadID",
            "editable": false,
            "fieldid": 0,
            "name": "_headId",
            "nullable": false,
            "type": "esriFieldTypeString"
        },
        {
            "alias": "Opprettet",
            "editable": false,
            "fieldid": 1,
            "name": "_created_Date",
            "nullable": false,
            "type": "esriFieldTypeDouble"
        },
        {
            "alias": "Opprettet av",
            "editable": false,
            "fieldid": 2,
            "name": "_createdBy",
            "nullable": false,
            "type": "esriFieldTypeString"
        },
        {
            "alias": "Endret",
            "editable": false,
            "fieldid": 3,
            "name": "_modified_Date",
            "nullable": false,
            "type": "esriFieldTypeDouble"
        },
        {
            "alias": "Endret av",
            "editable": false,
            "fieldid": 4,
            "name": "_modifiedBy",
            "nullable": false,
            "type": "esriFieldTypeString"
        },
        {
            "alias": "Contractor Order Id",
            "editable": false,
            "fieldid": 5,
            "name": "_orderId",
            "nullable": true,
            "type": "esriFieldTypeString"
        },
        {
            "alias": "Service Order Id",
            "editable": false,
            "fieldid": 6,
            "name": "_serviceOrderId",
            "nullable": true,
            "type": "esriFieldTypeString"
        },
        {
            "alias": "Hvilken type foryngelse er avtalt med skogeier?",
            "domain": {
                "name": "Alternativer",
                "suggestedValues": [
                    {
                        "name": "Planting",
                        "value": "Planting"
                    },
                    {
                        "name": "Naturlig foryngelse",
                        "value": "Naturlig foryngelse"
                    },
                    {
                        "name": "Ingenting",
                        "value": "Ingenting"
                    }
                ],
                "type": "codedValue"
            },
            "editable": true,
            "fieldid": 7,
            "name": "foryngelse",
            "notes": "Ved planlegging av hogst skal foryngelsesmetode og behovet for markberedning vurderes. Valget skal dokumenteres.",
            "nullable": false,
            "sortix": 10,
            "type": "esriFieldTypeString"
        },
        {
            "alias": "Hvis naturlig foryngelse: Er gjensatte frøtrær av tilstrekkelig kvalitet og rett antall?",
            "domain": {
                "name": "Alternativer",
                "suggestedValues": [
                    {
                        "name": "Ja",
                        "preferred": true,
                        "value": "Ja"
                    },
                    {
                        "name": "Nei",
                        "value": "Nei"
                    }
                ],
                "type": "codedValue"
            },
            "editable": true,
            "fieldid": 8,
            "logic": {
                "visibleIf": {
                    "field": {
                        "operator": "==",
                        "otherFieldName": "foryngelse",
                        "otherFieldStringValue": "Naturlig foryngelse"
                    }
                }
            },
            "name": "naturligforyngelseok",
            "notes": "Det skal minimum stå igjen minimum 3 trær per dekar, opp mot 15 trær per dekar avhengig av bonitet og tilgang til frø. Trær skal være stormsterke og av god kvalitet. Unngå å sette igjen 'varger'.",
            "nullable": false,
            "sortix": 20,
            "type": "esriFieldTypeString"
        },
        {
            "alias": "Er planting gjennomført?",
            "domain": {
                "name": "Alternativer",
                "suggestedValues": [
                    {
                        "name": "Ja",
                        "preferred": true,
                        "value": "Ja"
                    },
                    {
                        "name": "Nei",
                        "value": "Nei"
                    }
                ]
            },
            "editable": true,
            "fieldid": 9,
            "logic": {
                "visibleIf": {
                    "field": {
                        "operator": "==",
                        "otherFieldName": "foryngelse",
                        "otherFieldStringValue": "Planting"
                    }
                }
            },
            "name": "planting_gj",
            "notes": "På arealer der en har planlagt planting eller såing etter hogst, skal det plantes eller såes så snart det er forsvarlig og praktisk mulig og senest innen 3 år, gitt at det ikke er gitt dispensasjon fra myndighetene.",
            "nullable": false,
            "sortix": 30,
            "type": "esriFieldTypeString"
        },
        {
            "alias": "Er planting gjennomført på en tilfredsstillende måte? ",
            "domain": {
                "name": "Alternativer",
                "suggestedValues": [
                    {
                        "name": "Ja",
                        "preferred": true,
                        "value": "Ja"
                    },
                    {
                        "name": "Nei",
                        "value": "Nei"
                    }
                ],
                "type": "codedValue"
            },
            "editable": true,
            "fieldid": 10,
            "logic": {
                "visibleIf": {
                    "field": {
                        "operator": "==",
                        "otherFieldName": "planting_gj",
                        "otherFieldStringValue": "Ja"
                    }
                }
            },
            "name": "planting_ok",
            "notes": "",
            "nullable": false,
            "sortix": 40,
            "type": "esriFieldTypeString"
        },
        {
            "alias": "Er antall og kvalitet på livsløpstrær iht. gjeldende krav?",
            "domain": {
                "name": "Alternativer",
                "suggestedValues": [
                    {
                        "name": "Ja",
                        "preferred": true,
                        "value": "Ja"
                    },
                    {
                        "name": "Nei",
                        "value": "Nei"
                    },
                    {
                        "name": "Ikke relevant",
                        "value": "Ikke relevant"
                    }
                ],
                "type": "codedValue"
            },
            "editable": true,
            "fieldid": 11,
            "name": "livslopstraer",
            "notes": "Livløpstrær som står i gruppe skal være minst 20cm i brysthøydediameter for å kunne telle med. Enkeltstående livsløpstrær skal skal være blant de eldste i bestandet og holde minst 25 cm i brysthøyde.",
            "nullable": false,
            "sortix": 50,
            "type": "esriFieldTypeString"
        },
        {
            "alias": "Er livsløpstrær kartfestet?",
            "domain": {
                "name": "Alternativer",
                "suggestedValues": [
                    {
                        "name": "Ja",
                        "preferred": true,
                        "value": "Ja"
                    },
                    {
                        "name": "Nei",
                        "value": "Nei"
                    },
                    {
                        "name": "Ikke relevant",
                        "value": "Ikke relevant"
                    }
                ],
                "type": "codedValue"
            },
            "editable": true,
            "fieldid": 12,
            "name": "llt_kartfestet",
            "notes": "Alle livsløpstrær skal kartfestes, enten som enkelt-tre eller gruppe.",
            "nullable": false,
            "sortix": 60,
            "type": "esriFieldTypeString"
        },
        {
            "alias": "Er basveier anlagt slik at man best mulig unngår kjøreskader?",
            "domain": {
                "name": "Alternativer",
                "suggestedValues": [
                    {
                        "name": "Ja",
                        "preferred": true,
                        "value": "Ja"
                    },
                    {
                        "name": "Nei",
                        "value": "Nei"
                    }
                ],
                "type": "codedValue"
            },
            "editable": true,
            "fieldid": 13,
            "name": "basveier",
            "notes": "Er basvei anlagt hensiktmessig og med tilstrekkelig hensyn til å forebygge kjøreskader/unngå  bæresvake områder?",
            "nullable": false,
            "sortix": 70,
            "type": "esriFieldTypeString"
        },
        {
            "alias": "Er det gjort forebyggende tiltak for å redusere kjøreskader?",
            "domain": {
                "name": "Alternativer",
                "suggestedValues": [
                    {
                        "name": "Ja",
                        "preferred": true,
                        "value": "Ja"
                    },
                    {
                        "name": "Nei",
                        "value": "Nei"
                    }
                ],
                "type": "codedValue"
            },
            "editable": true,
            "fieldid": 14,
            "name": "forb_kjoresk",
            "notes": "Forebyggende tiltak kan bla. Være stokklegging, klopper over bekk, midlertidig bru etc.",
            "nullable": false,
            "sortix": 80,
            "type": "esriFieldTypeString"
        },
        {
            "alias": "Er kjøreskader med behov for oppretting kartfestet og dokumentert?",
            "domain": {
                "name": "Alternativer",
                "suggestedValues": [
                    {
                        "name": "Ja",
                        "preferred": true,
                        "value": "Ja"
                    },
                    {
                        "name": "Nei",
                        "value": "Nei"
                    },
                    {
                        "name": "Ikke relevant",
                        "value": "Ikke relevant"
                    }
                ],
                "type": "codedValue"
            },
            "editable": true,
            "fieldid": 15,
            "name": "kjøreskader_dok",
            "notes": "Kjøreskader skal kartfestes og utbedres i løpet av samme barmarkesesong som driften pågikk, eller senest 9 måneder etter at driften er avsluttet. Hjulspor som forårsaker vannavrenning og erosjon, kjøreskader i stier og løyper, og andre vesentlige skader skal utbedres så snart fuktighetsforholdene gjør det praktisk mulig etter avsluttet bruk av basveien.",
            "nullable": false,
            "sortix": 90,
            "type": "esriFieldTypeString"
        },
        {
            "alias": "Ved hogst inn mot biologisk viktig område, er denne tilfredstillende gjennomført?",
            "domain": {
                "name": "Alternativer",
                "suggestedValues": [
                    {
                        "name": "Ja",
                        "preferred": true,
                        "value": "Ja"
                    },
                    {
                        "name": "Nei",
                        "value": "Nei"
                    },
                    {
                        "name": "Ikke relevant",
                        "value": "Ikke relevant"
                    }
                ],
                "type": "codedValue"
            },
            "editable": true,
            "fieldid": 16,
            "name": "bio_ok",
            "notes": "Veg hogst i nærheten av nøkkelbiotop, forekomst av viktig rødlisteart, viktig viltbiotop, naturtype eller naturreservat/verneområde må avgrensning av hogstfeltmot denne type område gjøres på en slik måte at en unngår feilhogst.",
            "nullable": false,
            "sortix": 100,
            "type": "esriFieldTypeString"
        },
        {
            "alias": "Er det tatt tilfredstillende hensyn til kantsone/vegetasjonsbelte?",
            "domain": {
                "name": "Alternativer",
                "suggestedValues": [
                    {
                        "name": "Ja",
                        "preferred": true,
                        "value": "Ja"
                    },
                    {
                        "name": "Nei",
                        "value": "Nei"
                    },
                    {
                        "name": "Ikke relevant",
                        "value": "Ikke relevant"
                    }
                ],
                "type": "codedValue"
            },
            "editable": true,
            "fieldid": 17,
            "name": "hensyn_kantsone",
            "notes": "Krav til kantsone mot myrer > 2 dekar og vann/vassdrag med helårs vannføring. Bredde på kantsone skal justeres etter skogtype, og skal i snitt være 12,5 meter bred. Ved bekker under 2 meter i bredde skal gjenstående kantsone være i snitt 5 meter bred. Hogst av kantsone mot vassdrag/bekk med helårs vannføring må godkjennes av miljøavdelingen hos Statsforvalteren.",
            "nullable": false,
            "sortix": 110,
            "type": "esriFieldTypeString"
        },
        {
            "alias": "Gjennomsnittlig bredde på gjensatt kantsone: ",
            "editable": true,
            "fieldid": 18,
            "logic": {
                "visibleIf": {
                    "field": {
                        "operator": "!=",
                        "otherFieldName": "hensyn_kantsone",
                        "otherFieldStringValue": "Ikke relevant"
                    }
                }
            },
            "name": "kantsone_bredde",
            "notes": "",
            "nullable": false,
            "sortix": 120,
            "type": "esriFieldTypeInteger"
        },
        {
            "alias": "Ved lukket hogst og tynning - er skadeomfanget på gjenstående trær tilfredstillende?",
            "domain": {
                "name": "Alternativer",
                "suggestedValues": [
                    {
                        "name": "Ja",
                        "preferred": true,
                        "value": "Ja"
                    },
                    {
                        "name": "Nei",
                        "value": "Nei"
                    },
                    {
                        "name": "Ikke relevant",
                        "value": "Ikke relevant"
                    }
                ],
                "type": "codedValue"
            },
            "editable": true,
            "fieldid": 19,
            "name": "skadeomfang_ok",
            "notes": "Trær med blottlagt ved, eller avrevet vedfiber på stamme, rothals og rot registreres. Totalt antall skadde trær bør ikke overstige 5% av treantallet etter tynning.",
            "nullable": false,
            "sortix": 130,
            "type": "esriFieldTypeString"
        },
        {
            "alias": "Er kulturminner hensyntatt?",
            "domain": {
                "name": "Alternativer",
                "suggestedValues": [
                    {
                        "name": "Ja",
                        "preferred": true,
                        "value": "Ja"
                    },
                    {
                        "name": "Nei",
                        "value": "Nei"
                    },
                    {
                        "name": "Ikke relevant",
                        "value": "Ikke relevant"
                    }
                ],
                "type": "codedValue"
            },
            "editable": true,
            "fieldid": 20,
            "name": "kulturminner_ok",
            "notes": "",
            "nullable": false,
            "sortix": 140,
            "type": "esriFieldTypeString"
        },
        {
            "alias": "Er spesielle hensyn til frilufstliv hensyntatt?",
            "domain": {
                "name": "Alternativer",
                "suggestedValues": [
                    {
                        "name": "Ja",
                        "preferred": true,
                        "value": "Ja"
                    },
                    {
                        "name": "Nei",
                        "value": "Nei"
                    },
                    {
                        "name": "Ikke relevant",
                        "value": "Ikke relevant"
                    }
                ],
                "type": "codedValue"
            },
            "editable": true,
            "fieldid": 21,
            "name": "friluftsliv_ok",
            "notes": "Automatisk fredede kulturminner skal merkes i felt. Det er ikke lov å kjøre nærmere kulturminner enn 5 m fra kanten av kulturminnet. Det skal heller ikke plantes nærmere enn 5 meter fra kulturminnet.",
            "nullable": false,
            "sortix": 150,
            "type": "esriFieldTypeString"
        },
        {
            "alias": "Er det samsvar mellom maskinførers egenkontroll og faktiske forhold i driftsområdet?",
            "domain": {
                "name": "Alternativer",
                "suggestedValues": [
                    {
                        "name": "Ja",
                        "preferred": true,
                        "value": "Ja"
                    },
                    {
                        "name": "Nei",
                        "value": "Nei"
                    }
                ],
                "type": "codedValue"
            },
            "editable": true,
            "fieldid": 22,
            "name": "samsvar_egenkontroll",
            "notes": "Dersom maskinføreres egenkontroll avviker fra de faktiske forhold i driftsområdet på ett eller flere punkter skal dette tas opp med maskinfører og rapporteres til miljøansvarlig som et avvik.",
            "nullable": false,
            "sortix": 160,
            "type": "esriFieldTypeString"
        },
        {
            "alias": "Har maskinfører eller driftsansvarlig registrert avvik på denne drifta?",
            "domain": {
                "name": "Alternativer",
                "suggestedValues": [
                    {
                        "name": "Ja",
                        "value": "Ja"
                    },
                    {
                        "name": "Nei",
                        "preferred": true,
                        "value": "Nei"
                    }
                ],
                "type": "codedValue"
            },
            "editable": true,
            "fieldid": 23,
            "name": "avvik_drift",
            "nullable": false,
            "sortix": 170,
            "type": "esriFieldTypeString"
        },
        {
            "alias": "Maskinfelt som beregner sjekker alle feltene for avvik",
            "editable": false,
            "fieldid": 24,
            "logic": {
                "setValue": {
                    "elseSetValue": {
                        "stringValue": "Nei"
                    },
                    "ifValueIs": {
                        "anyOf": [
                            {
                                "allOf": [
                                    {
                                        "field": {
                                            "operator": "!=",
                                            "otherFieldName": "naturligforyngelseok",
                                            "otherFieldStringValue": "Ja"
                                        }
                                    },
                                    {
                                        "field": {
                                            "operator": "==",
                                            "otherFieldName": "foryngelse",
                                            "otherFieldStringValue": "Naturlig foryngelse"
                                        }
                                    }
                                ]
                            },
                            {
                                "field": {
                                    "operator": "!=",
                                    "otherFieldName": "planting_ok",
                                    "otherFieldStringValue": "Ja"
                                }
                            },
                            {
                                "allOf": [
                                    {
                                        "field": {
                                            "operator": "!=",
                                            "otherFieldName": "livslopstraer",
                                            "otherFieldStringValue": "Ja"
                                        }
                                    },
                                    {
                                        "field": {
                                            "operator": "!=",
                                            "otherFieldName": "livslopstraer",
                                            "otherFieldStringValue": "Ikke relevant"
                                        }
                                    }
                                ]
                            },
                            {
                                "allOf": [
                                    {
                                        "field": {
                                            "operator": "!=",
                                            "otherFieldName": "llt_kartfestet",
                                            "otherFieldStringValue": "Ja"
                                        }
                                    },
                                    {
                                        "field": {
                                            "operator": "!=",
                                            "otherFieldName": "llt_kartfestet",
                                            "otherFieldStringValue": "Ikke relevant"
                                        }
                                    }
                                ]
                            },
                            {
                                "allOf": [
                                    {
                                        "field": {
                                            "operator": "!=",
                                            "otherFieldName": "kjøreskader_dok",
                                            "otherFieldStringValue": "Ja"
                                        }
                                    },
                                    {
                                        "field": {
                                            "operator": "!=",
                                            "otherFieldName": "kjøreskader_dok",
                                            "otherFieldStringValue": "Ikke relevant"
                                        }
                                    }
                                ]
                            },
                            {
                                "allOf": [
                                    {
                                        "field": {
                                            "operator": "!=",
                                            "otherFieldName": "bio_ok",
                                            "otherFieldStringValue": "Ja"
                                        }
                                    },
                                    {
                                        "field": {
                                            "operator": "!=",
                                            "otherFieldName": "bio_ok",
                                            "otherFieldStringValue": "Ikke relevant"
                                        }
                                    }
                                ]
                            },
                            {
                                "allOf": [
                                    {
                                        "field": {
                                            "operator": "!=",
                                            "otherFieldName": "hensyn_kantsone",
                                            "otherFieldStringValue": "Ja"
                                        }
                                    },
                                    {
                                        "field": {
                                            "operator": "!=",
                                            "otherFieldName": "hensyn_kantsone",
                                            "otherFieldStringValue": "Ikke relevant"
                                        }
                                    }
                                ]
                            },
                            {
                                "allOf": [
                                    {
                                        "field": {
                                            "operator": "!=",
                                            "otherFieldName": "skadeomfang_ok",
                                            "otherFieldStringValue": "Ja"
                                        }
                                    },
                                    {
                                        "field": {
                                            "operator": "!=",
                                            "otherFieldName": "skadeomfang_ok",
                                            "otherFieldStringValue": "Ikke relevant"
                                        }
                                    }
                                ]
                            },
                            {
                                "allOf": [
                                    {
                                        "field": {
                                            "operator": "!=",
                                            "otherFieldName": "kulturminner_ok",
                                            "otherFieldStringValue": "Ja"
                                        }
                                    },
                                    {
                                        "field": {
                                            "operator": "!=",
                                            "otherFieldName": "kulturminner_ok",
                                            "otherFieldStringValue": "Ikke relevant"
                                        }
                                    }
                                ]
                            },
                            {
                                "allOf": [
                                    {
                                        "field": {
                                            "operator": "!=",
                                            "otherFieldName": "friluftsliv_ok",
                                            "otherFieldStringValue": "Ja"
                                        }
                                    },
                                    {
                                        "field": {
                                            "operator": "!=",
                                            "otherFieldName": "friluftsliv_ok",
                                            "otherFieldStringValue": "Ikke relevant"
                                        }
                                    }
                                ]
                            },
                            {
                                "field": {
                                    "operator": "!=",
                                    "otherFieldName": "samsvar_egenkontroll",
                                    "otherFieldStringValue": "Ja"
                                }
                            },
                            {
                                "field": {
                                    "operator": "!=",
                                    "otherFieldName": "avvik_drift",
                                    "otherFieldStringValue": "Nei"
                                }
                            },
                            {
                                "field": {
                                    "operator": "!=",
                                    "otherFieldName": "avvik_reg",
                                    "otherFieldStringValue": "Nei"
                                }
                            }
                        ]
                    },
                    "thenSetValue": {
                        "stringValue": "Ja"
                    }
                },
                "visibleIf": {
                    "field": {
                        "operator": "==",
                        "otherFieldName": "avvik_kont",
                        "otherFieldStringValue": "Dette feltet vil aldri få denne verdien"
                    }
                }
            },
            "name": "avvik_kont",
            "notes": "",
            "nullable": false,
            "type": "esriFieldTypeString"
        },
        {
            "alias": "Ansvarlig for avvik",
            "editable": true,
            "fieldid": 25,
            "logic": {
                "visibleIf": {
                    "field": {
                        "operator": "!=",
                        "otherFieldName": "avvik_reg",
                        "otherFieldStringValue": "Nei"
                    }
                }
            },
            "name": "avvik_ansvarlig",
            "nullable": false,
            "sortix": 190,
            "type": "esriFieldTypeString"
        },
        {
            "alias": "Kort beskrivelse av avvik",
            "editable": true,
            "fieldid": 26,
            "logic": {
                "visibleIf": {
                    "field": {
                        "operator": "!=",
                        "otherFieldName": "avvik_reg",
                        "otherFieldStringValue": "Nei"
                    }
                }
            },
            "name": "avvik_besk",
            "notes": "",
            "nullable": false,
            "sortix": 200,
            "type": "esriFieldTypeString"
        },
        {
            "alias": "Hovedårsak til avvik",
            "editable": true,
            "fieldid": 27,
            "logic": {
                "visibleIf": {
                    "field": {
                        "operator": "!=",
                        "otherFieldName": "avvik_reg",
                        "otherFieldStringValue": "Nei"
                    }
                }
            },
            "name": "avvik_arsak",
            "notes": "",
            "nullable": false,
            "sortix": 210,
            "type": "esriFieldTypeString"
        },
        {
            "alias": "Avviksbehandling - tiltak for å rette opp eller redusere konsekvensene av avviket: ",
            "editable": true,
            "fieldid": 28,
            "logic": {
                "visibleIf": {
                    "field": {
                        "operator": "!=",
                        "otherFieldName": "avvik_reg",
                        "otherFieldStringValue": "Nei"
                    }
                }
            },
            "name": "avvik_tiltak",
            "notes": "",
            "nullable": false,
            "sortix": 220,
            "type": "esriFieldTypeString"
        },
        {
            "alias": "Hva kunne vært gjort bedre på denne drifta?",
            "editable": true,
            "fieldid": 29,
            "name": "gjort_bedre",
            "notes": "Vurder hva som kunne ha vært gjort bedre på utvalgt drift. ",
            "nullable": false,
            "sortix": 230,
            "type": "esriFieldTypeString"
        },
        {
            "alias": "Generell info",
            "editable": true,
            "fieldid": 30,
            "name": "generell_info",
            "nullable": true,
            "sortix": 240,
            "type": "esriFieldTypeString"
        },
        {
            "alias": "Er det under denne feltkontrollen registrert avvik?",
            "domain": {
                "name": "Alternativer",
                "suggestedValues": [
                    {
                        "name": "Ja",
                        "value": "Ja"
                    },
                    {
                        "name": "Nei",
                        "preferred": true,
                        "value": "Nei"
                    }
                ],
                "type": "codedValue"
            },
            "editable": true,
            "fieldid": 31,
            "name": "avvik_reg",
            "nullable": false,
            "sortix": 180,
            "type": "esriFieldTypeString"
        },
        {
            "alias": "Tilbakemelding fra entreprenør på avvik",
            "editable": true,
            "fieldid": 32,
            "logic": {
                "visibleIf": {
                    "field": {
                        "operator": "==",
                        "otherFieldName": "avvik_reg",
                        "otherFieldStringValue": "Ja"
                    }
                }
            },
            "name": "avvik_comments",
            "nullable": true,
            "sortix": 181,
            "type": "esriFieldTypeString"
        },
        {
            "alias": "Er hogst kun utført innenfor kartfestet område?",
            "editable": true,
            "fieldid": 33,
            "name": "only_within_geom_Boolean",
            "nullable": true,
            "sortix": 182,
            "type": "esriFieldTypeInteger"
        }
    ],
    "geometryType": "esriGeometryPolygon",
    "globalIdField": "_headId",
    "hasAttachments": false,
    "htmlPopupType": "esriServerHTMLPopupTypeAsHTMLText",
    "id": 2,
    "isDataVersioned": false,
    "maxRecordCount": 100000,
    "maxScale": 0,
    "minScale": 100000,
    "name": "FZFeltkontrollAvsluttet",
    "objectIdField": "OBJECTID",
    "ownershipBasedAccessControlForFeatures": null,
    "relationships": [],
    "sections": [],
    "supportedQueryFormats": "JSON, AMF",
    "supportsAdvancedQueries": true,
    "supportsRollbackOnFailureParameter": true,
    "supportsStatistics": true,
    "syncCanReturnChanges": true,
    "templates": [],
    "type": "Feature Layer",
    "typeIdField": "",
    "types": [],
    "useStandardizedQueries": true
}
