{
    "alias": "GJØDSLING MYR",
    "allowGeometryUpdates": true,
    "capabilities": "Create,Delete,Query,Sync,Update,Uploads,Editing",
    "copyrightText": "",
    "currentVersion": 10.22,
    "defaultVisibility": true,
    "description": "",
    "displayField": "_hovedkode",
    "drawingInfo": null,
    "editFieldsInfo": null,
    "extent": {
        "spatialReference": {
            "latestWkid": 25833,
            "wkid": 25833
        },
        "xmax": 450493.12090000045,
        "xmin": -305588.6796000004,
        "ymax": 7210241.434,
        "ymin": 6469673.3945
    },
    "fieldOrder": [],
    "fields": [
        {
            "alias": "Basert på geom-guid",
            "editable": false,
            "fieldid": 1,
            "name": "_globalId",
            "nullable": false,
            "type": "esriFieldTypeString"
        },
        {
            "alias": "Opprettet",
            "editable": false,
            "fieldid": 2,
            "name": "_created_Date",
            "nullable": false,
            "type": "esriFieldTypeDouble"
        },
        {
            "alias": "Opprettet av",
            "editable": false,
            "fieldid": 3,
            "name": "_createdBy",
            "nullable": false,
            "type": "esriFieldTypeString"
        },
        {
            "alias": "Endret",
            "editable": false,
            "fieldid": 4,
            "name": "_modified_Date",
            "nullable": false,
            "type": "esriFieldTypeDouble"
        },
        {
            "alias": "Endret av",
            "editable": false,
            "fieldid": 5,
            "name": "_modifiedBy",
            "nullable": false,
            "type": "esriFieldTypeString"
        },
        {
            "alias": "Tilhørende skogkulturobjekt",
            "editable": false,
            "fieldid": 6,
            "name": "_parentGlobalId",
            "nullable": false,
            "type": "esriFieldTypeString"
        },
        {
            "alias": "Tiltaksdato",
            "editable": true,
            "fieldid": 10,
            "name": "tiltaksdato_Date",
            "nullable": false,
            "type": "esriFieldTypeDouble"
        },
        {
            "alias": "Beskrivelse",
            "editable": true,
            "fieldid": 11,
            "name": "beskrivelse",
            "nullable": false,
            "type": "esriFieldTypeString"
        },
        {
            "alias": "Hovedkode",
            "editable": false,
            "fieldid": 7,
            "name": "_hovedkode",
            "nullable": false,
            "type": "esriFieldTypeString"
        },
        {
            "alias": "Antall kilo",
            "editable": true,
            "fieldid": 12,
            "name": "antall",
            "nullable": false,
            "type": "esriFieldTypeInteger"
        },
        {
            "alias": "Høyde over havet",
            "domain": {
                "codedValues": [
                    {
                        "name": "0-149",
                        "value": "1"
                    },
                    {
                        "name": "150-249",
                        "value": "2"
                    },
                    {
                        "name": "250-349",
                        "value": "3"
                    },
                    {
                        "name": "350-449",
                        "value": "4"
                    },
                    {
                        "name": "450-549",
                        "value": "5"
                    },
                    {
                        "name": "550-649",
                        "value": "6"
                    },
                    {
                        "name": "650-749",
                        "value": "7"
                    },
                    {
                        "name": "750-849",
                        "value": "8"
                    },
                    {
                        "name": "850 og over",
                        "value": "9"
                    }
                ],
                "type": "codedValue"
            },
            "editable": true,
            "fieldid": 13,
            "name": "hoh",
            "nullable": false,
            "type": "esriFieldTypeString"
        },
        {
            "alias": "Vegetasjonstype",
            "domain": {
                "codedValues": [
                    {
                        "name": "Lavskog",
                        "value": "1"
                    },
                    {
                        "name": "Blokkebærskog",
                        "value": "2"
                    },
                    {
                        "name": "Bærlyngskog",
                        "value": "3"
                    },
                    {
                        "name": "Blåbærskog",
                        "value": "4"
                    },
                    {
                        "name": "Småbregneskog",
                        "value": "5"
                    },
                    {
                        "name": "Storbregneskog",
                        "value": "6"
                    },
                    {
                        "name": "Lågurtskog",
                        "value": "7"
                    },
                    {
                        "name": "Høgstaudeskog",
                        "value": "8"
                    },
                    {
                        "name": "Furumyrskog",
                        "value": "9"
                    },
                    {
                        "name": "Lauvskoger",
                        "value": "A"
                    },
                    {
                        "name": "Sumpskoger",
                        "value": "B"
                    },
                    {
                        "name": "Myrskog",
                        "value": "C"
                    },
                    {
                        "name": "Røsslynghei",
                        "value": "D"
                    }
                ],
                "type": "codedValue"
            },
            "editable": true,
            "fieldid": 18,
            "name": "vegetasjonstype",
            "nullable": false,
            "type": "esriFieldTypeString"
        },
        {
            "alias": "Torvmarkstype",
            "domain": {
                "codedValues": [
                    {
                        "name": "Vannsyk skogsmark",
                        "value": "1"
                    },
                    {
                        "name": "Næringsrik tilsigmyr",
                        "value": "2"
                    },
                    {
                        "name": "Svak tilsigsmyr",
                        "value": "3"
                    },
                    {
                        "name": "Ren nedbørsmyr",
                        "value": "4"
                    }
                ],
                "type": "codedValue"
            },
            "editable": true,
            "fieldid": 21,
            "name": "torvmarkstype",
            "nullable": false,
            "type": "esriFieldTypeString"
        },
        {
            "alias": "Treslag",
            "domain": {
                "codedValues": [
                    {
                        "name": "Gran",
                        "value": "1"
                    },
                    {
                        "name": "Furu",
                        "value": "2"
                    },
                    {
                        "name": "Sitka",
                        "value": "3"
                    },
                    {
                        "name": "Contorta",
                        "value": "4"
                    },
                    {
                        "name": "Lutzii",
                        "value": "5"
                    },
                    {
                        "name": "Bjørk",
                        "value": "6"
                    },
                    {
                        "name": "Flere treslag",
                        "value": "7"
                    },
                    {
                        "name": "Andre Bartre",
                        "value": "8"
                    },
                    {
                        "name": "Andre Lauvtre",
                        "value": "9"
                    }
                ],
                "type": "codedValue"
            },
            "editable": true,
            "fieldid": 24,
            "name": "treslag",
            "nullable": false,
            "type": "esriFieldTypeString"
        },
        {
            "alias": "Kostnad",
            "editable": true,
            "fieldid": 25,
            "name": "kostnad",
            "nullable": false,
            "type": "esriFieldTypeDouble"
        },
        {
            "alias": "Antall gran",
            "editable": true,
            "fieldid": 29,
            "logic": {
                "visibleIf": {
                    "field": {
                        "operator": "==",
                        "otherFieldName": "treslag",
                        "otherFieldStringValue": "7"
                    }
                }
            },
            "name": "antall_gran",
            "nullable": false,
            "type": "esriFieldTypeInteger"
        },
        {
            "alias": "Antall furu",
            "editable": true,
            "fieldid": 30,
            "logic": {
                "visibleIf": {
                    "field": {
                        "operator": "==",
                        "otherFieldName": "treslag",
                        "otherFieldStringValue": "7"
                    }
                }
            },
            "name": "antall_furu",
            "nullable": false,
            "type": "esriFieldTypeInteger"
        },
        {
            "alias": "Antall lauv",
            "editable": true,
            "fieldid": 31,
            "logic": {
                "visibleIf": {
                    "field": {
                        "operator": "==",
                        "otherFieldName": "treslag",
                        "otherFieldStringValue": "7"
                    }
                }
            },
            "name": "antall_lauv",
            "nullable": false,
            "type": "esriFieldTypeInteger"
        },
        {
            "alias": "Tittel",
            "editable": false,
            "fieldid": 32,
            "name": "_title",
            "nullable": true,
            "type": "esriFieldTypeString"
        }
    ],
    "geometryType": "esriGeometryPolygon",
    "globalIdField": "_globalId",
    "hasAttachments": false,
    "hasM": false,
    "hasZ": false,
    "htmlPopupType": "esriServerHTMLPopupTypeAsHTMLText",
    "id": 2,
    "isDataVersioned": false,
    "maxRecordCount": 100000,
    "maxScale": 0,
    "minScale": 100000,
    "name": "FZSkogfondGjodslingMyr",
    "objectIdField": "OBJECTID",
    "ownershipBasedAccessControlForFeatures": null,
    "relationships": [],
    "sections": [],
    "supportedQueryFormats": "JSON, AMF",
    "supportsAdvancedQueries": true,
    "supportsRollbackOnFailureParameter": true,
    "supportsStatistics": true,
    "syncCanReturnChanges": true,
    "templates": [],
    "type": "Feature Layer",
    "typeIdField": "_hovedkode",
    "types": [
        {
            "domains": {},
            "id": "hovedkode",
            "name": "hovedkode",
            "templates": [
                {
                    "name": "hovedkode",
                    "prototype": {
                        "attributes": {
                            "hovedkode": "010"
                        }
                    }
                }
            ]
        }
    ],
    "useStandardizedQueries": true
}

