{
    "allowGeometryUpdates": true,
    "capabilities": "Create,Delete,Query,Sync,Update,Uploads,Editing",
    "copyrightText": "",
    "currentVersion": 10.22,
    "defaultVisibility": true,
    "description": "",
    "displayField": "_workOrderFilename",
    "drawingInfo": {
        "renderer": {
            "defaultLabel": null,
            "defaultSymbol": null,
            "field1": null,
            "field2": null,
            "field3": null,
            "fieldDelimiter": ", ",
            "type": "uniqueValue",
            "uniqueValueInfos": []
        }
    },
    "editFieldsInfo": null,
    "extent": {
        "spatialReference": {
            "latestWkid": 25833,
            "wkid": 25833
        },
        "xmax": 500000,
        "xmin": 0,
        "ymax": 8000000,
        "ymin": 5000000
    },
    "fieldOrder": [],
    "fields": [
        {
            "alias": "_globalId",
            "editable": false,
            "fieldid": 0,
            "name": "_globalId",
            "nullable": false,
            "type": "esriFieldTypeString"
        },
        {
            "alias": "_orgNum",
            "editable": false,
            "fieldid": 1,
            "name": "_orgNum",
            "nullable": false,
            "type": "esriFieldTypeString"
        },
        {
            "alias": "_orderId",
            "editable": false,
            "fieldid": 2,
            "name": "_orderId",
            "nullable": false,
            "type": "esriFieldTypeString"
        },
        {
            "alias": "workOrderFilename",
            "editable": false,
            "fieldid": 3,
            "name": "_workOrderFilename",
            "nullable": false,
            "type": "esriFieldTypeString"
        },
        {
            "alias": "_role",
            "editable": false,
            "fieldid": 4,
            "name": "_role",
            "nullable": false,
            "type": "esriFieldTypeString"
        },
        {
            "alias": "_email",
            "editable": false,
            "fieldid": 5,
            "name": "_email",
            "nullable": false,
            "type": "esriFieldTypeString"
        },
        {
            "alias": "_stamp",
            "editable": false,
            "fieldid": 6,
            "name": "_stamp",
            "nullable": false,
            "type": "esriFieldTypeDouble"
        },
        {
            "alias": "SO",
            "fieldid": 7,
            "name": "_serviceOrderId",
            "type": "esriFieldTypeString"
        },
        {
            "alias": "Signering avbrutt",
            "fieldid": 8,
            "name": "_serverRemovedSignature_Boolean",
            "type": "esriFieldTypeInteger"
        }
    ],
    "geometryType": "esriGeometryPoint",
    "globalIdField": "_globalId",
    "hasAttachments": false,
    "hasM": false,
    "hasZ": false,
    "htmlPopupType": "esriServerHTMLPopupTypeAsHTMLText",
    "id": 2,
    "isDataVersioned": false,
    "maxRecordCount": 100000,
    "maxScale": 0,
    "minScale": 100000,
    "name": "FZWorkOrderAcceptance",
    "objectIdField": "OBJECTID",
    "ownershipBasedAccessControlForFeatures": null,
    "relationships": [],
    "supportedQueryFormats": "JSON, AMF",
    "supportsAdvancedQueries": true,
    "supportsRollbackOnFailureParameter": true,
    "supportsStatistics": true,
    "syncCanReturnChanges": true,
    "templates": [],
    "type": "Feature Layer",
    "typeIdField": "null",
    "types": [],
    "useStandardizedQueries": true
}
