{
    "alias": "Sluttrapport planting",
    "allowGeometryUpdates": true,
    "capabilities": "Create,Delete,Query,Sync,Update,Uploads,Editing",
    "copyrightText": "",
    "currentVersion": 10.22,
    "defaultVisibility": true,
    "description": "",
    "displayField": "dev_Boolean",
    "drawingInfo": null,
    "editFieldsInfo": null,
    "extent": {
        "spatialReference": {
            "latestWkid": 32633,
            "wkid": 32633
        },
        "xmax": 450493.12090000045,
        "xmin": -305588.6796000004,
        "ymax": 7210241.434,
        "ymin": 6469673.3945
    },
    "fieldOrder": [],
    "fields": [
        {
            "alias": "Entreprenørordre GUID",
            "editable": false,
            "fieldid": 0,
            "name": "_globalId",
            "nullable": false,
            "type": "esriFieldTypeString"
        },
        {
            "alias": "Opprettet",
            "editable": false,
            "fieldid": 1,
            "name": "_created_Date",
            "nullable": false,
            "type": "esriFieldTypeDouble"
        },
        {
            "alias": "Opprettet av",
            "editable": false,
            "fieldid": 2,
            "name": "_createdBy",
            "nullable": false,
            "type": "esriFieldTypeString"
        },
        {
            "alias": "Endret",
            "editable": false,
            "fieldid": 3,
            "name": "_modified_Date",
            "nullable": false,
            "type": "esriFieldTypeDouble"
        },
        {
            "alias": "Endret av",
            "editable": false,
            "fieldid": 4,
            "name": "_modifiedBy",
            "nullable": false,
            "type": "esriFieldTypeString"
        },
        {
            "alias": "Ordrenummer",
            "editable": false,
            "fieldid": 5,
            "name": "_job_nr",
            "nullable": false,
            "type": "esriFieldTypeString"
        },
        {
            "alias": "Tilhørende objekt",
            "editable": false,
            "fieldid": 21,
            "name": "_parentGlobalId",
            "nullable": false,
            "type": "esriFieldTypeString"
        },
        {
            "alias": "Organisasjonsnummer arbeidslag",
            "editable": false,
            "fieldid": 8,
            "name": "_workTeamOrgNum",
            "nullable": true,
            "type": "esriFieldTypeString"
        },
        {
            "alias": "Naturtyper verdi A og B, trua naturtyper, utvalgte naturtyper, trua arter, prioriterte arter",
            "editable": false,
            "fieldid": 1000,
            "name": "naturetypeab_Boolean",
            "notes": "Kontroller om det ligger føringer fra skogbruksleder.\nSe egen rutine.",
            "nullable": true,
            "section": 1,
            "translations": [
                {
                    "key": "Naturtyper verdi A og B, trua naturtyper, utvalgte naturtyper, trua arter, prioriterte arter",
                    "language": "en",
                    "value": "Nature type A, B - etc."
                },
                {
                    "key": "Kontroller om det ligger føringer fra skogbruksleder.\nSe egen rutine.",
                    "language": "en",
                    "value": "Check if there are any guidelines from the forestry manager.\nSee own procedure."
                }
            ],
            "type": "esriFieldTypeInteger"
        },
        {
            "alias": "Kommentar",
            "editable": false,
            "fieldid": 1001,
            "logic": {
                "visibleIf": {
                    "field": {
                        "operator": "!=",
                        "otherFieldName": "naturetypeab_comment",
                        "otherFieldStringValue": ""
                    }
                }
            },
            "name": "naturetypeab_comment",
            "nullable": true,
            "section": 1,
            "translations": [
                {
                    "key": "Kommentar",
                    "language": "en",
                    "value": "Comment"
                }
            ],
            "type": "esriFieldTypeString"
        },
        {
            "alias": "Naturtype A,B - osv, ivaretatt",
            "editable": true,
            "fieldid": 1002,
            "logic": {
                "requiredIf": {
                    "anyOf": [
                        {
                            "field": {
                                "operator": "==",
                                "otherFieldIntValue": 1,
                                "otherFieldName": "naturetypeab_Boolean"
                            }
                        }
                    ]
                }
            },
            "name": "naturetypeabaccountedfor_Boolean",
            "nullable": true,
            "section": 1,
            "translations": [
                {
                    "key": "Naturtype A,B - osv, ivaretatt",
                    "language": "en",
                    "value": "Nature Type A, B - etc, accounted for"
                }
            ],
            "type": "esriFieldTypeInteger"
        },
        {
            "alias": "Kommentar",
            "editable": true,
            "fieldid": 1003,
            "name": "naturetypeabaccountedfor_comment",
            "nullable": true,
            "section": 1,
            "translations": [
                {
                    "key": "Kommentar",
                    "language": "en",
                    "value": "Comment"
                }
            ],
            "type": "esriFieldTypeString"
        },
        {
            "alias": "Stier, tur- og tettbebygde områder",
            "editable": false,
            "fieldid": 1004,
            "name": "trailshikingdensepopareas_Boolean",
            "nullable": true,
            "section": 2,
            "translations": [
                {
                    "key": "Stier, tur- og tettbebygde områder",
                    "language": "en",
                    "value": "Trails, hiking, dense pop areas"
                }
            ],
            "type": "esriFieldTypeInteger"
        },
        {
            "alias": "Kommentar",
            "editable": false,
            "fieldid": 1005,
            "logic": {
                "visibleIf": {
                    "field": {
                        "operator": "!=",
                        "otherFieldName": "trailshikingdensepopareas_comment",
                        "otherFieldStringValue": ""
                    }
                }
            },
            "name": "trailshikingdensepopareas_comment",
            "nullable": true,
            "section": 2,
            "translations": [
                {
                    "key": "Kommentar",
                    "language": "en",
                    "value": "Comment"
                }
            ],
            "type": "esriFieldTypeString"
        },
        {
            "alias": "Sti/tur/tettbygd ivaretatt",
            "editable": true,
            "fieldid": 1006,
            "logic": {
                "requiredIf": {
                    "anyOf": [
                        {
                            "field": {
                                "operator": "==",
                                "otherFieldIntValue": 1,
                                "otherFieldName": "trailshikingdensepopareas_Boolean"
                            }
                        }
                    ]
                }
            },
            "name": "trailshikingdensepopareasaccountedfor_Boolean",
            "nullable": true,
            "section": 2,
            "translations": [
                {
                    "key": "Sti/tur/tettbygd ivaretatt",
                    "language": "en",
                    "value": "Trails, hiking, dense pop areas accounted for"
                }
            ],
            "type": "esriFieldTypeInteger"
        },
        {
            "alias": "Kommentar",
            "editable": true,
            "fieldid": 1007,
            "name": "trailshikingdensepopareasaccountedfor_comment",
            "nullable": true,
            "section": 2,
            "translations": [
                {
                    "key": "Kommentar",
                    "language": "en",
                    "value": "Comment"
                }
            ],
            "type": "esriFieldTypeString"
        },
        {
            "alias": "Nøkkelbiotop, verneområde",
            "editable": false,
            "fieldid": 1008,
            "name": "keyhabitatsconsideration_Boolean",
            "notes": "Se egen rutine",
            "nullable": true,
            "section": 3,
            "translations": [
                {
                    "key": "Nøkkelbiotop, verneområde",
                    "language": "en",
                    "value": "Key biotope, protected area"
                },
                {
                    "key": "Se egen rutine",
                    "language": "en",
                    "value": "See own procedure"
                }
            ],
            "type": "esriFieldTypeInteger"
        },
        {
            "alias": "Kommentar",
            "editable": false,
            "fieldid": 1009,
            "logic": {
                "visibleIf": {
                    "field": {
                        "operator": "!=",
                        "otherFieldName": "keyhabitatsconsideration_comment",
                        "otherFieldStringValue": ""
                    }
                }
            },
            "name": "keyhabitatsconsideration_comment",
            "nullable": true,
            "section": 3,
            "translations": [
                {
                    "key": "Kommentar",
                    "language": "en",
                    "value": "Comment"
                }
            ],
            "type": "esriFieldTypeString"
        },
        {
            "alias": "Nøkkelbiotop tatt hensyn til",
            "editable": true,
            "fieldid": 1010,
            "logic": {
                "requiredIf": {
                    "anyOf": [
                        {
                            "field": {
                                "operator": "==",
                                "otherFieldIntValue": 1,
                                "otherFieldName": "keyhabitatsconsideration_Boolean"
                            }
                        }
                    ]
                }
            },
            "name": "keyhabitatsconsiderationaccountedfor_Boolean",
            "nullable": true,
            "section": 3,
            "translations": [
                {
                    "key": "Nøkkelbiotop tatt hensyn til",
                    "language": "en",
                    "value": "Key biotope, protected area accounted for"
                }
            ],
            "type": "esriFieldTypeInteger"
        },
        {
            "alias": "Kommentar",
            "editable": true,
            "fieldid": 1011,
            "name": "keyhabitatsconsiderationaccountedfor_comment",
            "nullable": true,
            "section": 3,
            "translations": [
                {
                    "key": "Kommentar",
                    "language": "en",
                    "value": "Comment"
                }
            ],
            "type": "esriFieldTypeString"
        },
        {
            "alias": "Kulturminner",
            "editable": false,
            "fieldid": 1012,
            "name": "culturalheritage_Boolean",
            "notes": "Obs: groper, hauger, murer, gamle tufter og veier. Rydd trær og busker på kulturminnene. Ikke kjør nærmere enn 5 m fra kanten.",
            "nullable": true,
            "section": 4,
            "translations": [
                {
                    "key": "Kulturminner",
                    "language": "en",
                    "value": "Kulturminner"
                },
                {
                    "key": "Obs: groper, hauger, murer, gamle tufter og veier. Rydd trær og busker på kulturminnene. Ikke kjør nærmere enn 5 m fra kanten.",
                    "language": "en",
                    "value": "Obs: groper, hauger, murer, gamle tufter og veier. Rydd trær og busker på kulturminnene. Ikke kjør nærmere enn 5 m fra kanten."
                }
            ],
            "type": "esriFieldTypeInteger"
        },
        {
            "alias": "Kommentar",
            "editable": false,
            "fieldid": 1013,
            "logic": {
                "visibleIf": {
                    "field": {
                        "operator": "!=",
                        "otherFieldName": "culturalheritage_comment",
                        "otherFieldStringValue": ""
                    }
                }
            },
            "name": "culturalheritage_comment",
            "nullable": true,
            "section": 4,
            "translations": [
                {
                    "key": "Kommentar",
                    "language": "en",
                    "value": "Comment"
                }
            ],
            "type": "esriFieldTypeString"
        },
        {
            "alias": "Kulturminne ivaretatt",
            "editable": true,
            "fieldid": 1014,
            "logic": {
                "requiredIf": {
                    "anyOf": [
                        {
                            "field": {
                                "operator": "==",
                                "otherFieldIntValue": 1,
                                "otherFieldName": "culturalheritage_Boolean"
                            }
                        }
                    ]
                }
            },
            "name": "culturalheritageaccountedfor_Boolean",
            "nullable": true,
            "section": 4,
            "translations": [
                {
                    "key": "Kulturminne ivaretatt",
                    "language": "en",
                    "value": "Cultural heritage accounted for"
                }
            ],
            "type": "esriFieldTypeInteger"
        },
        {
            "alias": "Kommentar",
            "editable": true,
            "fieldid": 1015,
            "name": "culturalheritageaccountedfor_comment",
            "nullable": true,
            "section": 4,
            "translations": [
                {
                    "key": "Kommentar",
                    "language": "en",
                    "value": "Comment"
                }
            ],
            "type": "esriFieldTypeString"
        },
        {
            "alias": "Kantsoner",
            "editable": false,
            "fieldid": 1016,
            "name": "bufferzones_Boolean",
            "notes": "Kantsonebredde er normalt 10-15 meter, bredere på bløt eller rik vegetasjon. Kantsoner skal normalt stå urørt. Evt hogst skal beskrives og dokumenteres. Det skal søkes dispensasjon der det er krav om det etter lovverket. For bekker mindre enn 1 meter skal buskvegetasjon og mindre trær spares.",
            "nullable": true,
            "section": 5,
            "translations": [
                {
                    "key": "Kantsoner",
                    "language": "en",
                    "value": "Kantsoner"
                },
                {
                    "key": "Kantsonebredde er normalt 10-15 meter, bredere på bløt eller rik vegetasjon. Kantsoner skal normalt stå urørt. Evt hogst skal beskrives og dokumenteres. Det skal søkes dispensasjon der det er krav om det etter lovverket. For bekker mindre enn 1 meter skal buskvegetasjon og mindre trær spares.",
                    "language": "en",
                    "value": "Kantsonebredde er normalt 10-15 meter, bredere på bløt eller rik vegetasjon. Kantsoner skal normalt stå urørt. Evt hogst skal beskrives og dokumenteres. Det skal søkes dispensasjon der det er krav om det etter lovverket. For bekker mindre enn 1 meter skal buskvegetasjon og mindre trær spares."
                }
            ],
            "type": "esriFieldTypeInteger"
        },
        {
            "alias": "Kommentar",
            "editable": false,
            "fieldid": 1017,
            "logic": {
                "visibleIf": {
                    "field": {
                        "operator": "!=",
                        "otherFieldName": "bufferzones_comment",
                        "otherFieldStringValue": ""
                    }
                }
            },
            "name": "bufferzones_comment",
            "nullable": true,
            "section": 5,
            "translations": [
                {
                    "key": "Kommentar",
                    "language": "en",
                    "value": "Comment"
                }
            ],
            "type": "esriFieldTypeString"
        },
        {
            "alias": "Kantsone ivaretatt",
            "editable": true,
            "fieldid": 1018,
            "logic": {
                "requiredIf": {
                    "anyOf": [
                        {
                            "field": {
                                "operator": "==",
                                "otherFieldIntValue": 1,
                                "otherFieldName": "bufferzones_Boolean"
                            }
                        }
                    ]
                }
            },
            "name": "bufferzonesaccountedfor_Boolean",
            "nullable": true,
            "section": 5,
            "translations": [
                {
                    "key": "Kantsone ivaretatt",
                    "language": "en",
                    "value": "Buffer zones accounted for"
                }
            ],
            "type": "esriFieldTypeInteger"
        },
        {
            "alias": "Kommentar",
            "editable": true,
            "fieldid": 1019,
            "name": "bufferzonesaccountedfor_comment",
            "nullable": true,
            "section": 5,
            "translations": [
                {
                    "key": "Kommentar",
                    "language": "en",
                    "value": "Comment"
                }
            ],
            "type": "esriFieldTypeString"
        }
    ],
    "geometryType": "esriGeometryPoint",
    "globalIdField": "_globalId",
    "hasAttachments": false,
    "hasM": false,
    "hasZ": false,
    "htmlPopupType": "esriServerHTMLPopupTypeAsHTMLText",
    "id": 2,
    "isDataVersioned": false,
    "maxRecordCount": 100000,
    "maxScale": 0,
    "minScale": 100000,
    "name": "GMSluttrapportPlanting",
    "objectIdField": "OBJECTID",
    "ownershipBasedAccessControlForFeatures": null,
    "relationships": [],
    "sections": [
        {
            "id": 1,
            "title": ""
        },
        {
            "id": 2,
            "title": ""
        },
        {
            "id": 3,
            "title": ""
        },
        {
            "id": 4,
            "title": ""
        },
        {
            "id": 5,
            "title": ""
        }
    ],
    "supportedQueryFormats": "JSON, AMF",
    "supportsAdvancedQueries": true,
    "supportsRollbackOnFailureParameter": true,
    "supportsStatistics": true,
    "syncCanReturnChanges": true,
    "templates": [],
    "translations": [
        {
            "key": "Sluttrapport planting",
            "language": "en",
            "value": "Final report for planting"
        }
    ],
    "type": "Feature Layer",
    "typeIdField": "dev_Boolean",
    "types": [],
    "useStandardizedQueries": true
}

