{
    "allowGeometryUpdates": true,
    "capabilities": "Create,Delete,Query,Sync,Update,Uploads,Editing",
    "copyrightText": "",
    "currentVersion": 10.22,
    "defaultVisibility": true,
    "description": "",
    "displayField": "_bucket",
    "drawingInfo": {
        "labelingInfo": null,
        "renderer": {
            "defaultLabel": null,
            "defaultSymbol": null,
            "field1": "_bucket",
            "field2": null,
            "field3": null,
            "fieldDelimiter": ", ",
            "note to future self": "!!! HUSK AT DETTE FELTET MÅ VÆRE EDITABLE !!!",
            "type": "uniqueValue",
            "uniqueValueInfos": [
                {
                    "description": "",
                    "label": "200",
                    "symbol": {
                        "color": [
                            143,
                            0,
                            121,
                            255
                        ],
                        "outline": {
                            "color": [
                                0,
                                0,
                                0,
                                255
                            ],
                            "width": 1
                        },
                        "style": "esriSMSCircle",
                        "type": "esriSMS",
                        "size": 39.89422804014327
                    },
                    "value": "200"
                },
                {
                    "description": "",
                    "label": "100",
                    "symbol": {
                        "color": [
                            143,
                            0,
                            121,
                            255
                        ],
                        "outline": {
                            "color": [
                                0,
                                0,
                                0,
                                255
                            ],
                            "width": 1
                        },
                        "style": "esriSMSCircle",
                        "type": "esriSMS",
                        "size": 28.209479177387813
                    },
                    "value": "100"
                },
                {
                    "description": "",
                    "label": "90",
                    "symbol": {
                        "color": [
                            143,
                            0,
                            121,
                            255
                        ],
                        "outline": {
                            "color": [
                                0,
                                0,
                                0,
                                255
                            ],
                            "width": 1
                        },
                        "style": "esriSMSCircle",
                        "type": "esriSMS",
                        "size": 26.76186174229157
                    },
                    "value": "90"
                },
                {
                    "description": "",
                    "label": "80",
                    "symbol": {
                        "color": [
                            143,
                            0,
                            121,
                            255
                        ],
                        "outline": {
                            "color": [
                                0,
                                0,
                                0,
                                255
                            ],
                            "width": 1
                        },
                        "style": "esriSMSCircle",
                        "type": "esriSMS",
                        "size": 25.231325220201605
                    },
                    "value": "80"
                },
                {
                    "description": "",
                    "label": "70",
                    "symbol": {
                        "color": [
                            143,
                            0,
                            121,
                            255
                        ],
                        "outline": {
                            "color": [
                                0,
                                0,
                                0,
                                255
                            ],
                            "width": 1
                        },
                        "style": "esriSMSCircle",
                        "type": "esriSMS",
                        "size": 23.60174359706574
                    },
                    "value": "70"
                },
                {
                    "description": "",
                    "label": "60",
                    "symbol": {
                        "color": [
                            143,
                            0,
                            121,
                            255
                        ],
                        "outline": {
                            "color": [
                                0,
                                0,
                                0,
                                255
                            ],
                            "width": 1
                        },
                        "style": "esriSMSCircle",
                        "type": "esriSMS",
                        "size": 21.850968611841584
                    },
                    "value": "60"
                },
                {
                    "description": "",
                    "label": "50",
                    "symbol": {
                        "color": [
                            143,
                            0,
                            121,
                            255
                        ],
                        "outline": {
                            "color": [
                                0,
                                0,
                                0,
                                255
                            ],
                            "width": 1
                        },
                        "style": "esriSMSCircle",
                        "type": "esriSMS",
                        "size": 19.947114020071634
                    },
                    "value": "50"
                },
                {
                    "description": "",
                    "label": "40",
                    "symbol": {
                        "color": [
                            143,
                            0,
                            121,
                            255
                        ],
                        "outline": {
                            "color": [
                                0,
                                0,
                                0,
                                255
                            ],
                            "width": 1
                        },
                        "style": "esriSMSCircle",
                        "type": "esriSMS",
                        "size": 17.841241161527712
                    },
                    "value": "40"
                },
                {
                    "description": "",
                    "label": "30",
                    "symbol": {
                        "color": [
                            143,
                            0,
                            121,
                            255
                        ],
                        "outline": {
                            "color": [
                                0,
                                0,
                                0,
                                255
                            ],
                            "width": 1
                        },
                        "style": "esriSMSCircle",
                        "type": "esriSMS",
                        "size": 15.450968080927582
                    },
                    "value": "30"
                },
                {
                    "description": "",
                    "label": "20",
                    "symbol": {
                        "color": [
                            143,
                            0,
                            121,
                            255
                        ],
                        "outline": {
                            "color": [
                                0,
                                0,
                                0,
                                255
                            ],
                            "width": 1
                        },
                        "style": "esriSMSCircle",
                        "type": "esriSMS",
                        "size": 12.615662610100802
                    },
                    "value": "20"
                },
                {
                    "description": "",
                    "label": "10",
                    "symbol": {
                        "color": [
                            143,
                            0,
                            121,
                            255
                        ],
                        "outline": {
                            "color": [
                                0,
                                0,
                                0,
                                255
                            ],
                            "width": 1
                        },
                        "style": "esriSMSCircle",
                        "type": "esriSMS",
                        "size": 8.920620580763856
                    },
                    "value": "10"
                },
                {
                    "description": "",
                    "label": "5",
                    "symbol": {
                        "color": [
                            143,
                            0,
                            121,
                            255
                        ],
                        "outline": {
                            "color": [
                                0,
                                0,
                                0,
                                255
                            ],
                            "width": 1
                        },
                        "style": "esriSMSCircle",
                        "type": "esriSMS",
                        "size": 6.307831305050401
                    },
                    "value": "5"
                },
                {
                    "description": "",
                    "label": "4",
                    "symbol": {
                        "color": [
                            143,
                            0,
                            121,
                            255
                        ],
                        "outline": {
                            "color": [
                                0,
                                0,
                                0,
                                255
                            ],
                            "width": 1
                        },
                        "style": "esriSMSCircle",
                        "type": "esriSMS",
                        "size": 5.641895835477563
                    },
                    "value": "4"
                },
                {
                    "description": "",
                    "label": "3",
                    "symbol": {
                        "color": [
                            143,
                            0,
                            121,
                            255
                        ],
                        "outline": {
                            "color": [
                                0,
                                0,
                                0,
                                255
                            ],
                            "width": 1
                        },
                        "style": "esriSMSCircle",
                        "type": "esriSMS",
                        "size": 4.886025119029199
                    },
                    "value": "3"
                },
                {
                    "description": "",
                    "label": "2",
                    "symbol": {
                        "color": [
                            143,
                            0,
                            121,
                            255
                        ],
                        "outline": {
                            "color": [
                                0,
                                0,
                                0,
                                255
                            ],
                            "width": 1
                        },
                        "style": "esriSMSCircle",
                        "type": "esriSMS",
                        "size": 3.989422804014327
                    },
                    "value": "2"
                },
                {
                    "description": "",
                    "label": "1",
                    "symbol": {
                        "color": [
                            143,
                            0,
                            121,
                            255
                        ],
                        "outline": {
                            "color": [
                                0,
                                0,
                                0,
                                255
                            ],
                            "width": 1
                        },
                        "style": "esriSMSCircle",
                        "type": "esriSMS",
                        "size": 2.8209479177387813
                    },
                    "value": "1"
                },
                {
                    "description": "",
                    "label": "0",
                    "symbol": {
                        "color": [
                            143,
                            0,
                            121,
                            255
                        ],
                        "outline": {
                            "color": [
                                0,
                                0,
                                0,
                                255
                            ],
                            "width": 1
                        },
                        "style": "esriSMSCircle",
                        "type": "esriSMS",
                        "size": 0
                    },
                    "value": "0"
                }
            ]
        },
        "transparency": 0
    },
    "editFieldsInfo": null,
    "extent": {
        "spatialReference": {
            "latestWkid": 25833,
            "wkid": 25833
        },
        "xmax": 450493.12090000045,
        "xmin": -305588.6796000004,
        "ymax": 7210241.434,
        "ymin": 6469673.3945
    },
    "fieldOrder": null,
    "fields": [
        {
            "alias": "GlobalID",
            "editable": false,
            "fieldid": 0,
            "name": "_globalId",
            "nullable": false,
            "type": "esriFieldTypeString"
        },
        {
            "alias": "CreatedDate",
            "editable": false,
            "fieldid": 1,
            "name": "_created_Date",
            "nullable": false,
            "type": "esriFieldTypeDouble"
        },
        {
            "alias": "CreatedBy",
            "editable": false,
            "fieldid": 2,
            "name": "_createdBy",
            "nullable": false,
            "type": "esriFieldTypeString"
        },
        {
            "alias": "ModifiedDate",
            "editable": false,
            "fieldid": 3,
            "name": "_modified_Date",
            "nullable": false,
            "type": "esriFieldTypeDouble"
        },
        {
            "alias": "ModifiedBy",
            "editable": false,
            "fieldid": 4,
            "name": "_modifiedBy",
            "nullable": false,
            "type": "esriFieldTypeString"
        },
        {
            "alias": "HeadID",
            "editable": false,
            "fieldid": 5,
            "name": "_headId",
            "nullable": false,
            "type": "esriFieldTypeString"
        },
        {
            "alias": "ContractorOrderID",
            "editable": false,
            "fieldid": 6,
            "name": "_orderId",
            "nullable": false,
            "type": "esriFieldTypeString"
        },
        {
            "alias": "ServiceOrderID",
            "editable": false,
            "fieldid": 7,
            "name": "_serviceOrderId",
            "nullable": false,
            "type": "esriFieldTypeString"
        },
        {
            "alias": "PurchaseOrderNum",
            "editable": false,
            "fieldid": 8,
            "name": "orderNum",
            "nullable": false,
            "type": "esriFieldTypeString"
        },
        {
            "alias": "Type",
            "editable": false,
            "fieldid": 10,
            "name": "_type",
            "nullable": false,
            "type": "esriFieldTypeString"
        },
        {
            "alias": "Antall stammer",
            "editable": false,
            "fieldid": 11,
            "name": "count",
            "nullable": false,
            "type": "esriFieldTypeInteger"
        },
        {
            "alias": "Ulik styling for buckets 500,100,50,10,5,1",
            "editable": true,
            "fieldid": 12,
            "name": "_bucket",
            "nullable": false,
            "type": "esriFieldTypeString"
        },
        {
            "alias": "JSON serialisert volum map assNum(int):volum(float)",
            "editable": false,
            "fieldid": 13,
            "name": "_volumeMap_JSON",
            "nullable": false,
            "type": "esriFieldTypeString"
        },
        {
            "alias": "Antall stokker",
            "editable": false,
            "fieldid": 14,
            "name": "_numLogs",
            "nullable": true,
            "type": "esriFieldTypeInteger"
        },
        {
            "alias": "Volum",
            "editable": false,
            "fieldid": 15,
            "name": "_volume",
            "nullable": true,
            "type": "esriFieldTypeDouble"
        },
        {
            "alias": "Volum bucket",
            "editable": false,
            "fieldid": 16,
            "name": "_volumeBucket",
            "nullable": true,
            "type": "esriFieldTypeInteger"
        },
        {
            "alias": "Filnavn",
            "editable": false,
            "fieldid": 17,
            "name": "_fileName",
            "nullable": true,
            "type": "esriFieldTypeString"
        },
        {
            "alias": "Gjennomsnittlig stammevolum",
            "editable": false,
            "fieldid": 18,
            "name": "_avgStemVolume",
            "nullable": true,
            "type": "esriFieldTypeDouble"
        },
        {
            "alias": "Del stammeposisjon",
            "editable": false,
            "fieldid": 19,
            "name": "_shareStemPosition_Boolean",
            "nullable": true,
            "type": "esriFieldTypeInteger"
        }
    ],
    "geometryType": "esriGeometryPoint",
    "globalIdField": "_globalId",
    "hasAttachments": false,
    "htmlPopupType": "esriServerHTMLPopupTypeAsHTMLText",
    "id": 2,
    "isDataVersioned": false,
    "maxRecordCount": 100000,
    "maxScale": 0,
    "minScale": 100000,
    "name": "GMStem",
    "objectIdField": "OBJECTID",
    "ownershipBasedAccessControlForFeatures": null,
    "relationships": null,
    "sections": null,
    "supportedQueryFormats": "JSON, AMF",
    "supportsAdvancedQueries": true,
    "supportsRollbackOnFailureParameter": true,
    "supportsStatistics": true,
    "syncCanReturnChanges": true,
    "templates": null,
    "type": "Feature Layer",
    "typeIdField": "_bucket",
    "types": [],
    "useStandardizedQueries": true
}

