{
    "allowGeometryUpdates": true,
    "capabilities": "Create,Delete,Query,Sync,Update,Uploads,Editing",
    "copyrightText": "",
    "currentVersion": 10.22,
    "defaultVisibility": true,
    "description": "",
    "displayField": "_job_nr",
    "drawingInfo": null,
    "editFieldsInfo": null,
    "extent": {
        "spatialReference": {
            "latestWkid": 32633,
            "wkid": 32633
        },
        "xmax": 450493.12090000045,
        "xmin": -305588.6796000004,
        "ymax": 7210241.434,
        "ymin": 6469673.3945
    },
    "fieldOrder": [],
    "fields": [
        {
            "alias": "Entreprenørordre GUID",
            "editable": false,
            "fieldid": 0,
            "name": "_globalId",
            "nullable": false,
            "type": "esriFieldTypeString"
        },
        {
            "alias": "Opprettet",
            "editable": false,
            "fieldid": 1,
            "name": "_created_Date",
            "nullable": false,
            "type": "esriFieldTypeDouble"
        },
        {
            "alias": "Opprettet av",
            "editable": false,
            "fieldid": 2,
            "name": "_createdBy",
            "nullable": false,
            "type": "esriFieldTypeString"
        },
        {
            "alias": "Endret",
            "editable": false,
            "fieldid": 3,
            "name": "_modified_Date",
            "nullable": false,
            "type": "esriFieldTypeDouble"
        },
        {
            "alias": "Endret av",
            "editable": false,
            "fieldid": 4,
            "name": "_modifiedBy",
            "nullable": false,
            "type": "esriFieldTypeString"
        },
        {
            "alias": "Ordrenummer",
            "editable": false,
            "fieldid": 5,
            "name": "_job_nr",
            "nullable": false,
            "type": "esriFieldTypeString"
        },
        {
            "alias": "Organisasjonsnummer arbeidslag",
            "editable": false,
            "fieldid": 19,
            "name": "_workTeamOrgNum",
            "nullable": false,
            "type": "esriFieldTypeString"
        },
        {
            "alias": "Arbeidslagsarbeidere",
            "editable": false,
            "fieldid": 21,
            "name": "_workTeamOrgWorkers",
            "nullable": false,
            "type": "esriFieldTypeString"
        },
        {
            "alias": "Arbeidsstatus",
            "editable": true,
            "fieldid": 20,
            "name": "workStatus",
            "nullable": true,
            "type": "esriFieldTypeString"
        }
    ],
    "geometryType": "esriGeometryPoint",
    "globalIdField": "_globalId",
    "hasAttachments": false,
    "hasM": false,
    "hasZ": false,
    "htmlPopupType": "esriServerHTMLPopupTypeAsHTMLText",
    "id": 2,
    "isDataVersioned": false,
    "maxRecordCount": 100000,
    "maxScale": 0,
    "minScale": 100000,
    "name": "GSSluttrapport",
    "objectIdField": "OBJECTID",
    "ownershipBasedAccessControlForFeatures": null,
    "relationships": [],
    "sections": [],
    "supportedQueryFormats": "JSON, AMF",
    "supportsAdvancedQueries": true,
    "supportsRollbackOnFailureParameter": true,
    "supportsStatistics": true,
    "syncCanReturnChanges": true,
    "templates": [],
    "type": "Feature Layer",
    "typeIdField": null,
    "types": [],
    "useStandardizedQueries": true
}

