{
    "allowGeometryUpdates": true,
    "capabilities": "Create,Delete,Query,Sync,Update,Uploads,Editing",
    "copyrightText": "",
    "currentVersion": 10.22,
    "defaultVisibility": true,
    "description": "",
    "displayField": "name",
    "drawingInfo": null,
    "editFieldsInfo": null,
    "extent": {
        "spatialReference": {
            "latestWkid": 25833,
            "wkid": 25833
        },
        "xmax": 449078.5729,
        "xmin": 22145.20600000024,
        "ymax": 7182411.7896,
        "ymin": 6488287.4629999995
    },
    "fieldOrder": [],
    "fields": [
        {
            "alias": "HeadID",
            "editable": false,
            "fieldid": 0,
            "name": "_headId",
            "nullable": false,
            "type": "esriFieldTypeString"
        },
        {
            "alias": "Opprettet",
            "editable": false,
            "fieldid": 1,
            "name": "_created_Date",
            "nullable": false,
            "type": "esriFieldTypeDouble"
        },
        {
            "alias": "Opprettet av",
            "editable": false,
            "fieldid": 2,
            "name": "_createdBy",
            "nullable": false,
            "type": "esriFieldTypeString"
        },
        {
            "alias": "Endret",
            "editable": false,
            "fieldid": 3,
            "name": "_modified_Date",
            "nullable": false,
            "type": "esriFieldTypeDouble"
        },
        {
            "alias": "Endret av",
            "editable": false,
            "fieldid": 4,
            "name": "_modifiedBy",
            "nullable": false,
            "type": "esriFieldTypeString"
        },
        {
            "alias": "Contractor Order Id",
            "editable": false,
            "fieldid": 5,
            "name": "_orderId",
            "nullable": true,
            "type": "esriFieldTypeString"
        },
        {
            "alias": "Service Order Id",
            "editable": false,
            "fieldid": 6,
            "name": "_serviceOrderId",
            "nullable": true,
            "type": "esriFieldTypeString"
        },
        {
            "alias": "Er livsløpstrær tilfredsstillende gjensatt og eventuelt kartfestet?",
            "domain": {
                "name": "Alternativer",
                "suggestedValues": [
                    {
                        "name": "Ja",
                        "value": "Ja"
                    },
                    {
                        "name": "Nei",
                        "value": "Nei"
                    }
                ],
                "type": "codedValue"
            },
            "editable": true,
            "fieldid": 7,
            "name": "livslopstraer",
            "notes": "",
            "nullable": false,
            "type": "esriFieldTypeString"
        },
        {
            "alias": "Er basveier anlagt hensiktsmessig og med tilstrekkelig hensyn til å forebygge kjøreskader?",
            "domain": {
                "name": "Alternativer",
                "suggestedValues": [
                    {
                        "name": "Ja",
                        "value": "Ja"
                    },
                    {
                        "name": "Nei",
                        "value": "Nei"
                    }
                ],
                "type": "codedValue"
            },
            "editable": true,
            "fieldid": 8,
            "name": "basveier",
            "notes": "",
            "nullable": false,
            "type": "esriFieldTypeString"
        },
        {
            "alias": "Er det gjort forebyggende tiltak for å redusere kjøreskader?",
            "domain": {
                "name": "Alternativer",
                "suggestedValues": [
                    {
                        "name": "Ja",
                        "value": "Ja"
                    },
                    {
                        "name": "Nei",
                        "value": "Nei"
                    }
                ],
                "type": "codedValue"
            },
            "editable": true,
            "fieldid": 9,
            "name": "prevent_track_damage",
            "notes": "kjsk",
            "nullable": false,
            "type": "esriFieldTypeString"
        },
        {
            "alias": "Er kjøreskader med behov for oppretting oppstått og dokumentert?",
            "domain": {
                "name": "Alternativer",
                "suggestedValues": [
                    {
                        "name": "Ja",
                        "value": "Ja"
                    },
                    {
                        "name": "Nei",
                        "value": "Nei"
                    }
                ],
                "type": "codedValue"
            },
            "editable": true,
            "fieldid": 10,
            "name": "kjskdok",
            "notes": "",
            "nullable": false,
            "type": "esriFieldTypeString"
        },
        {
            "alias": "Ved hogst inn mot biologisk viktig område, er denne tilfredsstillende gjennomført?",
            "domain": {
                "name": "Alternativer",
                "suggestedValues": [
                    {
                        "name": "Ja",
                        "value": "Ja"
                    },
                    {
                        "name": "Nei",
                        "value": "Nei"
                    }
                ],
                "type": "codedValue"
            },
            "editable": true,
            "fieldid": 11,
            "name": "bio",
            "notes": "bio",
            "nullable": false,
            "type": "esriFieldTypeString"
        },
        {
            "alias": "Er det tatt tilfredsstillende hensyn til kantsone/vegetasjonsbelte?",
            "domain": {
                "name": "Alternativer",
                "suggestedValues": [
                    {
                        "name": "Ja",
                        "value": "Ja"
                    },
                    {
                        "name": "Nei",
                        "value": "Nei"
                    }
                ],
                "type": "codedValue"
            },
            "editable": true,
            "fieldid": 12,
            "name": "kantsone",
            "notes": "",
            "nullable": false,
            "type": "esriFieldTypeString"
        },
        {
            "alias": "Gjennomsnittlig bredde på gjensatt kantsone i meter",
            "editable": true,
            "fieldid": 13,
            "name": "kantsone_bredde",
            "notes": "",
            "nullable": false,
            "type": "esriFieldTypeInteger"
        },
        {
            "alias": "Ved lukket hogst og tynning - er skadeomfang på gjenstående trær tilfredsstillende?",
            "domain": {
                "name": "Alternativer",
                "suggestedValues": [
                    {
                        "name": "Ja",
                        "value": "Ja"
                    },
                    {
                        "name": "Nei",
                        "value": "Nei"
                    }
                ],
                "type": "codedValue"
            },
            "editable": true,
            "fieldid": 14,
            "name": "skadeomfang",
            "notes": "",
            "nullable": false,
            "type": "esriFieldTypeString"
        },
        {
            "alias": "Er spesielle hensyn til friluftsliv ivaretatt?",
            "domain": {
                "name": "Alternativer",
                "suggestedValues": [
                    {
                        "name": "Ja",
                        "value": "Ja"
                    },
                    {
                        "name": "Nei",
                        "value": "Nei"
                    }
                ],
                "type": "codedValue"
            },
            "editable": true,
            "fieldid": 15,
            "name": "friluftsliv",
            "notes": "",
            "nullable": false,
            "type": "esriFieldTypeString"
        },
        {
            "alias": "Er det samsvar med maskinførers egenkontroll og faktiske forhold i driftsområdet?",
            "domain": {
                "name": "Alternativer",
                "suggestedValues": [
                    {
                        "name": "Ja",
                        "value": "Ja"
                    },
                    {
                        "name": "Nei",
                        "value": "Nei"
                    }
                ],
                "type": "codedValue"
            },
            "editable": true,
            "fieldid": 16,
            "name": "samsvar_egenkontroll",
            "notes": "",
            "nullable": false,
            "type": "esriFieldTypeString"
        },
        {
            "alias": "Har maskinfører eller driftsansvarlig registrert avvik under drifta?",
            "domain": {
                "name": "Alternativer",
                "suggestedValues": [
                    {
                        "name": "Ja",
                        "value": "Ja"
                    },
                    {
                        "name": "Nei",
                        "value": "Nei"
                    }
                ],
                "type": "codedValue"
            },
            "editable": true,
            "fieldid": 17,
            "name": "drift_avvik",
            "notes": "",
            "nullable": false,
            "type": "esriFieldTypeString"
        },
        {
            "alias": "Er det under denne internkontrollen registrert avvik?",
            "domain": {
                "name": "Alternativer",
                "suggestedValues": [
                    {
                        "name": "Ja",
                        "value": "Ja"
                    },
                    {
                        "name": "Nei",
                        "value": "Nei"
                    }
                ],
                "type": "codedValue"
            },
            "editable": true,
            "fieldid": 18,
            "name": "avvikregistrert",
            "notes": "",
            "nullable": false,
            "type": "esriFieldTypeString"
        },
        {
            "alias": "Ansvarlig for avviket",
            "editable": true,
            "fieldid": 19,
            "name": "avvikansvarlig",
            "notes": "",
            "nullable": false,
            "type": "esriFieldTypeString"
        },
        {
            "alias": "Kort beskrivelse av avviket",
            "editable": true,
            "fieldid": 20,
            "name": "avvikbeskrivelse",
            "notes": "",
            "nullable": false,
            "type": "esriFieldTypeString"
        },
        {
            "alias": "Hovedårsak til avvik",
            "editable": true,
            "fieldid": 21,
            "name": "avvikarsak",
            "notes": "",
            "nullable": false,
            "type": "esriFieldTypeString"
        },
        {
            "alias": "Avviksbehandling - tiltak for å rette opp eller redusere konsekvensene av avviket",
            "editable": true,
            "fieldid": 22,
            "name": "Avviksbehandling",
            "notes": "",
            "nullable": false,
            "type": "esriFieldTypeString"
        }
    ],
    "geometryType": "esriGeometryPolygon",
    "globalIdField": "_headId",
    "hasAttachments": false,
    "htmlPopupType": "esriServerHTMLPopupTypeAsHTMLText",
    "id": 2,
    "isDataVersioned": false,
    "maxRecordCount": 100000,
    "maxScale": 0,
    "minScale": 100000,
    "name": "LFFeltkontroll",
    "objectIdField": "OBJECTID",
    "ownershipBasedAccessControlForFeatures": null,
    "relationships": [],
    "sections": [],
    "supportedQueryFormats": "JSON, AMF",
    "supportsAdvancedQueries": true,
    "supportsRollbackOnFailureParameter": true,
    "supportsStatistics": true,
    "syncCanReturnChanges": true,
    "templates": [],
    "type": "Feature Layer",
    "typeIdField": "",
    "types": [],
    "useStandardizedQueries": true
}
