{
    "allowGeometryUpdates": true,
    "capabilities": "Create,Delete,Query,Sync,Update,Uploads,Editing",
    "copyrightText": "",
    "currentVersion": 10.22,
    "defaultVisibility": true,
    "description": "",
    "displayField": "_type",
    "drawingInfo": {
        "labelingInfo": null,
        "renderer": {
            "defaultLabel": null,
            "defaultSymbol": null,
            "field1": "_type",
            "field2": null,
            "field3": null,
            "fieldDelimiter": ", ",
            "type": "uniqueValue",
            "uniqueValueInfos": [
                {
                    "description": "",
                    "label": "Forhåndsrydding",
                    "symbol": {
                        "color": [
                            100,
                            100,
                            255,
                            100
                        ],
                        "outline": {
                            "color": [
                                255,
                                0,
                                197,
                                255
                            ],
                            "style": "esriSLSSolid",
                            "type": "esriSLS",
                            "width": 2
                        },
                        "style": "esriSFSSolid",
                        "type": "esriSFS"
                    },
                    "value": "Forhåndsrydding"
                }
            ]
        },
        "transparency": 0
    },
    "editFieldsInfo": null,
    "extent": {
        "spatialReference": {
            "latestWkid": 25833,
            "wkid": 25833
        },
        "xmax": 449078.5729,
        "xmin": 22145.20600000024,
        "ymax": 7182411.7896,
        "ymin": 6488287.4629999995
    },
    "fieldOrder": [],
    "fields": [
        {
            "alias": "Bilde",
            "editable": false,
            "fieldid": 0,
            "name": "_geojpgs",
            "nullable": true,
            "type": "esriFieldTypeBlob"
        },
        {
            "alias": "GlobalId",
            "editable": false,
            "fieldid": 1,
            "name": "_globalId",
            "nullable": false,
            "type": "esriFieldTypeString"
        },
        {
            "alias": "Opprettet",
            "editable": false,
            "fieldid": 2,
            "name": "_created_Date",
            "nullable": false,
            "type": "esriFieldTypeDouble"
        },
        {
            "alias": "Opprettet av",
            "editable": false,
            "fieldid": 3,
            "name": "_createdBy",
            "nullable": false,
            "type": "esriFieldTypeString"
        },
        {
            "alias": "Endret",
            "editable": false,
            "fieldid": 4,
            "name": "_modified_Date",
            "nullable": false,
            "type": "esriFieldTypeDouble"
        },
        {
            "alias": "Endret av",
            "editable": false,
            "fieldid": 5,
            "name": "_modifiedBy",
            "nullable": false,
            "type": "esriFieldTypeString"
        },
        {
            "alias": "Type",
            "editable": false,
            "fieldid": 6,
            "name": "_type",
            "nullable": false,
            "type": "esriFieldTypeString"
        },
        {
            "alias": "Navn på skogeier",
            "editable": true,
            "fieldid": 7,
            "name": "forest_owner",
            "nullable": false,
            "type": "esriFieldTypeString"
        },
        {
            "alias": "Leverandørnummer",
            "editable": true,
            "fieldid": 8,
            "name": "lev_nr",
            "nullable": false,
            "type": "esriFieldTypeInteger"
        },
        {
            "alias": "Kommune",
            "editable": true,
            "fieldid": 9,
            "name": "muni",
            "nullable": false,
            "type": "esriFieldTypeInteger"
        },
        {
            "alias": "Bestandsnummer",
            "editable": true,
            "fieldid": 10,
            "name": "bestand",
            "nullable": false,
            "type": "esriFieldTypeString"
        },
        {
            "alias": "Gnr/bnr",
            "editable": true,
            "fieldid": 11,
            "name": "gb_nr",
            "nullable": false,
            "type": "esriFieldTypeString"
        },
        {
            "alias": "Areal",
            "editable": false,
            "fieldid": 12,
            "name": "area",
            "nullable": true,
            "type": "esriFieldTypeDouble"
        },
        {
            "alias": "Ønsket tidspunkt",
            "editable": true,
            "fieldid": 13,
            "name": "start",
            "nullable": false,
            "type": "esriFieldTypeString"
        },
        {
            "alias": "Kommentar",
            "editable": true,
            "fieldid": 14,
            "name": "comment",
            "nullable": true,
            "type": "esriFieldTypeString"
        },
        {
            "alias": "Berører tiltaket biologisk viktig område?",
            "editable": true,
            "fieldid": 15,
            "name": "check_bio_Boolean",
            "nullable": false,
            "type": "esriFieldTypeInteger"
        },
        {
            "alias": "Biologisk område, merknad",
            "editable": true,
            "fieldid": 16,
            "name": "check_bio_comment",
            "nullable": true,
            "type": "esriFieldTypeString"
        },
        {
            "alias": "Berører tiltaket kjent kulturminne?",
            "editable": true,
            "fieldid": 17,
            "name": "check_herit_Boolean",
            "nullable": false,
            "type": "esriFieldTypeInteger"
        },
        {
            "alias": "Kulturminne, merknad",
            "editable": true,
            "fieldid": 18,
            "name": "check_herit_comment",
            "nullable": true,
            "type": "esriFieldTypeString"
        },
        {
            "alias": "Berører tiltaket viktige friluftsverdier?",
            "editable": true,
            "fieldid": 19,
            "name": "check_recreational_Boolean",
            "nullable": false,
            "type": "esriFieldTypeInteger"
        },
        {
            "alias": "Friluftsverdier, merknad",
            "editable": true,
            "fieldid": 20,
            "name": "check_recreational_comment",
            "nullable": true,
            "type": "esriFieldTypeString"
        },
        {
            "alias": "Kantsone?",
            "editable": true,
            "fieldid": 21,
            "name": "buffer_zone_Boolean",
            "nullable": false,
            "type": "esriFieldTypeInteger"
        },
        {
            "alias": "Kantsone, merknad",
            "editable": true,
            "fieldid": 22,
            "name": "buffer_zone_comment",
            "nullable": true,
            "type": "esriFieldTypeString"
        },
        {
            "alias": "Løpenummer",
            "editable": false,
            "fieldid": 23,
            "name": "_job_nr",
            "nullable": true,
            "type": "esriFieldTypeInteger"
        },
        {
            "alias": "Fakturanummer",
            "editable": true,
            "fieldid": 24,
            "name": "invoice_nr",
            "nullable": true,
            "type": "esriFieldTypeInteger"
        },
        {
            "alias": "E-post",
            "editable": true,
            "fieldid": 25,
            "name": "_email",
            "nullable": true,
            "type": "esriFieldTypeString"
        },
        {
            "alias": "Sendt per epost (nb ikke automatisk)",
            "editable": true,
            "fieldid": 26,
            "name": "sent_Boolean",
            "nullable": true,
            "type": "esriFieldTypeInteger"
        }
    ],
    "geometryType": "esriGeometryPolygon",
    "globalIdField": "_globalId",
    "hasAttachments": false,
    "htmlPopupType": "esriServerHTMLPopupTypeAsHTMLText",
    "id": 2,
    "isDataVersioned": false,
    "maxRecordCount": 100000,
    "maxScale": 0,
    "minScale": 100000,
    "name": "LFForhandsrydding",
    "objectIdField": "OBJECTID",
    "ownershipBasedAccessControlForFeatures": null,
    "relationships": [],
    "supportedQueryFormats": "JSON, AMF",
    "supportsAdvancedQueries": true,
    "supportsRollbackOnFailureParameter": true,
    "supportsStatistics": true,
    "syncCanReturnChanges": true,
    "templates": [],
    "type": "Feature Layer",
    "typeIdField": "_type",
    "types": [
        {
            "domains": {},
            "id": "Forhåndsrydding",
            "name": "Forhåndsrydding",
            "templates": [
                {
                    "description": "",
                    "drawingTool": "esriFeatureEditToolPolygon",
                    "name": "Forhåndsrydding",
                    "prototype": {
                        "attributes": {
                            "_type": "Forhåndsrydding"
                        }
                    }
                }
            ]
        }
    ],
    "useStandardizedQueries": true
}
