{
    "alias": "Utført arbeid",
    "allowGeometryUpdates": true,
    "capabilities": "Create,Delete,Query,Sync,Update,Uploads,Editing",
    "copyrightText": "",
    "currentVersion": 10.22,
    "defaultVisibility": true,
    "description": "",
    "displayField": "_title",
    "drawingInfo": {
        "labelingInfo": null,
        "renderer": {
            "defaultLabel": null,
            "defaultSymbol": null,
            "field1": "contractor_done_Boolean",
            "field2": null,
            "field3": null,
            "fieldDelimiter": ", ",
            "note to future self": "!!! HUSK AT DETTE FELTET MÅ VÆRE EDITABLE !!!",
            "type": "uniqueValue",
            "uniqueValueInfos": [
                {
                    "description": "",
                    "label": "Arbeid ikke utført",
                    "symbol": {
                        "color": [
                            0,
                            0,
                            0,
                            0
                        ],
                        "outline": {
                            "color": [
                                255,
                                255,
                                255,
                                255
                            ],
                            "style": "esriSLSSolid",
                            "type": "esriSLS",
                            "width": 1.5
                        },
                        "style": "esriSFSBackwardDiagonal",
                        "type": "esriSFS"
                    },
                    "value": "0"
                },
                {
                    "description": "",
                    "label": "Arbeid utført",
                    "symbol": {
                        "color": [
                            0,
                            255,
                            0,
                            100
                        ],
                        "outline": {
                            "color": [
                                255,
                                255,
                                255,
                                255
                            ],
                            "style": "esriSLSSolid",
                            "type": "esriSLS",
                            "width": 1.5
                        },
                        "style": "esriSFSBackwardDiagonal",
                        "type": "esriSFS"
                    },
                    "value": "1"
                }
            ]
        },
        "transparency": 0
    },
    "editFieldsInfo": null,
    "extent": {
        "spatialReference": {
            "latestWkid": 25833,
            "wkid": 25833
        },
        "xmax": 449078.5729,
        "xmin": 22145.20600000024,
        "ymax": 7182411.7896,
        "ymin": 6488287.4629999995
    },
    "fieldOrder": [],
    "fields": [
        {
            "alias": "GlobalId",
            "editable": false,
            "fieldid": 1,
            "name": "_globalId",
            "nullable": false,
            "type": "esriFieldTypeString"
        },
        {
            "alias": "Opprettet",
            "editable": false,
            "fieldid": 2,
            "name": "_created_Date",
            "nullable": false,
            "type": "esriFieldTypeDouble"
        },
        {
            "alias": "Opprettet av",
            "editable": false,
            "fieldid": 3,
            "name": "_createdBy",
            "nullable": false,
            "type": "esriFieldTypeString"
        },
        {
            "alias": "Endret",
            "editable": false,
            "fieldid": 4,
            "name": "_modified_Date",
            "nullable": false,
            "type": "esriFieldTypeDouble"
        },
        {
            "alias": "Endret av",
            "editable": false,
            "fieldid": 5,
            "name": "_modifiedBy",
            "nullable": false,
            "type": "esriFieldTypeString"
        },
        {
            "alias": "Organisasjonsnummer arbeidslag",
            "editable": false,
            "fieldid": 8,
            "name": "_workTeamOrgNum",
            "nullable": false,
            "type": "esriFieldTypeString"
        },
        {
            "alias": "Subcollection",
            "editable": false,
            "fieldid": 9,
            "name": "_subCollection",
            "nullable": false,
            "type": "esriFieldTypeString"
        },
        {
            "alias": "Skogkultur global id",
            "editable": false,
            "fieldid": 10,
            "name": "_parentGlobalId",
            "nullable": false,
            "type": "esriFieldTypeString"
        },
        {
            "alias": "Tittel på tiltaket",
            "editable": false,
            "fieldid": 12,
            "name": "_title",
            "nullable": false,
            "type": "esriFieldTypeString"
        },
        {
            "alias": "Bestand",
            "editable": false,
            "fieldid": 15,
            "logic": {
                "visibleIf": {
                    "allOf": [
                        {
                            "field": {
                                "operator": "exists",
                                "otherFieldName": "bestand"
                            }
                        },
                        {
                            "field": {
                                "operator": "missing",
                                "otherFieldName": "bestand_str"
                            }
                        }
                    ]
                }
            },
            "name": "bestand",
            "nullable": true,
            "section": 1,
            "translations": [
                {
                    "key": "Bestand",
                    "language": "en",
                    "value": "Stand"
                }
            ],
            "type": "esriFieldTypeInteger"
        },
        {
            "alias": "Bestand",
            "editable": false,
            "fieldid": 16,
            "logic": {
                "visibleIf": {
                    "field": {
                        "operator": "exists",
                        "otherFieldName": "bestand_str"
                    }
                }
            },
            "name": "bestand_str",
            "nullable": true,
            "section": 1,
            "translations": [
                {
                    "key": "Bestand",
                    "language": "en",
                    "value": "Stand"
                }
            ],
            "type": "esriFieldTypeString"
        },
        {
            "alias": "Areal",
            "editable": false,
            "fieldid": 6,
            "name": "area",
            "nullable": true,
            "section": 1,
            "sortix": 17,
            "translations": [
                {
                    "key": "Areal",
                    "language": "en",
                    "value": "Area"
                }
            ],
            "type": "esriFieldTypeDouble"
        },
        {
            "alias": "Markér som ferdig (entrep)",
            "editable": true,
            "fieldid": 11,
            "name": "contractor_done_Boolean",
            "nullable": true,
            "section": 1,
            "sortix": 18,
            "translations": [
                {
                    "key": "Markér som ferdig (entrep)",
                    "language": "en",
                    "value": "Mark done (by contractor)"
                }
            ],
            "type": "esriFieldTypeInteger"
        },
        {
            "alias": "Antall meter grøfterensk",
            "editable": true,
            "fieldid": 51,
            "logic": {
                "visibleIf": {
                    "field": {
                        "operator": "==",
                        "otherFieldName": "_subCollection",
                        "otherFieldStringValue": "MEPGrofterenskGeom"
                    }
                }
            },
            "name": "meters_grofterensk",
            "nullable": false,
            "section": 1,
            "translations": [
                {
                    "key": "Antall meter grøfterensk",
                    "language": "en",
                    "value": "Number of meters of ditch cleaning"
                }
            ],
            "type": "esriFieldTypeInteger"
        },
        {
            "alias": "Type grøfterensk",
            "domain": {
                "codedValues": [
                    {
                        "name": "Grøfter",
                        "value": "1"
                    },
                    {
                        "name": "Kanaler",
                        "value": "2"
                    }
                ],
                "type": "codedValue"
            },
            "editable": true,
            "fieldid": 52,
            "logic": {
                "visibleIf": {
                    "field": {
                        "operator": "==",
                        "otherFieldName": "_subCollection",
                        "otherFieldStringValue": "MEPGrofterenskGeom"
                    }
                }
            },
            "name": "grofterensk_type",
            "nullable": false,
            "section": 1,
            "translations": [
                {
                    "key": "Type grøfterensk",
                    "language": "en",
                    "value": "Ditch cleaning type"
                },
                {
                    "key": "1",
                    "language": "en",
                    "value": "Ditches"
                },
                {
                    "key": "2",
                    "language": "en",
                    "value": "Channels"
                }
            ],
            "type": "esriFieldTypeString"
        },
        {
            "alias": "Antall gram frø totalt",
            "editable": true,
            "fieldid": 57,
            "logic": {
                "visibleIf": {
                    "field": {
                        "operator": "==",
                        "otherFieldName": "_subCollection",
                        "otherFieldStringValue": "MEPSaaingGeom"
                    }
                }
            },
            "name": "seeds_grams_total",
            "nullable": false,
            "section": 1,
            "translations": [
                {
                    "key": "Antall gram frø totalt",
                    "language": "en",
                    "value": "Sown grams totally"
                }
            ],
            "type": "esriFieldTypeInteger"
        },
        {
            "alias": "Timer",
            "editable": true,
            "fieldid": 62,
            "logic": {
                "visibleIf": {
                    "field": {
                        "operator": "exists",
                        "otherFieldName": "hours"
                    }
                }
            },
            "name": "hours",
            "nullable": true,
            "section": 1,
            "translations": [
                {
                    "key": "Timer",
                    "language": "en",
                    "value": "Hours"
                }
            ],
            "type": "esriFieldTypeInteger"
        },
        {
            "alias": "Timer",
            "editable": true,
            "fieldid": 63,
            "logic": {
                "visibleIf": {
                    "field": {
                        "operator": "missing",
                        "otherFieldName": "hours"
                    }
                }
            },
            "name": "hours_Decimal2",
            "nullable": true,
            "section": 1,
            "translations": [
                {
                    "key": "Timer",
                    "language": "en",
                    "value": "Hours"
                }
            ],
            "type": "esriFieldTypeString"
        },
        {
            "alias": "Prismodell",
            "editable": false,
            "fieldid": 64,
            "logic": {
                "visibleIf": {
                    "field": {
                        "operator": "!=",
                        "otherFieldName": "price_model",
                        "otherFieldStringValue": ""
                    }
                }
            },
            "name": "price_model",
            "nullable": true,
            "section": 1,
            "translations": [
                {
                    "key": "Prismodell",
                    "language": "en",
                    "value": "Price model"
                }
            ],
            "type": "esriFieldTypeString"
        },
        {
            "alias": "Antall naturlig kommet per daa",
            "editable": true,
            "fieldid": 59,
            "logic": {
                "visibleIf": {
                    "field": {
                        "operator": "==",
                        "otherFieldName": "_subCollection",
                        "otherFieldStringValue": "MEPSaaingGeom"
                    }
                }
            },
            "name": "natural_plants",
            "nullable": false,
            "section": 1,
            "sortix": 65,
            "translations": [
                {
                    "key": "Antall naturlig kommet per daa",
                    "language": "en",
                    "value": "Number of natural plants per daa"
                }
            ],
            "type": "esriFieldTypeInteger"
        },
        {
            "alias": "Antall gram frø per daa.",
            "editable": true,
            "fieldid": 58,
            "logic": {
                "visibleIf": {
                    "field": {
                        "operator": "==",
                        "otherFieldName": "_subCollection",
                        "otherFieldStringValue": "MEPSaaingGeom"
                    }
                }
            },
            "name": "seeds_grams_per_daa",
            "nullable": false,
            "section": 1,
            "sortix": 66,
            "translations": [
                {
                    "key": "Antall gram frø per daa.",
                    "language": "en",
                    "value": "Sown grams per decar"
                }
            ],
            "type": "esriFieldTypeInteger"
        },
        {
            "alias": "Sådd areal i daa.",
            "editable": true,
            "fieldid": 56,
            "logic": {
                "visibleIf": {
                    "field": {
                        "operator": "==",
                        "otherFieldName": "_subCollection",
                        "otherFieldStringValue": "MEPSaaingGeom"
                    }
                }
            },
            "name": "seeds_area_daa",
            "nullable": false,
            "section": 1,
            "sortix": 67,
            "translations": [
                {
                    "key": "Sådd areal i daa.",
                    "language": "en",
                    "value": "Sown area in decares."
                }
            ],
            "type": "esriFieldTypeInteger"
        },
        {
            "alias": "Frøparti (sertifikat nr)",
            "editable": true,
            "fieldid": 60,
            "logic": {
                "visibleIf": {
                    "field": {
                        "operator": "==",
                        "otherFieldName": "_subCollection",
                        "otherFieldStringValue": "MEPSaaingGeom"
                    }
                }
            },
            "name": "seeds_ref_nr",
            "nullable": false,
            "section": 1,
            "sortix": 68,
            "translations": [
                {
                    "key": "Frøparti (sertifikat nr)",
                    "language": "en",
                    "value": "Seed reference (certificate number)"
                }
            ],
            "type": "esriFieldTypeString"
        },
        {
            "alias": "Såtidspunkt",
            "editable": true,
            "fieldid": 61,
            "logic": {
                "visibleIf": {
                    "field": {
                        "operator": "==",
                        "otherFieldName": "_subCollection",
                        "otherFieldStringValue": "MEPSaaingGeom"
                    }
                }
            },
            "name": "seeds_Date",
            "nullable": false,
            "section": 1,
            "sortix": 69,
            "translations": [
                {
                    "key": "Såtidspunkt",
                    "language": "en",
                    "value": "Seed date"
                }
            ],
            "type": "esriFieldTypeString"
        },
        {
            "alias": "Andel gran",
            "editable": false,
            "fieldid": 71,
            "logic": {
                "visibleIf": {
                    "anyOf": [
                        {
                            "field": {
                                "operator": "==",
                                "otherFieldName": "_subCollection",
                                "otherFieldStringValue": "MEPPlantingGeom"
                            }
                        },
                        {
                            "field": {
                                "operator": "==",
                                "otherFieldName": "_subCollection",
                                "otherFieldStringValue": "MEPSaaingGeom"
                            }
                        }
                    ]
                }
            },
            "name": "perc_gran",
            "nullable": true,
            "section": 1,
            "translations": [
                {
                    "key": "Andel gran",
                    "language": "en",
                    "value": "Proportion spruce"
                }
            ],
            "type": "esriFieldTypeInteger"
        },
        {
            "alias": "Andel furu",
            "editable": false,
            "fieldid": 72,
            "logic": {
                "visibleIf": {
                    "anyOf": [
                        {
                            "field": {
                                "operator": "==",
                                "otherFieldName": "_subCollection",
                                "otherFieldStringValue": "MEPPlantingGeom"
                            }
                        },
                        {
                            "field": {
                                "operator": "==",
                                "otherFieldName": "_subCollection",
                                "otherFieldStringValue": "MEPSaaingGeom"
                            }
                        }
                    ]
                }
            },
            "name": "perc_furu",
            "nullable": true,
            "section": 1,
            "translations": [
                {
                    "key": "Andel furu",
                    "language": "en",
                    "value": "Proportion pine"
                }
            ],
            "type": "esriFieldTypeInteger"
        },
        {
            "alias": "Andel lauv",
            "editable": false,
            "fieldid": 73,
            "logic": {
                "visibleIf": {
                    "anyOf": [
                        {
                            "field": {
                                "operator": "==",
                                "otherFieldName": "_subCollection",
                                "otherFieldStringValue": "MEPPlantingGeom"
                            }
                        },
                        {
                            "field": {
                                "operator": "==",
                                "otherFieldName": "_subCollection",
                                "otherFieldStringValue": "MEPSaaingGeom"
                            }
                        }
                    ]
                }
            },
            "name": "perc_lauv",
            "nullable": true,
            "section": 1,
            "translations": [
                {
                    "key": "Andel lauv",
                    "language": "en",
                    "value": "Proportion deciduous"
                }
            ],
            "type": "esriFieldTypeInteger"
        },
        {
            "alias": "Proveniens",
            "editable": true,
            "fieldid": 54,
            "logic": {
                "visibleIf": {
                    "anyOf": [
                        {
                            "field": {
                                "operator": "==",
                                "otherFieldName": "_subCollection",
                                "otherFieldStringValue": "MEPPlantingGeom"
                            }
                        },
                        {
                            "field": {
                                "operator": "==",
                                "otherFieldName": "_subCollection",
                                "otherFieldStringValue": "MEPSaaingGeom"
                            }
                        }
                    ]
                }
            },
            "name": "proveniens",
            "nullable": true,
            "section": 2,
            "translations": [
                {
                    "key": "Proveniens",
                    "language": "en",
                    "value": "Provenance"
                }
            ],
            "type": "esriFieldTypeString"
        },
        {
            "alias": "Treslag",
            "domain": {
                "codedValues": [
                    {
                        "name": "Gran",
                        "value": "Gran"
                    },
                    {
                        "name": "Furu",
                        "value": "Furu"
                    },
                    {
                        "name": "Bjørk",
                        "value": "Bjørk"
                    },
                    {
                        "name": "Svartor",
                        "value": "Svartor"
                    },
                    {
                        "name": "Lerk",
                        "value": "Lerk"
                    },
                    {
                        "name": "Sitka",
                        "value": "Sitka"
                    }
                ],
                "type": "codedValue"
            },
            "editable": true,
            "fieldid": 21,
            "logic": {
                "visibleIf": {
                    "anyOf": [
                        {
                            "field": {
                                "operator": "==",
                                "otherFieldName": "_subCollection",
                                "otherFieldStringValue": "MEPPlantingGeom"
                            }
                        },
                        {
                            "field": {
                                "operator": "==",
                                "otherFieldName": "_subCollection",
                                "otherFieldStringValue": "MEPSaaingGeom"
                            }
                        }
                    ]
                }
            },
            "name": "tree_kind",
            "nullable": false,
            "section": 2,
            "sortix": 55,
            "translations": [
                {
                    "key": "Treslag",
                    "language": "en",
                    "value": "Tree kind"
                }
            ],
            "type": "esriFieldTypeString"
        },
        {
            "alias": "Plantetype",
            "domain": {
                "suggestedValues": [
                    {
                        "name": "M60 2år",
                        "value": "M60 2år"
                    },
                    {
                        "name": "M95 1år",
                        "value": "M95 1år"
                    },
                    {
                        "name": "M95 2år",
                        "value": "M95 2år"
                    }
                ],
                "type": "codedValue"
            },
            "editable": true,
            "fieldid": 22,
            "logic": {
                "visibleIf": {
                    "field": {
                        "operator": "==",
                        "otherFieldName": "_subCollection",
                        "otherFieldStringValue": "MEPPlantingGeom"
                    }
                }
            },
            "name": "plant_type",
            "nullable": true,
            "section": 2,
            "sortix": 56,
            "translations": [
                {
                    "key": "Plantetype",
                    "language": "en",
                    "value": "Plant type"
                }
            ],
            "type": "esriFieldTypeString"
        },
        {
            "alias": "Behandling",
            "domain": {
                "codedValues": [
                    {
                        "name": "Voks",
                        "value": "Voks"
                    },
                    {
                        "name": "Kjemisk",
                        "value": "Kjemisk"
                    },
                    {
                        "name": "Conniflex",
                        "value": "Conniflex"
                    },
                    {
                        "name": "Woodcoat",
                        "value": "Woodcoat"
                    },
                    {
                        "name": "Ingen",
                        "value": "Ingen"
                    }
                ],
                "type": "codedValue"
            },
            "editable": true,
            "fieldid": 23,
            "logic": {
                "visibleIf": {
                    "field": {
                        "operator": "==",
                        "otherFieldName": "_subCollection",
                        "otherFieldStringValue": "MEPPlantingGeom"
                    }
                }
            },
            "name": "plant_treatment",
            "nullable": false,
            "section": 2,
            "sortix": 57,
            "translations": [
                {
                    "key": "Behandling",
                    "language": "en",
                    "value": "Treatment"
                }
            ],
            "type": "esriFieldTypeString"
        },
        {
            "alias": "Prosentfordeling plantetype 1",
            "editable": false,
            "fieldid": 69,
            "logic": {
                "visibleIf": {
                    "allOf": [
                        {
                            "field": {
                                "operator": "==",
                                "otherFieldName": "_subCollection",
                                "otherFieldStringValue": "MEPPlantingGeom"
                            }
                        },
                        {
                            "field": {
                                "operator": "exists",
                                "otherFieldName": "tree_kind_2"
                            }
                        }
                    ]
                }
            },
            "name": "plant_type_1_percent",
            "nullable": true,
            "section": 2,
            "translations": [
                {
                    "key": "Prosentfordeling plantetype 1",
                    "language": "en",
                    "value": "Percent plant type 1"
                }
            ],
            "type": "esriFieldTypeInteger"
        },
        {
            "alias": "Antall plantede planter",
            "editable": true,
            "fieldid": 25,
            "logic": {
                "visibleIf": {
                    "field": {
                        "operator": "==",
                        "otherFieldName": "_subCollection",
                        "otherFieldStringValue": "MEPPlantingGeom"
                    }
                }
            },
            "name": "num_planted",
            "nullable": false,
            "section": 2,
            "sortix": 70,
            "translations": [
                {
                    "key": "Antall plantede planter",
                    "language": "en",
                    "value": "Number of planted plants"
                }
            ],
            "type": "esriFieldTypeInteger"
        },
        {
            "alias": "Referansenummer planter",
            "editable": true,
            "fieldid": 50,
            "logic": {
                "visibleIf": {
                    "field": {
                        "operator": "==",
                        "otherFieldName": "_subCollection",
                        "otherFieldStringValue": "MEPPlantingGeom"
                    }
                }
            },
            "name": "refnr_plants",
            "nullable": true,
            "section": 2,
            "sortix": 71,
            "translations": [
                {
                    "key": "Referansenummer planter",
                    "language": "en",
                    "value": "Reference number for plants"
                }
            ],
            "type": "esriFieldTypeString"
        },
        {
            "alias": "Proveniens",
            "editable": true,
            "fieldid": 34,
            "logic": {
                "visibleIf": {
                    "allOf": [
                        {
                            "field": {
                                "operator": "==",
                                "otherFieldName": "_subCollection",
                                "otherFieldStringValue": "MEPPlantingGeom"
                            }
                        },
                        {
                            "field": {
                                "operator": "exists",
                                "otherFieldName": "tree_kind_2"
                            }
                        }
                    ]
                }
            },
            "name": "proveniens_2",
            "nullable": true,
            "section": 3,
            "translations": [
                {
                    "key": "Proveniens",
                    "language": "en",
                    "value": "Provenance"
                }
            ],
            "type": "esriFieldTypeString"
        },
        {
            "alias": "Treslag",
            "domain": {
                "codedValues": [
                    {
                        "name": "Gran",
                        "value": "Gran"
                    },
                    {
                        "name": "Furu",
                        "value": "Furu"
                    },
                    {
                        "name": "Bjørk",
                        "value": "Bjørk"
                    },
                    {
                        "name": "Svartor",
                        "value": "Svartor"
                    },
                    {
                        "name": "Lerk",
                        "value": "Lerk"
                    },
                    {
                        "name": "Sitka",
                        "value": "Sitka"
                    }
                ],
                "type": "codedValue"
            },
            "editable": true,
            "fieldid": 31,
            "logic": {
                "visibleIf": {
                    "allOf": [
                        {
                            "field": {
                                "operator": "==",
                                "otherFieldName": "_subCollection",
                                "otherFieldStringValue": "MEPPlantingGeom"
                            }
                        },
                        {
                            "field": {
                                "operator": "exists",
                                "otherFieldName": "tree_kind_2"
                            }
                        }
                    ]
                }
            },
            "name": "tree_kind_2",
            "nullable": true,
            "section": 3,
            "sortix": 35,
            "translations": [
                {
                    "key": "Treslag",
                    "language": "en",
                    "value": "Tree kind"
                }
            ],
            "type": "esriFieldTypeString"
        },
        {
            "alias": "Plantetype",
            "domain": {
                "suggestedValues": [
                    {
                        "name": "M60 2år",
                        "value": "M60 2år"
                    },
                    {
                        "name": "M95 1år",
                        "value": "M95 1år"
                    },
                    {
                        "name": "M95 2år",
                        "value": "M95 2år"
                    }
                ],
                "type": "codedValue"
            },
            "editable": true,
            "fieldid": 32,
            "logic": {
                "visibleIf": {
                    "allOf": [
                        {
                            "field": {
                                "operator": "==",
                                "otherFieldName": "_subCollection",
                                "otherFieldStringValue": "MEPPlantingGeom"
                            }
                        },
                        {
                            "field": {
                                "operator": "exists",
                                "otherFieldName": "tree_kind_2"
                            }
                        }
                    ]
                }
            },
            "name": "plant_type_2",
            "nullable": true,
            "section": 3,
            "sortix": 36,
            "translations": [
                {
                    "key": "Plantetype",
                    "language": "en",
                    "value": "Plant type"
                }
            ],
            "type": "esriFieldTypeString"
        },
        {
            "alias": "Behandling",
            "domain": {
                "codedValues": [
                    {
                        "name": "Voks",
                        "value": "Voks"
                    },
                    {
                        "name": "Kjemisk",
                        "value": "Kjemisk"
                    },
                    {
                        "name": "Conniflex",
                        "value": "Conniflex"
                    },
                    {
                        "name": "Woodcoat",
                        "value": "Woodcoat"
                    },
                    {
                        "name": "Ingen",
                        "value": "Ingen"
                    }
                ],
                "type": "codedValue"
            },
            "editable": true,
            "fieldid": 33,
            "logic": {
                "visibleIf": {
                    "allOf": [
                        {
                            "field": {
                                "operator": "==",
                                "otherFieldName": "_subCollection",
                                "otherFieldStringValue": "MEPPlantingGeom"
                            }
                        },
                        {
                            "field": {
                                "operator": "exists",
                                "otherFieldName": "tree_kind_2"
                            }
                        }
                    ]
                }
            },
            "name": "plant_treatment_2",
            "nullable": false,
            "section": 3,
            "sortix": 37,
            "translations": [
                {
                    "key": "Behandling",
                    "language": "en",
                    "value": "Treatment"
                }
            ],
            "type": "esriFieldTypeString"
        },
        {
            "alias": "Prosentfordeling plantetype 2",
            "editable": false,
            "fieldid": 68,
            "logic": {
                "visibleIf": {
                    "allOf": [
                        {
                            "field": {
                                "operator": "==",
                                "otherFieldName": "_subCollection",
                                "otherFieldStringValue": "MEPPlantingGeom"
                            }
                        },
                        {
                            "field": {
                                "operator": "exists",
                                "otherFieldName": "tree_kind_2"
                            }
                        }
                    ]
                }
            },
            "name": "plant_type_2_percent",
            "nullable": true,
            "section": 3,
            "translations": [
                {
                    "key": "Prosentfordeling plantetype 2",
                    "language": "en",
                    "value": "Percent plant type 2"
                }
            ],
            "type": "esriFieldTypeInteger"
        },
        {
            "alias": "Antall plantede planter",
            "editable": true,
            "fieldid": 35,
            "logic": {
                "visibleIf": {
                    "allOf": [
                        {
                            "field": {
                                "operator": "==",
                                "otherFieldName": "_subCollection",
                                "otherFieldStringValue": "MEPPlantingGeom"
                            }
                        },
                        {
                            "field": {
                                "operator": "exists",
                                "otherFieldName": "tree_kind_2"
                            }
                        }
                    ]
                }
            },
            "name": "num_planted_2",
            "nullable": false,
            "section": 3,
            "sortix": 69,
            "translations": [
                {
                    "key": "Antall plantede planter",
                    "language": "en",
                    "value": "Number of planted plants"
                }
            ],
            "type": "esriFieldTypeInteger"
        },
        {
            "alias": "Referansenummer planter",
            "editable": true,
            "fieldid": 36,
            "logic": {
                "visibleIf": {
                    "allOf": [
                        {
                            "field": {
                                "operator": "==",
                                "otherFieldName": "_subCollection",
                                "otherFieldStringValue": "MEPPlantingGeom"
                            }
                        },
                        {
                            "field": {
                                "operator": "exists",
                                "otherFieldName": "tree_kind_2"
                            }
                        }
                    ]
                }
            },
            "name": "refnr_plants_2",
            "nullable": true,
            "section": 3,
            "sortix": 70,
            "translations": [
                {
                    "key": "Referansenummer planter",
                    "language": "en",
                    "value": "Reference number for plants"
                }
            ],
            "type": "esriFieldTypeString"
        },
        {
            "alias": "Proveniens",
            "editable": true,
            "fieldid": 3034,
            "logic": {
                "visibleIf": {
                    "allOf": [
                        {
                            "field": {
                                "operator": "==",
                                "otherFieldName": "_subCollection",
                                "otherFieldStringValue": "MEPPlantingGeom"
                            }
                        },
                        {
                            "field": {
                                "operator": "exists",
                                "otherFieldName": "tree_kind_3"
                            }
                        }
                    ]
                }
            },
            "name": "proveniens_3",
            "nullable": true,
            "section": 4,
            "translations": [
                {
                    "key": "Proveniens",
                    "language": "en",
                    "value": "Provenance"
                }
            ],
            "type": "esriFieldTypeString"
        },
        {
            "alias": "Treslag",
            "domain": {
                "codedValues": [
                    {
                        "name": "Gran",
                        "value": "Gran"
                    },
                    {
                        "name": "Furu",
                        "value": "Furu"
                    },
                    {
                        "name": "Bjørk",
                        "value": "Bjørk"
                    },
                    {
                        "name": "Svartor",
                        "value": "Svartor"
                    },
                    {
                        "name": "Lerk",
                        "value": "Lerk"
                    },
                    {
                        "name": "Sitka",
                        "value": "Sitka"
                    }
                ],
                "type": "codedValue"
            },
            "editable": true,
            "fieldid": 3031,
            "logic": {
                "visibleIf": {
                    "allOf": [
                        {
                            "field": {
                                "operator": "==",
                                "otherFieldName": "_subCollection",
                                "otherFieldStringValue": "MEPPlantingGeom"
                            }
                        },
                        {
                            "field": {
                                "operator": "exists",
                                "otherFieldName": "tree_kind_3"
                            }
                        }
                    ]
                }
            },
            "name": "tree_kind_3",
            "nullable": true,
            "section": 4,
            "sortix": 3035,
            "translations": [
                {
                    "key": "Treslag",
                    "language": "en",
                    "value": "Tree kind"
                }
            ],
            "type": "esriFieldTypeString"
        },
        {
            "alias": "Plantetype",
            "domain": {
                "suggestedValues": [
                    {
                        "name": "M60 2år",
                        "value": "M60 2år"
                    },
                    {
                        "name": "M95 1år",
                        "value": "M95 1år"
                    },
                    {
                        "name": "M95 2år",
                        "value": "M95 2år"
                    }
                ],
                "type": "codedValue"
            },
            "editable": true,
            "fieldid": 3032,
            "logic": {
                "visibleIf": {
                    "allOf": [
                        {
                            "field": {
                                "operator": "==",
                                "otherFieldName": "_subCollection",
                                "otherFieldStringValue": "MEPPlantingGeom"
                            }
                        },
                        {
                            "field": {
                                "operator": "exists",
                                "otherFieldName": "tree_kind_3"
                            }
                        }
                    ]
                }
            },
            "name": "plant_type_3",
            "nullable": true,
            "section": 4,
            "sortix": 3036,
            "translations": [
                {
                    "key": "Plantetype",
                    "language": "en",
                    "value": "Plant type"
                }
            ],
            "type": "esriFieldTypeString"
        },
        {
            "alias": "Behandling",
            "domain": {
                "codedValues": [
                    {
                        "name": "Voks",
                        "value": "Voks"
                    },
                    {
                        "name": "Kjemisk",
                        "value": "Kjemisk"
                    },
                    {
                        "name": "Conniflex",
                        "value": "Conniflex"
                    },
                    {
                        "name": "Woodcoat",
                        "value": "Woodcoat"
                    },
                    {
                        "name": "Ingen",
                        "value": "Ingen"
                    }
                ],
                "type": "codedValue"
            },
            "editable": true,
            "fieldid": 3033,
            "logic": {
                "visibleIf": {
                    "allOf": [
                        {
                            "field": {
                                "operator": "==",
                                "otherFieldName": "_subCollection",
                                "otherFieldStringValue": "MEPPlantingGeom"
                            }
                        },
                        {
                            "field": {
                                "operator": "exists",
                                "otherFieldName": "tree_kind_3"
                            }
                        }
                    ]
                }
            },
            "name": "plant_treatment_3",
            "nullable": false,
            "section": 4,
            "sortix": 3037,
            "translations": [
                {
                    "key": "Behandling",
                    "language": "en",
                    "value": "Treatment"
                }
            ],
            "type": "esriFieldTypeString"
        },
        {
            "alias": "Prosentfordeling plantetype 3",
            "editable": false,
            "fieldid": 3068,
            "logic": {
                "visibleIf": {
                    "allOf": [
                        {
                            "field": {
                                "operator": "==",
                                "otherFieldName": "_subCollection",
                                "otherFieldStringValue": "MEPPlantingGeom"
                            }
                        },
                        {
                            "field": {
                                "operator": "exists",
                                "otherFieldName": "tree_kind_3"
                            }
                        }
                    ]
                }
            },
            "name": "plant_type_3_percent",
            "nullable": true,
            "section": 4,
            "translations": [
                {
                    "key": "Prosentfordeling plantetype 3",
                    "language": "en",
                    "value": "Percent plant type 3"
                }
            ],
            "type": "esriFieldTypeInteger"
        },
        {
            "alias": "Antall plantede planter",
            "editable": true,
            "fieldid": 3035,
            "logic": {
                "visibleIf": {
                    "allOf": [
                        {
                            "field": {
                                "operator": "==",
                                "otherFieldName": "_subCollection",
                                "otherFieldStringValue": "MEPPlantingGeom"
                            }
                        },
                        {
                            "field": {
                                "operator": "exists",
                                "otherFieldName": "tree_kind_3"
                            }
                        }
                    ]
                }
            },
            "name": "num_planted_3",
            "nullable": false,
            "section": 4,
            "sortix": 3069,
            "translations": [
                {
                    "key": "Antall plantede planter",
                    "language": "en",
                    "value": "Number of planted plants"
                }
            ],
            "type": "esriFieldTypeInteger"
        },
        {
            "alias": "Referansenummer planter",
            "editable": true,
            "fieldid": 3036,
            "logic": {
                "visibleIf": {
                    "allOf": [
                        {
                            "field": {
                                "operator": "==",
                                "otherFieldName": "_subCollection",
                                "otherFieldStringValue": "MEPPlantingGeom"
                            }
                        },
                        {
                            "field": {
                                "operator": "exists",
                                "otherFieldName": "tree_kind_3"
                            }
                        }
                    ]
                }
            },
            "name": "refnr_plants_3",
            "nullable": true,
            "section": 4,
            "sortix": 3070,
            "translations": [
                {
                    "key": "Referansenummer planter",
                    "language": "en",
                    "value": "Reference number for plants"
                }
            ],
            "type": "esriFieldTypeString"
        },
        {
            "alias": "Proveniens",
            "editable": true,
            "fieldid": 4034,
            "logic": {
                "visibleIf": {
                    "allOf": [
                        {
                            "field": {
                                "operator": "==",
                                "otherFieldName": "_subCollection",
                                "otherFieldStringValue": "MEPPlantingGeom"
                            }
                        },
                        {
                            "field": {
                                "operator": "exists",
                                "otherFieldName": "tree_kind_4"
                            }
                        }
                    ]
                }
            },
            "name": "proveniens_4",
            "nullable": true,
            "section": 5,
            "translations": [
                {
                    "key": "Proveniens",
                    "language": "en",
                    "value": "Provenance"
                }
            ],
            "type": "esriFieldTypeString"
        },
        {
            "alias": "Treslag",
            "domain": {
                "codedValues": [
                    {
                        "name": "Gran",
                        "value": "Gran"
                    },
                    {
                        "name": "Furu",
                        "value": "Furu"
                    },
                    {
                        "name": "Bjørk",
                        "value": "Bjørk"
                    },
                    {
                        "name": "Svartor",
                        "value": "Svartor"
                    },
                    {
                        "name": "Lerk",
                        "value": "Lerk"
                    },
                    {
                        "name": "Sitka",
                        "value": "Sitka"
                    }
                ],
                "type": "codedValue"
            },
            "editable": true,
            "fieldid": 4031,
            "logic": {
                "visibleIf": {
                    "allOf": [
                        {
                            "field": {
                                "operator": "==",
                                "otherFieldName": "_subCollection",
                                "otherFieldStringValue": "MEPPlantingGeom"
                            }
                        },
                        {
                            "field": {
                                "operator": "exists",
                                "otherFieldName": "tree_kind_4"
                            }
                        }
                    ]
                }
            },
            "name": "tree_kind_4",
            "nullable": true,
            "section": 5,
            "sortix": 4035,
            "translations": [
                {
                    "key": "Treslag",
                    "language": "en",
                    "value": "Tree kind"
                }
            ],
            "type": "esriFieldTypeString"
        },
        {
            "alias": "Plantetype",
            "domain": {
                "suggestedValues": [
                    {
                        "name": "M60 2år",
                        "value": "M60 2år"
                    },
                    {
                        "name": "M95 1år",
                        "value": "M95 1år"
                    },
                    {
                        "name": "M95 2år",
                        "value": "M95 2år"
                    }
                ],
                "type": "codedValue"
            },
            "editable": true,
            "fieldid": 4032,
            "logic": {
                "visibleIf": {
                    "allOf": [
                        {
                            "field": {
                                "operator": "==",
                                "otherFieldName": "_subCollection",
                                "otherFieldStringValue": "MEPPlantingGeom"
                            }
                        },
                        {
                            "field": {
                                "operator": "exists",
                                "otherFieldName": "tree_kind_4"
                            }
                        }
                    ]
                }
            },
            "name": "plant_type_4",
            "nullable": true,
            "section": 5,
            "sortix": 4036,
            "translations": [
                {
                    "key": "Plantetype",
                    "language": "en",
                    "value": "Plant type"
                }
            ],
            "type": "esriFieldTypeString"
        },
        {
            "alias": "Behandling",
            "domain": {
                "codedValues": [
                    {
                        "name": "Voks",
                        "value": "Voks"
                    },
                    {
                        "name": "Kjemisk",
                        "value": "Kjemisk"
                    },
                    {
                        "name": "Conniflex",
                        "value": "Conniflex"
                    },
                    {
                        "name": "Woodcoat",
                        "value": "Woodcoat"
                    },
                    {
                        "name": "Ingen",
                        "value": "Ingen"
                    }
                ],
                "type": "codedValue"
            },
            "editable": true,
            "fieldid": 4033,
            "logic": {
                "visibleIf": {
                    "allOf": [
                        {
                            "field": {
                                "operator": "==",
                                "otherFieldName": "_subCollection",
                                "otherFieldStringValue": "MEPPlantingGeom"
                            }
                        },
                        {
                            "field": {
                                "operator": "exists",
                                "otherFieldName": "tree_kind_4"
                            }
                        }
                    ]
                }
            },
            "name": "plant_treatment_4",
            "nullable": false,
            "section": 5,
            "sortix": 4037,
            "translations": [
                {
                    "key": "Behandling",
                    "language": "en",
                    "value": "Treatment"
                }
            ],
            "type": "esriFieldTypeString"
        },
        {
            "alias": "Prosentfordeling plantetype 4",
            "editable": false,
            "fieldid": 4068,
            "logic": {
                "visibleIf": {
                    "allOf": [
                        {
                            "field": {
                                "operator": "==",
                                "otherFieldName": "_subCollection",
                                "otherFieldStringValue": "MEPPlantingGeom"
                            }
                        },
                        {
                            "field": {
                                "operator": "exists",
                                "otherFieldName": "tree_kind_4"
                            }
                        },
                        {
                            "field": {
                                "operator": "exists",
                                "otherFieldName": "tree_kind_2"
                            }
                        }
                    ]
                }
            },
            "name": "plant_type_4_percent",
            "nullable": true,
            "section": 5,
            "translations": [
                {
                    "key": "Prosentfordeling plantetype 4",
                    "language": "en",
                    "value": "Percent plant type 4"
                }
            ],
            "type": "esriFieldTypeInteger"
        },
        {
            "alias": "Antall plantede planter",
            "editable": true,
            "fieldid": 4035,
            "logic": {
                "visibleIf": {
                    "allOf": [
                        {
                            "field": {
                                "operator": "==",
                                "otherFieldName": "_subCollection",
                                "otherFieldStringValue": "MEPPlantingGeom"
                            }
                        },
                        {
                            "field": {
                                "operator": "exists",
                                "otherFieldName": "tree_kind_4"
                            }
                        }
                    ]
                }
            },
            "name": "num_planted_4",
            "nullable": false,
            "section": 5,
            "sortix": 4069,
            "translations": [
                {
                    "key": "Antall plantede planter",
                    "language": "en",
                    "value": "Number of planted plants"
                }
            ],
            "type": "esriFieldTypeInteger"
        },
        {
            "alias": "Referansenummer planter",
            "editable": true,
            "fieldid": 4036,
            "logic": {
                "visibleIf": {
                    "allOf": [
                        {
                            "field": {
                                "operator": "==",
                                "otherFieldName": "_subCollection",
                                "otherFieldStringValue": "MEPPlantingGeom"
                            }
                        },
                        {
                            "field": {
                                "operator": "exists",
                                "otherFieldName": "tree_kind_4"
                            }
                        }
                    ]
                }
            },
            "name": "refnr_plants_4",
            "nullable": true,
            "section": 5,
            "sortix": 4070,
            "translations": [
                {
                    "key": "Referansenummer planter",
                    "language": "en",
                    "value": "Reference number for plants"
                }
            ],
            "type": "esriFieldTypeString"
        },
        {
            "alias": "Kommentar",
            "editable": true,
            "fieldid": 70,
            "name": "comment",
            "nullable": true,
            "section": 6,
            "translations": [
                {
                    "key": "Kommentar",
                    "language": "en",
                    "value": "Comment"
                }
            ],
            "type": "esriFieldTypeString"
        }
    ],
    "geometryType": "esriGeometryPolygon",
    "globalIdField": "_globalId",
    "hasAttachments": false,
    "hasM": false,
    "hasZ": false,
    "htmlPopupType": "esriServerHTMLPopupTypeAsHTMLText",
    "id": 4,
    "isDataVersioned": false,
    "maxRecordCount": 100000,
    "maxScale": 0,
    "minScale": 50000,
    "name": "MEDoneWork",
    "objectIdField": "OBJECTID",
    "ownershipBasedAccessControlForFeatures": null,
    "relationships": [],
    "sections": [
        {
            "id": 1,
            "title": ""
        },
        {
            "id": 2,
            "title": "Plantetype 1"
        },
        {
            "id": 3,
            "title": "Plantetype 2"
        },
        {
            "id": 4,
            "title": "Plantetype 3"
        },
        {
            "id": 5,
            "title": "Plantetype 4"
        },
        {
            "id": 6,
            "title": ""
        }
    ],
    "supportedQueryFormats": "JSON, AMF",
    "supportsAdvancedQueries": true,
    "supportsRollbackOnFailureParameter": true,
    "supportsStatistics": true,
    "syncCanReturnChanges": true,
    "templates": [],
    "translations": [
        {
            "key": "Utført arbeid",
            "language": "en",
            "value": "Done work"
        },
        {
            "key": "Plantetype 1",
            "language": "en",
            "value": "Plant type 1"
        },
        {
            "key": "Plantetype 2",
            "language": "en",
            "value": "Plant type 2"
        },
        {
            "key": "Plantetype 3",
            "language": "en",
            "value": "Plant type 3"
        },
        {
            "key": "Plantetype 4",
            "language": "en",
            "value": "Plant type 4"
        }
    ],
    "type": "Feature Layer",
    "typeIdField": "contractor_done_Boolean",
    "types": [],
    "useStandardizedQueries": true
}

