{
    "alias": "Feltkontroll ungskogpleie",
    "allowGeometryUpdates": true,
    "capabilities": "Create,Delete,Query,Sync,Update,Uploads,Editing",
    "copyrightText": "",
    "currentVersion": 10.22,
    "defaultVisibility": true,
    "description": "",
    "displayField": "dev_Boolean",
    "drawingInfo": null,
    "editFieldsInfo": null,
    "extent": {
        "spatialReference": {
            "latestWkid": 25833,
            "wkid": 25833
        },
        "xmax": 450493.12090000045,
        "xmin": -305588.6796000004,
        "ymax": 7210241.434,
        "ymin": 6469673.3945
    },
    "fieldOrder": [],
    "fields": [
        {
            "alias": "Entreprenørordre GUID",
            "editable": false,
            "fieldid": 0,
            "name": "_globalId",
            "nullable": false,
            "type": "esriFieldTypeString"
        },
        {
            "alias": "Opprettet",
            "editable": false,
            "fieldid": 1,
            "name": "_created_Date",
            "nullable": false,
            "type": "esriFieldTypeDouble"
        },
        {
            "alias": "Opprettet av",
            "editable": false,
            "fieldid": 2,
            "name": "_createdBy",
            "nullable": false,
            "type": "esriFieldTypeString"
        },
        {
            "alias": "Endret",
            "editable": false,
            "fieldid": 3,
            "name": "_modified_Date",
            "nullable": false,
            "type": "esriFieldTypeDouble"
        },
        {
            "alias": "Endret av",
            "editable": false,
            "fieldid": 4,
            "name": "_modifiedBy",
            "nullable": false,
            "type": "esriFieldTypeString"
        },
        {
            "alias": "Ordrenummer",
            "editable": false,
            "fieldid": 5,
            "name": "_job_nr",
            "nullable": false,
            "type": "esriFieldTypeString"
        },
        {
            "alias": "Type",
            "editable": false,
            "fieldid": 6,
            "name": "_type",
            "nullable": true,
            "type": "esriFieldTypeString",
            "comment": "nullable because of backwards compability, null = 'Egenkontroll'"
        },
        {
            "alias": "Tilhørende objekt",
            "editable": false,
            "fieldid": 7,
            "name": "_parentGlobalId",
            "nullable": false,
            "type": "esriFieldTypeString"
        },
        {
            "alias": "Organisasjonsnummer arbeidslag",
            "editable": false,
            "fieldid": 8,
            "name": "_workTeamOrgNum",
            "nullable": true,
            "type": "esriFieldTypeString"
        },
        {
            "alias": "Hvilke bestand er kontrollen utført i?",
            "editable": true,
            "fieldid": 20,
            "name": "bestand_str",
            "nullable": false,
            "section": 1,
            "type": "esriFieldTypeString"
        },
        {
            "alias": "Er målingene tilfredsstillende i forhold til instruks?",
            "domain": {
                "suggestedValues": [
                    {
                        "name": "Ja",
                        "value": "Ja"
                    },
                    {
                        "name": "Nei",
                        "value": "Nei"
                    },
                    {
                        "name": "Ikke aktuelt",
                        "value": "Ikke aktuelt"
                    }
                ],
                "type": "codedValue"
            },
            "editable": true,
            "fieldid": 200,
            "name": "measurements_satisfactory",
            "nullable": false,
            "section": 1,
            "type": "esriFieldTypeString"
        },
        {
            "alias": "Er valg av framtidsstammer tilfredsstillende?",
            "domain": {
                "suggestedValues": [
                    {
                        "name": "Ja",
                        "value": "Ja"
                    },
                    {
                        "name": "Nei",
                        "value": "Nei"
                    },
                    {
                        "name": "Ikke aktuelt",
                        "value": "Ikke aktuelt"
                    }
                ],
                "type": "codedValue"
            },
            "editable": true,
            "fieldid": 201,
            "name": "futuretrunks_satisfactory",
            "nullable": false,
            "section": 1,
            "type": "esriFieldTypeString"
        },
        {
            "alias": "Er det god romlig fordeling mellom framtidstrærne?",
            "domain": {
                "suggestedValues": [
                    {
                        "name": "Ja",
                        "value": "Ja"
                    },
                    {
                        "name": "Nei",
                        "value": "Nei"
                    },
                    {
                        "name": "Ikke aktuelt",
                        "value": "Ikke aktuelt"
                    }
                ],
                "type": "codedValue"
            },
            "editable": true,
            "fieldid": 202,
            "name": "futuretrunks_spacing",
            "nullable": false,
            "section": 1,
            "type": "esriFieldTypeString"
        },
        {
            "alias": "Er det satt igjen ROS, toppkappa løvtrær, furu til viltet?",
            "domain": {
                "suggestedValues": [
                    {
                        "name": "Ja",
                        "value": "Ja"
                    },
                    {
                        "name": "Nei",
                        "value": "Nei"
                    },
                    {
                        "name": "Ikke aktuelt",
                        "value": "Ikke aktuelt"
                    }
                ],
                "type": "codedValue"
            },
            "editable": true,
            "fieldid": 203,
            "name": "wildlife_retention",
            "nullable": false,
            "section": 1,
            "type": "esriFieldTypeString"
        },
        {
            "alias": "Er stubbehøyden tilfredsstillende?",
            "domain": {
                "suggestedValues": [
                    {
                        "name": "Ja",
                        "value": "Ja"
                    },
                    {
                        "name": "Nei",
                        "value": "Nei"
                    },
                    {
                        "name": "Ikke aktuelt",
                        "value": "Ikke aktuelt"
                    }
                ],
                "type": "codedValue"
            },
            "editable": true,
            "fieldid": 204,
            "name": "stumpheight_satisfactory",
            "nullable": false,
            "section": 1,
            "type": "esriFieldTypeString"
        },
        {
            "alias": "Kantsone intakt/avsatt i henhold til instruks?",
            "domain": {
                "suggestedValues": [
                    {
                        "name": "Ja",
                        "value": "Ja"
                    },
                    {
                        "name": "Nei",
                        "value": "Nei"
                    },
                    {
                        "name": "Ikke aktuelt",
                        "value": "Ikke aktuelt"
                    }
                ],
                "type": "codedValue"
            },
            "editable": true,
            "fieldid": 205,
            "name": "edge_zone",
            "nullable": false,
            "section": 1,
            "type": "esriFieldTypeString"
        },
        {
            "alias": "Kantsone gjennomsnittsbredde",
            "editable": true,
            "fieldid": 206,
            "name": "edge_zone_average_width",
            "nullable": true,
            "section": 1,
            "type": "esriFieldTypeString"
        },
        {
            "alias": "Er avstand til stier/skiløyper ivaretatt i henhold til instruks?",
            "domain": {
                "suggestedValues": [
                    {
                        "name": "Ja",
                        "value": "Ja"
                    },
                    {
                        "name": "Nei",
                        "value": "Nei"
                    },
                    {
                        "name": "Ikke aktuelt",
                        "value": "Ikke aktuelt"
                    }
                ],
                "type": "codedValue"
            },
            "editable": true,
            "fieldid": 207,
            "name": "path_buffer",
            "nullable": false,
            "section": 1,
            "type": "esriFieldTypeString"
        },
        {
            "alias": "Er grøfter holdt åpne i henhold til instruks?",
            "domain": {
                "suggestedValues": [
                    {
                        "name": "Ja",
                        "value": "Ja"
                    },
                    {
                        "name": "Nei",
                        "value": "Nei"
                    },
                    {
                        "name": "Ikke aktuelt",
                        "value": "Ikke aktuelt"
                    }
                ],
                "type": "codedValue"
            },
            "editable": true,
            "fieldid": 208,
            "name": "trench",
            "nullable": false,
            "section": 1,
            "type": "esriFieldTypeString"
        },
        {
            "alias": "Nøkkelbiotoper og naturtyper ivaretatt i henhold til instruks",
            "domain": {
                "suggestedValues": [
                    {
                        "name": "Ja",
                        "value": "Ja"
                    },
                    {
                        "name": "Nei",
                        "value": "Nei"
                    },
                    {
                        "name": "Ikke aktuelt",
                        "value": "Ikke aktuelt"
                    }
                ],
                "type": "codedValue"
            },
            "editable": true,
            "fieldid": 209,
            "name": "key_biotope",
            "nullable": false,
            "section": 1,
            "type": "esriFieldTypeString"
        },
        {
            "alias": "Kulturminner ivaretatt i henhold til instruks?",
            "domain": {
                "suggestedValues": [
                    {
                        "name": "Ja",
                        "value": "Ja"
                    },
                    {
                        "name": "Nei",
                        "value": "Nei"
                    },
                    {
                        "name": "Ikke aktuelt",
                        "value": "Ikke aktuelt"
                    }
                ],
                "type": "codedValue"
            },
            "editable": true,
            "fieldid": 210,
            "name": "cultural",
            "nullable": false,
            "section": 1,
            "type": "esriFieldTypeString"
        },
        {
            "alias": "Er aktuelle driftsveier holdt åpne i henhold til instruks?",
            "domain": {
                "suggestedValues": [
                    {
                        "name": "Ja",
                        "value": "Ja"
                    },
                    {
                        "name": "Nei",
                        "value": "Nei"
                    },
                    {
                        "name": "Ikke aktuelt",
                        "value": "Ikke aktuelt"
                    }
                ],
                "type": "codedValue"
            },
            "editable": true,
            "fieldid": 211,
            "name": "operating_routes",
            "nullable": false,
            "section": 1,
            "type": "esriFieldTypeString"
        },
        {
            "alias": "Fugler og arter hensyntatt i henhold til instruks?",
            "domain": {
                "suggestedValues": [
                    {
                        "name": "Ja",
                        "value": "Ja"
                    },
                    {
                        "name": "Nei",
                        "value": "Nei"
                    },
                    {
                        "name": "Ikke aktuelt",
                        "value": "Ikke aktuelt"
                    }
                ],
                "type": "codedValue"
            },
            "editable": true,
            "fieldid": 212,
            "name": "wildlife",
            "nullable": false,
            "section": 1,
            "type": "esriFieldTypeString"
        },
        {
            "alias": "Er avstand til skogsbilvei/offentligvei ivaretatt i henhold til instruks?",
            "domain": {
                "suggestedValues": [
                    {
                        "name": "Ja",
                        "value": "Ja"
                    },
                    {
                        "name": "Nei",
                        "value": "Nei"
                    },
                    {
                        "name": "Ikke aktuelt",
                        "value": "Ikke aktuelt"
                    }
                ],
                "type": "codedValue"
            },
            "editable": true,
            "fieldid": 213,
            "name": "read_dist",
            "nullable": false,
            "section": 1,
            "type": "esriFieldTypeString"
        },
        {
            "alias": "Er det registrert avvik?",
            "domain": {
                "suggestedValues": [
                    {
                        "name": "Ja",
                        "value": "Ja"
                    },
                    {
                        "name": "Nei",
                        "value": "Nei"
                    },
                    {
                        "name": "Ikke aktuelt",
                        "value": "Ikke aktuelt"
                    }
                ],
                "type": "codedValue"
            },
            "editable": true,
            "fieldid": 300,
            "name": "deviation",
            "nullable": false,
            "section": 1,
            "type": "esriFieldTypeString"
        },
        {
            "alias": "Generell kommentar",
            "editable": true,
            "fieldid": 72,
            "name": "comment",
            "nullable": true,
            "section": 1,
            "sortix": 301,
            "type": "esriFieldTypeString"
        }
    ],
    "geometryType": "esriGeometryPoint",
    "globalIdField": "_globalId",
    "hasAttachments": false,
    "hasM": false,
    "hasZ": false,
    "htmlPopupType": "esriServerHTMLPopupTypeAsHTMLText",
    "id": 2,
    "isDataVersioned": false,
    "maxRecordCount": 100000,
    "maxScale": 0,
    "minScale": 100000,
    "name": "MEPFeltkontrollUngskogpleie",
    "objectIdField": "OBJECTID",
    "ownershipBasedAccessControlForFeatures": null,
    "relationships": [],
    "sections": [
        {
            "id": 1,
            "title": ""
        }
    ],
    "supportedQueryFormats": "JSON, AMF",
    "supportsAdvancedQueries": true,
    "supportsRollbackOnFailureParameter": true,
    "supportsStatistics": true,
    "syncCanReturnChanges": true,
    "templates": [],
    "type": "Feature Layer",
    "typeIdField": "dev_Boolean",
    "types": [
        {
            "domains": {},
            "id": "Feltkontroll",
            "name": "Feltkontroll",
            "templates": [
                {
                    "name": "FeltkontrollOngoing",
                    "prototype": {
                        "attributes": {
                            "_type": "FeltkontrollOngoing"
                        }
                    }
                },
                {
                    "name": "FeltkontrollCompleted",
                    "prototype": {
                        "attributes": {
                            "_type": "FeltkontrollCompleted"
                        }
                    }
                }
            ]
        }
    ],
    "useStandardizedQueries": true
}

