{
    "allowGeometryUpdates": true,
    "capabilities": "Create,Delete,Query,Sync,Update,Uploads,Editing",
    "copyrightText": "",
    "currentVersion": 10.22,
    "defaultVisibility": true,
    "description": "",
    "displayField": "forestOwnerName",
    "drawingInfo": {
        "renderer": {
            "defaultLabel": null,
            "defaultSymbol": null,
            "field1": "_type",
            "field2": null,
            "field3": null,
            "fieldDelimiter": ", ",
            "type": "uniqueValue",
            "uniqueValueInfos": [
                {
                    "description": "",
                    "label": "Planting",
                    "symbol": {
                        "color": [
                            255,
                            0,
                            197,
                            100
                        ],
                        "outline": {
                            "color": [
                                255,
                                0,
                                197,
                                255
                            ],
                            "style": "esriSLSDashDotDot",
                            "type": "esriSLS",
                            "width": 0.4
                        },
                        "style": "esriSFSSolid",
                        "type": "esriSFS"
                    },
                    "value": "Planting"
                }
            ]
        }
    },
    "editFieldsInfo": null,
    "extent": {
        "spatialReference": {
            "latestWkid": 25833,
            "wkid": 25833
        },
        "xmax": 500000,
        "xmin": 0,
        "ymax": 8000000,
        "ymin": 5000000
    },
    "fieldOrder": [],
    "fields": [
        {
            "alias": "GlobalId",
            "fieldid": 1,
            "name": "_globalId",
            "type": "esriFieldTypeString"
        },
        {
            "alias": "Opprettet",
            "fieldid": 2,
            "name": "_created_Date",
            "type": "esriFieldTypeDouble"
        },
        {
            "alias": "Opprettet av",
            "fieldid": 3,
            "name": "_createdBy",
            "type": "esriFieldTypeString"
        },
        {
            "alias": "Endret",
            "fieldid": 4,
            "name": "_modified_Date",
            "type": "esriFieldTypeDouble"
        },
        {
            "alias": "Endret av",
            "fieldid": 5,
            "name": "_modifiedBy",
            "type": "esriFieldTypeString"
        },
        {
            "alias": "Type",
            "fieldid": 6,
            "name": "_type",
            "type": "esriFieldTypeString"
        },
        {
            "alias": "Nøkkel i Verified-systemet",
            "fieldid": 7,
            "name": "_verifiedEnvelopeId",
            "type": "esriFieldTypeString"
        },
        {
            "alias": "Tidspunktet kontrakt ble sendt til Verified for signering",
            "fieldid": 8,
            "name": "_verifiedSent_Date",
            "type": "esriFieldTypeDouble"
        },
        {
            "alias": "Leverandørnummer",
            "fieldid": 9,
            "name": "_verifiedSigned_Boolean",
            "type": "esriFieldTypeInteger"
        },
        {
            "alias": "Skogeier: E-post",
            "editable": true,
            "fieldid": 11,
            "name": "forestOwnerEmail",
            "nullable": false,
            "type": "esriFieldTypeString"
        },
        {
            "alias": "Skogeier: OrgNum",
            "editable": true,
            "fieldid": 13,
            "name": "forestOwnerOrgNum",
            "nullable": false,
            "type": "esriFieldTypeString"
        },
        {
            "alias": "Skogeier: Navn",
            "editable": true,
            "fieldid": 14,
            "name": "forestOwnerName",
            "nullable": false,
            "type": "esriFieldTypeString"
        },
        {
            "alias": "Skogeier: Adresse",
            "editable": true,
            "fieldid": 15,
            "name": "forestOwnerAddress",
            "nullable": false,
            "type": "esriFieldTypeString"
        },
        {
            "alias": "Skogeier: Postnummer",
            "editable": true,
            "fieldid": 16,
            "name": "forestOwnerZipCode",
            "nullable": false,
            "type": "esriFieldTypeString"
        },
        {
            "alias": "Skogeier: Sted",
            "editable": true,
            "fieldid": 17,
            "name": "forestOwnerCity",
            "nullable": false,
            "type": "esriFieldTypeString"
        },
        {
            "alias": "Planlegger: E-post",
            "editable": true,
            "fieldid": 18,
            "name": "plannerEmail",
            "nullable": false,
            "type": "esriFieldTypeString"
        },
        {
            "alias": "Planlegger: OrgNum",
            "editable": true,
            "fieldid": 19,
            "name": "plannerOrgNum",
            "nullable": false,
            "type": "esriFieldTypeString"
        },
        {
            "alias": "Planlegger: Navn",
            "editable": true,
            "fieldid": 20,
            "name": "plannerContactName",
            "nullable": false,
            "type": "esriFieldTypeString"
        },
        {
            "alias": "Planlegger: Telefon",
            "editable": true,
            "fieldid": 21,
            "name": "plannerContactPhone",
            "nullable": false,
            "type": "esriFieldTypeString"
        },
        {
            "alias": "Eiendom: Kommune",
            "editable": true,
            "fieldid": 22,
            "name": "muniName",
            "nullable": false,
            "type": "esriFieldTypeString"
        },
        {
            "alias": "Eiendom: Kommunenummer",
            "editable": true,
            "fieldid": 23,
            "name": "muniNum",
            "nullable": false,
            "type": "esriFieldTypeInteger"
        },
        {
            "alias": "Eiendom: Gårdsnummer",
            "editable": true,
            "fieldid": 24,
            "name": "gridNum",
            "nullable": false,
            "type": "esriFieldTypeInteger"
        },
        {
            "alias": "Eiendom: Bruksnummer",
            "editable": true,
            "fieldid": 25,
            "name": "holdingNum",
            "nullable": false,
            "type": "esriFieldTypeInteger"
        },
        {
            "alias": "Skogeier: Leverandørnummer",
            "editable": true,
            "fieldid": 26,
            "name": "levNr",
            "nullable": true,
            "type": "esriFieldTypeString"
        },
        {
            "alias": "Når denne ble sendt til manuell signering",
            "fieldid": 27,
            "name": "_manualSent_Date",
            "type": "esriFieldTypeDouble"
        },
        {
            "alias": "Signert manuelt",
            "editable": true,
            "fieldid": 28,
            "name": "_manualSigned_Date",
            "nullable": true,
            "type": "esriFieldTypeDouble"
        },
        {
            "alias": "Planlegger: Org navn",
            "editable": true,
            "fieldid": 29,
            "name": "plannerOrgName",
            "nullable": false,
            "type": "esriFieldTypeString"
        },
        {
            "alias": "Skogeier: Telefon",
            "editable": true,
            "fieldid": 30,
            "name": "forestOwnerPhone",
            "nullable": false,
            "type": "esriFieldTypeString"
        },
        {
            "alias": "Løpenummer",
            "fieldid": 31,
            "name": "_job_nr",
            "type": "esriFieldTypeInteger"
        },
        {
            "alias": "Areal",
            "fieldid": 32,
            "name": "_area",
            "type": "esriFieldTypeDouble"
        },
        {
            "alias": "Kommentarer til oppdraget",
            "editable": true,
            "fieldid": 33,
            "name": "comment",
            "nullable": true,
            "type": "esriFieldTypeString"
        }
    ],
    "geometryType": "esriGeometryPolygon",
    "globalIdField": "_globalId",
    "hasAttachments": false,
    "hasM": false,
    "hasZ": false,
    "htmlPopupType": "esriServerHTMLPopupTypeAsHTMLText",
    "id": 2,
    "isDataVersioned": false,
    "maxRecordCount": 100000,
    "maxScale": 0,
    "minScale": 100000,
    "name": "NTPPlanting",
    "objectIdField": "OBJECTID",
    "ownershipBasedAccessControlForFeatures": null,
    "relationships": [],
    "supportedQueryFormats": "JSON, AMF",
    "supportsAdvancedQueries": true,
    "supportsRollbackOnFailureParameter": true,
    "supportsStatistics": true,
    "syncCanReturnChanges": true,
    "templates": [],
    "type": "Feature Layer",
    "typeIdField": "_type",
    "types": [
        {
            "domains": {},
            "id": "Planting",
            "name": "Planting",
            "templates": [
                {
                    "description": "",
                    "drawingTool": "esriFeatureEditToolPolygon",
                    "name": "Planting",
                    "prototype": {
                        "attributes": {
                            "_type": "Planting"
                        }
                    }
                }
            ]
        }
    ],
    "useStandardizedQueries": true
}
