{
    "allowGeometryUpdates": true,
    "capabilities": "Create,Delete,Query,Sync,Update,Uploads,Editing",
    "copyrightText": "",
    "currentVersion": 10.22,
    "defaultVisibility": true,
    "description": "",
    "displayField": "_tema",
    "drawingInfo": {
        "labelingInfo": [
            {
                "labelExpression": "[comment]",
                "labelPlacement": "esriServerPolygonPlacementAlwaysHorizontal",
                "maxScale": 0,
                "minScale": 0,
                "symbol": {
                    "angle": 0,
                    "backgroundColor": null,
                    "borderLineColor": null,
                    "borderLineSize": null,
                    "color": [
                        235,
                        61,
                        194,
                        255
                    ],
                    "font": {
                        "decoration": "none",
                        "family": "Arial",
                        "size": 12,
                        "style": "normal",
                        "weight": "normal"
                    },
                    "haloColor": [
                        255,
                        255,
                        255,
                        200
                    ],
                    "haloSize": 2,
                    "horizontalAlignment": "left",
                    "kerning": true,
                    "rightToLeft": false,
                    "type": "esriTS",
                    "verticalAlignment": "bottom",
                    "xoffset": 0,
                    "yoffset": 0
                },
                "useCodedValues": true
            }
        ],
        "renderer": {
            "defaultLabel": null,
            "defaultSymbol": null,
            "field1": "_tema",
            "field2": null,
            "field3": null,
            "fieldDelimiter": ", ",
            "note to future self": "!!! HUSK AT DETTE FELTET MÅ VÆRE EDITABLE !!!",
            "type": "uniqueValue",
            "uniqueValueInfos": [
                {
                    "description": "",
                    "label": "01. Ny BVO-figur",
                    "symbol": {
                        "color": [
                            255,
                            0,
                            197,
                            150
                        ],
                        "outline": {
                            "color": [
                                255,
                                0,
                                197,
                                255
                            ],
                            "style": "esriSLSSolid",
                            "type": "esriSLS",
                            "width": 2
                        },
                        "style": "esriSFSBackwardDiagonal",
                        "type": "esriSFS"
                    },
                    "value": "Ny BVO-figur"
                },
                {
                    "description": "",
                    "label": "02. Annet",
                    "symbol": {
                        "color": [
                            110,
                            110,
                            110,
                            150
                        ],
                        "outline": {
                            "color": [
                                0,
                                0,
                                0,
                                255
                            ],
                            "style": "esriSLSSolid",
                            "type": "esriSLS",
                            "width": 2
                        },
                        "style": "esriSFSBackwardDiagonal",
                        "type": "esriSFS"
                    },
                    "value": "Annet"
                },
                {
                    "description": "",
                    "label": "03. Kantsone",
                    "symbol": {
                        "color": [
                            0,
                            230,
                            169,
                            255
                        ],
                        "outline": {
                            "color": [
                                0,
                                230,
                                169,
                                255
                            ],
                            "style": "esriSLSSolid",
                            "type": "esriSLS",
                            "width": 2
                        },
                        "style": "esriSFSBackwardDiagonal",
                        "type": "esriSFS"
                    },
                    "value": "Kantsone"
                }
            ]
        },
        "transparency": 0
    },
    "editFieldsInfo": null,
    "extent": {
        "spatialReference": {
            "latestWkid": 25833,
            "wkid": 25833
        },
        "xmax": 449078.5729,
        "xmin": 22145.20600000024,
        "ymax": 7182411.7896,
        "ymin": 6488287.4629999995
    },
    "fieldOrder": null,
    "fields": [
        {
            "alias": "GlobalId",
            "editable": false,
            "fieldid": 0,
            "name": "_globalId",
            "nullable": false,
            "type": "esriFieldTypeString"
        },
        {
            "alias": "Opprettet",
            "editable": false,
            "fieldid": 1,
            "name": "_created_Date",
            "nullable": false,
            "type": "esriFieldTypeDouble"
        },
        {
            "alias": "Opprettet av",
            "editable": false,
            "fieldid": 2,
            "name": "_createdBy",
            "nullable": false,
            "type": "esriFieldTypeString"
        },
        {
            "alias": "Endret",
            "editable": false,
            "fieldid": 3,
            "name": "_modified_Date",
            "nullable": false,
            "type": "esriFieldTypeDouble"
        },
        {
            "alias": "Endret av",
            "editable": false,
            "fieldid": 4,
            "name": "_modifiedBy",
            "nullable": false,
            "type": "esriFieldTypeString"
        },
        {
            "alias": "Tema",
            "editable": false,
            "fieldid": 5,
            "name": "_tema",
            "nullable": false,
            "type": "esriFieldTypeString"
        },
        {
            "alias": "OrdreId",
            "editable": false,
            "fieldid": 7,
            "name": "_orderId",
            "nullable": true,
            "type": "esriFieldTypeString"
        },
        {
            "alias": "IO head ID",
            "editable": false,
            "fieldid": 8,
            "name": "_headId",
            "nullable": true,
            "type": "esriFieldTypeString"
        },
        {
            "alias": "Service Order Id",
            "editable": false,
            "fieldid": 9,
            "name": "_serviceOrderId",
            "nullable": true,
            "type": "esriFieldTypeString"
        },
        {
            "alias": "Parent Global Id",
            "editable": false,
            "fieldid": 10,
            "name": "_parentGlobalId",
            "nullable": true,
            "type": "esriFieldTypeString"
        },
        {
            "alias": "Synlighet",
            "editable": false,
            "fieldid": 11,
            "name": "_visibilityMode",
            "nullable": true,
            "type": "esriFieldTypeString"
        },
        {
            "alias": "Organisasjonsnummer arbeidslag ungskogpleie",
            "editable": false,
            "fieldid": 13,
            "name": "_workTeamOrgNumUP",
            "nullable": true,
            "type": "esriFieldTypeString"
        },
        {
            "alias": "Organisasjonsnummer arbeidslag forhåndsrydding",
            "editable": false,
            "fieldid": 14,
            "name": "_workTeamOrgNumFR",
            "nullable": true,
            "type": "esriFieldTypeString"
        },
        {
            "alias": "Organisasjonsnummer arbeidslag markberedning",
            "editable": false,
            "fieldid": 15,
            "name": "_workTeamOrgNumMB",
            "nullable": true,
            "type": "esriFieldTypeString"
        },
        {
            "alias": "Organisasjonsnummer arbeidslag planting",
            "editable": false,
            "fieldid": 16,
            "name": "_workTeamOrgNumPL",
            "nullable": true,
            "type": "esriFieldTypeString"
        },
        {
            "alias": "Organisasjonsnummer arbeidslag grøfterensk",
            "editable": false,
            "fieldid": 17,
            "name": "_workTeamOrgNumGR",
            "nullable": true,
            "type": "esriFieldTypeString"
        },
        {
            "alias": "Organisasjonsnummer arbeidslag såing",
            "editable": false,
            "fieldid": 18,
            "name": "_workTeamOrgNumSA",
            "nullable": true,
            "type": "esriFieldTypeString"
        },
        {
            "alias": "Organisasjonsnummer arbeidslag skogskade",
            "editable": false,
            "fieldid": 19,
            "name": "_workTeamOrgNumSS",
            "nullable": true,
            "type": "esriFieldTypeString"
        },
        {
            "alias": "Organisasjonsnummer arbeidslag infrastruktur",
            "editable": false,
            "fieldid": 30,
            "name": "_workTeamOrgNumIS",
            "nullable": true,
            "type": "esriFieldTypeString"
        },
        {
            "alias": "Orgnum arbeidslag gjødsling",
            "editable": false,
            "fieldid": 40,
            "name": "_workTeamOrgNumGJ",
            "nullable": false,
            "type": "esriFieldTypeString"
        },
        {
            "alias": "Orgnum arbeidslag sprøyting",
            "editable": false,
            "fieldid": 41,
            "name": "_workTeamOrgNumSP",
            "nullable": false,
            "type": "esriFieldTypeString"
        },
        {
            "alias": "Orgnum arbeidslag gravearbeid",
            "editable": false,
            "fieldid": 42,
            "name": "_workTeamOrgNumGA",
            "nullable": false,
            "type": "esriFieldTypeString"
        },
        {
            "alias": "Orgnum arbeidslag sporskaderetting",
            "editable": false,
            "fieldid": 43,
            "name": "_workTeamOrgNumSR",
            "nullable": false,
            "type": "esriFieldTypeString"
        },
        {
            "alias": "Orgnum arbeidslag stammekvisting",
            "editable": false,
            "fieldid": 44,
            "name": "_workTeamOrgNumSK",
            "nullable": false,
            "type": "esriFieldTypeString"
        },
        {
            "alias": "Kommentar",
            "editable": true,
            "fieldid": 6,
            "name": "comment",
            "nullable": true,
            "translations": [
                {
                    "key": "Kommentar",
                    "language": "en",
                    "value": "Comment"
                }
            ],
            "type": "esriFieldTypeString"
        }
    ],
    "geometryType": "esriGeometryPolygon",
    "globalIdField": "_globalId",
    "hasAttachments": false,
    "hasM": false,
    "hasZ": false,
    "htmlPopupType": "esriServerHTMLPopupTypeAsHTMLText",
    "id": 2,
    "isDataVersioned": false,
    "maxRecordCount": 100000,
    "maxScale": 0,
    "minScale": 50000,
    "name": "NTRegistreringerFlater",
    "objectIdField": "OBJECTID",
    "ownershipBasedAccessControlForFeatures": null,
    "relationships": [],
    "sections": null,
    "supportedQueryFormats": "JSON, AMF",
    "supportsAdvancedQueries": true,
    "supportsRollbackOnFailureParameter": true,
    "supportsStatistics": true,
    "syncCanReturnChanges": true,
    "templates": [],
    "type": "Feature Layer",
    "typeIdField": "_tema",
    "types": [
        {
            "domains": {},
            "id": "Ny BVO-figur",
            "name": "01. Ny BVO-figur",
            "templates": [
                {
                    "description": "",
                    "drawingTool": "esriFeatureEditToolPolygon",
                    "name": "01. Ny BVO-figur",
                    "prototype": {
                        "attributes": {
                            "_tema": "Ny BVO-figur"
                        }
                    }
                }
            ]
        },
        {
            "domains": {},
            "id": "Annet",
            "name": "02. Annet",
            "templates": [
                {
                    "description": "",
                    "drawingTool": "esriFeatureEditToolPolygon",
                    "name": "02. Annet",
                    "prototype": {
                        "attributes": {
                            "_tema": "Annet"
                        }
                    }
                }
            ]
        },
        {
            "domains": {},
            "id": "Kantsone",
            "name": "03. Kantsone",
            "templates": [
                {
                    "description": "",
                    "drawingTool": "esriFeatureEditToolPolygon",
                    "name": "03. Kantsone",
                    "prototype": {
                        "attributes": {
                            "_tema": "Kantsone"
                        }
                    }
                }
            ]
        }
    ],
    "useStandardizedQueries": true
}

