{
    "alias": "Skogfond",
    "allowGeometryUpdates": true,
    "capabilities": "Create,Delete,Query,Sync,Update,Uploads,Editing",
    "copyrightText": "",
    "currentVersion": 10.22,
    "defaultVisibility": true,
    "description": "",
    "displayField": "_subCollection",
    "drawingInfo": null,
    "editFieldsInfo": null,
    "extent": {
        "spatialReference": {
            "latestWkid": 25833,
            "wkid": 25833
        },
        "xmax": 450493.12090000045,
        "xmin": -305588.6796000004,
        "ymax": 7210241.434,
        "ymin": 6469673.3945
    },
    "fieldOrder": [],
    "fields": [
        {
            "alias": "Skogkultur id + subcollection",
            "editable": false,
            "fieldid": 0,
            "name": "_globalId",
            "nullable": false,
            "type": "esriFieldTypeString"
        },
        {
            "alias": "Opprettet",
            "editable": false,
            "fieldid": 1,
            "name": "_created_Date",
            "nullable": false,
            "type": "esriFieldTypeDouble"
        },
        {
            "alias": "Opprettet av",
            "editable": false,
            "fieldid": 2,
            "name": "_createdBy",
            "nullable": false,
            "type": "esriFieldTypeString"
        },
        {
            "alias": "Endret",
            "editable": false,
            "fieldid": 3,
            "name": "_modified_Date",
            "nullable": false,
            "type": "esriFieldTypeDouble"
        },
        {
            "alias": "Endret av",
            "editable": false,
            "fieldid": 4,
            "name": "_modifiedBy",
            "nullable": false,
            "type": "esriFieldTypeString"
        },
        {
            "alias": "Tiløhrende skogkulturtype",
            "editable": false,
            "fieldid": 5,
            "name": "_subCollection",
            "nullable": false,
            "type": "esriFieldTypeString"
        },
        {
            "alias": "Tilhørende skogkulturobjekt",
            "editable": false,
            "fieldid": 6,
            "name": "_parentGlobalId",
            "nullable": false,
            "type": "esriFieldTypeString"
        },
        {
            "alias": "Fakturanummer",
            "editable": true,
            "fieldid": 10,
            "name": "invoice",
            "nullable": false,
            "type": "esriFieldTypeString"
        },
        {
            "alias": "Skogeiers e-post",
            "editable": true,
            "fieldid": 11,
            "name": "forestowneremail",
            "nullable": false,
            "type": "esriFieldTypeString"
        },
        {
            "alias": "Kopi e-post",
            "editable": true,
            "fieldid": 12,
            "name": "copyemail",
            "nullable": true,
            "type": "esriFieldTypeString"
        },
        {
            "alias": "Kommunenummer",
            "editable": true,
            "fieldid": 20,
            "name": "komnr",
            "nullable": false,
            "type": "esriFieldTypeString"
        },
        {
            "alias": "Gårdsnummer",
            "editable": true,
            "fieldid": 21,
            "name": "gardsnr",
            "nullable": false,
            "type": "esriFieldTypeInteger"
        },
        {
            "alias": "Bruksnummer",
            "editable": true,
            "fieldid": 22,
            "name": "bruksnr",
            "nullable": false,
            "type": "esriFieldTypeInteger"
        },
        {
            "alias": "Festenummer",
            "editable": true,
            "fieldid": 23,
            "name": "festenr",
            "nullable": false,
            "type": "esriFieldTypeInteger"
        },
        {
            "alias": "Skogeiernavn",
            "editable": true,
            "fieldid": 24,
            "name": "skogeiernavn",
            "nullable": false,
            "type": "esriFieldTypeString"
        },
        {
            "alias": "Skogfondskonto",
            "editable": true,
            "fieldid": 25,
            "name": "skogfondskonto",
            "nullable": true,
            "type": "esriFieldTypeString"
        }
    ],
    "geometryType": "esriGeometryPolygon",
    "globalIdField": "_globalId",
    "hasAttachments": false,
    "hasM": false,
    "hasZ": false,
    "htmlPopupType": "esriServerHTMLPopupTypeAsHTMLText",
    "id": 2,
    "isDataVersioned": false,
    "maxRecordCount": 100000,
    "maxScale": 0,
    "minScale": 100000,
    "name": "NTSkogfond",
    "objectIdField": "OBJECTID",
    "ownershipBasedAccessControlForFeatures": null,
    "relationships": [],
    "sections": [],
    "supportedQueryFormats": "JSON, AMF",
    "supportsAdvancedQueries": true,
    "supportsRollbackOnFailureParameter": true,
    "supportsStatistics": true,
    "syncCanReturnChanges": true,
    "templates": [],
    "type": "Feature Layer",
    "typeIdField": "_subCollection",
    "types": [],
    "useStandardizedQueries": true
}

