{
    "alias": "Utført arbeid",
    "allowGeometryUpdates": true,
    "capabilities": "Create,Delete,Query,Sync,Update,Uploads,Editing",
    "copyrightText": "",
    "currentVersion": 10.22,
    "defaultVisibility": true,
    "description": "",
    "displayField": "_subCollection",
    "drawingInfo": {
        "labelingInfo": null,
        "renderer": {
            "defaultLabel": null,
            "defaultSymbol": null,
            "field1": "_subCollection",
            "field2": null,
            "field3": null,
            "fieldDelimiter": ", ",
            "type": "uniqueValue",
            "uniqueValueInfos": [
                {
                    "description": "",
                    "label": "Utført plantearbeid",
                    "symbol": {
                        "color": [
                            0,
                            0,
                            0,
                            0
                        ],
                        "outline": {
                            "color": [
                                255,
                                255,
                                255,
                                255
                            ],
                            "style": "esriSLSSolid",
                            "type": "esriSLS",
                            "width": 1.5
                        },
                        "style": "esriSFSBackwardDiagonal",
                        "type": "esriSFS"
                    },
                    "value": "SEPPlantingGeom"
                },
                {
                    "description": "",
                    "label": "Utført grøfterensk",
                    "symbol": {
                        "color": [
                            0,
                            0,
                            0,
                            0
                        ],
                        "outline": {
                            "color": [
                                255,
                                255,
                                255,
                                255
                            ],
                            "style": "esriSLSSolid",
                            "type": "esriSLS",
                            "width": 1.5
                        },
                        "style": "esriSFSBackwardDiagonal",
                        "type": "esriSFS"
                    },
                    "value": "SEPGrofterenskGeom"
                },
                {
                    "description": "",
                    "label": "Utført ungskogpleie",
                    "symbol": {
                        "color": [
                            0,
                            0,
                            0,
                            0
                        ],
                        "outline": {
                            "color": [
                                255,
                                255,
                                255,
                                255
                            ],
                            "style": "esriSLSSolid",
                            "type": "esriSLS",
                            "width": 1.5
                        },
                        "style": "esriSFSBackwardDiagonal",
                        "type": "esriSFS"
                    },
                    "value": "SEPUngskogpleieGeom"
                },
                {
                    "description": "",
                    "label": "Utført forhåndsrydding",
                    "symbol": {
                        "color": [
                            0,
                            0,
                            0,
                            0
                        ],
                        "outline": {
                            "color": [
                                255,
                                255,
                                255,
                                255
                            ],
                            "style": "esriSLSSolid",
                            "type": "esriSLS",
                            "width": 1.5
                        },
                        "style": "esriSFSBackwardDiagonal",
                        "type": "esriSFS"
                    },
                    "value": "SEPForhandsryddingGeom"
                },
                {
                    "description": "",
                    "label": "Utført markberedning",
                    "symbol": {
                        "color": [
                            0,
                            0,
                            0,
                            0
                        ],
                        "outline": {
                            "color": [
                                255,
                                255,
                                255,
                                255
                            ],
                            "style": "esriSLSSolid",
                            "type": "esriSLS",
                            "width": 1.5
                        },
                        "style": "esriSFSBackwardDiagonal",
                        "type": "esriSFS"
                    },
                    "value": "SEPMarkberedningGeom"
                }
            ]
        },
        "transparency": 0
    },
    "editFieldsInfo": null,
    "extent": {
        "spatialReference": {
            "latestWkid": 25833,
            "wkid": 25833
        },
        "xmax": 449078.5729,
        "xmin": 22145.20600000024,
        "ymax": 7182411.7896,
        "ymin": 6488287.4629999995
    },
    "fields": [
        {
            "alias": "GlobalId",
            "editable": false,
            "fieldid": 1,
            "name": "_globalId",
            "nullable": false,
            "type": "esriFieldTypeString"
        },
        {
            "alias": "Opprettet",
            "editable": false,
            "fieldid": 2,
            "name": "_created_Date",
            "nullable": false,
            "type": "esriFieldTypeDouble"
        },
        {
            "alias": "Opprettet av",
            "editable": false,
            "fieldid": 3,
            "name": "_createdBy",
            "nullable": false,
            "type": "esriFieldTypeString"
        },
        {
            "alias": "Endret",
            "editable": false,
            "fieldid": 4,
            "name": "_modified_Date",
            "nullable": false,
            "type": "esriFieldTypeDouble"
        },
        {
            "alias": "Endret av",
            "editable": false,
            "fieldid": 5,
            "name": "_modifiedBy",
            "nullable": false,
            "type": "esriFieldTypeString"
        },
        {
            "alias": "Areal",
            "editable": false,
            "fieldid": 6,
            "name": "area",
            "nullable": true,
            "type": "esriFieldTypeDouble"
        },
        {
            "alias": "Organisasjonsnummer arbeidslag",
            "editable": false,
            "fieldid": 8,
            "name": "_workTeamOrgNum",
            "nullable": true,
            "type": "esriFieldTypeString"
        },
        {
            "alias": "Subcollection",
            "editable": false,
            "fieldid": 9,
            "name": "_subCollection",
            "nullable": true,
            "type": "esriFieldTypeString"
        },
        {
            "alias": "Skogkultur global id",
            "editable": false,
            "fieldid": 10,
            "name": "_parentGlobalId",
            "nullable": true,
            "type": "esriFieldTypeString"
        },
        {
            "alias": "Markér som ferdig (entrep)",
            "editable": true,
            "fieldid": 11,
            "name": "contractor_done_Boolean",
            "nullable": true,
            "translations": [
                {
                    "key": "Markér som ferdig (entrep)",
                    "language": "en",
                    "value": "Mark done (by contractor)"
                }
            ],
            "type": "esriFieldTypeInteger"
        }
    ],
    "geometryType": "esriGeometryPolygon",
    "globalIdField": "_globalId",
    "hasAttachments": false,
    "hasM": false,
    "hasZ": false,
    "htmlPopupType": "esriServerHTMLPopupTypeAsHTMLText",
    "id": 4,
    "isDataVersioned": false,
    "maxRecordCount": 100000,
    "maxScale": 0,
    "minScale": 50000,
    "name": "SEPerformedWork",
    "objectIdField": "OBJECTID",
    "ownershipBasedAccessControlForFeatures": null,
    "relationships": [],
    "supportedQueryFormats": "JSON, AMF",
    "supportsAdvancedQueries": true,
    "supportsRollbackOnFailureParameter": true,
    "supportsStatistics": true,
    "syncCanReturnChanges": true,
    "templates": [],
    "translations": [
        {
            "key": "Utført arbeid",
            "language": "en",
            "value": "Performed work"
        }
    ],
    "type": "Feature Layer",
    "typeIdField": "_subCollection",
    "types": [],
    "useStandardizedQueries": true
}
