{
    "alias": "{{tree_kind}} {{proveniens}} {{plant_type}}",
    "allowGeometryUpdates": true,
    "capabilities": "Create,Delete,Query,Sync,Update,Uploads,Editing",
    "copyrightText": "",
    "currentVersion": 10.22,
    "defaultVisibility": true,
    "description": "",
    "displayField": "_type",
    "drawingInfo": null,
    "editFieldsInfo": null,
    "extent": {
        "spatialReference": {
            "latestWkid": 25833,
            "wkid": 25833
        },
        "xmax": 450493.12090000045,
        "xmin": -305588.6796000004,
        "ymax": 7210241.434,
        "ymin": 6469673.3945
    },
    "fieldOrder": [],
    "fields": [
        {
            "alias": "GlobalId",
            "editable": false,
            "fieldid": 0,
            "name": "_globalId",
            "nullable": false,
            "type": "esriFieldTypeString"
        },
        {
            "alias": "Opprettet",
            "editable": false,
            "fieldid": 1,
            "name": "_created_Date",
            "nullable": false,
            "type": "esriFieldTypeDouble"
        },
        {
            "alias": "Opprettet av",
            "editable": false,
            "fieldid": 2,
            "name": "_createdBy",
            "nullable": false,
            "type": "esriFieldTypeString"
        },
        {
            "alias": "Endret",
            "editable": false,
            "fieldid": 3,
            "name": "_modified_Date",
            "nullable": false,
            "type": "esriFieldTypeDouble"
        },
        {
            "alias": "Endret av",
            "editable": false,
            "fieldid": 4,
            "name": "_modifiedBy",
            "nullable": false,
            "type": "esriFieldTypeString"
        },
        {
            "alias": "Type",
            "editable": false,
            "fieldid": 5,
            "name": "_type",
            "nullable": false,
            "type": "esriFieldTypeString"
        },
        {
            "alias": "Antall planter totalt",
            "editable": false,
            "fieldid": 21,
            "name": "_deltasum",
            "nullable": true,
            "type": "esriFieldTypeInteger"
        },
        {
            "alias": "Plantelager _globalId",
            "editable": false,
            "fieldid": 27,
            "name": "_locationGlobalId",
            "nullable": false,
            "type": "esriFieldTypeString"
        },
        {
            "alias": "Merknad",
            "editable": true,
            "fieldid": 20,
            "name": "comment",
            "nullable": false,
            "section": 1,
            "translations": [
                {
                    "key": "Merknad",
                    "language": "en",
                    "value": "Comment"
                }
            ],
            "type": "esriFieldTypeString"
        },
        {
            "alias": "Referansenummer",
            "editable": true,
            "fieldid": 28,
            "name": "referencenumber",
            "nullable": false,
            "section": 1,
            "translations": [
                {
                    "key": "Referansenummer",
                    "language": "en",
                    "value": "Reference number"
                }
            ],
            "type": "esriFieldTypeString"
        },
        {
            "alias": "Proveniens",
            "editable": true,
            "fieldid": 22,
            "name": "proveniens",
            "nullable": true,
            "section": 2,
            "translations": [
                {
                    "key": "Proveniens",
                    "language": "en",
                    "value": ""
                }
            ],
            "type": "esriFieldTypeString"
        },
        {
            "alias": "Plantetype",
            "domain": {
                "suggestedValues": [
                    {
                        "name": "M60",
                        "value": "M60"
                    },
                    {
                        "name": "M95",
                        "value": "M95"
                    }
                ],
                "type": "codedValue"
            },
            "editable": true,
            "fieldid": 23,
            "name": "plant_type",
            "nullable": true,
            "section": 2,
            "translations": [
                {
                    "key": "Plantetype",
                    "language": "en",
                    "value": "Plant type"
                }
            ],
            "type": "esriFieldTypeString"
        },
        {
            "alias": "Treslag",
            "domain": {
                "codedValues": [
                    {
                        "name": "Gran",
                        "value": "Gran"
                    },
                    {
                        "name": "Furu",
                        "value": "Furu"
                    },
                    {
                        "name": "Bjørk",
                        "value": "Bjørk"
                    },
                    {
                        "name": "Svartor",
                        "value": "Svartor"
                    },
                    {
                        "name": "Lerk",
                        "value": "Lerk"
                    },
                    {
                        "name": "Sitka",
                        "value": "Sitka"
                    }
                ],
                "type": "codedValue"
            },
            "editable": true,
            "fieldid": 25,
            "name": "tree_kind",
            "nullable": false,
            "section": 2,
            "translations": [
                {
                    "key": "Treslag",
                    "language": "en",
                    "value": "Tree kind"
                }
            ],
            "type": "esriFieldTypeString"
        },
        {
            "alias": "Alder",
            "domain": {
                "suggestedValues": [
                    {
                        "name": "1-åring",
                        "value": "1-åring"
                    },
                    {
                        "name": "2-åring",
                        "value": "2-åring"
                    }
                ],
                "type": "codedValue"
            },
            "editable": true,
            "fieldid": 26,
            "name": "plant_age",
            "nullable": true,
            "section": 2,
            "translations": [
                {
                    "key": "Alder",
                    "language": "en",
                    "value": "Age"
                }
            ],
            "type": "esriFieldTypeString"
        },
        {
            "alias": "Behandling, kommentar",
            "editable": true,
            "fieldid": 24,
            "name": "plant_treatment_comment",
            "nullable": true,
            "section": 3,
            "translations": [
                {
                    "key": "Behandling, kommentar",
                    "language": "en",
                    "value": "Treatment, comment"
                }
            ],
            "type": "esriFieldTypeString"
        }
    ],
    "geometryType": "esriGeometryPoint",
    "globalIdField": "_globalId",
    "hasAttachments": false,
    "hasM": false,
    "hasZ": false,
    "htmlPopupType": "esriServerHTMLPopupTypeAsHTMLText",
    "id": 2,
    "isDataVersioned": false,
    "maxRecordCount": 100000,
    "maxScale": 0,
    "minScale": 100000,
    "name": "SEPlantelagerPlanter",
    "objectIdField": "OBJECTID",
    "ownershipBasedAccessControlForFeatures": null,
    "relationships": [],
    "sections": [
        {
            "id": 1,
            "title": ""
        },
        {
            "id": 2,
            "title": ""
        },
        {
            "id": 3,
            "title": ""
        }
    ],
    "supportedQueryFormats": "JSON, AMF",
    "supportsAdvancedQueries": true,
    "supportsRollbackOnFailureParameter": true,
    "supportsStatistics": true,
    "syncCanReturnChanges": true,
    "templates": [],
    "translations": [
        {
            "key": "{{tree_kind}} {{proveniens}} {{plant_type}}",
            "language": "en",
            "value": "{{tree_kind}} {{proveniens}} {{plant_type}}"
        }
    ],
    "type": "Feature Layer",
    "typeIdField": "_type",
    "types": [
        {
            "domains": {},
            "id": "PlantelagerPlanter",
            "name": "PlantelagerPlanter",
            "templates": [
                {
                    "description": "",
                    "drawingTool": "esriFeatureEditToolPoint",
                    "name": "PlantelagerPlanter",
                    "prototype": {
                        "attributes": {
                            "_type": "PlantelagerPlanter"
                        }
                    }
                }
            ]
        }
    ],
    "useStandardizedQueries": true
}

