{
    "allowGeometryUpdates": true,
    "capabilities": "Create,Delete,Query,Sync,Update,Uploads,Editing",
    "copyrightText": "",
    "currentVersion": 10.22,
    "defaultVisibility": true,
    "description": "",
    "displayField": "forestOwnerName",
    "drawingInfo": null,
    "editFieldsInfo": null,
    "extent": {
        "spatialReference": {
            "latestWkid": 25833,
            "wkid": 25833
        },
        "xmax": 500000,
        "xmin": 0,
        "ymax": 8000000,
        "ymin": 5000000
    },
    "fieldOrder": [],
    "fields": [
        {
            "alias": "GlobalId",
            "editable": false,
            "fieldid": 1,
            "name": "_globalId",
            "nullable": false,
            "type": "esriFieldTypeString"
        },
        {
            "alias": "Opprettet",
            "editable": false,
            "fieldid": 2,
            "name": "_created_Date",
            "nullable": false,
            "type": "esriFieldTypeDouble"
        },
        {
            "alias": "Opprettet av",
            "editable": false,
            "fieldid": 3,
            "name": "_createdBy",
            "nullable": false,
            "type": "esriFieldTypeString"
        },
        {
            "alias": "Endret",
            "editable": false,
            "fieldid": 4,
            "name": "_modified_Date",
            "nullable": false,
            "type": "esriFieldTypeDouble"
        },
        {
            "alias": "Endret av",
            "editable": false,
            "fieldid": 5,
            "name": "_modifiedBy",
            "nullable": false,
            "type": "esriFieldTypeString"
        },
        {
            "alias": "Type",
            "editable": false,
            "fieldid": 6,
            "name": "_type",
            "nullable": false,
            "type": "esriFieldTypeString"
        },
        {
            "alias": "Nøkkel i Verified-systemet",
            "editable": false,
            "fieldid": 7,
            "name": "_verifiedContractEnvelopeKey",
            "nullable": false,
            "type": "esriFieldTypeString"
        },
        {
            "alias": "Tidspunktet kontrakt ble sendt til Verified for signering",
            "editable": false,
            "fieldid": 8,
            "name": "_verifiedSent_Date",
            "nullable": false,
            "type": "esriFieldTypeDouble"
        },
        {
            "alias": "Signert i Verified-systemet",
            "editable": false,
            "fieldid": 9,
            "name": "_verifiedSigned_Boolean",
            "nullable": true,
            "type": "esriFieldTypeInteger"
        },
        {
            "alias": "Ferdig mot skogeier",
            "editable": false,
            "fieldid": 8000,
            "name": "_completedForForestOwner_Boolean",
            "nullable": true,
            "type": "esriFieldTypeInteger"
        },
        {
            "alias": "Klar til sluttfakturering mot entreprenør",
            "editable": false,
            "fieldid": 8001,
            "name": "_readyForFinalInvoicingToContractor_Boolean",
            "nullable": true,
            "type": "esriFieldTypeInteger"
        },
        {
            "alias": "Når denne ble sendt til manuell signering",
            "editable": false,
            "fieldid": 27,
            "name": "_manualSent_Date",
            "nullable": false,
            "type": "esriFieldTypeDouble"
        },
        {
            "alias": "Signert manuelt",
            "editable": false,
            "fieldid": 28,
            "name": "_manualSigned_Date",
            "nullable": false,
            "type": "esriFieldTypeDouble"
        },
        {
            "alias": "Ordrenummer. Ett nummer per tiltakstype (dvs antall unike nummer er likt antall tiltakstyper i ordren)",
            "editable": false,
            "fieldid": 31,
            "name": "_job_nrs",
            "nullable": false,
            "type": "esriFieldTypeString"
        },
        {
            "alias": "Innkjøpsordrens headId",
            "editable": false,
            "fieldid": 34,
            "name": "_headId",
            "nullable": false,
            "type": "esriFieldTypeString"
        },
        {
            "alias": "Kontrakt er håndtert av tilkoblet IO",
            "editable": false,
            "fieldid": 36,
            "name": "_contractIncludedInPurchaseOrder_Boolean",
            "nullable": true,
            "type": "esriFieldTypeInteger"
        },
        {
            "alias": "Framdrift forhåndsrydding",
            "editable": false,
            "fieldid": 37,
            "name": "_SEPForhandsryddingGeom_status",
            "nullable": false,
            "type": "esriFieldTypeString"
        },
        {
            "alias": "Framdrift grøfterensk",
            "editable": false,
            "fieldid": 38,
            "name": "_SEPGrofterenskGeom_status",
            "nullable": false,
            "type": "esriFieldTypeString"
        },
        {
            "alias": "Framdrift markberedning",
            "editable": false,
            "fieldid": 39,
            "name": "_SEPMarkberedningGeom_status",
            "nullable": false,
            "type": "esriFieldTypeString"
        },
        {
            "alias": "Framdrift planting",
            "editable": false,
            "fieldid": 40,
            "name": "_SEPPlantingGeom_status",
            "nullable": false,
            "type": "esriFieldTypeString"
        },
        {
            "alias": "Framdrift ungskogpleie",
            "editable": false,
            "fieldid": 41,
            "name": "_SEPUngskogpleieGeom_status",
            "nullable": false,
            "type": "esriFieldTypeString"
        },
        {
            "alias": "Framdrift såing",
            "editable": false,
            "fieldid": 42,
            "name": "_SEPSaaingGeom_status",
            "nullable": false,
            "type": "esriFieldTypeString"
        },
        {
            "alias": "Framdrift skogskade",
            "editable": false,
            "fieldid": 80,
            "name": "_SEPSkogskadeGeom_status",
            "nullable": false,
            "type": "esriFieldTypeString"
        },
        {
            "alias": "Framdrift infrastruktur",
            "editable": false,
            "fieldid": 81,
            "name": "_SEPInfrastrukturGeom_status",
            "nullable": false,
            "type": "esriFieldTypeString"
        },
        {
            "alias": "Framdrift gjødsling",
            "editable": false,
            "fieldid": 1000,
            "name": "_SEPGjodslingGeom_status",
            "nullable": false,
            "type": "esriFieldTypeString"
        },
        {
            "alias": "Framdrift sprøyting",
            "editable": false,
            "fieldid": 1001,
            "name": "_SEPSproytingGeom_status",
            "nullable": false,
            "type": "esriFieldTypeString"
        },
        {
            "alias": "Framdrift gravearbeid",
            "editable": false,
            "fieldid": 1002,
            "name": "_SEPGravearbeidGeom_status",
            "nullable": false,
            "type": "esriFieldTypeString"
        },
        {
            "alias": "Framdrift sporskaderetting",
            "editable": false,
            "fieldid": 1003,
            "name": "_SEPSporskaderettingGeom_status",
            "nullable": false,
            "type": "esriFieldTypeString"
        },
        {
            "alias": "Framdrift stammekvisting",
            "editable": false,
            "fieldid": 1004,
            "name": "_SEPStammekvistingGeom_status",
            "nullable": false,
            "type": "esriFieldTypeString"
        },
        {
            "alias": "Fakturakommentar til forhåndsrydding",
            "editable": false,
            "fieldid": 70,
            "name": "_SEPForhandsryddingGeom_invoice_comment",
            "nullable": false,
            "type": "esriFieldTypeString"
        },
        {
            "alias": "Fakturakommentar til grøfterensk",
            "editable": false,
            "fieldid": 71,
            "name": "_SEPGrofterenskGeom_invoice_comment",
            "nullable": false,
            "type": "esriFieldTypeString"
        },
        {
            "alias": "Fakturakommentar til markberedning",
            "editable": false,
            "fieldid": 72,
            "name": "_SEPMarkberedningGeom_invoice_comment",
            "nullable": false,
            "type": "esriFieldTypeString"
        },
        {
            "alias": "Fakturakommentar til planting",
            "editable": false,
            "fieldid": 73,
            "name": "_SEPPlantingGeom_invoice_comment",
            "nullable": false,
            "type": "esriFieldTypeString"
        },
        {
            "alias": "Fakturakommentar til ungskogpleie",
            "editable": false,
            "fieldid": 74,
            "name": "_SEPUngskogpleieGeom_invoice_comment",
            "nullable": false,
            "type": "esriFieldTypeString"
        },
        {
            "alias": "Fakturakommentar til såing",
            "editable": false,
            "fieldid": 75,
            "name": "_SEPSaaingGeom_invoice_comment",
            "nullable": false,
            "type": "esriFieldTypeString"
        },
        {
            "alias": "Fakturakommentar til skogskade",
            "editable": false,
            "fieldid": 77,
            "name": "_SEPSkogskadeGeom_invoice_comment",
            "nullable": false,
            "type": "esriFieldTypeString"
        },
        {
            "alias": "Fakturakommentar til infrastruktur",
            "editable": false,
            "fieldid": 76,
            "name": "_SEPInfrastrukturGeom_invoice_comment",
            "nullable": false,
            "type": "esriFieldTypeString"
        },
        {
            "alias": "Fakturakommentar til gjødsling",
            "editable": false,
            "fieldid": 4000,
            "name": "_SEPGjodslingGeom_invoice_comment",
            "nullable": false,
            "type": "esriFieldTypeString"
        },
        {
            "alias": "Fakturakommentar til sprøyting",
            "editable": false,
            "fieldid": 4001,
            "name": "_SEPSproytingGeom_invoice_comment",
            "nullable": false,
            "type": "esriFieldTypeString"
        },
        {
            "alias": "Fakturakommentar til gravearbeid",
            "editable": false,
            "fieldid": 4002,
            "name": "_SEPGravearbeidGeom_invoice_comment",
            "nullable": false,
            "type": "esriFieldTypeString"
        },
        {
            "alias": "Fakturakommentar til sporskaderetting",
            "editable": false,
            "fieldid": 4003,
            "name": "_SEPSporskaderettingGeom_invoice_comment",
            "nullable": false,
            "type": "esriFieldTypeString"
        },
        {
            "alias": "Fakturakommentar til stammekvisting",
            "editable": false,
            "fieldid": 4004,
            "name": "_SEPStammekvistingGeom_invoice_comment",
            "nullable": false,
            "type": "esriFieldTypeString"
        },
        {
            "alias": "Avsluttende kommentar til forhåndsrydding",
            "editable": false,
            "fieldid": 90,
            "name": "_SEPForhandsryddingGeom_final_comment",
            "nullable": false,
            "type": "esriFieldTypeString"
        },
        {
            "alias": "Avsluttende kommentar til grøfterensk",
            "editable": false,
            "fieldid": 91,
            "name": "_SEPGrofterenskGeom_final_comment",
            "nullable": false,
            "type": "esriFieldTypeString"
        },
        {
            "alias": "Avsluttende kommentar til markberedning",
            "editable": false,
            "fieldid": 92,
            "name": "_SEPMarkberedningGeom_final_comment",
            "nullable": false,
            "type": "esriFieldTypeString"
        },
        {
            "alias": "Avsluttende kommentar til planting",
            "editable": false,
            "fieldid": 93,
            "name": "_SEPPlantingGeom_final_comment",
            "nullable": false,
            "type": "esriFieldTypeString"
        },
        {
            "alias": "Avsluttende kommentar til ungskogpleie",
            "editable": false,
            "fieldid": 94,
            "name": "_SEPUngskogpleieGeom_final_comment",
            "nullable": false,
            "type": "esriFieldTypeString"
        },
        {
            "alias": "Avsluttende kommentar til såing",
            "editable": false,
            "fieldid": 95,
            "name": "_SEPSaaingGeom_final_comment",
            "nullable": false,
            "type": "esriFieldTypeString"
        },
        {
            "alias": "Avsluttende kommentar til skogskade",
            "editable": false,
            "fieldid": 97,
            "name": "_SEPSkogskadeGeom_final_comment",
            "nullable": false,
            "type": "esriFieldTypeString"
        },
        {
            "alias": "Avsluttende kommentar til infrastruktur",
            "editable": false,
            "fieldid": 96,
            "name": "_SEPInfrastrukturGeom_final_comment",
            "nullable": false,
            "type": "esriFieldTypeString"
        },
        {
            "alias": "Avsluttende kommentar til gjødsling",
            "editable": false,
            "fieldid": 5000,
            "name": "_SEPGjodslingGeom_final_comment",
            "nullable": false,
            "type": "esriFieldTypeString"
        },
        {
            "alias": "Avsluttende kommentar til sprøyting",
            "editable": false,
            "fieldid": 5001,
            "name": "_SEPSproytingGeom_final_comment",
            "nullable": false,
            "type": "esriFieldTypeString"
        },
        {
            "alias": "Avsluttende kommentar til gravearbeid",
            "editable": false,
            "fieldid": 5002,
            "name": "_SEPGravearbeidGeom_final_comment",
            "nullable": false,
            "type": "esriFieldTypeString"
        },
        {
            "alias": "Avsluttende kommentar til sporskaderetting",
            "editable": false,
            "fieldid": 5003,
            "name": "_SEPSporskaderettingGeom_final_comment",
            "nullable": false,
            "type": "esriFieldTypeString"
        },
        {
            "alias": "Avsluttende kommentar til stammekvisting",
            "editable": false,
            "fieldid": 5004,
            "name": "_SEPStammekvistingGeom_final_comment",
            "nullable": false,
            "type": "esriFieldTypeString"
        },
        {
            "alias": "Fakturagunnlag sent til økonomi, forhåndsrydding",
            "editable": false,
            "fieldid": 120,
            "name": "_SEPForhandsryddingGeom_billingSent_Date",
            "nullable": false,
            "type": "esriFieldTypeDouble"
        },
        {
            "alias": "Fakturagunnlag sent til økonomi, grøfterensk",
            "editable": false,
            "fieldid": 121,
            "name": "_SEPGrofterenskGeom_billingSent_Date",
            "nullable": false,
            "type": "esriFieldTypeDouble"
        },
        {
            "alias": "Fakturagunnlag sent til økonomi, markberedning",
            "editable": false,
            "fieldid": 122,
            "name": "_SEPMarkberedningGeom_billingSent_Date",
            "nullable": false,
            "type": "esriFieldTypeDouble"
        },
        {
            "alias": "Fakturagunnlag sent til økonomi, planting",
            "editable": false,
            "fieldid": 123,
            "name": "_SEPPlantingGeom_billingSent_Date",
            "nullable": false,
            "type": "esriFieldTypeDouble"
        },
        {
            "alias": "Fakturagunnlag sent til økonomi, ungskogpleie",
            "editable": false,
            "fieldid": 124,
            "name": "_SEPUngskogpleieGeom_billingSent_Date",
            "nullable": false,
            "type": "esriFieldTypeDouble"
        },
        {
            "alias": "Fakturagunnlag sent til økonomi, såing",
            "editable": false,
            "fieldid": 125,
            "name": "_SEPSaaingGeom_billingSent_Date",
            "nullable": false,
            "type": "esriFieldTypeDouble"
        },
        {
            "alias": "Fakturagunnlag sent til økonomi, skogskade",
            "editable": false,
            "fieldid": 127,
            "name": "_SEPSkogskadeGeom_billingSent_Date",
            "nullable": false,
            "type": "esriFieldTypeDouble"
        },
        {
            "alias": "Fakturagunnlag sent til økonomi, infrastruktur",
            "editable": false,
            "fieldid": 126,
            "name": "_SEPInfrastrukturGeom_billingSent_Date",
            "nullable": false,
            "type": "esriFieldTypeDouble"
        },
        {
            "alias": "Fakturagunnlag sent til økonomi, gjødsling",
            "editable": false,
            "fieldid": 7000,
            "name": "_SEPGjodslingGeom_billingSent_Date",
            "nullable": false,
            "type": "esriFieldTypeDouble"
        },
        {
            "alias": "Fakturagunnlag sent til økonomi, sprøyting",
            "editable": false,
            "fieldid": 7001,
            "name": "_SEPSproytingGeom_billingSent_Date",
            "nullable": false,
            "type": "esriFieldTypeDouble"
        },
        {
            "alias": "Fakturagunnlag sent til økonomi, gravearbeid",
            "editable": false,
            "fieldid": 7002,
            "name": "_SEPGravearbeidGeom_billingSent_Date",
            "nullable": false,
            "type": "esriFieldTypeDouble"
        },
        {
            "alias": "Fakturagunnlag sent til økonomi, sporskaderetting",
            "editable": false,
            "fieldid": 7003,
            "name": "_SEPSporskaderettingGeom_billingSent_Date",
            "nullable": false,
            "type": "esriFieldTypeDouble"
        },
        {
            "alias": "Fakturagunnlag sent til økonomi, stammekvisting",
            "editable": false,
            "fieldid": 7004,
            "name": "_SEPStammekvistingGeom_billingSent_Date",
            "nullable": false,
            "type": "esriFieldTypeDouble"
        },
        {
            "alias": "Orgnum arbeidslag ungskogpleie",
            "editable": false,
            "fieldid": 43,
            "name": "_workTeamOrgNumUP",
            "nullable": false,
            "type": "esriFieldTypeString"
        },
        {
            "alias": "Orgnum arbeidslag forhåndsrydding",
            "editable": false,
            "fieldid": 44,
            "name": "_workTeamOrgNumFR",
            "nullable": false,
            "type": "esriFieldTypeString"
        },
        {
            "alias": "Orgnum arbeidslag markberedning",
            "editable": false,
            "fieldid": 45,
            "name": "_workTeamOrgNumMB",
            "nullable": false,
            "type": "esriFieldTypeString"
        },
        {
            "alias": "Orgnum arbeidslag planting",
            "editable": false,
            "fieldid": 46,
            "name": "_workTeamOrgNumPL",
            "nullable": false,
            "type": "esriFieldTypeString"
        },
        {
            "alias": "Orgnum arbeidslag grøfterensk",
            "editable": false,
            "fieldid": 47,
            "name": "_workTeamOrgNumGR",
            "nullable": false,
            "type": "esriFieldTypeString"
        },
        {
            "alias": "Orgnum arbeidslag såing",
            "editable": false,
            "fieldid": 51,
            "name": "_workTeamOrgNumSA",
            "nullable": false,
            "type": "esriFieldTypeString"
        },
        {
            "alias": "Orgnum arbeidslag skogskade",
            "editable": false,
            "fieldid": 55,
            "name": "_workTeamOrgNumSS",
            "nullable": false,
            "type": "esriFieldTypeString"
        },
        {
            "alias": "Orgnum arbeidslag infrastruktur",
            "editable": false,
            "fieldid": 56,
            "name": "_workTeamOrgNumIS",
            "nullable": false,
            "type": "esriFieldTypeString"
        },
        {
            "alias": "Orgnum arbeidslag gjødsling",
            "editable": false,
            "fieldid": 2000,
            "name": "_workTeamOrgNumGJ",
            "nullable": false,
            "type": "esriFieldTypeString"
        },
        {
            "alias": "Orgnum arbeidslag sprøyting",
            "editable": false,
            "fieldid": 2001,
            "name": "_workTeamOrgNumSP",
            "nullable": false,
            "type": "esriFieldTypeString"
        },
        {
            "alias": "Orgnum arbeidslag gravearbeid",
            "editable": false,
            "fieldid": 2002,
            "name": "_workTeamOrgNumGA",
            "nullable": false,
            "type": "esriFieldTypeString"
        },
        {
            "alias": "Orgnum arbeidslag sporskaderetting",
            "editable": false,
            "fieldid": 2003,
            "name": "_workTeamOrgNumSR",
            "nullable": false,
            "type": "esriFieldTypeString"
        },
        {
            "alias": "Orgnum arbeidslag stammekvisting",
            "editable": false,
            "fieldid": 2004,
            "name": "_workTeamOrgNumSK",
            "nullable": false,
            "type": "esriFieldTypeString"
        },
        {
            "alias": "Team ID arbeidslag ungskogpleie",
            "editable": false,
            "fieldid": 110,
            "name": "_workTeamIdUP",
            "nullable": false,
            "type": "esriFieldTypeString"
        },
        {
            "alias": "Team ID arbeidslag forhåndsrydding",
            "editable": false,
            "fieldid": 111,
            "name": "_workTeamIdFR",
            "nullable": false,
            "type": "esriFieldTypeString"
        },
        {
            "alias": "Team ID arbeidslag markberedning",
            "editable": false,
            "fieldid": 112,
            "name": "_workTeamIdMB",
            "nullable": false,
            "type": "esriFieldTypeString"
        },
        {
            "alias": "Team ID arbeidslag planting",
            "editable": false,
            "fieldid": 113,
            "name": "_workTeamIdPL",
            "nullable": false,
            "type": "esriFieldTypeString"
        },
        {
            "alias": "Team ID arbeidslag grøfterensk",
            "editable": false,
            "fieldid": 114,
            "name": "_workTeamIdGR",
            "nullable": false,
            "type": "esriFieldTypeString"
        },
        {
            "alias": "Team ID arbeidslag såing",
            "editable": false,
            "fieldid": 115,
            "name": "_workTeamIdSA",
            "nullable": false,
            "type": "esriFieldTypeString"
        },
        {
            "alias": "Team ID arbeidslag skogskade",
            "editable": false,
            "fieldid": 116,
            "name": "_workTeamIdSS",
            "nullable": false,
            "type": "esriFieldTypeString"
        },
        {
            "alias": "Team ID arbeidslag infrastruktur",
            "editable": false,
            "fieldid": 117,
            "name": "_workTeamIdIS",
            "nullable": false,
            "type": "esriFieldTypeString"
        },
        {
            "alias": "Team ID arbeidslag gjødsling",
            "editable": false,
            "fieldid": 6000,
            "name": "_workTeamIdGJ",
            "nullable": false,
            "type": "esriFieldTypeString"
        },
        {
            "alias": "Team ID arbeidslag sprøyting",
            "editable": false,
            "fieldid": 6001,
            "name": "_workTeamIdSP",
            "nullable": false,
            "type": "esriFieldTypeString"
        },
        {
            "alias": "Team ID arbeidslag gravearbeid",
            "editable": false,
            "fieldid": 6002,
            "name": "_workTeamIdGA",
            "nullable": false,
            "type": "esriFieldTypeString"
        },
        {
            "alias": "Team ID arbeidslag sporskaderetting",
            "editable": false,
            "fieldid": 6003,
            "name": "_workTeamIdSR",
            "nullable": false,
            "type": "esriFieldTypeString"
        },
        {
            "alias": "Team ID arbeidslag stammekvisting",
            "editable": false,
            "fieldid": 6004,
            "name": "_workTeamIdSK",
            "nullable": false,
            "type": "esriFieldTypeString"
        },
        {
            "alias": "Plantelager",
            "editable": false,
            "fieldid": 48,
            "name": "_plantelagerGlobalId",
            "nullable": false,
            "type": "esriFieldTypeString"
        },
        {
            "alias": "Tilkoblede oppdrag (json)",
            "editable": false,
            "fieldid": 49,
            "name": "_connectedFeatures",
            "nullable": false,
            "type": "esriFieldTypeString"
        },
        {
            "alias": "Koordinator forhåndsrydding",
            "editable": false,
            "fieldid": 60,
            "name": "_SEPForhandsryddingGeom_coord",
            "nullable": false,
            "type": "esriFieldTypeString"
        },
        {
            "alias": "Koordinator grøfterensk",
            "editable": false,
            "fieldid": 61,
            "name": "_SEPGrofterenskGeom_coord",
            "nullable": false,
            "type": "esriFieldTypeString"
        },
        {
            "alias": "Koordinator markberedning",
            "editable": false,
            "fieldid": 62,
            "name": "_SEPMarkberedningGeom_coord",
            "nullable": false,
            "type": "esriFieldTypeString"
        },
        {
            "alias": "Koordinator planting",
            "editable": false,
            "fieldid": 63,
            "name": "_SEPPlantingGeom_coord",
            "nullable": false,
            "type": "esriFieldTypeString"
        },
        {
            "alias": "Koordinator ungskogpleie",
            "editable": false,
            "fieldid": 64,
            "name": "_SEPUngskogpleieGeom_coord",
            "nullable": false,
            "type": "esriFieldTypeString"
        },
        {
            "alias": "Koordinator såing",
            "editable": false,
            "fieldid": 65,
            "name": "_SEPSaaingGeom_coord",
            "nullable": false,
            "type": "esriFieldTypeString"
        },
        {
            "alias": "Koordinator infrastruktur",
            "editable": false,
            "fieldid": 66,
            "name": "_SEPInfrastrukturGeom_coord",
            "nullable": false,
            "type": "esriFieldTypeString"
        },
        {
            "alias": "Koordinator skogskade",
            "editable": false,
            "fieldid": 67,
            "name": "_SEPSkogskadeGeom_coord",
            "nullable": false,
            "type": "esriFieldTypeString"
        },
        {
            "alias": "Koordinator gjødsling",
            "editable": false,
            "fieldid": 3000,
            "name": "_SEPGjodslingGeom_coord",
            "nullable": false,
            "type": "esriFieldTypeString"
        },
        {
            "alias": "Koordinator sprøyting",
            "editable": false,
            "fieldid": 3001,
            "name": "_SEPSproytingGeom_coord",
            "nullable": false,
            "type": "esriFieldTypeString"
        },
        {
            "alias": "Koordinator gravearbeid",
            "editable": false,
            "fieldid": 3002,
            "name": "_SEPGravearbeidGeom_coord",
            "nullable": false,
            "type": "esriFieldTypeString"
        },
        {
            "alias": "Koordinator sporskaderetting",
            "editable": false,
            "fieldid": 3003,
            "name": "_SEPSporskaderettingGeom_coord",
            "nullable": false,
            "type": "esriFieldTypeString"
        },
        {
            "alias": "Koordinator stammekvisting",
            "editable": false,
            "fieldid": 3004,
            "name": "_SEPStammekvistingGeom_coord",
            "nullable": false,
            "type": "esriFieldTypeString"
        },
        {
            "alias": "Oppdragskallenavn",
            "editable": true,
            "fieldid": 50,
            "name": "nickName",
            "nullable": true,
            "section": 1,
            "translations": [
                {
                    "key": "Oppdragskallenavn",
                    "language": "en",
                    "value": "Assignment Nickname"
                }
            ],
            "type": "esriFieldTypeString"
        },
        {
            "alias": "Region",
            "domain": {
                "codedValues": [
                    {
                        "name": "Nord",
                        "value": "Nord"
                    },
                    {
                        "name": "Midt",
                        "value": "Midt"
                    },
                    {
                        "name": "Øst",
                        "value": "Øst"
                    },
                    {
                        "name": "Sørvest",
                        "value": "Sørvest"
                    }
                ],
                "type": "codedValue"
            },
            "editable": true,
            "fieldid": 52,
            "name": "region",
            "nullable": true,
            "section": 1,
            "translations": [
                {
                    "key": "Region",
                    "language": "en",
                    "value": "Region"
                }
            ],
            "type": "esriFieldTypeString"
        },
        {
            "alias": "E-post",
            "editable": true,
            "fieldid": 11,
            "name": "forestOwnerEmail",
            "nullable": false,
            "section": 2,
            "translations": [
                {
                    "key": "E-post",
                    "language": "en",
                    "value": "Email"
                }
            ],
            "type": "esriFieldTypeString"
        },
        {
            "alias": "OrgNum",
            "editable": true,
            "fieldid": 13,
            "name": "forestOwnerOrgNum",
            "nullable": false,
            "section": 2,
            "translations": [
                {
                    "key": "OrgNum",
                    "language": "en",
                    "value": "Organization Number"
                }
            ],
            "type": "esriFieldTypeString"
        },
        {
            "alias": "Navn",
            "editable": true,
            "fieldid": 14,
            "name": "forestOwnerName",
            "nullable": false,
            "section": 2,
            "translations": [
                {
                    "key": "Navn",
                    "language": "en",
                    "value": "Name"
                }
            ],
            "type": "esriFieldTypeString"
        },
        {
            "alias": "Adresse",
            "editable": true,
            "fieldid": 15,
            "name": "forestOwnerAddress",
            "nullable": false,
            "section": 2,
            "translations": [
                {
                    "key": "Adresse",
                    "language": "en",
                    "value": "Address"
                }
            ],
            "type": "esriFieldTypeString"
        },
        {
            "alias": "Postnummer",
            "editable": true,
            "fieldid": 16,
            "name": "forestOwnerZipCode",
            "nullable": false,
            "section": 2,
            "translations": [
                {
                    "key": "Postnummer",
                    "language": "en",
                    "value": "Postal Code"
                }
            ],
            "type": "esriFieldTypeString"
        },
        {
            "alias": "Sted",
            "editable": true,
            "fieldid": 17,
            "name": "forestOwnerCity",
            "nullable": false,
            "section": 2,
            "translations": [
                {
                    "key": "Sted",
                    "language": "en",
                    "value": "Place"
                }
            ],
            "type": "esriFieldTypeString"
        },
        {
            "alias": "Leverandørnummer",
            "editable": true,
            "fieldid": 26,
            "name": "levNr",
            "nullable": true,
            "section": 2,
            "translations": [
                {
                    "key": "Leverandørnummer",
                    "language": "en",
                    "value": "Supplier Number"
                }
            ],
            "type": "esriFieldTypeString"
        },
        {
            "alias": "Telefon",
            "editable": true,
            "fieldid": 30,
            "name": "forestOwnerPhone",
            "nullable": false,
            "section": 2,
            "translations": [
                {
                    "key": "Telefon",
                    "language": "en",
                    "value": "Phone"
                }
            ],
            "type": "esriFieldTypeString"
        },
        {
            "alias": "Adresse",
            "editable": true,
            "fieldid": 35,
            "name": "forestOwnerAddress2",
            "nullable": true,
            "section": 2,
            "translations": [
                {
                    "key": "Adresse",
                    "language": "en",
                    "value": "Address"
                }
            ],
            "type": "esriFieldTypeString"
        },
        {
            "alias": "E-post",
            "editable": true,
            "fieldid": 18,
            "name": "plannerEmail",
            "nullable": false,
            "section": 3,
            "translations": [
                {
                    "key": "E-post",
                    "language": "en",
                    "value": "Email"
                }
            ],
            "type": "esriFieldTypeString"
        },
        {
            "alias": "OrgNum",
            "editable": true,
            "fieldid": 19,
            "name": "plannerOrgNum",
            "nullable": false,
            "section": 3,
            "translations": [
                {
                    "key": "OrgNum",
                    "language": "en",
                    "value": "Organization Number"
                }
            ],
            "type": "esriFieldTypeString"
        },
        {
            "alias": "Navn",
            "editable": true,
            "fieldid": 20,
            "name": "plannerContactName",
            "nullable": false,
            "section": 3,
            "translations": [
                {
                    "key": "Navn",
                    "language": "en",
                    "value": "Name"
                }
            ],
            "type": "esriFieldTypeString"
        },
        {
            "alias": "Telefon",
            "editable": true,
            "fieldid": 21,
            "name": "plannerContactPhone",
            "nullable": false,
            "section": 3,
            "translations": [
                {
                    "key": "Telefon",
                    "language": "en",
                    "value": "Phone"
                }
            ],
            "type": "esriFieldTypeString"
        },
        {
            "alias": "Org navn",
            "editable": true,
            "fieldid": 29,
            "name": "plannerOrgName",
            "nullable": false,
            "section": 3,
            "translations": [
                {
                    "key": "Org navn",
                    "language": "en",
                    "value": "Organization Name"
                }
            ],
            "type": "esriFieldTypeString"
        },
        {
            "alias": "Kommune",
            "editable": true,
            "fieldid": 22,
            "name": "muniName",
            "nullable": false,
            "section": 4,
            "translations": [
                {
                    "key": "Kommune",
                    "language": "en",
                    "value": "Municipality"
                }
            ],
            "type": "esriFieldTypeString"
        },
        {
            "alias": "Kommunenummer",
            "editable": true,
            "fieldid": 23,
            "name": "muniNum",
            "nullable": false,
            "section": 4,
            "translations": [
                {
                    "key": "Kommunenummer",
                    "language": "en",
                    "value": "Municipality Number"
                }
            ],
            "type": "esriFieldTypeInteger"
        },
        {
            "alias": "Gårdsnummer",
            "editable": true,
            "fieldid": 24,
            "name": "gridNum",
            "nullable": false,
            "section": 4,
            "translations": [
                {
                    "key": "Gårdsnummer",
                    "language": "en",
                    "value": "Grid number"
                }
            ],
            "type": "esriFieldTypeInteger"
        },
        {
            "alias": "Bruksnummer",
            "editable": true,
            "fieldid": 25,
            "name": "holdingNum",
            "nullable": false,
            "section": 4,
            "translations": [
                {
                    "key": "Bruksnummer",
                    "language": "en",
                    "value": "Holding number"
                }
            ],
            "type": "esriFieldTypeInteger"
        },
        {
            "alias": "Ordrebeskrivelse",
            "editable": true,
            "fieldid": 33,
            "length": 2048,
            "name": "comment",
            "nullable": true,
            "section": 5,
            "translations": [
                {
                    "key": "Ordrebeskrivelse",
                    "language": "en",
                    "value": "Order Description"
                }
            ],
            "type": "esriFieldTypeString"
        }
    ],
    "geometryType": "esriGeometryPolygon",
    "globalIdField": "_globalId",
    "hasAttachments": false,
    "hasM": false,
    "hasZ": false,
    "htmlPopupType": "esriServerHTMLPopupTypeAsHTMLText",
    "id": 2,
    "isDataVersioned": false,
    "maxRecordCount": 100000,
    "maxScale": 0,
    "minScale": 100000,
    "name": "SEPSkogkultur",
    "objectIdField": "OBJECTID",
    "ownershipBasedAccessControlForFeatures": null,
    "relationships": [],
    "sections": [
        {
            "id": 1,
            "title": ""
        },
        {
            "id": 2,
            "title": "Skogeier"
        },
        {
            "id": 3,
            "title": "Planlegger"
        },
        {
            "id": 4,
            "title": "Eiendom"
        },
        {
            "id": 5,
            "title": "Oppdrag"
        }
    ],
    "supportedQueryFormats": "JSON, AMF",
    "supportsAdvancedQueries": true,
    "supportsRollbackOnFailureParameter": true,
    "supportsStatistics": true,
    "syncCanReturnChanges": true,
    "templates": [],
    "translations": [
        {
            "key": "Skogeier",
            "language": "en",
            "value": "Forest Owner"
        },
        {
            "key": "Planlegger",
            "language": "en",
            "value": "Planlegger"
        },
        {
            "key": "Eiendom",
            "language": "en",
            "value": "Property"
        },
        {
            "key": "Oppdrag",
            "language": "en",
            "value": "Assignment"
        }
    ],
    "type": "Feature Layer",
    "typeIdField": "_type",
    "types": [],
    "useStandardizedQueries": true
}

