{
    "allowGeometryUpdates": true,
    "capabilities": "Create,Delete,Query,Sync,Update,Uploads,Editing",
    "copyrightText": "",
    "currentVersion": 10.22,
    "defaultVisibility": true,
    "description": "",
    "displayField": "_title",
    "drawingInfo": {
        "labelingInfo": [
            {
                "labelExpression": "[_title]",
                "labelPlacement": "esriServerPolygonPlacementAlwaysHorizontal",
                "maxScale": 0,
                "minScale": 9000,
                "symbol": {
                    "angle": 0,
                    "backgroundColor": null,
                    "borderLineColor": null,
                    "borderLineSize": null,
                    "color": [
                        0,
                        0,
                        0,
                        255
                    ],
                    "font": {
                        "decoration": "none",
                        "family": "Arial",
                        "size": 9,
                        "style": "normal",
                        "weight": "normal"
                    },
                    "haloColor": [
                        255,
                        255,
                        255,
                        127
                    ],
                    "haloSize": 20,
                    "horizontalAlignment": "center",
                    "kerning": true,
                    "rightToLeft": false,
                    "type": "esriTS",
                    "verticalAlignment": "bottom",
                    "xoffset": 0,
                    "yoffset": 0
                },
                "useCodedValues": false
            }
        ],
        "renderer": {
            "defaultLabel": null,
            "defaultSymbol": null,
            "field1": "_type",
            "field2": null,
            "field3": null,
            "fieldDelimiter": ", ",
            "note to future self": "!!! HUSK AT DETTE FELTET MÅ VÆRE EDITABLE !!!",
            "type": "uniqueValue",
            "uniqueValueInfos": [
                {
                    "description": "Skogskade",
                    "label": "Skogskade",
                    "symbol": {
                        "color": [
                            0,
                            0,
                            0,
                            0
                        ],
                        "outline": {
                            "color": [
                                128,
                                0,
                                0,
                                255
                            ],
                            "style": "esriSLSDash",
                            "type": "esriSLS",
                            "width": 3
                        },
                        "style": "esriSFSSolid",
                        "type": "esriSFS"
                    },
                    "cimSymbol": {
                        "type": "CIMSymbolReference",
                        "symbol": {
                            "type": "CIMLineSymbol",
                            "symbolLayers": [
                                {
                                    "type": "CIMSolidStroke",
                                    "enable": true,
                                    "width": 3,
                                    "color": [
                                        255,
                                        255,
                                        255,
                                        255
                                    ],
                                    "capStyle": "Round",
                                    "effects": [
                                        {
                                            "type": "CIMGeometricEffectDashes",
                                            "dashTemplate": [
                                                12,
                                                12
                                            ],
                                            "lineEnding": "HalfPattern"
                                        }
                                    ]
                                },
                                {
                                    "type": "CIMSolidStroke",
                                    "enable": true,
                                    "width": 5,
                                    "color": [
                                        128,
                                        0,
                                        0,
                                        255
                                    ]
                                }
                            ]
                        }
                    },
                    "value": "Skogskade"
                },
                {
                    "description": "",
                    "label": "styleOverride",
                    "symbol": {
                        "color": [
                            0,
                            0,
                            0,
                            0
                        ],
                        "outline": {
                            "color": [
                                255,
                                255,
                                255,
                                255
                            ],
                            "style": "esriSLSSolid",
                            "type": "esriSLS",
                            "width": 3
                        },
                        "style": "esriSFSNull",
                        "type": "esriSFS"
                    },
                    "value": "styleOverride"
                }
            ]
        }
    },
    "editFieldsInfo": null,
    "extent": {
        "spatialReference": {
            "latestWkid": 25833,
            "wkid": 25833
        },
        "xmax": 500000,
        "xmin": 0,
        "ymax": 8000000,
        "ymin": 5000000
    },
    "fieldOrder": [],
    "fields": [
        {
            "alias": "GlobalId",
            "editable": false,
            "fieldid": 1,
            "name": "_globalId",
            "nullable": false,
            "type": "esriFieldTypeString"
        },
        {
            "alias": "Opprettet",
            "editable": false,
            "fieldid": 2,
            "name": "_created_Date",
            "nullable": false,
            "type": "esriFieldTypeDouble"
        },
        {
            "alias": "Opprettet av",
            "editable": false,
            "fieldid": 3,
            "name": "_createdBy",
            "nullable": false,
            "type": "esriFieldTypeString"
        },
        {
            "alias": "Endret",
            "editable": false,
            "fieldid": 4,
            "name": "_modified_Date",
            "nullable": false,
            "type": "esriFieldTypeDouble"
        },
        {
            "alias": "Endret av",
            "editable": false,
            "fieldid": 5,
            "name": "_modifiedBy",
            "nullable": false,
            "type": "esriFieldTypeString"
        },
        {
            "alias": "Type",
            "editable": false,
            "fieldid": 6,
            "name": "_type",
            "nullable": false,
            "type": "esriFieldTypeString"
        },
        {
            "alias": "Tilhørende objekt",
            "editable": false,
            "fieldid": 1000,
            "name": "_parentGlobalId",
            "nullable": false,
            "type": "esriFieldTypeString"
        },
        {
            "alias": "Tittel på tiltaket",
            "editable": false,
            "fieldid": 1001,
            "name": "_title",
            "nullable": false,
            "type": "esriFieldTypeString"
        },
        {
            "alias": "Tiltaksnummer",
            "editable": false,
            "fieldid": 1002,
            "name": "_number",
            "nullable": true,
            "type": "esriFieldTypeInteger"
        },
        {
            "alias": "Ordrenummer. Ett nummer per tiltakstype (dvs antall unike nummer er likt antall tiltakstyper i ordren)",
            "editable": false,
            "fieldid": 1003,
            "name": "_job_nr",
            "nullable": true,
            "type": "esriFieldTypeInteger"
        },
        {
            "alias": "IO",
            "editable": false,
            "fieldid": 1004,
            "name": "_headId",
            "nullable": false,
            "type": "esriFieldTypeString"
        },
        {
            "alias": "Organisasjonsnummer arbeidslag skogskade",
            "editable": false,
            "fieldid": 1005,
            "name": "_workTeamOrgNumSS",
            "nullable": false,
            "type": "esriFieldTypeString"
        },
        {
            "alias": "Bestandsnummer",
            "editable": true,
            "fieldid": 15,
            "name": "bestand",
            "nullable": true,
            "section": 1,
            "translations": [
                {
                    "key": "Bestandsnummer",
                    "language": "en",
                    "value": "Stand number"
                }
            ],
            "type": "esriFieldTypeInteger"
        },
        {
            "alias": "Teignavn",
            "editable": true,
            "fieldid": 7,
            "name": "teignavn",
            "nullable": true,
            "section": 1,
            "sortix": 16,
            "translations": [
                {
                    "key": "Teignavn",
                    "language": "en",
                    "value": "Lot name"
                }
            ],
            "type": "esriFieldTypeString"
        },
        {
            "alias": "Plannummer",
            "editable": true,
            "fieldid": 12,
            "name": "plannr",
            "nullable": true,
            "section": 1,
            "sortix": 17,
            "translations": [
                {
                    "key": "Plannummer",
                    "language": "en",
                    "value": "Plan number"
                }
            ],
            "type": "esriFieldTypeInteger"
        },
        {
            "alias": "Teignummer",
            "editable": true,
            "fieldid": 13,
            "name": "teignr",
            "nullable": true,
            "section": 1,
            "sortix": 18,
            "translations": [
                {
                    "key": "Teignummer",
                    "language": "en",
                    "value": "Lot number"
                }
            ],
            "type": "esriFieldTypeInteger"
        },
        {
            "alias": "Areal",
            "editable": false,
            "fieldid": 301,
            "name": "area",
            "nullable": true,
            "section": 1,
            "translations": [
                {
                    "key": "Areal",
                    "language": "en",
                    "value": "Area"
                }
            ],
            "type": "esriFieldTypeDouble"
        },
        {
            "alias": "Høyde over havet",
            "editable": false,
            "fieldid": 302,
            "name": "elevation",
            "nullable": true,
            "section": 1,
            "translations": [
                {
                    "key": "Høyde over havet",
                    "language": "en",
                    "value": "Height above sea level"
                }
            ],
            "type": "esriFieldTypeInteger"
        },
        {
            "alias": "Bonitet",
            "domain": {
                "codedValues": [
                    {
                        "name": "6",
                        "value": "6"
                    },
                    {
                        "name": "8",
                        "value": "8"
                    },
                    {
                        "name": "11",
                        "value": "11"
                    },
                    {
                        "name": "14",
                        "value": "14"
                    },
                    {
                        "name": "17",
                        "value": "17"
                    },
                    {
                        "name": "20",
                        "value": "20"
                    },
                    {
                        "name": "23",
                        "value": "23"
                    },
                    {
                        "name": "26 eller høyere",
                        "value": "26"
                    }
                ],
                "type": "codedValue"
            },
            "editable": true,
            "fieldid": 9,
            "name": "bonitet",
            "nullable": true,
            "section": 1,
            "sortix": 303,
            "translations": [
                {
                    "key": "Bonitet",
                    "language": "en",
                    "value": "Site quality"
                }
            ],
            "type": "esriFieldTypeString"
        },
        {
            "alias": "Planlagt utbedringsareal i daa.",
            "editable": true,
            "fieldid": 10,
            "name": "planned_area",
            "nullable": false,
            "section": 1,
            "sortix": 304,
            "translations": [
                {
                    "key": "Planlagt utbedringsareal i daa.",
                    "language": "en",
                    "value": "Planned improvement area in decares"
                }
            ],
            "type": "esriFieldTypeInteger"
        },
        {
            "alias": "Gram pr. daa",
            "editable": true,
            "fieldid": 11,
            "name": "gram_per_daa",
            "nullable": false,
            "section": 1,
            "sortix": 305,
            "translations": [
                {
                    "key": "Gram pr. daa",
                    "language": "en",
                    "value": "Grams per decare"
                }
            ],
            "type": "esriFieldTypeInteger"
        },
        {
            "alias": "Markslag",
            "domain": {
                "codedValues": [
                    {
                        "name": "Barskog",
                        "value": "Barskog"
                    },
                    {
                        "name": "Lauvskog",
                        "value": "Lauvskog"
                    },
                    {
                        "name": "Snaumark",
                        "value": "Snaumark"
                    },
                    {
                        "name": "Fulldyrket jord",
                        "value": "Fulldyrket jord"
                    },
                    {
                        "name": "Innmarksbeite",
                        "value": "Innmarksbeite"
                    },
                    {
                        "name": "Overflatedyrket jord",
                        "value": "Overflatedyrket jord"
                    },
                    {
                        "name": "Blandingsskog",
                        "value": "Blandingsskog"
                    },
                    {
                        "name": "Myr",
                        "value": "Myr"
                    }
                ],
                "type": "codedValue"
            },
            "editable": true,
            "fieldid": 14,
            "name": "markslag",
            "nullable": false,
            "section": 1,
            "sortix": 306,
            "translations": [
                {
                    "key": "Markslag",
                    "language": "en",
                    "value": "Soil type"
                }
            ],
            "type": "esriFieldTypeString"
        },
        {
            "alias": "Prismodell",
            "domain": {
                "codedValues": [
                    {
                        "name": "Per dekar",
                        "value": "Per dekar"
                    },
                    {
                        "name": "Timespris",
                        "value": "Timespris"
                    }
                ],
                "type": "codedValue"
            },
            "editable": true,
            "fieldid": 400,
            "name": "price_model",
            "nullable": false,
            "section": 1,
            "translations": [
                {
                    "key": "Prismodell",
                    "language": "en",
                    "value": "Price model"
                }
            ],
            "type": "esriFieldTypeString"
        },
        {
            "alias": "Pris",
            "editable": true,
            "fieldid": 401,
            "name": "price",
            "nullable": false,
            "section": 1,
            "translations": [
                {
                    "key": "Pris",
                    "language": "en",
                    "value": "Price"
                }
            ],
            "type": "esriFieldTypeInteger"
        },
        {
            "alias": "Tiltak skogskade",
            "domain": {
                "codedValues": [
                    {
                        "name": "Barkbillefeller",
                        "value": "Barkbillefeller"
                    },
                    {
                        "name": "Råtebehandl. Stubber",
                        "value": "Råtebehandl. Stubber"
                    },
                    {
                        "name": "Andre Tiltak",
                        "value": "Andre Tiltak"
                    }
                ],
                "type": "codedValue"
            },
            "editable": true,
            "fieldid": 200,
            "name": "tiltak_skogskade",
            "nullable": false,
            "section": 1,
            "sortix": 402,
            "translations": [
                {
                    "key": "Tiltak skogskade",
                    "language": "en",
                    "value": "Forest damage measure"
                }
            ],
            "type": "esriFieldTypeString"
        },
        {
            "alias": "Kommentar til avtale med skogeier",
            "editable": true,
            "fieldid": 55,
            "name": "forestOwnerComment",
            "nullable": true,
            "section": 2,
            "translations": [
                {
                    "key": "Kommentar til avtale med skogeier",
                    "language": "en",
                    "value": "Comment on agreement with forest owner"
                }
            ],
            "type": "esriFieldTypeString"
        }
    ],
    "geometryType": "esriGeometryPolygon",
    "globalIdField": "_globalId",
    "hasAttachments": false,
    "hasM": false,
    "hasZ": false,
    "htmlPopupType": "esriServerHTMLPopupTypeAsHTMLText",
    "id": 2,
    "isDataVersioned": false,
    "maxRecordCount": 100000,
    "maxScale": 0,
    "minScale": 100000,
    "name": "SEPSkogskadeGeom",
    "objectIdField": "OBJECTID",
    "ownershipBasedAccessControlForFeatures": null,
    "relationships": [],
    "sections": [
        {
            "id": 1,
            "title": ""
        },
        {
            "id": 2,
            "title": ""
        }
    ],
    "supportedQueryFormats": "JSON, AMF",
    "supportsAdvancedQueries": true,
    "supportsRollbackOnFailureParameter": true,
    "supportsStatistics": true,
    "syncCanReturnChanges": true,
    "templates": [],
    "type": "Feature Layer",
    "typeIdField": "_type",
    "types": [
        {
            "domains": {},
            "id": "Skogskade",
            "name": "Skogskade",
            "templates": [
                {
                    "description": "",
                    "drawingTool": "esriFeatureEditToolPolygon",
                    "name": "Skogskade",
                    "prototype": {
                        "attributes": {
                            "_type": "Skogskade"
                        }
                    }
                }
            ]
        }
    ],
    "useStandardizedQueries": true
}

