{
    "allowGeometryUpdates": true,
    "capabilities": "Create,Delete,Query,Sync,Update,Uploads,Editing",
    "copyrightText": "",
    "currentVersion": 10.22,
    "defaultVisibility": true,
    "description": "",
    "displayField": "_source",
    "drawingInfo": {
        "labelingInfo": null,
        "renderer": {
            "defaultLabel": null,
            "defaultSymbol": null,
            "field1": "_source",
            "field2": null,
            "field3": null,
            "fieldDelimiter": ", ",
            "note to future self": "!!! HUSK AT DETTE FELTET MÅ VÆRE EDITABLE !!!",
            "type": "uniqueValue",
            "uniqueValueInfos": [
                {
                    "description": "",
                    "label": "Hogstmaskin",
                    "symbol": {
                        "color": [
                            0,
                            255,
                            197,
                            255
                        ],
                        "style": "esriSLSSolid",
                        "type": "esriSLS",
                        "width": 2
                    },
                    "value": "Hogstmaskin"
                },
                {
                    "description": "",
                    "label": "Lassbærer",
                    "symbol": {
                        "color": [
                            0,
                            197,
                            255,
                            255
                        ],
                        "style": "esriSLSSolid",
                        "type": "esriSLS",
                        "width": 2
                    },
                    "value": "Lassbærer"
                },
                {
                    "description": "",
                    "label": "Planlegging",
                    "symbol": {
                        "color": [
                            165,
                            166,
                            215,
                            255
                        ],
                        "style": "esriSLSSolid",
                        "type": "esriSLS",
                        "width": 2
                    },
                    "value": "Planlegging"
                },
                {
                    "description": "",
                    "label": "Gravemaskin/markberedning",
                    "symbol": {
                        "color": [
                            255,
                            255,
                            0,
                            255
                        ],
                        "style": "esriSLSSolid",
                        "type": "esriSLS",
                        "width": 2
                    },
                    "value": "Gravemaskin/markberedning"
                },
                {
                    "description": "",
                    "label": "Gjødsling",
                    "symbol": {
                        "color": [
                            202,
                            122,
                            245,
                            255
                        ],
                        "style": "esriSLSSolid",
                        "type": "esriSLS",
                        "width": 2
                    },
                    "value": "Gjødsling"
                }
            ]
        }
    },
    "editFieldsInfo": null,
    "extent": {
        "spatialReference": {
            "latestWkid": 25833,
            "wkid": 25833
        },
        "xmax": 449391.4824999999,
        "xmin": 12479.43200000003,
        "ymax": 7182842.207400002,
        "ymin": 6487407.353700001
    },
    "fieldOrder": null,
    "fields": [
        {
            "alias": "GlobalId",
            "editable": false,
            "fieldid": 0,
            "name": "_globalId",
            "nullable": false,
            "type": "esriFieldTypeString"
        },
        {
            "alias": "Opprettet",
            "editable": false,
            "fieldid": 1,
            "name": "_created_Date",
            "nullable": false,
            "type": "esriFieldTypeDouble"
        },
        {
            "alias": "Opprettet av",
            "editable": false,
            "fieldid": 2,
            "name": "_createdBy",
            "nullable": false,
            "type": "esriFieldTypeString"
        },
        {
            "alias": "Endret",
            "editable": false,
            "fieldid": 3,
            "name": "_modified_Date",
            "nullable": false,
            "type": "esriFieldTypeDouble"
        },
        {
            "alias": "Endret av",
            "editable": false,
            "fieldid": 4,
            "name": "_modifiedBy",
            "nullable": false,
            "type": "esriFieldTypeString"
        },
        {
            "alias": "Kommentar",
            "editable": true,
            "fieldid": 5,
            "name": "comment",
            "nullable": true,
            "type": "esriFieldTypeString"
        },
        {
            "alias": "OrdreId",
            "editable": false,
            "fieldid": 6,
            "name": "_orderId",
            "nullable": false,
            "type": "esriFieldTypeString"
        },
        {
            "alias": "Kilde",
            "editable": true,
            "fieldid": 7,
            "name": "_source",
            "nullable": true,
            "type": "esriFieldTypeString"
        },
        {
            "alias": "IO head ID",
            "editable": false,
            "fieldid": 8,
            "name": "_headId",
            "nullable": true,
            "type": "esriFieldTypeString"
        },
        {
            "alias": "ServiceOrderId",
            "editable": false,
            "fieldid": 9,
            "name": "_serviceOrderId",
            "nullable": false,
            "type": "esriFieldTypeString"
        },
        {
            "alias": "Arbeidslag skogkultur",
            "editable": false,
            "fieldid": 10,
            "name": "_workTeamOrgNum",
            "nullable": true,
            "type": "esriFieldTypeString"
        },
        {
            "alias": "Tilknyttet objekt",
            "editable": false,
            "fieldid": 11,
            "name": "_parentGlobalId",
            "nullable": true,
            "type": "esriFieldTypeString"
        },
        {
            "alias": "Tilknyttet datasett",
            "editable": false,
            "fieldid": 12,
            "name": "_subCollection",
            "nullable": true,
            "type": "esriFieldTypeString"
        }
    ],
    "geometryType": "esriGeometryPolyline",
    "globalIdField": "_globalId",
    "hasAttachments": false,
    "hasM": false,
    "hasZ": false,
    "htmlPopupType": "esriServerHTMLPopupTypeAsHTMLText",
    "id": 5,
    "isDataVersioned": false,
    "maxRecordCount": 1000,
    "maxScale": 0,
    "minScale": 50000,
    "name": "TBSporlogg",
    "objectIdField": "OBJECTID",
    "ownershipBasedAccessControlForFeatures": null,
    "relationships": [],
    "sections": null,
    "supportedQueryFormats": "JSON, AMF",
    "supportsAdvancedQueries": true,
    "supportsRollbackOnFailureParameter": true,
    "supportsStatistics": true,
    "syncCanReturnChanges": true,
    "templates": [],
    "type": "Feature Layer",
    "typeIdField": "_source",
    "types": [
        {
            "domains": {},
            "id": "Hogstmaskin",
            "name": "Hogstmaskin",
            "templates": [
                {
                    "drawingTool": "esriFeatureEditToolLine",
                    "name": "Hogstmaskin",
                    "prototype": {
                        "attributes": {
                            "_source": "Hogstmaskin"
                        }
                    }
                }
            ]
        },
        {
            "domains": {},
            "id": "Lassbærer",
            "name": "Lassbærer",
            "templates": [
                {
                    "drawingTool": "esriFeatureEditToolLine",
                    "name": "Lassbærer",
                    "prototype": {
                        "attributes": {
                            "_source": "Lassbærer"
                        }
                    }
                }
            ]
        },
        {
            "domains": {},
            "id": "Planlegging",
            "name": "Planlegging",
            "templates": [
                {
                    "drawingTool": "esriFeatureEditToolLine",
                    "name": "Planlegging",
                    "prototype": {
                        "attributes": {
                            "_source": "Planlegging"
                        }
                    }
                }
            ]
        },
        {
            "domains": {},
            "id": "Gravemaskin/markberedning",
            "name": "Gravemaskin/markberedning",
            "templates": [
                {
                    "drawingTool": "esriFeatureEditToolLine",
                    "name": "Gravemaskin/markberedning",
                    "prototype": {
                        "attributes": {
                            "_source": "Gravemaskin/markberedning"
                        }
                    }
                }
            ]
        },
        {
            "domains": {},
            "id": "Gjødsling",
            "name": "Gjødsling",
            "templates": [
                {
                    "drawingTool": "esriFeatureEditToolLine",
                    "name": "Gjødsling",
                    "prototype": {
                        "attributes": {
                            "_source": "Gjødsling"
                        }
                    }
                }
            ]
        }
    ],
    "useStandardizedQueries": true
}

